speaker,sentence,move_id,label,jaccard_sim_char_1_1,jaccard_sim_char_2_2,jaccard_sim_char_3_3,jaccard_sim_word_1_1,jaccard_sim_word_2_2,jaccard_sim_word_3_3
giver,okay,"['q1ec3.g.move.1', 'q1ec3.g.move.3.5']",['ready'],,,,,,
follower,okay yeah,['q1ec3.f.move.3'],['acknowledge'],0.5714285714285714,0.375,0.2857142857142857,0.5,0.0,0.0
giver,right,['q1ec3.g.move.4'],['align'],0.09090909090909091,0.0,0.0,0.0,0.0,0.0
follower,so that's with the diamond mine on your right,['q1ec3.f.move.7'],['query_yn'],0.29411764705882354,0.10256410256410256,0.07142857142857142,0.1111111111111111,0.0,0.0
giver,that's that's correct uh-huh,"['q1ec3.g.move.8', 'q1ec3.g.move.9', 'q1ec3.g.move.10.5']","['reply_y', 'instruct']",0.5263157894736842,0.1346153846153846,0.10526315789473684,0.08333333333333333,0.0,0.0
follower,mmhmm,"['q1ec3.f.move.10', 'q1ec3.f.move.11.5']",['acknowledge'],0.07692307692307693,0.0,0.0,0.0,0.0,0.0
giver,and below the graveyard below the graveyard but above the carved wooden pole,"['q1ec3.g.move.11', 'q1ec3.g.move.12.5']",['instruct'],0.05263157894736842,0.0,0.0,0.0,0.0,0.0
follower,oh hang on i don't have a graveyard,"['q1ec3.f.move.12', 'q1ec3.f.move.15.5']",['explain'],0.6,0.23728813559322035,0.125,0.07142857142857142,0.0,0.0
giver,okay,"['q1ec3.g.move.13', 'q1ec3.g.move.16.5']",['ready'],0.2,0.0,0.0,0.0,0.0,0.0
follower,fast running creek,"['q1ec3.f.move.16', 'q1ec3.f.move.17.5']",['reply_w'],0.13333333333333333,0.0,0.0,0.0,0.0,0.0
giver,ehm mm don't know yeah it could be could be,"['q1ec3.g.move.17', 'q1ec3.g.move.18.5']",['explain'],0.4090909090909091,0.0425531914893617,0.0,0.0,0.0,0.0
follower,is that to the right that'll be to my right to my right,"['q1ec3.f.move.18', 'q1ec3.f.move.21.5']",['query_yn'],0.5714285714285714,0.09615384615384616,0.03225806451612903,0.06666666666666667,0.0,0.0
giver,to your,"['q1ec3.g.move.19', 'q1ec3.g.move.23.5']",['check'],0.3125,0.06896551724137931,0.029411764705882353,0.1111111111111111,0.0,0.0
follower,right,"['q1ec3.f.move.22', 'q1ec3.f.move.25.5']",['ready'],0.2222222222222222,0.0,0.0,0.0,0.0,0.0
giver,no,"['q1ec3.g.move.24', 'q1ec3.g.move.26.5']",['reply_n'],0.0,0.0,0.0,0.0,0.0,0.0
follower,i don't have a fast flowing river,"['q1ec3.f.move.26', 'q1ec3.f.move.27.5']",['explain'],0.11764705882352941,0.0,0.0,0.0,0.0,0.0
giver,you have a fast flowing creek,"['q1ec3.g.move.27', 'q1ec3.g.move.29.5']",['check'],0.7142857142857143,0.5135135135135135,0.48717948717948717,0.42857142857142855,0.3333333333333333,0.2
follower,i've a fast flowing running creek,"['q1ec3.f.move.28', 'q1ec3.f.move.30.5']",['reply_y'],0.85,0.6176470588235294,0.6,0.42857142857142855,0.14285714285714285,0.0
giver,mmhmm,"['q1ec3.g.move.30', 'q1ec3.g.move.31.5']",['acknowledge'],0.0,0.0,0.0,0.0,0.0,0.0
follower,so you have,['q1ec3.f.move.31'],['check'],0.1,0.0,0.0,0.0,0.0,0.0
giver,well,"['q1ec3.g.move.32', 'q1ec3.g.move.34.5']",['ready'],0.09090909090909091,0.0,0.0,0.0,0.0,0.0
follower,yeah got an apache camp,"['q1ec3.f.move.34', 'q1ec3.f.move.35.5']",['reply_y'],0.07142857142857142,0.0,0.0,0.0,0.0,0.0
giver,okay,"['q1ec3.g.move.35', 'q1ec3.g.move.36.5']",['acknowledge'],0.23076923076923078,0.0,0.0,0.0,0.0,0.0
follower,but that's like at forty-five degrees south east,['q1ec3.f.move.36'],['explain'],0.2,0.0,0.0,0.0,0.0,0.0
giver,right,['q1ec3.g.move.37'],['acknowledge'],0.25,0.0,0.0,0.0,0.0,0.0
follower,right,['q1ec3.f.move.40'],['acknowledge'],1.0,1.0,1.0,1.0,0.0,0.0
giver,do you have a graveyard,"['q1ec3.g.move.41', 'q1ec3.g.move.42.5']",['query_yn'],0.23076923076923078,0.0,0.0,0.0,0.0,0.0
follower,no no graveyard,"['q1ec3.f.move.42', 'q1ec3.f.move.43.5']",['reply_n'],0.75,0.45454545454545453,0.3333333333333333,0.2,0.0,0.0
giver,don't have a graveyard,"['q1ec3.g.move.43', 'q1ec3.g.move.44.5']",['check'],0.7692307692307693,0.4090909090909091,0.34782608695652173,0.25,0.0,0.0
follower,no,"['q1ec3.f.move.44', 'q1ec3.f.move.45.5']",['reply_n'],0.15384615384615385,0.0,0.0,0.0,0.0,0.0
giver,do you have a desert,"['q1ec3.g.move.45', 'q1ec3.g.move.47.5']",['query_yn'],0.07692307692307693,0.0,0.0,0.0,0.0,0.0
follower,yes got a desert,"['q1ec3.f.move.46', 'q1ec3.f.move.48.5']",['reply_y'],0.6923076923076923,0.32,0.28,0.16666666666666666,0.0,0.0
giver,no don't go don't go any further than the desert don't go onto the desert,"['q1ec3.g.move.48', 'q1ec3.g.move.50.5']",['instruct'],0.6666666666666666,0.2777777777777778,0.11764705882352941,0.09090909090909091,0.0,0.0
follower,okay,"['q1ec3.f.move.49', 'q1ec3.f.move.53.5']",['acknowledge'],0.1875,0.0,0.0,0.0,0.0,0.0
giver,right,"['q1ec3.g.move.51', 'q1ec3.g.move.53']","['align', 'reply_y']",0.0,0.0,0.0,0.0,0.0,0.0
follower,right okay,['q1ec3.f.move.54'],['acknowledge'],0.5,0.4444444444444444,0.375,0.5,0.0,0.0
giver,and then go to your right,"['q1ec3.g.move.55', 'q1ec3.g.move.56.5']",['instruct'],0.6428571428571429,0.14814814814814814,0.10714285714285714,0.14285714285714285,0.0,0.0
follower,my right right okay,"['q1ec3.f.move.56', 'q1ec3.f.move.57.5']",['acknowledge'],0.6,0.1724137931034483,0.12903225806451613,0.125,0.0,0.0
giver,you've got neither a graveyard nor a fast flowing river,"['q1ec3.g.move.57', 'q1ec3.g.move.58.5']",['check'],0.42857142857142855,0.05660377358490566,0.016129032258064516,0.0,0.0,0.0
follower,i've got a fast running creek,"['q1ec3.f.move.58', 'q1ec3.f.move.60.5']",['reply_w'],0.6666666666666666,0.3148148148148148,0.21875,0.2727272727272727,0.09090909090909091,0.0
giver,okay right you've got a fast flowing fast running creek,"['q1ec3.g.move.59', 'q1ec3.g.move.61.5']",['acknowledge'],0.8,0.6046511627906976,0.5416666666666666,0.5555555555555556,0.4444444444444444,0.2222222222222222
follower,how unlucky,"['q1ec3.f.move.61', 'q1ec3.f.move.62.5']",['acknowledge'],0.5,0.04,0.0,0.0,0.0,0.0
giver,so ehm ehm i'm kind stuck,['q1ec3.g.move.62'],['explain'],0.4117647058823529,0.07407407407407407,0.03571428571428571,0.0,0.0,0.0
follower,can i just go straight to the saloon bar,"['q1ec3.f.move.63', 'q1ec3.f.move.65.5']",['query_yn'],0.5,0.08333333333333333,0.017543859649122806,0.0,0.0,0.0
giver,erm mark no just wait,"['q1ec3.g.move.64', 'q1ec3.g.move.66.5']",['reply_n'],0.5789473684210527,0.17777777777777778,0.07547169811320754,0.08333333333333333,0.0,0.0
follower,right okay,['q1ec3.f.move.66'],['acknowledge'],0.4117647058823529,0.03571428571428571,0.0,0.0,0.0,0.0
giver,erm,"['q1ec3.g.move.67', 'q1ec3.g.move.69.5']",['uncodable'],0.08333333333333333,0.0,0.0,0.0,0.0,0.0
follower,yes,"['q1ec3.f.move.69', 'q1ec3.f.move.70.5']",['acknowledge'],0.2,0.0,0.0,0.0,0.0,0.0
giver,so they must be linked somehow,"['q1ec3.g.move.70', 'q1ec3.g.move.72.5']",['explain'],0.1875,0.0,0.0,0.0,0.0,0.0
follower,yeah,"['q1ec3.f.move.71', 'q1ec3.f.move.73.5']",['acknowledge'],0.17647058823529413,0.0,0.0,0.0,0.0,0.0
giver,so do you want to just go along to your right,['q1ec3.g.move.73'],['instruct'],0.17647058823529413,0.0,0.0,0.0,0.0,0.0
follower,okay,['q1ec3.f.move.74'],['acknowledge'],0.17647058823529413,0.0,0.0,0.0,0.0,0.0
giver,and then go up and over the top of where the creek is,"['q1ec3.g.move.75', 'q1ec3.g.move.76.5']",['instruct'],0.15,0.0,0.0,0.0,0.0,0.0
follower,right okay,['q1ec3.f.move.76'],['acknowledge'],0.45,0.023255813953488372,0.0,0.0,0.0,0.0
giver,and then down south again,"['q1ec3.g.move.77', 'q1ec3.g.move.78.5']",['instruct'],0.4375,0.0,0.0,0.0,0.0,0.0
follower,okay,"['q1ec3.f.move.78', 'q1ec3.f.move.79.5']",['acknowledge'],0.13333333333333333,0.0,0.0,0.0,0.0,0.0
giver,down south again until just above the apache camp,['q1ec3.g.move.79'],['instruct'],0.09090909090909091,0.0,0.0,0.0,0.0,0.0
follower,right okay,['q1ec3.f.move.80'],['acknowledge'],0.30434782608695654,0.02040816326530612,0.0,0.0,0.0,0.0
giver,and pass that by go to your sou-- southwest of the apache camp,"['q1ec3.g.move.81', 'q1ec3.g.move.82.5']",['instruct'],0.36363636363636365,0.03636363636363636,0.015873015873015872,0.0,0.0,0.0
follower,passing above it,"['q1ec3.f.move.82', 'q1ec3.f.move.83.5']",['check'],0.45454545454545453,0.08620689655172414,0.029411764705882353,0.0,0.0,0.0
giver,uh-huh,"['q1ec3.g.move.83', 'q1ec3.g.move.84.5']",['reply_y'],0.0,0.0,0.0,0.0,0.0,0.0
follower,but to the southwest,"['q1ec3.f.move.84', 'q1ec3.f.move.85.5']",['check'],0.2,0.0,0.0,0.0,0.0,0.0
giver,uh-huh,"['q1ec3.g.move.85', 'q1ec3.g.move.86.5']",['reply_y'],0.2,0.0,0.0,0.0,0.0,0.0
follower,okay,"['q1ec3.f.move.86', 'q1ec3.f.move.88.5']",['acknowledge'],0.0,0.0,0.0,0.0,0.0,0.0
giver,right take the southwest direction,"['q1ec3.g.move.87', 'q1ec3.g.move.88']","['ready', 'clarify']",0.17647058823529413,0.0,0.0,0.0,0.0,0.0
follower,passing above it right,['q1ec3.f.move.89'],['acknowledge'],0.5789473684210527,0.13636363636363635,0.061224489795918366,0.125,0.0,0.0
giver,now do you have a walled city,"['q1ec3.g.move.90', 'q1ec3.g.move.91']","['ready', 'query_yn']",0.45,0.08888888888888889,0.021739130434782608,0.0,0.0,0.0
follower,yes,['q1ec3.f.move.92'],['reply_y'],0.125,0.0,0.0,0.0,0.0,0.0
giver,and do you have a desert,['q1ec3.g.move.93'],['query_yn'],0.23076923076923078,0.043478260869565216,0.0,0.0,0.0,0.0
follower,yes,['q1ec3.f.move.94'],['reply_y'],0.23076923076923078,0.043478260869565216,0.0,0.0,0.0,0.0
giver,well,"['q1ec3.g.move.95', 'q1ec3.g.move.97.5']",['ready'],0.2,0.0,0.0,0.0,0.0,0.0
follower,between them,"['q1ec3.f.move.97', 'q1ec3.f.move.99.5']",['check'],0.2222222222222222,0.07692307692307693,0.0,0.0,0.0,0.0
giver,uh-huh,"['q1ec3.g.move.98', 'q1ec3.g.move.101.5']",['reply_y'],0.1,0.0,0.0,0.0,0.0,0.0
follower,right okay,['q1ec3.f.move.100'],['acknowledge'],0.08333333333333333,0.0,0.0,0.0,0.0,0.0
giver,okay,"['q1ec3.g.move.101.7', 'q1ec3.g.move.101.8']",['acknowledge'],0.4,0.3333333333333333,0.25,0.5,0.0,0.0
follower,but i'm that's not in a straight line,"['q1ec3.f.move.101', 'q1ec3.f.move.103.5']",['explain'],0.1111111111111111,0.0,0.0,0.0,0.0,0.0
giver,oh that's fair enough,"['q1ec3.g.move.102', 'q1ec3.g.move.104.5']",['acknowledge'],0.7647058823529411,0.23809523809523808,0.1276595744680851,0.1111111111111111,0.0,0.0
follower,right okay right okay,"['q1ec3.f.move.104', 'q1ec3.f.move.105.5']",['acknowledge'],0.5,0.03333333333333333,0.0,0.0,0.0,0.0
giver,right,['q1ec3.g.move.105'],['align'],0.5,0.36363636363636365,0.2727272727272727,0.5,0.0,0.0
follower,right,['q1ec3.f.move.106'],['reply_y'],1.0,1.0,1.0,1.0,0.0,0.0
giver,and then,"['q1ec3.g.move.107', 'q1ec3.g.move.108.5']",['ready'],0.2,0.0,0.0,0.0,0.0,0.0
follower,okay i'm between,"['q1ec3.f.move.108', 'q1ec3.f.move.109.5']",['explain'],0.3333333333333333,0.047619047619047616,0.0,0.0,0.0,0.0
giver,continue south,"['q1ec3.g.move.109', 'q1ec3.g.move.110.5']",['instruct'],0.35294117647058826,0.0,0.0,0.0,0.0,0.0
follower,okay,['q1ec3.f.move.110'],['acknowledge'],0.07692307692307693,0.0,0.0,0.0,0.0,0.0
giver,right until,"['q1ec3.g.move.111', 'q1ec3.g.move.112']","['align', 'instruct']",0.0,0.0,0.0,0.0,0.0,0.0
follower,yes,"['q1ec3.f.move.114', 'q1ec3.f.move.115.5']",['reply_y'],0.0,0.0,0.0,0.0,0.0,0.0
giver,a totem pole sort c-- thing,"['q1ec3.g.move.115', 'q1ec3.g.move.116.5']",['check'],0.11764705882352941,0.0,0.0,0.0,0.0,0.0
follower,yes uh-huh,['q1ec3.f.move.116'],['reply_y'],0.2777777777777778,0.0,0.0,0.0,0.0,0.0
giver,right,['q1ec3.g.move.117'],['ready'],0.09090909090909091,0.0,0.0,0.0,0.0,0.0
follower,but right at the very bottom,['q1ec3.f.move.118'],['explain'],0.35714285714285715,0.16,0.11538461538461539,0.16666666666666666,0.0,0.0
giver,well okay,['q1ec3.g.move.119'],['acknowledge'],0.29411764705882354,0.0,0.0,0.0,0.0,0.0
giver,do you have any flat rocks,"['q1ec3.g.move.119.5', 'q1ec3.g.move.120']",['query_yn'],0.3888888888888889,0.0,0.0,0.0,0.0,0.0
follower,yes uh-huh,['q1ec3.f.move.121'],['reply_y'],0.3333333333333333,0.0,0.0,0.0,0.0,0.0
giver,ch-- do you have a stone creek in that area,"['q1ec3.g.move.122', 'q1ec3.g.move.123.5']",['query_yn'],0.4117647058823529,0.022222222222222223,0.0,0.0,0.0,0.0
follower,yes,['q1ec3.f.move.123'],['reply_y'],0.17647058823529413,0.0,0.0,0.0,0.0,0.0
giver,right,['q1ec3.g.move.124'],['acknowledge'],0.0,0.0,0.0,0.0,0.0,0.0
follower,they're all on a diagonal,"['q1ec3.f.move.125', 'q1ec3.f.move.126.5']",['explain'],0.35714285714285715,0.0,0.0,0.0,0.0,0.0
giver,right okay,['q1ec3.g.move.126'],['acknowledge'],0.6,0.034482758620689655,0.0,0.0,0.0,0.0
follower,carved wooden pole stone creek flat rocks,['q1ec3.f.move.127'],['explain'],0.3,0.02127659574468085,0.0,0.0,0.0,0.0
giver,right okay right,"['q1ec3.g.move.128', 'q1ec3.g.move.130.5']",['ready'],0.3,0.041666666666666664,0.0,0.0,0.0,0.0
follower,right,"['q1ec3.f.move.130', 'q1ec3.f.move.133.5']",['acknowledge'],0.5,0.36363636363636365,0.2727272727272727,0.5,0.0,0.0
giver,and you follow a sort curve ehm,"['q1ec3.g.move.131', 'q1ec3.g.move.134.5']",['instruct'],0.15,0.0,0.0,0.0,0.0,0.0
follower,"an ""s""","['q1ec3.f.move.134', 'q1ec3.f.move.137.5']",['explain'],0.21052631578947367,0.029411764705882353,0.0,0.0,0.0,0.0
giver,"sort ""c"" shape to cover the bottom of a ""c""","['q1ec3.g.move.135', 'q1ec3.g.move.138.5']",['instruct'],0.25,0.025,0.0,0.0,0.0,0.0
follower,right i right wait,"['q1ec3.f.move.138', 'q1ec3.f.move.139.5']",['acknowledge'],0.2777777777777778,0.02127659574468085,0.0,0.0,0.0,0.0
giver,"go in a ""c""-shaped curve","['q1ec3.g.move.139', 'q1ec3.g.move.140.5']",['instruct'],0.3157894736842105,0.029411764705882353,0.0,0.0,0.0,0.0
follower,right from,['q1ec3.f.move.140'],['check'],0.3,0.0,0.0,0.0,0.0,0.0
giver,right you pass in a pass,"['q1ec3.g.move.141', 'q1ec3.g.move.144']","['align', 'instruct']",0.4666666666666667,0.21739130434782608,0.17391304347826086,0.2,0.0,0.0
follower,right,"['q1ec3.f.move.145', 'q1ec3.f.move.148.5']",['acknowledge'],0.38461538461538464,0.21052631578947367,0.15789473684210525,0.25,0.0,0.0
giver,oh you're at the walled city,"['q1ec3.g.move.148', 'q1ec3.g.move.149.5']",['acknowledge'],0.25,0.0,0.0,0.0,0.0,0.0
follower,right,"['q1ec3.f.move.149', 'q1ec3.f.move.150.5']",['acknowledge'],0.25,0.0,0.0,0.0,0.0,0.0
giver,you're just above it have you come down,"['q1ec3.g.move.150', 'q1ec3.g.move.152.5']",['align'],0.19047619047619047,0.0,0.0,0.0,0.0,0.0
follower,i'm just i'm just come down,"['q1ec3.f.move.151', 'q1ec3.f.move.153.5']",['reply_w'],0.7,0.4411764705882353,0.2926829268292683,0.375,0.1,0.0
giver,uh-huh,"['q1ec3.g.move.153', 'q1ec3.g.move.154.5']",['acknowledge'],0.0625,0.0,0.0,0.0,0.0,0.0
follower,so i'm still at the parallel with the base,"['q1ec3.f.move.154', 'q1ec3.f.move.155.5']",['reply_w'],0.058823529411764705,0.0,0.0,0.0,0.0,0.0
giver,right,"['q1ec3.g.move.155', 'q1ec3.g.move.156.5']",['acknowledge'],0.25,0.0,0.0,0.0,0.0,0.0
follower,right,"['q1ec3.f.move.156', 'q1ec3.f.move.157.5']",['align'],1.0,1.0,1.0,1.0,0.0,0.0
giver,right,"['q1ec3.g.move.157', 'q1ec3.g.move.158.5']",['reply_y'],1.0,1.0,1.0,1.0,0.0,0.0
follower,the carved wooden pole is right at my bot-- right at the bottom i've got a ghost town in the walled city and,"['q1ec3.f.move.158', 'q1ec3.f.move.159.5']",['explain'],0.22727272727272727,0.06153846153846154,0.03409090909090909,0.05555555555555555,0.0,0.0
giver,between the walled city and what,"['q1ec3.g.move.159', 'q1ec3.g.move.161.5']",['query_w'],0.5909090909090909,0.3055555555555556,0.21649484536082475,0.2,0.13636363636363635,0.09090909090909091
follower,the carved wooden pole,"['q1ec3.f.move.160', 'q1ec3.f.move.165.5']",['reply_w'],0.5882352941176471,0.25,0.1111111111111111,0.1111111111111111,0.0,0.0
giver,right,"['q1ec3.g.move.162', 'q1ec3.g.move.166.5']",['acknowledge'],0.1875,0.0,0.0,0.0,0.0,0.0
follower,yes,"['q1ec3.f.move.166', 'q1ec3.f.move.167.5']",['reply_y'],0.0,0.0,0.0,0.0,0.0,0.0
giver,in line with the ghost town,"['q1ec3.g.move.167', 'q1ec3.g.move.168.5']",['query_yn'],0.16666666666666666,0.0,0.0,0.0,0.0,0.0
giver,right then,"['q1ec3.g.move.169', 'q1ec3.g.move.173.5']",['ready'],0.5833333333333334,0.19230769230769232,0.1,0.0,0.0,0.0
follower,right okay,"['q1ec3.f.move.173', 'q1ec3.f.move.174.5']",['acknowledge'],0.5,0.38461538461538464,0.3333333333333333,0.3333333333333333,0.0,0.0
giver,but above the carved wooden pole and above the stone creek,"['q1ec3.g.move.174', 'q1ec3.g.move.175.5']",['instruct'],0.3333333333333333,0.020833333333333332,0.0,0.0,0.0,0.0
follower,right okay,"['q1ec3.f.move.175', 'q1ec3.f.move.177.5']",['acknowledge'],0.3333333333333333,0.020833333333333332,0.0,0.0,0.0,0.0
giver,right,"['q1ec3.g.move.176', 'q1ec3.g.move.178.5']",['align'],0.5,0.4444444444444444,0.375,0.5,0.0,0.0
follower,so between the ghost town and sort like a forty-five degree line or something,"['q1ec3.f.move.178', 'q1ec3.f.move.180.5']",['check'],0.23809523809523808,0.01694915254237288,0.0,0.0,0.0,0.0
giver,yeah,"['q1ec3.g.move.179', 'q1ec3.g.move.182.5']",['reply_y'],0.19047619047619047,0.0,0.0,0.0,0.0,0.0
follower,right,"['q1ec3.f.move.181', 'q1ec3.f.move.184.5']",['ready'],0.125,0.0,0.0,0.0,0.0,0.0
giver,no,"['q1ec3.g.move.183', 'q1ec3.g.move.186.5']",['reply_n'],0.0,0.0,0.0,0.0,0.0,0.0
follower,right,"['q1ec3.f.move.185', 'q1ec3.f.move.188.5']",['ready'],0.0,0.0,0.0,0.0,0.0,0.0
giver,uh-huh,"['q1ec3.g.move.187', 'q1ec3.g.move.191.5']",['reply_y'],0.14285714285714285,0.0,0.0,0.0,0.0,0.0
follower,right okay so i'm passing above the stone creek and i'm going up to above the flat rocks,"['q1ec3.f.move.189', 'q1ec3.f.move.193.5']",['check'],0.08333333333333333,0.0,0.0,0.0,0.0,0.0
giver,no,"['q1ec3.g.move.192', 'q1ec3.g.move.194.5']",['reply_n'],0.08695652173913043,0.0,0.0,0.0,0.0,0.0
follower,right okay right i know what you mean right,"['q1ec3.f.move.194', 'q1ec3.f.move.194.1']",['acknowledge'],0.13333333333333333,0.03225806451612903,0.0,0.0,0.0,0.0
giver,you got p-- you've got to pass below the flat rocks,"['q1ec3.g.move.195', 'q1ec3.g.move.196.5']",['clarify'],0.5,0.14516129032258066,0.0684931506849315,0.07142857142857142,0.0,0.0
follower,okay,"['q1ec3.f.move.196', 'q1ec3.f.move.198.5']",['acknowledge'],0.19047619047619047,0.0,0.0,0.0,0.0,0.0
giver,right,"['q1ec3.g.move.197', 'q1ec3.g.move.199.5']",['ready'],0.0,0.0,0.0,0.0,0.0,0.0
follower,right okay i'm below the flat rocks,"['q1ec3.f.move.199', 'q1ec3.f.move.200.5']",['acknowledge'],0.2631578947368421,0.12121212121212122,0.09090909090909091,0.16666666666666666,0.0,0.0
giver,right below the flat rocks,['q1ec3.g.move.200'],['acknowledge'],0.8421052631578947,0.7272727272727273,0.6764705882352942,0.8333333333333334,0.5,0.4
follower,yeah,['q1ec3.f.move.201'],['acknowledge'],0.17647058823529413,0.0,0.0,0.0,0.0,0.0
giver,okay,"['q1ec3.g.move.202', 'q1ec3.g.move.206.5']",['ready'],0.3333333333333333,0.0,0.0,0.0,0.0,0.0
follower,pas-- yeah got a saloon bar as well above that though,"['q1ec3.f.move.205', 'q1ec3.f.move.206']","['reply_y', 'explain']",0.15789473684210525,0.0,0.0,0.0,0.0,0.0
giver,no you're not going into a saloon bar mark,"['q1ec3.g.move.207', 'q1ec3.g.move.208.5']",['instruct'],0.5909090909090909,0.31746031746031744,0.18421052631578946,0.11764705882352941,0.0625,0.0
follower,right i know,"['q1ec3.f.move.208', 'q1ec3.f.move.209.5']",['acknowledge'],0.42105263157894735,0.06666666666666667,0.0,0.0,0.0,0.0
giver,right,"['q1ec3.g.move.209', 'q1ec3.g.move.212.5']",['acknowledge'],0.5,0.36363636363636365,0.3,0.5,0.0,0.0
follower,not just now right okay,"['q1ec3.f.move.210', 'q1ec3.f.move.211', 'q1ec3.f.move.215.5']","['acknowledge', 'ready']",0.3333333333333333,0.21052631578947367,0.14285714285714285,0.2,0.0,0.0
giver,right,"['q1ec3.g.move.213', 'q1ec3.g.move.217.5']",['ready'],0.3333333333333333,0.21052631578947367,0.14285714285714285,0.2,0.0,0.0
follower,right,"['q1ec3.f.move.216', 'q1ec3.f.move.219.5']",['acknowledge'],1.0,1.0,1.0,1.0,0.0,0.0
giver,and then just in a s-- sort of virtual straight line past the bar mark okay,"['q1ec3.g.move.218', 'q1ec3.g.move.219']","['instruct', 'align']",0.21739130434782608,0.05084745762711865,0.028169014084507043,0.0,0.0,0.0
follower,right okay right,"['q1ec3.f.move.220', 'q1ec3.f.move.222']","['reply_y', 'acknowledge']",0.43478260869565216,0.13114754098360656,0.0945945945945946,0.06666666666666667,0.0,0.0
giver,and and do you have a cattle ranch,"['q1ec3.g.move.221', 'q1ec3.g.move.222.5']",['query_yn'],0.4117647058823529,0.02702702702702703,0.0,0.0,0.0,0.0
follower,no,"['q1ec3.f.move.222.2', 'q1ec3.f.move.223.5']",['reply_n'],0.14285714285714285,0.0,0.0,0.0,0.0,0.0
giver,okay erm,['q1ec3.g.move.223'],['acknowledge'],0.1111111111111111,0.0,0.0,0.0,0.0,0.0
follower,no,['q1ec3.f.move.224'],['reply_n'],0.1111111111111111,0.0,0.0,0.0,0.0,0.0
giver,do you have a fort,"['q1ec3.g.move.225', 'q1ec3.g.move.226.5']",['query_yn'],0.07692307692307693,0.0,0.0,0.0,0.0,0.0
follower,yes,['q1ec3.f.move.226'],['reply_y'],0.15384615384615385,0.0,0.0,0.0,0.0,0.0
giver,right,['q1ec3.g.move.227'],['acknowledge'],0.0,0.0,0.0,0.0,0.0,0.0
follower,mmhmm,"['q1ec3.f.move.230', 'q1ec3.f.move.233.5']",['acknowledge'],0.16666666666666666,0.0,0.0,0.0,0.0,0.0
giver,above the right below the buffalo below the buffalo right,"['q1ec3.g.move.232', 'q1ec3.g.move.235.5']",['reply_y'],0.0625,0.0,0.0,0.0,0.0,0.0
follower,below the buffalo right,"['q1ec3.f.move.234', 'q1ec3.f.move.236.5']",['acknowledge'],0.9333333333333333,0.8076923076923077,0.6774193548387096,0.8,0.42857142857142855,0.2857142857142857
giver,that's right turn to your left,"['q1ec3.g.move.236', 'q1ec3.g.move.237.5']",['reply_y'],0.6666666666666666,0.2,0.08888888888888889,0.1111111111111111,0.0,0.0
follower,below the buffalo,"['q1ec3.f.move.237', 'q1ec3.f.move.237.1']",['acknowledge'],0.5,0.05,0.0,0.0,0.0,0.0
giver,below the buffalo,"['q1ec3.g.move.238', 'q1ec3.g.move.239.5']",['acknowledge'],1.0,1.0,1.0,1.0,1.0,1.0
follower,right,['q1ec3.f.move.239'],['acknowledge'],0.14285714285714285,0.0,0.0,0.0,0.0,0.0
giver,right,['q1ec3.g.move.240'],['align'],1.0,1.0,1.0,1.0,0.0,0.0
follower,okay,"['q1ec3.f.move.242', 'q1ec3.f.move.247.5']",['acknowledge'],0.0,0.0,0.0,0.0,0.0,0.0
giver,no don't pass straight across right,"['q1ec3.g.move.245', 'q1ec3.g.move.249.5']",['reply_n'],0.125,0.0,0.0,0.0,0.0,0.0
follower,right,"['q1ec3.f.move.248', 'q1ec3.f.move.250.5']",['ready'],0.35714285714285715,0.14285714285714285,0.1,0.16666666666666666,0.0,0.0
giver,that's right,"['q1ec3.g.move.250', 'q1ec3.g.move.252.5']",['reply_y'],0.5555555555555556,0.36363636363636365,0.3,0.5,0.0,0.0
follower,right,"['q1ec3.f.move.251', 'q1ec3.f.move.255.5']",['ready'],0.5555555555555556,0.36363636363636365,0.3,0.5,0.0,0.0
giver,so,"['q1ec3.g.move.253', 'q1ec3.g.move.256.5']",['uncodable'],0.0,0.0,0.0,0.0,0.0,0.0
follower,and then to the along to the fort,"['q1ec3.f.move.256', 'q1ec3.f.move.258.5']",['check'],0.07692307692307693,0.0,0.0,0.0,0.0,0.0
giver,then down,"['q1ec3.g.move.257', 'q1ec3.g.move.259.5']",['clarify'],0.5384615384615384,0.16,0.1111111111111111,0.14285714285714285,0.0,0.0
follower,right hang on hang on right right,"['q1ec3.f.move.259', 'q1ec3.f.move.260.5']",['acknowledge'],0.4166666666666667,0.047619047619047616,0.0,0.0,0.0,0.0
giver,and,"['q1ec3.g.move.260', 'q1ec3.g.move.260.3']",['uncodable'],0.2,0.06666666666666667,0.0,0.0,0.0,0.0
follower,"i'm doing my ""u"" now right","['q1ec3.f.move.261', 'q1ec3.f.move.263.5']",['explain'],0.125,0.0,0.0,0.0,0.0,0.0
giver,right,"['q1ec3.g.move.260.4', 'q1ec3.g.move.266.5']",['acknowledge'],0.3333333333333333,0.16,0.125,0.25,0.0,0.0
follower,right,"['q1ec3.f.move.264', 'q1ec3.f.move.267.5']",['acknowledge'],1.0,1.0,1.0,1.0,0.0,0.0
giver,mmhmm over the cattle ranch right,"['q1ec3.g.move.267', 'q1ec3.g.move.269.5']",['align'],0.35714285714285715,0.13793103448275862,0.0967741935483871,0.16666666666666666,0.0,0.0
follower,right,"['q1ec3.f.move.268', 'q1ec3.f.move.270.5']",['reply_y'],0.35714285714285715,0.13793103448275862,0.0967741935483871,0.16666666666666666,0.0,0.0
giver,and then da-- travel south and then,"['q1ec3.g.move.270', 'q1ec3.g.move.271.5']",['clarify'],0.1875,0.0,0.0,0.0,0.0,0.0
follower,before i reach the fort or on the other side,"['q1ec3.f.move.271', 'q1ec3.f.move.272.5']",['check'],0.5555555555555556,0.125,0.03225806451612903,0.0,0.0,0.0
giver,before you reach the fort,['q1ec3.g.move.272'],['clarify'],0.625,0.48484848484848486,0.40476190476190477,0.4444444444444444,0.2,0.1111111111111111
follower,right,"['q1ec3.f.move.273', 'q1ec3.f.move.274.5']",['acknowledge'],0.21428571428571427,0.0,0.0,0.0,0.0,0.0
giver,before you reach the fort,"['q1ec3.g.move.274', 'q1ec3.g.move.275.5']",['clarify'],0.21428571428571427,0.0,0.0,0.0,0.0,0.0
follower,so down south right,"['q1ec3.f.move.275', 'q1ec3.f.move.277.5']",['check'],0.3333333333333333,0.12121212121212122,0.0,0.0,0.0,0.0
giver,go down south,"['q1ec3.g.move.276', 'q1ec3.g.move.278.5']",['reply_y'],0.8333333333333334,0.6111111111111112,0.5555555555555556,0.4,0.25,0.0
follower,no,"['q1ec3.f.move.278', 'q1ec3.f.move.281.5']",['reply_n'],0.2,0.0,0.0,0.0,0.0,0.0
giver,you don't so just go south and then straight along underneath the fort,"['q1ec3.g.move.279', 'q1ec3.g.move.281']","['check', 'instruct']",0.1111111111111111,0.0,0.0,0.0,0.0,0.0
follower,okay,['q1ec3.f.move.282'],['acknowledge'],0.15789473684210525,0.0,0.0,0.0,0.0,0.0
giver,emerging at the left-hand side of the fort and you've to finish opposite the base more opposite the base of the carved wooden pole,"['q1ec3.g.move.283', 'q1ec3.g.move.284.5']",['instruct'],0.12,0.0,0.0,0.0,0.0,0.0
follower,i have to proceed,"['q1ec3.f.move.284', 'q1ec3.f.move.285.5']",['check'],0.5,0.0963855421686747,0.0380952380952381,0.047619047619047616,0.0,0.0
giver,but still to the left of the fort,"['q1ec3.g.move.285', 'q1ec3.g.move.287.5']",['instruct'],0.4117647058823529,0.10526315789473684,0.04878048780487805,0.1111111111111111,0.0,0.0
follower,right,"['q1ec3.f.move.286', 'q1ec3.f.move.289.5']",['ready'],0.3076923076923077,0.0,0.0,0.0,0.0,0.0
giver,right straight up north yeah,"['q1ec3.g.move.288', 'q1ec3.g.move.290.5']",['reply_y'],0.35714285714285715,0.17391304347826086,0.13043478260869565,0.2,0.0,0.0
follower,right,"['q1ec3.f.move.290', 'q1ec3.f.move.290.1']",['ready'],0.35714285714285715,0.17391304347826086,0.13043478260869565,0.2,0.0,0.0
giver,and be at this at,"['q1ec3.g.move.291', 'q1ec3.g.move.291.1']",['clarify'],0.25,0.0,0.0,0.0,0.0,0.0
follower,i'm above the fort,"['q1ec3.f.move.290.2', 'q1ec3.f.move.293.5']",['explain'],0.4375,0.15384615384615385,0.034482758620689655,0.0,0.0,0.0
giver,to the left of the fort and level with the base of the wooden pole but not actually beside the wooden pole,['q1ec3.g.move.291.2'],['clarify'],0.5,0.15151515151515152,0.0963855421686747,0.125,0.05263157894736842,0.0
follower,right okay,['q1ec3.f.move.294'],['acknowledge'],0.36363636363636365,0.029850746268656716,0.012195121951219513,0.0,0.0,0.0
