speaker,sentence,move_id,label,jaccard_sim_char_1_1,jaccard_sim_char_2_2,jaccard_sim_char_3_3,jaccard_sim_word_1_1,jaccard_sim_word_2_2,jaccard_sim_word_3_3
giver,right starts above the stony desert,"['q1ec8.g.move.1', 'q1ec8.g.move.2.5']",['instruct'],,,,,,
follower,alright okay,['q1ec8.f.move.2'],['acknowledge'],0.5294117647058824,0.1388888888888889,0.10526315789473684,0.0,0.0,0.0
giver,right,['q1ec8.g.move.3'],['align'],0.45454545454545453,0.36363636363636365,0.3,0.0,0.0,0.0
follower,mmhmm,"['q1ec8.f.move.6', 'q1ec8.f.move.7.5']",['acknowledge'],0.16666666666666666,0.0,0.0,0.0,0.0,0.0
giver,er go forward and then kind down south,"['q1ec8.g.move.7', 'q1ec8.g.move.8.5']",['instruct'],0.058823529411764705,0.0,0.0,0.0,0.0,0.0
follower,west and then down south,"['q1ec8.f.move.8', 'q1ec8.f.move.10.5']",['check'],0.6875,0.4722222222222222,0.425,0.4444444444444444,0.2222222222222222,0.0
giver,mmhmm,"['q1ec8.g.move.9', 'q1ec8.g.move.13.5']",['reply_y'],0.08333333333333333,0.0,0.0,0.0,0.0,0.0
follower,the map all right,"['q1ec8.f.move.11', 'q1ec8.f.move.13']",['acknowledge'],0.18181818181818182,0.0,0.0,0.0,0.0,0.0
giver,right,['q1ec8.g.move.14'],['align'],0.45454545454545453,0.25,0.2,0.25,0.0,0.0
giver,then travel west again,"['q1ec8.g.move.15', 'q1ec8.g.move.16.5']",['instruct'],0.38461538461538464,0.0,0.0,0.0,0.0,0.0
follower,mmhmm,"['q1ec8.f.move.16', 'q1ec8.f.move.17.5']",['acknowledge'],0.07142857142857142,0.0,0.0,0.0,0.0,0.0
giver,right to the very end of paper,"['q1ec8.g.move.17', 'q1ec8.g.move.18.5']",['instruct'],0.0625,0.0,0.0,0.0,0.0,0.0
follower,the very end of the map,"['q1ec8.f.move.18', 'q1ec8.f.move.19.5']",['check'],0.8125,0.5862068965517241,0.46875,0.5,0.375,0.2857142857142857
giver,map right,['q1ec8.g.move.19'],['reply_y'],0.4375,0.08,0.04,0.16666666666666666,0.0,0.0
follower,mmhmm,['q1ec8.f.move.20'],['acknowledge'],0.2222222222222222,0.0,0.0,0.0,0.0,0.0
giver,and then up north,"['q1ec8.g.move.21', 'q1ec8.g.move.22.5']",['instruct'],0.08333333333333333,0.0,0.0,0.0,0.0,0.0
follower,mmhmm,"['q1ec8.f.move.22', 'q1ec8.f.move.24.5']",['acknowledge'],0.08333333333333333,0.0,0.0,0.0,0.0,0.0
giver,now,"['q1ec8.g.move.23', 'q1ec8.g.move.25.5']",['ready'],0.0,0.0,0.0,0.0,0.0,0.0
follower,not in that corner,"['q1ec8.f.move.25', 'q1ec8.f.move.27.5']",['reply_n'],0.18181818181818182,0.058823529411764705,0.0,0.0,0.0,0.0
giver,no well,"['q1ec8.g.move.26', 'q1ec8.g.move.28.5']",['ready'],0.3333333333333333,0.047619047619047616,0.0,0.0,0.0,0.0
follower,fssss over a bit,"['q1ec8.f.move.28', 'q1ec8.f.move.30.5']",['reply_w'],0.21428571428571427,0.0,0.0,0.0,0.0,0.0
giver,right,"['q1ec8.g.move.29', 'q1ec8.g.move.31.5']",['ready'],0.23076923076923078,0.0,0.0,0.0,0.0,0.0
follower,mmhmm,"['q1ec8.f.move.31', 'q1ec8.f.move.32.5']",['acknowledge'],0.16666666666666666,0.0,0.0,0.0,0.0,0.0
giver,until you get to a kind level above the shelter,['q1ec8.g.move.32'],['instruct'],0.05263157894736842,0.0,0.0,0.0,0.0,0.0
follower,alright,['q1ec8.f.move.33'],['acknowledge'],0.3888888888888889,0.0,0.0,0.0,0.0,0.0
giver,and turn east to r-- and travel right along,"['q1ec8.g.move.34', 'q1ec8.g.move.35.5']",['instruct'],0.4375,0.14285714285714285,0.075,0.0,0.0,0.0
follower,alright,"['q1ec8.f.move.35', 'q1ec8.f.move.36.5']",['acknowledge'],0.4375,0.14285714285714285,0.075,0.0,0.0,0.0
giver,past the shel-- the shelter that's over the top,['q1ec8.g.move.36'],['instruct'],0.3333333333333333,0.0,0.0,0.0,0.0,0.0
follower,uh-huh,['q1ec8.f.move.37'],['acknowledge'],0.14285714285714285,0.0,0.0,0.0,0.0,0.0
giver,right then south,"['q1ec8.g.move.38', 'q1ec8.g.move.39', 'q1ec8.g.move.40.5']","['ready', 'instruct']",0.16666666666666666,0.0,0.0,0.0,0.0,0.0
follower,then south,"['q1ec8.f.move.40', 'q1ec8.f.move.41.5']",['acknowledge'],0.7272727272727273,0.5714285714285714,0.5714285714285714,0.6666666666666666,0.5,0.0
giver,just to below the shelter below the level of the shelter,['q1ec8.g.move.41'],['instruct'],0.4666666666666667,0.08571428571428572,0.023809523809523808,0.0,0.0,0.0
follower,right,['q1ec8.f.move.42'],['acknowledge'],0.1875,0.0,0.0,0.0,0.0,0.0
giver,in a kind east,"['q1ec8.g.move.43', 'q1ec8.g.move.45.5']",['instruct'],0.16666666666666666,0.0,0.0,0.0,0.0,0.0
follower,mmhmm,"['q1ec8.f.move.45', 'q1ec8.f.move.48.5']",['reply_y'],0.0,0.0,0.0,0.0,0.0,0.0
giver,there's a savannah you want to travel east until you get to before the savannah,"['q1ec8.g.move.46', 'q1ec8.g.move.48']","['query_yn', 'instruct']",0.05,0.0,0.0,0.0,0.0,0.0
follower,mmhmm,['q1ec8.f.move.49'],['acknowledge'],0.05,0.0,0.0,0.0,0.0,0.0
giver,then tau-- turn north up,"['q1ec8.g.move.50', 'q1ec8.g.move.51.5']",['instruct'],0.08333333333333333,0.0,0.0,0.0,0.0,0.0
follower,mmhmm,"['q1ec8.f.move.51', 'q1ec8.f.move.52.5']",['acknowledge'],0.08333333333333333,0.0,0.0,0.0,0.0,0.0
giver,don't go round about it just go up before it,['q1ec8.g.move.52'],['instruct'],0.0,0.0,0.0,0.0,0.0,0.0
follower,mmhmm,['q1ec8.f.move.53'],['acknowledge'],0.0,0.0,0.0,0.0,0.0,0.0
giver,right you're traveling north,"['q1ec8.g.move.54', 'q1ec8.g.move.56']","['ready', 'align']",0.0625,0.0,0.0,0.0,0.0,0.0
follower,i'm going north,['q1ec8.f.move.57'],['reply_y'],0.5625,0.24242424242424243,0.21875,0.16666666666666666,0.0,0.0
giver,right now,"['q1ec8.g.move.58', 'q1ec8.g.move.60.5']",['ready'],0.7272727272727273,0.1,0.05263157894736842,0.0,0.0,0.0
follower,they're over a bit,"['q1ec8.f.move.60', 'q1ec8.f.move.61.5']",['reply_w'],0.4,0.0,0.0,0.0,0.0,0.0
giver,or hot springs,['q1ec8.g.move.61'],['query_yn'],0.375,0.034482758620689655,0.0,0.0,0.0,0.0
follower,they're over to the west a bit,['q1ec8.f.move.62'],['reply_w'],0.4117647058823529,0.05555555555555555,0.0,0.0,0.0,0.0
giver,right travel straight up north 'til you get just above the hot wells make sure you've cleared the the height of it,"['q1ec8.g.move.63', 'q1ec8.g.move.64']","['ready', 'instruct']",0.56,0.16470588235294117,0.07079646017699115,0.038461538461538464,0.0,0.0
follower,right,['q1ec8.f.move.65'],['acknowledge'],0.2,0.05405405405405406,0.031914893617021274,0.05,0.0,0.0
giver,and turn to your the west,"['q1ec8.g.move.66', 'q1ec8.g.move.68.5']",['instruct'],0.2,0.0,0.0,0.0,0.0,0.0
follower,right,"['q1ec8.f.move.67', 'q1ec8.f.move.71.5']",['ready'],0.2,0.0,0.0,0.0,0.0,0.0
giver,until you get to the hot wells,"['q1ec8.g.move.69', 'q1ec8.g.move.70.5']",['instruct'],0.2857142857142857,0.0,0.0,0.0,0.0,0.0
follower,right,"['q1ec8.f.move.72', 'q1ec8.f.move.73.5']",['acknowledge'],0.2857142857142857,0.0,0.0,0.0,0.0,0.0
giver,no don't go over the top of them,['q1ec8.g.move.73'],['reply_n'],0.26666666666666666,0.0,0.0,0.0,0.0,0.0
follower,right i'll go up to them,['q1ec8.f.move.74'],['acknowledge'],0.5882352941176471,0.2777777777777778,0.13636363636363635,0.16666666666666666,0.0,0.0
giver,alright now,"['q1ec8.g.move.75', 'q1ec8.g.move.77.5']",['ready'],0.5,0.19230769230769232,0.14814814814814814,0.0,0.0,0.0
follower,underneath them,['q1ec8.f.move.77'],['check'],0.4,0.0,0.0,0.0,0.0,0.0
giver,mmhmm until you just get past them then come down to them south,"['q1ec8.g.move.78', 'q1ec8.g.move.79', 'q1ec8.g.move.80', 'q1ec8.g.move.81.5']","['reply_y', 'instruct']",0.45,0.09433962264150944,0.046875,0.07692307692307693,0.0,0.0
follower,south,['q1ec8.f.move.81'],['acknowledge'],0.2631578947368421,0.08888888888888889,0.05555555555555555,0.08333333333333333,0.0,0.0
giver,just a a couple of inches and then west,"['q1ec8.g.move.82', 'q1ec8.g.move.83', 'q1ec8.g.move.85.5']",['instruct'],0.29411764705882354,0.058823529411764705,0.0,0.0,0.0,0.0
follower,mmhmm underneath the elephants,"['q1ec8.f.move.84', 'q1ec8.f.move.85']","['acknowledge', 'query_yn']",0.5789473684210527,0.1346153846153846,0.03225806451612903,0.0,0.0,0.0
giver,mmhmm and then north,"['q1ec8.g.move.86', 'q1ec8.g.move.87', 'q1ec8.g.move.91.5']","['reply_y', 'instruct']",0.6428571428571429,0.2571428571428571,0.15,0.14285714285714285,0.0,0.0
follower,mmhmm,"['q1ec8.f.move.90', 'q1ec8.f.move.93.5']",['reply_y'],0.2,0.17647058823529413,0.16666666666666666,0.25,0.0,0.0
giver,right,"['q1ec8.g.move.92', 'q1ec8.g.move.94.5']",['ready'],0.16666666666666666,0.0,0.0,0.0,0.0,0.0
follower,mmhmm,"['q1ec8.f.move.94', 'q1ec8.f.move.95.5']",['acknowledge'],0.16666666666666666,0.0,0.0,0.0,0.0,0.0
giver,past it,"['q1ec8.g.move.95', 'q1ec8.g.move.96.5']",['instruct'],0.0,0.0,0.0,0.0,0.0,0.0
follower,past the top of it,"['q1ec8.f.move.96', 'q1ec8.f.move.97.5']",['query_yn'],0.6,0.375,0.23529411764705882,0.4,0.0,0.0
giver,right up above it,['q1ec8.g.move.97'],['reply_w'],0.5333333333333333,0.18518518518518517,0.03333333333333333,0.125,0.0,0.0
follower,right,['q1ec8.f.move.98'],['acknowledge'],0.38461538461538464,0.25,0.2,0.25,0.0,0.0
giver,right,"['q1ec8.g.move.99', 'q1ec8.g.move.101.5']",['ready'],1.0,1.0,1.0,1.0,0.0,0.0
follower,no,"['q1ec8.f.move.101', 'q1ec8.f.move.102.5']",['reply_n'],0.0,0.0,0.0,0.0,0.0,0.0
giver,mm-mm,['q1ec8.g.move.102'],['check'],0.0,0.0,0.0,0.0,0.0,0.0
follower,to the f-- no,['q1ec8.f.move.103'],['reply_n'],0.1111111111111111,0.0,0.0,0.0,0.0,0.0
giver,the roman baths,['q1ec8.g.move.104'],['query_yn'],0.46153846153846156,0.13636363636363635,0.09090909090909091,0.2,0.0,0.0
follower,no,['q1ec8.f.move.105'],['reply_n'],0.18181818181818182,0.0,0.0,0.0,0.0,0.0
giver,hmm antelopes,['q1ec8.g.move.106'],['query_yn'],0.18181818181818182,0.0,0.0,0.0,0.0,0.0
follower,mm they're over to the east of the mountain,['q1ec8.f.move.107'],['reply_w'],0.5,0.07317073170731707,0.021739130434782608,0.0,0.0,0.0
giver,right sure you don't have a lake,"['q1ec8.g.move.108', 'q1ec8.g.move.110']","['ready', 'check']",0.7,0.08928571428571429,0.015384615384615385,0.0,0.0,0.0
follower,no beside this no,['q1ec8.f.move.111'],['reply_n'],0.47368421052631576,0.023255813953488372,0.0,0.0,0.0,0.0
giver,no but right the way over,"['q1ec8.g.move.112', 'q1ec8.g.move.113.5']",['query_yn'],0.47058823529411764,0.1875,0.08571428571428572,0.125,0.0,0.0
follower,right over to the east again,['q1ec8.f.move.113'],['reply_w'],0.6875,0.4117647058823529,0.2564102564102564,0.3333333333333333,0.0,0.0
giver,aye right,"['q1ec8.g.move.114', 'q1ec8.g.move.115.5']",['acknowledge'],0.6153846153846154,0.17857142857142858,0.1,0.14285714285714285,0.0,0.0
giver,go up to about the level with the bottom of the lake,"['q1ec8.g.move.116', 'q1ec8.g.move.117.5']",['instruct'],0.3684210526315789,0.022727272727272728,0.0,0.0,0.0,0.0
follower,level with the bottom of the lake,"['q1ec8.f.move.117', 'q1ec8.f.move.120.5']",['acknowledge'],0.8235294117647058,0.7297297297297297,0.6511627906976745,0.6,0.5454545454545454,0.5
giver,straight north to up to the l-- level with the bottom of the lake,['q1ec8.g.move.120'],['instruct'],0.6666666666666666,0.5869565217391305,0.5384615384615384,0.6,0.5,0.45454545454545453
follower,alright,['q1ec8.f.move.121'],['acknowledge'],0.3333333333333333,0.061224489795918366,0.03636363636363636,0.0,0.0,0.0
giver,and then east 'til you get to the front of the lake,"['q1ec8.g.move.122', 'q1ec8.g.move.125.5']",['instruct'],0.3888888888888889,0.0,0.0,0.0,0.0,0.0
follower,i'm go-- i'm going to hit the round rocks,"['q1ec8.f.move.123', 'q1ec8.f.move.127.5']",['query_yn'],0.6666666666666666,0.2,0.09859154929577464,0.125,0.0,0.0
giver,no,['q1ec8.g.move.126'],['reply_n'],0.11764705882352941,0.0,0.0,0.0,0.0,0.0
follower,right,['q1ec8.f.move.128'],['acknowledge'],0.0,0.0,0.0,0.0,0.0,0.0
giver,and you want to go right round about the lake,"['q1ec8.g.move.129', 'q1ec8.g.move.130.5']",['instruct'],0.29411764705882354,0.11764705882352941,0.07317073170731707,0.1,0.0,0.0
follower,up above it,"['q1ec8.f.move.130', 'q1ec8.f.move.132.5']",['query_yn'],0.42105263157894735,0.1,0.041666666666666664,0.0,0.0,0.0
giver,mmhmm,"['q1ec8.g.move.131', 'q1ec8.g.move.133.5']",['reply_y'],0.0,0.0,0.0,0.0,0.0,0.0
follower,something like circle right round it,"['q1ec8.f.move.133', 'q1ec8.f.move.135.5']",['check'],0.125,0.0,0.0,0.0,0.0,0.0
giver,mmhmm right,"['q1ec8.g.move.134', 'q1ec8.g.move.136.5']",['reply_y'],0.4375,0.13513513513513514,0.10256410256410256,0.14285714285714285,0.0,0.0
follower,uh-huh,"['q1ec8.f.move.136', 'q1ec8.f.move.138.5']",['reply_y'],0.1111111111111111,0.0,0.0,0.0,0.0,0.0
giver,right,"['q1ec8.g.move.137', 'q1ec8.g.move.140.5']",['ready'],0.14285714285714285,0.0,0.0,0.0,0.0,0.0
follower,right,"['q1ec8.f.move.139', 'q1ec8.f.move.142.5']",['ready'],1.0,1.0,1.0,1.0,0.0,0.0
giver,no the height above them but just below the lake but above the antelope,"['q1ec8.g.move.141', 'q1ec8.g.move.142']","['reply_n', 'clarify']",0.2,0.07317073170731707,0.0392156862745098,0.0,0.0,0.0
follower,right,['q1ec8.f.move.143'],['acknowledge'],0.2,0.07317073170731707,0.0392156862745098,0.0,0.0,0.0
giver,right should be a roman baths below the lake,"['q1ec8.g.move.144', 'q1ec8.g.move.145']","['ready', 'align']",0.2777777777777778,0.10526315789473684,0.07317073170731707,0.125,0.0,0.0
follower,well i havenae,['q1ec8.f.move.146'],['reply_n'],0.42105263157894735,0.02,0.0,0.0,0.0,0.0
giver,well and you come between the lake and the roman baths so you'll have to avoid them,"['q1ec8.g.move.147', 'q1ec8.g.move.149']","['ready', 'instruct']",0.42857142857142855,0.16071428571428573,0.08,0.0625,0.0,0.0
follower,right okay,['q1ec8.f.move.150'],['acknowledge'],0.4090909090909091,0.0,0.0,0.0,0.0,0.0
giver,and you want to come south and round the antelopes,"['q1ec8.g.move.151', 'q1ec8.g.move.152.5']",['instruct'],0.35,0.023255813953488372,0.0,0.0,0.0,0.0
follower,to the east or the west,"['q1ec8.f.move.152', 'q1ec8.f.move.153.5']",['query_w'],0.5294117647058824,0.20930232558139536,0.07017543859649122,0.16666666666666666,0.0,0.0
giver,to the west of the antelopes,['q1ec8.g.move.153'],['reply_w'],0.6153846153846154,0.4444444444444444,0.36666666666666664,0.42857142857142855,0.25,0.0
follower,right,['q1ec8.f.move.154'],['acknowledge'],0.13333333333333333,0.0,0.0,0.0,0.0,0.0
giver,ehm and go right underneath them,['q1ec8.g.move.155'],['instruct'],0.38461538461538464,0.13793103448275862,0.1,0.16666666666666666,0.0,0.0
follower,mmhmm,['q1ec8.f.move.156'],['acknowledge'],0.15384615384615385,0.03225806451612903,0.0,0.0,0.0,0.0
giver,then travel to the east just past the antelopes,['q1ec8.g.move.157'],['instruct'],0.06666666666666667,0.0,0.0,0.0,0.0,0.0
follower,mmhmm,['q1ec8.f.move.158'],['acknowledge'],0.06666666666666667,0.0,0.0,0.0,0.0,0.0
giver,that's it finished,"['q1ec8.g.move.159', 'q1ec8.g.move.160.5']",['instruct'],0.08333333333333333,0.0,0.0,0.0,0.0,0.0
follower,just past the antelopes it's finished,"['q1ec8.f.move.160', 'q1ec8.f.move.161.5']",['check'],0.6875,0.4411764705882353,0.28205128205128205,0.2857142857142857,0.16666666666666666,0.0
giver,mmhmm,"['q1ec8.g.move.161', 'q1ec8.g.move.162.5']",['reply_y'],0.058823529411764705,0.0,0.0,0.0,0.0,0.0
follower,okay,['q1ec8.f.move.162'],['acknowledge'],0.0,0.0,0.0,0.0,0.0,0.0
giver,that's it,['q1ec8.g.move.163'],['reply_y'],0.1,0.0,0.0,0.0,0.0,0.0
