speaker,sentence,move_id,label,jaccard_sim_char_1_1,jaccard_sim_char_2_2,jaccard_sim_char_3_3,jaccard_sim_word_1_1,jaccard_sim_word_2_2,jaccard_sim_word_3_3
giver,okay ehm right you have the start,"['q2ec3.g.move.1', 'q2ec3.g.move.2']","['ready', 'align']",,,,,,
follower,yeah,['q2ec3.f.move.3'],['reply_y'],0.26666666666666666,0.0,0.0,0.0,0.0,0.0
giver,right below the start do you have er like a missionary camp,"['q2ec3.g.move.4', 'q2ec3.g.move.5']","['ready', 'query_yn']",0.18181818181818182,0.0,0.0,0.0,0.0,0.0
follower,yeah,['q2ec3.f.move.6'],['reply_y'],0.18181818181818182,0.0,0.0,0.0,0.0,0.0
giver,okay,"['q2ec3.g.move.7', 'q2ec3.g.move.9.5']",['ready'],0.3333333333333333,0.0,0.0,0.0,0.0,0.0
follower,uh-huh,"['q2ec3.f.move.9', 'q2ec3.f.move.10.5']",['acknowledge'],0.0,0.0,0.0,0.0,0.0,0.0
giver,eh to the left for about an inch,['q2ec3.g.move.10'],['instruct'],0.13333333333333333,0.0,0.0,0.0,0.0,0.0
follower,right,['q2ec3.f.move.11'],['acknowledge'],0.26666666666666666,0.0,0.0,0.0,0.0,0.0
giver,and then go down along the side of the missionary camp,"['q2ec3.g.move.12', 'q2ec3.g.move.13.5']",['instruct'],0.2631578947368421,0.0,0.0,0.0,0.0,0.0
follower,uh-huh,"['q2ec3.f.move.13', 'q2ec3.f.move.14.5']",['acknowledge'],0.047619047619047616,0.0,0.0,0.0,0.0,0.0
giver,'til you're about an inch above the bottom of the map,['q2ec3.g.move.14'],['instruct'],0.1,0.0,0.0,0.0,0.0,0.0
follower,right,['q2ec3.f.move.15'],['acknowledge'],0.2,0.0,0.0,0.0,0.0,0.0
giver,then you need to go straight along for about 'til about you're about an inch and a half away from the edge of the map,"['q2ec3.g.move.16', 'q2ec3.g.move.17.5']",['instruct'],0.22727272727272727,0.038461538461538464,0.02040816326530612,0.0,0.0,0.0
follower,the banana tree,"['q2ec3.f.move.17', 'q2ec3.f.move.18.5']",['query_yn'],0.36363636363636365,0.1125,0.018691588785046728,0.043478260869565216,0.0,0.0
giver,okay,"['q2ec3.g.move.18', 'q2ec3.g.move.19.5']",['align'],0.09090909090909091,0.0,0.0,0.0,0.0,0.0
follower,do you have a banana tree,"['q2ec3.f.move.19', 'q2ec3.f.move.20.5']",['query_yn'],0.21428571428571427,0.0,0.0,0.0,0.0,0.0
giver,i have gorillas that's probably the,"['q2ec3.g.move.20', 'q2ec3.g.move.22.5']",['reply_w'],0.5263157894736842,0.1590909090909091,0.08,0.1111111111111111,0.0,0.0
follower,right okay i'll go round the banana tree,"['q2ec3.f.move.21', 'q2ec3.f.move.22']","['ready', 'explain']",0.65,0.2,0.045454545454545456,0.08333333333333333,0.0,0.0
giver,yeah,"['q2ec3.g.move.23', 'q2ec3.g.move.23.5']",['acknowledge'],0.23529411764705882,0.0,0.0,0.0,0.0,0.0
giver,so you're at where are you now you're at the bottom,['q2ec3.g.move.24'],['align'],0.26666666666666666,0.0,0.0,0.0,0.0,0.0
follower,i'm at the bottom,['q2ec3.f.move.25'],['reply_y'],0.5625,0.3939393939393939,0.3157894736842105,0.3333333333333333,0.2,0.1
giver,okay now you you need to go parallel to the side of the map,"['q2ec3.g.move.26', 'q2ec3.g.move.27', 'q2ec3.g.move.28.5']","['ready', 'instruct']",0.36363636363636365,0.09259259259259259,0.04918032786885246,0.07692307692307693,0.0,0.0
follower,uh-huh,"['q2ec3.f.move.28', 'q2ec3.f.move.29.5']",['acknowledge'],0.09523809523809523,0.0,0.0,0.0,0.0,0.0
giver,ehm about four inches,"['q2ec3.g.move.29', 'q2ec3.g.move.30.5']",['instruct'],0.125,0.0,0.0,0.0,0.0,0.0
follower,right,"['q2ec3.f.move.30', 'q2ec3.f.move.31.5']",['acknowledge'],0.25,0.0,0.0,0.0,0.0,0.0
giver,so you're just ab-- y-- you're now about two inches above the gorillas or the banana tree,['q2ec3.g.move.31'],['instruct'],0.23809523809523808,0.01694915254237288,0.0,0.0,0.0,0.0
follower,yeah,['q2ec3.f.move.32'],['acknowledge'],0.19047619047619047,0.0,0.0,0.0,0.0,0.0
giver,ehm do you have a rope bridge,"['q2ec3.g.move.33', 'q2ec3.g.move.34.5']",['query_yn'],0.26666666666666666,0.0,0.0,0.0,0.0,0.0
follower,yes i do,['q2ec3.f.move.34'],['reply_y'],0.375,0.0625,0.03125,0.14285714285714285,0.0,0.0
giver,right,"['q2ec3.g.move.35', 'q2ec3.g.move.35.5']",['acknowledge'],0.09090909090909091,0.0,0.0,0.0,0.0,0.0
giver,you need to cross the rope bidge-- bridge,"['q2ec3.g.move.36', 'q2ec3.g.move.38.5']",['instruct'],0.29411764705882354,0.027777777777777776,0.0,0.0,0.0,0.0
follower,how close to the river should i be the now,"['q2ec3.f.move.37', 'q2ec3.f.move.39.5']",['query_w'],0.65,0.27450980392156865,0.08955223880597014,0.14285714285714285,0.0,0.0
giver,i haven't got a i haven't got a river marked but i assume well i--,"['q2ec3.g.move.39', 'q2ec3.g.move.42.5']",['reply_w'],0.6818181818181818,0.171875,0.0759493670886076,0.07142857142857142,0.0,0.0
follower,i have gone,"['q2ec3.f.move.40', 'q2ec3.f.move.44.5']",['explain'],0.42857142857142855,0.17777777777777778,0.09433962264150944,0.0,0.0,0.0
giver,if no,"['q2ec3.g.move.43', 'q2ec3.g.move.47.5']",['reply_n'],0.4,0.0,0.0,0.0,0.0,0.0
follower,uh-huh,"['q2ec3.f.move.45', 'q2ec3.f.move.48.5']",['acknowledge'],0.0,0.0,0.0,0.0,0.0,0.0
giver,by the gor-- gorillas,"['q2ec3.g.move.48', 'q2ec3.g.move.48.1']",['clarify'],0.13333333333333333,0.0,0.0,0.0,0.0,0.0
follower,then go horizontal,"['q2ec3.f.move.49', 'q2ec3.f.move.50.5']",['check'],0.625,0.21428571428571427,0.1,0.0,0.0,0.0
giver,then you need to-- you need to bend it round to the rope bridge,['q2ec3.g.move.48.2'],['clarify'],0.5,0.1276595744680851,0.05172413793103448,0.08333333333333333,0.0,0.0
follower,bend,"['q2ec3.f.move.51', 'q2ec3.f.move.52.5']",['acknowledge'],0.26666666666666666,0.08333333333333333,0.044444444444444446,0.1,0.0,0.0
giver,and you're going across the rope bridge so your your line should stop at the beginning of the rope bridge and come out again at the end,['q2ec3.g.move.52'],['clarify'],0.19047619047619047,0.04225352112676056,0.01020408163265306,0.0,0.0,0.0
follower,yeah yep okay,"['q2ec3.f.move.53', 'q2ec3.f.move.55']",['acknowledge'],0.3181818181818182,0.0379746835443038,0.0,0.0,0.0,0.0
giver,right,"['q2ec3.g.move.56', 'q2ec3.g.move.58.5']",['ready'],0.08333333333333333,0.0,0.0,0.0,0.0,0.0
follower,to there's a river,"['q2ec3.f.move.58', 'q2ec3.f.move.59.5']",['check'],0.3333333333333333,0.05263157894736842,0.0,0.0,0.0,0.0
giver,uh-huh,['q2ec3.g.move.59'],['reply_y'],0.07692307692307693,0.0,0.0,0.0,0.0,0.0
follower,okay,['q2ec3.f.move.60'],['acknowledge'],0.0,0.0,0.0,0.0,0.0,0.0
giver,now you need to run horizontally along,"['q2ec3.g.move.61', 'q2ec3.g.move.62.5']",['instruct'],0.17647058823529413,0.0,0.0,0.0,0.0,0.0
follower,right,"['q2ec3.f.move.62', 'q2ec3.f.move.63.5']",['acknowledge'],0.3125,0.02631578947368421,0.0,0.0,0.0,0.0
giver,ehm do you have a waterfall,"['q2ec3.g.move.63', 'q2ec3.g.move.64.5']",['query_yn'],0.17647058823529413,0.0,0.0,0.0,0.0,0.0
follower,yes i do,"['q2ec3.f.move.64', 'q2ec3.f.move.65.5']",['reply_y'],0.29411764705882354,0.06451612903225806,0.03333333333333333,0.16666666666666666,0.0,0.0
giver,you need to run horizontally along until you're just below the beginning of the waterfall,"['q2ec3.g.move.65', 'q2ec3.g.move.66.5']",['instruct'],0.3333333333333333,0.0,0.0,0.0,0.0,0.0
follower,right,"['q2ec3.f.move.66', 'q2ec3.f.move.67.5']",['acknowledge'],0.23809523809523808,0.014084507042253521,0.0,0.0,0.0,0.0
giver,okay,['q2ec3.g.move.67'],['align'],0.0,0.0,0.0,0.0,0.0,0.0
follower,'kay,['q2ec3.f.move.68'],['reply_y'],0.6,0.5,0.3333333333333333,0.0,0.0,0.0
giver,now straight up,"['q2ec3.g.move.69', 'q2ec3.g.move.73.5']",['instruct'],0.0625,0.0,0.0,0.0,0.0,0.0
follower,no,"['q2ec3.f.move.71', 'q2ec3.f.move.75.5']",['reply_n'],0.15384615384615385,0.07142857142857142,0.0,0.0,0.0,0.0
giver,oh no,"['q2ec3.g.move.74', 'q2ec3.g.move.76.5']",['reply_n'],0.5,0.25,0.0,0.5,0.0,0.0
follower,no,"['q2ec3.f.move.76', 'q2ec3.f.move.79.5']",['reply_n'],0.5,0.25,0.0,0.5,0.0,0.0
giver,okay,"['q2ec3.g.move.77', 'q2ec3.g.move.81.5']",['acknowledge'],0.2,0.0,0.0,0.0,0.0,0.0
follower,uh-huh,"['q2ec3.f.move.80', 'q2ec3.f.move.82.5']",['reply_y'],0.0,0.0,0.0,0.0,0.0,0.0
giver,ehm what's your next thing that's marked,"['q2ec3.g.move.82', 'q2ec3.g.move.83.5']",['query_w'],0.1,0.0,0.0,0.0,0.0,0.0
follower,the lost steps just south of the white mountain up at the top,"['q2ec3.f.move.83', 'q2ec3.f.move.84.5']",['reply_w'],0.5217391304347826,0.171875,0.036585365853658534,0.0,0.0,0.0
giver,no the-- the-- they're not,"['q2ec3.g.move.84', 'q2ec3.g.move.85.5']",['explain'],0.3,0.07407407407407407,0.030303030303030304,0.06666666666666667,0.0,0.0
follower,do you have the rock fall,"['q2ec3.f.move.85', 'q2ec3.f.move.86.5']",['query_yn'],0.3888888888888889,0.15151515151515152,0.05405405405405406,0.1,0.0,0.0
giver,oh i've got another lot of lost steps up there that's what you must mean,"['q2ec3.g.move.86', 'q2ec3.g.move.87.5']",['explain'],0.5217391304347826,0.15873015873015872,0.08860759493670886,0.05,0.0,0.0
follower,yeah,"['q2ec3.f.move.87', 'q2ec3.f.move.89.5']",['acknowledge'],0.2,0.019230769230769232,0.0,0.0,0.0,0.0
giver,no well,"['q2ec3.g.move.88', 'q2ec3.g.move.92.5']",['ready'],0.1111111111111111,0.0,0.0,0.0,0.0,0.0
follower,how far,"['q2ec3.f.move.90', 'q2ec3.f.move.93.5']",['query_w'],0.3,0.0,0.0,0.0,0.0,0.0
giver,erm for about i don't know,"['q2ec3.g.move.93', 'q2ec3.g.move.94.5']",['reply_w'],0.35294117647058826,0.07142857142857142,0.0,0.0,0.0,0.0
follower,do you have gazelle gazelles,"['q2ec3.f.move.94', 'q2ec3.f.move.95.5']",['query_w'],0.2608695652173913,0.04878048780487805,0.0,0.0,0.0,0.0
giver,way up,"['q2ec3.g.move.95', 'q2ec3.g.move.96.5']",['reply_w'],0.26666666666666666,0.0,0.0,0.0,0.0,0.0
follower,or fallen pillars or flamingoes,"['q2ec3.f.move.96', 'q2ec3.f.move.97.5']",['query_w'],0.1875,0.0,0.0,0.0,0.0,0.0
giver,i have fallen pillars,"['q2ec3.g.move.97', 'q2ec3.g.move.99.5']",['reply_w'],0.6666666666666666,0.41935483870967744,0.3939393939393939,0.4,0.2,0.0
follower,yeah,"['q2ec3.f.move.99', 'q2ec3.f.move.101.5']",['reply_y'],0.23076923076923078,0.0,0.0,0.0,0.0,0.0
giver,right well you need to go up but running vertically until you're about level with the fallen pillars,"['q2ec3.g.move.100', 'q2ec3.g.move.101']","['ready', 'reply_w']",0.18181818181818182,0.0,0.0,0.0,0.0,0.0
follower,uh-huh right okay done it,['q2ec3.f.move.102'],['acknowledge'],0.5416666666666666,0.12790697674418605,0.03571428571428571,0.043478260869565216,0.0,0.0
giver,now,"['q2ec3.g.move.103', 'q2ec3.g.move.106.5']",['ready'],0.125,0.0,0.0,0.0,0.0,0.0
follower,right okay,"['q2ec3.f.move.106', 'q2ec3.f.move.107.5']",['acknowledge'],0.08333333333333333,0.0,0.0,0.0,0.0,0.0
giver,you see,"['q2ec3.g.move.107', 'q2ec3.g.move.108.5']",['align'],0.23076923076923078,0.0,0.0,0.0,0.0,0.0
follower,up it like going over them,"['q2ec3.f.move.108', 'q2ec3.f.move.109.5']",['check'],0.23529411764705882,0.0,0.0,0.0,0.0,0.0
giver,like a-- like as if you were going over something,"['q2ec3.g.move.109', 'q2ec3.g.move.111.5']",['reply_y'],0.6666666666666666,0.391304347826087,0.29411764705882354,0.2727272727272727,0.08333333333333333,0.0
follower,right okay,"['q2ec3.f.move.110', 'q2ec3.f.move.114.5']",['acknowledge'],0.5,0.02127659574468085,0.0,0.0,0.0,0.0
giver,bend it right over,"['q2ec3.g.move.112', 'q2ec3.g.move.115.5']",['reply_y'],0.4666666666666667,0.3157894736842105,0.2631578947368421,0.2,0.0,0.0
follower,uh-huh,['q2ec3.f.move.115'],['acknowledge'],0.07142857142857142,0.0,0.0,0.0,0.0,0.0
giver,and then down and under the fallen pillars,"['q2ec3.g.move.116', 'q2ec3.g.move.117.5']",['clarify'],0.11764705882352941,0.0,0.0,0.0,0.0,0.0
follower,right hang on,"['q2ec3.f.move.117', 'q2ec3.f.move.118.5']",['acknowledge'],0.47058823529411764,0.024390243902439025,0.0,0.0,0.0,0.0
giver,okay 'cause you can't go straight across on mine 'cause there's lost steps,['q2ec3.g.move.118'],['align'],0.47368421052631576,0.11290322580645161,0.05555555555555555,0.07142857142857142,0.0,0.0
follower,right okay yeah,['q2ec3.f.move.119'],['reply_y'],0.5789473684210527,0.16393442622950818,0.08333333333333333,0.07142857142857142,0.0,0.0
giver,right so you're now underneath are you at the end of the fallen pillars now,"['q2ec3.g.move.120', 'q2ec3.g.move.121']","['ready', 'align']",0.5,0.13559322033898305,0.05405405405405406,0.06666666666666667,0.0,0.0
follower,yes,['q2ec3.f.move.122'],['reply_y'],0.15789473684210525,0.0,0.0,0.0,0.0,0.0
giver,okay,['q2ec3.g.move.123'],['ready'],0.16666666666666666,0.0,0.0,0.0,0.0,0.0
follower,oops,"['q2ec3.f.move.125', 'q2ec3.f.move.125.4']",['uncodable'],0.16666666666666666,0.0,0.0,0.0,0.0,0.0
follower,i've got flamingoes,['q2ec3.f.move.125.9'],['explain'],0.13333333333333333,0.0,0.0,0.0,0.0,0.0
giver,okay well that's why,"['q2ec3.g.move.126', 'q2ec3.g.move.126.5']",['acknowledge'],0.4444444444444444,0.0,0.0,0.0,0.0,0.0
giver,so you need to loop it round your flamingoes,"['q2ec3.g.move.127', 'q2ec3.g.move.128.5']",['instruct'],0.38095238095238093,0.018518518518518517,0.0,0.0,0.0,0.0
follower,uh-huh,"['q2ec3.f.move.128', 'q2ec3.f.move.129.5']",['reply_y'],0.05263157894736842,0.0,0.0,0.0,0.0,0.0
giver,and up so you,"['q2ec3.g.move.129', 'q2ec3.g.move.130.5']",['instruct'],0.09090909090909091,0.0,0.0,0.0,0.0,0.0
follower,to the ruined city,"['q2ec3.f.move.130', 'q2ec3.f.move.131.5']",['query_yn'],0.4,0.07407407407407407,0.0,0.0,0.0,0.0
giver,to the ancient ruins,"['q2ec3.g.move.131', 'q2ec3.g.move.132.5']",['reply_y'],0.7142857142857143,0.44,0.3076923076923077,0.3333333333333333,0.2,0.0
follower,do you have,"['q2ec3.f.move.132', 'q2ec3.f.move.133.5']",['query_yn'],0.4,0.03571428571428571,0.0,0.0,0.0,0.0
giver,yeah,"['q2ec3.g.move.133', 'q2ec3.g.move.134.5']",['reply_y'],0.4444444444444444,0.0,0.0,0.0,0.0,0.0
follower,t-- uh-huh,"['q2ec3.f.move.134', 'q2ec3.f.move.135.5']",['acknowledge'],0.125,0.0,0.0,0.0,0.0,0.0
giver,so you need to go loop it down and then all the way up to the ancient ruins,"['q2ec3.g.move.135', 'q2ec3.g.move.136.5']",['clarify'],0.21052631578947367,0.016666666666666666,0.0,0.0,0.0,0.0
follower,right,"['q2ec3.f.move.136', 'q2ec3.f.move.137.5']",['acknowledge'],0.2777777777777778,0.0,0.0,0.0,0.0,0.0
giver,okay,"['q2ec3.g.move.137', 'q2ec3.g.move.138.5']",['align'],0.0,0.0,0.0,0.0,0.0,0.0
follower,i'm at the ancient ruins,['q2ec3.f.move.138'],['explain'],0.0625,0.0,0.0,0.0,0.0,0.0
giver,you're at the ancient ruins okay,"['q2ec3.g.move.139', 'q2ec3.g.move.140', 'q2ec3.g.move.143.5']","['acknowledge', 'ready']",0.75,0.5806451612903226,0.59375,0.5714285714285714,0.5,0.4
follower,i've got rock fall,"['q2ec3.f.move.143', 'q2ec3.f.move.146.5']",['reply_w'],0.5263157894736842,0.07142857142857142,0.022727272727272728,0.0,0.0,0.0
giver,okay,"['q2ec3.g.move.144', 'q2ec3.g.move.149.5']",['acknowledge'],0.2,0.0,0.0,0.0,0.0,0.0
follower,s-- right i'm,"['q2ec3.f.move.147', 'q2ec3.f.move.150.5']",['acknowledge'],0.0,0.0,0.0,0.0,0.0,0.0
giver,so you now you now should be about two two and a half inches from the top of the map,"['q2ec3.g.move.150', 'q2ec3.g.move.151.5']",['instruct'],0.30434782608695654,0.030303030303030304,0.0,0.0,0.0,0.0
follower,yeah practically,"['q2ec3.f.move.151', 'q2ec3.f.move.154.5']",['acknowledge'],0.55,0.014285714285714285,0.0,0.0,0.0,0.0
giver,okay so you're at you're at the stones now,"['q2ec3.g.move.152', 'q2ec3.g.move.154']",['align'],0.3888888888888889,0.0,0.0,0.0,0.0,0.0
follower,yeah,['q2ec3.f.move.155'],['reply_y'],0.2857142857142857,0.0,0.0,0.0,0.0,0.0
giver,okay now straight across have you got the white mountain,"['q2ec3.g.move.156', 'q2ec3.g.move.158.5']",['query_yn'],0.2222222222222222,0.0,0.0,0.0,0.0,0.0
follower,under the stones,"['q2ec3.f.move.157', 'q2ec3.f.move.157.5']",['check'],0.47368421052631576,0.1206896551724138,0.0625,0.08333333333333333,0.0,0.0
giver,under the stones,['q2ec3.g.move.159'],['reply_y'],1.0,1.0,1.0,1.0,1.0,1.0
follower,yes i've got the white mountain,['q2ec3.f.move.158'],['reply_y'],0.4444444444444444,0.16216216216216217,0.075,0.125,0.0,0.0
giver,so you go straight across towards the white mountain,"['q2ec3.g.move.161', 'q2ec3.g.move.162.5']",['instruct'],0.7368421052631579,0.40384615384615385,0.3,0.25,0.18181818181818182,0.1
follower,uh-huh,['q2ec3.f.move.162'],['acknowledge'],0.1111111111111111,0.0,0.0,0.0,0.0,0.0
giver,and then climb the white mountain and go back down the other side,['q2ec3.g.move.163'],['instruct'],0.1,0.0,0.0,0.0,0.0,0.0
follower,right,['q2ec3.f.move.165'],['acknowledge'],0.2631578947368421,0.0,0.0,0.0,0.0,0.0
giver,have you got some soft furnishings store,"['q2ec3.g.move.164', 'q2ec3.g.move.167.5']",['query_yn'],0.3125,0.0,0.0,0.0,0.0,0.0
follower,where,"['q2ec3.f.move.167', 'q2ec3.f.move.168.5']",['query_w'],0.17647058823529413,0.02702702702702703,0.0,0.0,0.0,0.0
giver,underneath uh,"['q2ec3.g.move.168', 'q2ec3.g.move.170.5']",['reply_w'],0.3,0.06666666666666667,0.0,0.0,0.0,0.0
follower,just in the corner,['q2ec3.f.move.169'],['check'],0.5,0.16,0.038461538461538464,0.0,0.0,0.0
giver,no,['q2ec3.g.move.171'],['reply_n'],0.16666666666666666,0.0,0.0,0.0,0.0,0.0
follower,no,"['q2ec3.f.move.170', 'q2ec3.f.move.172.5']",['reply_n'],1.0,1.0,0.0,1.0,0.0,0.0
giver,right underneath the white mountain,['q2ec3.g.move.172'],['reply_w'],0.14285714285714285,0.0,0.0,0.0,0.0,0.0
follower,no,['q2ec3.f.move.173'],['reply_n'],0.14285714285714285,0.0,0.0,0.0,0.0,0.0
giver,okay well you've go-- so you're at the bottom of the white mountain now,"['q2ec3.g.move.174', 'q2ec3.g.move.175']","['ready', 'align']",0.09090909090909091,0.017543859649122806,0.0,0.0,0.0,0.0
follower,yeah,['q2ec3.f.move.176'],['reply_y'],0.18181818181818182,0.0,0.0,0.0,0.0,0.0
giver,right er,"['q2ec3.g.move.177', 'q2ec3.g.move.180.5']",['ready'],0.2222222222222222,0.0,0.0,0.0,0.0,0.0
follower,yo-- what about the lost steps up there,"['q2ec3.f.move.179', 'q2ec3.f.move.184.5']",['query_w'],0.29411764705882354,0.05405405405405406,0.0,0.0,0.0,0.0
giver,no,"['q2ec3.g.move.181', 'q2ec3.g.move.183.5']",['reply_n'],0.0625,0.0,0.0,0.0,0.0,0.0
follower,right okay,['q2ec3.f.move.185'],['acknowledge'],0.09090909090909091,0.0,0.0,0.0,0.0,0.0
giver,no,"['q2ec3.g.move.184', 'q2ec3.g.move.185.5']",['reply_n'],0.09090909090909091,0.0,0.0,0.0,0.0,0.0
giver,well,"['q2ec3.g.move.186', 'q2ec3.g.move.188.5']",['ready'],0.0,0.0,0.0,0.0,0.0,0.0
follower,okay right,"['q2ec3.f.move.188', 'q2ec3.f.move.189.5']",['acknowledge'],0.0,0.0,0.0,0.0,0.0,0.0
giver,about to about three inches,['q2ec3.g.move.189'],['instruct'],0.4375,0.0,0.0,0.0,0.0,0.0
follower,right,['q2ec3.f.move.190'],['acknowledge'],0.2857142857142857,0.0,0.0,0.0,0.0,0.0
giver,and now straight drop down,"['q2ec3.g.move.191', 'q2ec3.g.move.193.5']",['instruct'],0.38461538461538464,0.125,0.08,0.0,0.0,0.0
follower,yes,"['q2ec3.f.move.193', 'q2ec3.f.move.195.5']",['reply_y'],0.06666666666666667,0.0,0.0,0.0,0.0,0.0
giver,right,"['q2ec3.g.move.194', 'q2ec3.g.move.196.5']",['ready'],0.0,0.0,0.0,0.0,0.0,0.0
follower,right there,"['q2ec3.f.move.196', 'q2ec3.f.move.197.5']",['acknowledge'],0.7142857142857143,0.4,0.3333333333333333,0.5,0.0,0.0
giver,underneath the gazelles,"['q2ec3.g.move.197', 'q2ec3.g.move.198.5']",['instruct'],0.42857142857142855,0.14814814814814814,0.07142857142857142,0.0,0.0,0.0
follower,right,['q2ec3.f.move.198'],['acknowledge'],0.2857142857142857,0.0,0.0,0.0,0.0,0.0
giver,about three inches to the right,"['q2ec3.g.move.199', 'q2ec3.g.move.200.5']",['instruct'],0.35714285714285715,0.16,0.10714285714285714,0.16666666666666666,0.0,0.0
follower,right,"['q2ec3.f.move.200', 'q2ec3.f.move.201.5']",['acknowledge'],0.35714285714285715,0.16,0.10714285714285714,0.16666666666666666,0.0,0.0
giver,just and that's the end,"['q2ec3.g.move.201', 'q2ec3.g.move.202.5']",['instruct'],0.14285714285714285,0.0,0.0,0.0,0.0,0.0
follower,okay,"['q2ec3.f.move.202', 'q2ec3.f.move.203.5']",['acknowledge'],0.07142857142857142,0.0,0.0,0.0,0.0,0.0
giver,because you come underneath the gazelles and then you go,"['q2ec3.g.move.203', 'q2ec3.g.move.204.5']",['instruct'],0.15789473684210525,0.0,0.0,0.0,0.0,0.0
follower,and then you go right,"['q2ec3.f.move.204', 'q2ec3.f.move.206.5']",['check'],0.631578947368421,0.2857142857142857,0.23636363636363636,0.4,0.3,0.2222222222222222
giver,go go right,"['q2ec3.g.move.205', 'q2ec3.g.move.208.5']",['reply_y'],0.5384615384615384,0.4,0.35,0.4,0.2,0.0
follower,'kay there's a now,"['q2ec3.f.move.207', 'q2ec3.f.move.208']","['ready', 'explain']",0.3333333333333333,0.0,0.0,0.0,0.0,0.0
giver,okay that's the end,['q2ec3.g.move.209'],['clarify'],0.7857142857142857,0.32,0.23076923076923078,0.0,0.0,0.0
