speaker,sentence,move_id,label,jaccard_sim_char_1_1,jaccard_sim_char_2_2,jaccard_sim_char_3_3,jaccard_sim_word_1_1,jaccard_sim_word_2_2,jaccard_sim_word_3_3
follower,go,"['q2nc8.f.move.1', 'q2nc8.f.move.2.5']",['instruct'],,,,,,
giver,okay we're going to start above th-- directly above the telephone kiosk,"['q2nc8.g.move.2', 'q2nc8.g.move.3.5']",['instruct'],0.09090909090909091,0.01818181818181818,0.0,0.0,0.0,0.0
follower,okay,"['q2nc8.f.move.3', 'q2nc8.f.move.4.5']",['acknowledge'],0.18181818181818182,0.05454545454545454,0.03278688524590164,0.08333333333333333,0.0,0.0
giver,do you have that,"['q2nc8.g.move.4', 'q2nc8.g.move.5.5']",['query_yn'],0.2727272727272727,0.0,0.0,0.0,0.0,0.0
follower,i've got the start yeah,"['q2nc8.f.move.5', 'q2nc8.f.move.8.5']",['reply_y'],0.5333333333333333,0.1724137931034483,0.06060606060606061,0.0,0.0,0.0
giver,okay,"['q2nc8.g.move.6', 'q2nc8.g.move.9.5']",['ready'],0.21428571428571427,0.0,0.0,0.0,0.0,0.0
follower,uh-huh,"['q2nc8.f.move.9', 'q2nc8.f.move.10.5']",['reply_y'],0.0,0.0,0.0,0.0,0.0,0.0
giver,okay,"['q2nc8.g.move.10', 'q2nc8.g.move.11.5']",['acknowledge'],0.0,0.0,0.0,0.0,0.0,0.0
follower,downwards,"['q2nc8.f.move.11', 'q2nc8.f.move.12.5']",['check'],0.2222222222222222,0.0,0.0,0.0,0.0,0.0
giver,downwards sort skipping,"['q2nc8.g.move.12', 'q2nc8.g.move.13.5']",['clarify'],0.5384615384615384,0.38095238095238093,0.3333333333333333,0.3333333333333333,0.0,0.0
follower,to the left-hand side,"['q2nc8.f.move.13', 'q2nc8.f.move.16.5']",['check'],0.4444444444444444,0.025,0.0,0.0,0.0,0.0
giver,yeah okay,"['q2nc8.g.move.14', 'q2nc8.g.move.16']","['reply_y', 'align']",0.3333333333333333,0.0,0.0,0.0,0.0,0.0
follower,okay,['q2nc8.f.move.17'],['acknowledge'],0.5714285714285714,0.375,0.2857142857142857,0.5,0.0,0.0
giver,now take it do you have a stone circle at the bottom,"['q2nc8.g.move.18', 'q2nc8.g.move.19.5']",['query_yn'],0.2,0.0,0.0,0.0,0.0,0.0
follower,no,['q2nc8.f.move.19'],['reply_n'],0.1,0.023255813953488372,0.0,0.0,0.0,0.0
giver,no you don't,['q2nc8.g.move.20'],['acknowledge'],0.25,0.09090909090909091,0.0,0.3333333333333333,0.0,0.0
follower,okay,"['q2nc8.f.move.24', 'q2nc8.f.move.24.5']",['acknowledge'],0.2,0.0,0.0,0.0,0.0,0.0
giver,okay,"['q2nc8.g.move.23', 'q2nc8.g.move.25.5']",['align'],1.0,1.0,1.0,1.0,0.0,0.0
follower,okay,"['q2nc8.f.move.25', 'q2nc8.f.move.27.5']",['reply_y'],1.0,1.0,1.0,1.0,0.0,0.0
giver,if you get to that point,"['q2nc8.g.move.26', 'q2nc8.g.move.28.5']",['instruct'],0.21428571428571427,0.0,0.0,0.0,0.0,0.0
follower,to the right,"['q2nc8.f.move.28', 'q2nc8.f.move.30.5']",['check'],0.5,0.14285714285714285,0.10344827586206896,0.125,0.0,0.0
giver,to the right,"['q2nc8.g.move.29', 'q2nc8.g.move.31.5']",['reply_w'],1.0,1.0,1.0,1.0,1.0,1.0
follower,okay,['q2nc8.f.move.31'],['acknowledge'],0.09090909090909091,0.0,0.0,0.0,0.0,0.0
giver,okay,['q2nc8.g.move.32'],['align'],1.0,1.0,1.0,1.0,0.0,0.0
follower,up and up and left or right,"['q2nc8.f.move.34', 'q2nc8.f.move.37.5']",['check'],0.11764705882352941,0.0,0.0,0.0,0.0,0.0
giver,so that you're,"['q2nc8.g.move.35', 'q2nc8.g.move.38.5']",['instruct'],0.4444444444444444,0.03125,0.0,0.0,0.0,0.0
follower,right,"['q2nc8.f.move.38', 'q2nc8.f.move.42.5']",['acknowledge'],0.23076923076923078,0.0,0.0,0.0,0.0,0.0
giver,okay,"['q2nc8.g.move.39', 'q2nc8.g.move.43.5']",['ready'],0.0,0.0,0.0,0.0,0.0,0.0
follower,up and to the right,"['q2nc8.f.move.43', 'q2nc8.f.move.46.5']",['check'],0.13333333333333333,0.0,0.0,0.0,0.0,0.0
giver,up to the left-hand side of it yeah until you're at the top left-hand corner of the drawing,"['q2nc8.g.move.46', 'q2nc8.g.move.47.5']",['clarify'],0.6190476190476191,0.18181818181818182,0.11392405063291139,0.16666666666666666,0.045454545454545456,0.0
follower,of the broken gate,"['q2nc8.f.move.47', 'q2nc8.f.move.48.5']",['check'],0.43478260869565216,0.09859154929577464,0.06097560975609756,0.1111111111111111,0.047619047619047616,0.0
giver,of the broken gate that's correct,['q2nc8.g.move.48'],['reply_y'],0.8,0.6071428571428571,0.5333333333333333,0.6666666666666666,0.6,0.5
follower,okay,['q2nc8.f.move.49'],['acknowledge'],0.1875,0.03333333333333333,0.0,0.0,0.0,0.0
giver,okay,"['q2nc8.g.move.50', 'q2nc8.g.move.54.5']",['ready'],1.0,1.0,1.0,1.0,0.0,0.0
follower,yeah,"['q2nc8.f.move.54', 'q2nc8.f.move.56.5']",['reply_y'],0.3333333333333333,0.0,0.0,0.0,0.0,0.0
giver,okay,"['q2nc8.g.move.55', 'q2nc8.g.move.57.5']",['acknowledge'],0.3333333333333333,0.0,0.0,0.0,0.0,0.0
follower,yeah,"['q2nc8.f.move.57', 'q2nc8.f.move.59.5']",['reply_y'],0.3333333333333333,0.0,0.0,0.0,0.0,0.0
giver,okay,"['q2nc8.g.move.58', 'q2nc8.g.move.60.5']",['align'],0.3333333333333333,0.0,0.0,0.0,0.0,0.0
follower,sorry have i to go round the top of it,"['q2nc8.f.move.60', 'q2nc8.f.move.65.5']",['check'],0.16666666666666666,0.0,0.0,0.0,0.0,0.0
giver,no no,"['q2nc8.g.move.61', 'q2nc8.g.move.66.5']",['reply_n'],0.17647058823529413,0.030303030303030304,0.0,0.0,0.0,0.0
follower,above the third seagull,"['q2nc8.f.move.66', 'q2nc8.f.move.67.5']",['check'],0.125,0.0,0.0,0.0,0.0,0.0
giver,above the seagull so that both like your pen,"['q2nc8.g.move.67', 'q2nc8.g.move.68.5']",['clarify'],0.7368421052631579,0.375,0.30434782608695654,0.3,0.1,0.0
follower,okay,"['q2nc8.f.move.68', 'q2nc8.f.move.70.5']",['acknowledge'],0.2222222222222222,0.0,0.0,0.0,0.0,0.0
giver,and your finger are level,"['q2nc8.g.move.69', 'q2nc8.g.move.69.5']",['clarify'],0.2,0.0,0.0,0.0,0.0,0.0
follower,right,['q2nc8.f.move.71'],['acknowledge'],0.1875,0.0,0.0,0.0,0.0,0.0
giver,okay,"['q2nc8.g.move.70', 'q2nc8.g.move.72.5']",['align'],0.0,0.0,0.0,0.0,0.0,0.0
follower,okay,"['q2nc8.f.move.72', 'q2nc8.f.move.74.5']",['reply_y'],1.0,1.0,1.0,1.0,0.0,0.0
giver,now if you raise your right this imaginary point up about three quarters of an inch say,"['q2nc8.g.move.73', 'q2nc8.g.move.75.5']",['instruct'],0.14285714285714285,0.014492753623188406,0.0,0.0,0.0,0.0
follower,okay,"['q2nc8.f.move.75', 'q2nc8.f.move.77.5']",['reply_y'],0.14285714285714285,0.014492753623188406,0.0,0.0,0.0,0.0
giver,see the point you're at there,"['q2nc8.g.move.76', 'q2nc8.g.move.79.5']",['align'],0.2,0.0,0.0,0.0,0.0,0.0
follower,okay,"['q2nc8.f.move.78', 'q2nc8.f.move.82.5']",['acknowledge'],0.2,0.0,0.0,0.0,0.0,0.0
giver,okay now,"['q2nc8.g.move.80', 'q2nc8.g.move.81', 'q2nc8.g.move.84.5']","['acknowledge', 'ready']",0.5714285714285714,0.42857142857142855,0.3333333333333333,0.5,0.0,0.0
follower,eh not near where i am just now,"['q2nc8.f.move.83', 'q2nc8.f.move.86.5']",['reply_n'],0.3125,0.1,0.06451612903225806,0.125,0.0,0.0
giver,yeah,"['q2nc8.g.move.85', 'q2nc8.g.move.87.5']",['reply_y'],0.2,0.03571428571428571,0.0,0.0,0.0,0.0
follower,yeah,"['q2nc8.f.move.87', 'q2nc8.f.move.89.5']",['reply_y'],1.0,1.0,1.0,1.0,0.0,0.0
giver,okay,"['q2nc8.g.move.88', 'q2nc8.g.move.90.5']",['align'],0.3333333333333333,0.0,0.0,0.0,0.0,0.0
follower,okay yeah,"['q2nc8.f.move.90', 'q2nc8.f.move.91.5']",['acknowledge'],0.5714285714285714,0.375,0.2857142857142857,0.5,0.0,0.0
giver,it's about a centimetre off it,"['q2nc8.g.move.91', 'q2nc8.g.move.92.5']",['instruct'],0.2222222222222222,0.0,0.0,0.0,0.0,0.0
follower,okay,"['q2nc8.f.move.92', 'q2nc8.f.move.94.5']",['acknowledge'],0.11764705882352941,0.0,0.0,0.0,0.0,0.0
giver,okay,"['q2nc8.g.move.93', 'q2nc8.g.move.95.5']",['acknowledge'],1.0,1.0,1.0,1.0,0.0,0.0
follower,round the monastery down to where i was,"['q2nc8.f.move.95', 'q2nc8.f.move.96.5']",['check'],0.1875,0.0,0.0,0.0,0.0,0.0
giver,eh just from that edge to where you were,"['q2nc8.g.move.96', 'q2nc8.g.move.98.5']",['clarify'],0.7222222222222222,0.25,0.13846153846153847,0.14285714285714285,0.07692307692307693,0.0
follower,right okay,"['q2nc8.f.move.97', 'q2nc8.f.move.100.5']",['acknowledge'],0.4444444444444444,0.024390243902439025,0.0,0.0,0.0,0.0
giver,no,"['q2nc8.g.move.99', 'q2nc8.g.move.103.5']",['reply_n'],0.09090909090909091,0.0,0.0,0.0,0.0,0.0
follower,okay,"['q2nc8.f.move.101', 'q2nc8.f.move.104.5']",['acknowledge'],0.2,0.0,0.0,0.0,0.0,0.0
giver,okay,['q2nc8.g.move.104'],['align'],1.0,1.0,1.0,1.0,0.0,0.0
follower,right,['q2nc8.f.move.105'],['reply_y'],0.0,0.0,0.0,0.0,0.0,0.0
giver,now do you have the west lake down to your left,"['q2nc8.g.move.106', 'q2nc8.g.move.107.5']",['query_yn'],0.15789473684210525,0.0,0.0,0.0,0.0,0.0
follower,no,['q2nc8.f.move.107'],['reply_n'],0.11764705882352941,0.02857142857142857,0.0,0.0,0.0,0.0
giver,okay,['q2nc8.g.move.108'],['acknowledge'],0.2,0.0,0.0,0.0,0.0,0.0
follower,right,"['q2nc8.f.move.110', 'q2nc8.f.move.113.5']",['acknowledge'],0.0,0.0,0.0,0.0,0.0,0.0
giver,okay,"['q2nc8.g.move.111', 'q2nc8.g.move.114.5']",['align'],0.0,0.0,0.0,0.0,0.0,0.0
follower,right,['q2nc8.f.move.114'],['reply_y'],0.0,0.0,0.0,0.0,0.0,0.0
giver,right,"['q2nc8.g.move.115', 'q2nc8.g.move.117.5']",['ready'],1.0,1.0,1.0,1.0,0.0,0.0
follower,right,"['q2nc8.f.move.117', 'q2nc8.f.move.118.5']",['acknowledge'],1.0,1.0,1.0,1.0,0.0,0.0
giver,right just continue down the way,"['q2nc8.g.move.118', 'q2nc8.g.move.119.5']",['instruct'],0.29411764705882354,0.13793103448275862,0.1,0.16666666666666666,0.0,0.0
follower,okay,"['q2nc8.f.move.119', 'q2nc8.f.move.120.5']",['acknowledge'],0.16666666666666666,0.03225806451612903,0.0,0.0,0.0,0.0
giver,moving both outwards and downwards,"['q2nc8.g.move.120', 'q2nc8.g.move.121.5']",['instruct'],0.1111111111111111,0.0,0.0,0.0,0.0,0.0
follower,right,['q2nc8.f.move.121'],['acknowledge'],0.3125,0.0,0.0,0.0,0.0,0.0
giver,okay,['q2nc8.g.move.122'],['align'],0.0,0.0,0.0,0.0,0.0,0.0
follower,level with where i am,"['q2nc8.f.move.124', 'q2nc8.f.move.126.5']",['check'],0.07142857142857142,0.0,0.0,0.0,0.0,0.0
giver,level from where you are,"['q2nc8.g.move.125', 'q2nc8.g.move.127.5']",['clarify'],0.6,0.41379310344827586,0.28125,0.2857142857142857,0.0,0.0
follower,okay,"['q2nc8.f.move.127', 'q2nc8.f.move.128.5']",['reply_y'],0.21428571428571427,0.0,0.0,0.0,0.0,0.0
giver,then move that point up half an inch so you've got a kind diagonal line again,"['q2nc8.g.move.128', 'q2nc8.g.move.129.5']",['instruct'],0.19047619047619047,0.0,0.0,0.0,0.0,0.0
follower,right,"['q2nc8.f.move.129', 'q2nc8.f.move.130.5']",['acknowledge'],0.18181818181818182,0.0,0.0,0.0,0.0,0.0
giver,okay this is the left-hand edge of the page yeah,"['q2nc8.g.move.130', 'q2nc8.g.move.132.5']",['align'],0.2222222222222222,0.0,0.0,0.0,0.0,0.0
follower,yeah okay,"['q2nc8.f.move.131', 'q2nc8.f.move.134.5']",['reply_y'],0.4117647058823529,0.1891891891891892,0.09302325581395349,0.2,0.0,0.0
giver,okay,"['q2nc8.g.move.133', 'q2nc8.g.move.133.5']",['acknowledge'],0.5714285714285714,0.375,0.2857142857142857,0.5,0.0,0.0
follower,okay,['q2nc8.f.move.135'],['acknowledge'],1.0,1.0,1.0,1.0,0.0,0.0
giver,if you connect these two points do you have a stile above you,"['q2nc8.g.move.134', 'q2nc8.g.move.136', 'q2nc8.g.move.138.5']","['instruct', 'query_yn']",0.15,0.0,0.0,0.0,0.0,0.0
follower,yeah,"['q2nc8.f.move.137', 'q2nc8.f.move.140.5']",['reply_y'],0.21052631578947367,0.0,0.0,0.0,0.0,0.0
giver,okay,"['q2nc8.g.move.139', 'q2nc8.g.move.141.5']",['ready'],0.3333333333333333,0.0,0.0,0.0,0.0,0.0
follower,i'm down and about an inch to the left,"['q2nc8.f.move.141', 'q2nc8.f.move.143.5']",['reply_w'],0.10526315789473684,0.0,0.0,0.0,0.0,0.0
giver,an inch to the okay,"['q2nc8.g.move.142', 'q2nc8.g.move.144.5']",['acknowledge'],0.47368421052631576,0.3611111111111111,0.3333333333333333,0.4444444444444444,0.375,0.2857142857142857
follower,okay,"['q2nc8.f.move.144', 'q2nc8.f.move.145.5']",['acknowledge'],0.36363636363636365,0.17647058823529413,0.11764705882352941,0.2,0.0,0.0
giver,your point should be downwards you probably got the distance correct down the way but that'll be your route,"['q2nc8.g.move.145', 'q2nc8.g.move.146.5']",['instruct'],0.14285714285714285,0.013513513513513514,0.0,0.0,0.0,0.0
follower,up to the top of the stile,"['q2nc8.f.move.146', 'q2nc8.f.move.148.5']",['check'],0.47619047619047616,0.07228915662650602,0.02830188679245283,0.045454545454545456,0.0,0.0
giver,yeah top left-hand corner,"['q2nc8.g.move.147', 'q2nc8.g.move.148']","['reply_y', 'clarify']",0.4444444444444444,0.1388888888888889,0.075,0.1,0.0,0.0
follower,okay,['q2nc8.f.move.149'],['acknowledge'],0.1875,0.0,0.0,0.0,0.0,0.0
giver,now if you like sort draw a line along the top of that as if we're skirting round the ex-- the edge of it,"['q2nc8.g.move.150', 'q2nc8.g.move.152.5']",['instruct'],0.18181818181818182,0.0,0.0,0.0,0.0,0.0
follower,okay,['q2nc8.f.move.152'],['acknowledge'],0.18181818181818182,0.0,0.0,0.0,0.0,0.0
giver,again now we're going to move straight up about an inch and a half,"['q2nc8.g.move.153', 'q2nc8.g.move.154.5']",['instruct'],0.08333333333333333,0.0,0.0,0.0,0.0,0.0
giver,i've,"['q2nc8.g.move.154.6', 'q2nc8.g.move.160.5']",['uncodable'],0.18181818181818182,0.017543859649122806,0.0,0.0,0.0,0.0
follower,i've got a popular tourist spot slightly to the right and up from the stile,"['q2nc8.f.move.160', 'q2nc8.f.move.163.5']",['explain'],0.2,0.05660377358490566,0.03125,0.07692307692307693,0.0,0.0
giver,okay,"['q2nc8.g.move.161', 'q2nc8.g.move.164.5']",['acknowledge'],0.14285714285714285,0.0,0.0,0.0,0.0,0.0
follower,no not at the moment,"['q2nc8.f.move.164', 'q2nc8.f.move.167.5']",['reply_n'],0.2,0.0,0.0,0.0,0.0,0.0
giver,no,"['q2nc8.g.move.165', 'q2nc8.g.move.168.5']",['acknowledge'],0.25,0.058823529411764705,0.0,0.2,0.0,0.0
follower,up in the top left-hand corner,"['q2nc8.f.move.168', 'q2nc8.f.move.170.5']",['check'],0.125,0.0,0.0,0.0,0.0,0.0
giver,right the top left-hand corner,"['q2nc8.g.move.169', 'q2nc8.g.move.171.5']",['clarify'],0.8823529411764706,0.71875,0.696969696969697,0.625,0.5714285714285714,0.5
follower,aye right okay,"['q2nc8.f.move.171', 'q2nc8.f.move.173.5']",['acknowledge'],0.5,0.17647058823529413,0.1111111111111111,0.125,0.0,0.0
giver,okay,"['q2nc8.g.move.172', 'q2nc8.g.move.172.5']",['align'],0.36363636363636365,0.25,0.16666666666666666,0.3333333333333333,0.0,0.0
follower,i've got i've got,"['q2nc8.f.move.174', 'q2nc8.f.move.176.4']",['explain'],0.09090909090909091,0.0,0.0,0.0,0.0,0.0
giver,and you come in about three inches okay there's a point,"['q2nc8.g.move.173', 'q2nc8.g.move.178.5']",['instruct'],0.2857142857142857,0.061224489795918366,0.0,0.0,0.0,0.0
follower,i've got a great viewpoint there,"['q2nc8.f.move.176.9', 'q2nc8.f.move.179.5']",['explain'],0.5,0.22807017543859648,0.1267605633802817,0.07142857142857142,0.0,0.0
giver,oh wait a minute,"['q2nc8.g.move.179', 'q2nc8.g.move.180.5']",['acknowledge'],0.5625,0.10526315789473684,0.047619047619047616,0.0,0.0,0.0
follower,okay,"['q2nc8.f.move.180', 'q2nc8.f.move.182.5']",['align'],0.15384615384615385,0.0,0.0,0.0,0.0,0.0
giver,no no,"['q2nc8.g.move.181', 'q2nc8.g.move.184.5']",['reply_n'],0.16666666666666666,0.0,0.0,0.0,0.0,0.0
follower,yeah,"['q2nc8.f.move.183', 'q2nc8.f.move.189.5']",['reply_y'],0.0,0.0,0.0,0.0,0.0,0.0
giver,no,"['q2nc8.g.move.185', 'q2nc8.g.move.190.5']",['reply_n'],0.0,0.0,0.0,0.0,0.0,0.0
follower,okay,"['q2nc8.f.move.190', 'q2nc8.f.move.191.5']",['acknowledge'],0.2,0.0,0.0,0.0,0.0,0.0
giver,four inches away from the top edge four inches away from the the edge on the left-hand side,"['q2nc8.g.move.191', 'q2nc8.g.move.192.5']",['instruct'],0.13636363636363635,0.02,0.0,0.0,0.0,0.0
follower,right,"['q2nc8.f.move.192', 'q2nc8.f.move.193.5']",['acknowledge'],0.23809523809523808,0.0,0.0,0.0,0.0,0.0
giver,now on my map that should be that's like up from the stile,"['q2nc8.g.move.193', 'q2nc8.g.move.194.5']",['explain'],0.18181818181818182,0.0,0.0,0.0,0.0,0.0
follower,right,['q2nc8.f.move.194'],['acknowledge'],0.18181818181818182,0.0,0.0,0.0,0.0,0.0
giver,okay,"['q2nc8.g.move.195', 'q2nc8.g.move.198.5']",['align'],0.0,0.0,0.0,0.0,0.0,0.0
follower,yeah,"['q2nc8.f.move.197', 'q2nc8.f.move.200.5']",['reply_y'],0.3333333333333333,0.0,0.0,0.0,0.0,0.0
giver,okay,"['q2nc8.g.move.199', 'q2nc8.g.move.201.5']",['acknowledge'],0.3333333333333333,0.0,0.0,0.0,0.0,0.0
follower,mmhmm,"['q2nc8.f.move.201', 'q2nc8.f.move.202.5']",['reply_y'],0.0,0.0,0.0,0.0,0.0,0.0
giver,that one oh i've got dead tree you've got elm tree,"['q2nc8.g.move.202', 'q2nc8.g.move.203.5']",['explain'],0.11764705882352941,0.0,0.0,0.0,0.0,0.0
follower,i've got dutch elm,"['q2nc8.f.move.203', 'q2nc8.f.move.207.5']",['explain'],0.7222222222222222,0.34210526315789475,0.2222222222222222,0.3,0.08333333333333333,0.0
giver,is it,"['q2nc8.g.move.204', 'q2nc8.g.move.208.5']",['query_yn'],0.2,0.0,0.0,0.0,0.0,0.0
follower,yeah,"['q2nc8.f.move.208', 'q2nc8.f.move.210.5']",['reply_y'],0.0,0.0,0.0,0.0,0.0,0.0
giver,okay,"['q2nc8.g.move.209', 'q2nc8.g.move.211.5']",['acknowledge'],0.3333333333333333,0.0,0.0,0.0,0.0,0.0
follower,mmhmm,"['q2nc8.f.move.211', 'q2nc8.f.move.212.5']",['acknowledge'],0.0,0.0,0.0,0.0,0.0,0.0
giver,okay about a centimetre below that,"['q2nc8.g.move.212', 'q2nc8.g.move.213.5']",['align'],0.11764705882352941,0.0,0.0,0.0,0.0,0.0
follower,right,"['q2nc8.f.move.213', 'q2nc8.f.move.214.5']",['acknowledge'],0.2222222222222222,0.0,0.0,0.0,0.0,0.0
giver,okay if you draw a line is that a can you ha-- have a diagonal line going from where you are right down to,"['q2nc8.g.move.214', 'q2nc8.g.move.215.5']",['instruct'],0.22727272727272727,0.05555555555555555,0.03333333333333333,0.05555555555555555,0.0,0.0
follower,yeah,"['q2nc8.f.move.215', 'q2nc8.f.move.217.5']",['acknowledge'],0.18181818181818182,0.0,0.0,0.0,0.0,0.0
giver,yeah,"['q2nc8.g.move.216', 'q2nc8.g.move.218.5']",['align'],1.0,1.0,1.0,1.0,0.0,0.0
follower,no,"['q2nc8.f.move.218', 'q2nc8.f.move.220.5']",['reply_n'],0.0,0.0,0.0,0.0,0.0,0.0
giver,okay,"['q2nc8.g.move.219', 'q2nc8.g.move.221.5']",['acknowledge'],0.2,0.0,0.0,0.0,0.0,0.0
follower,no we just stayed away from it,"['q2nc8.f.move.221', 'q2nc8.f.move.222.5']",['reply_w'],0.17647058823529413,0.034482758620689655,0.0,0.0,0.0,0.0
giver,oh never went anywhere near it,"['q2nc8.g.move.222', 'q2nc8.g.move.225.5']",['check'],0.5555555555555556,0.15555555555555556,0.03773584905660377,0.08333333333333333,0.0,0.0
follower,no w-- well we went round the popular tourist spot we avoided the great viewpoint,['q2nc8.f.move.223'],['clarify'],0.5789473684210527,0.17142857142857143,0.053763440860215055,0.058823529411764705,0.0,0.0
giver,yeah okay went round that that's fine okay you're going to curve half a circle around that tree,"['q2nc8.g.move.226', 'q2nc8.g.move.227', 'q2nc8.g.move.228.5']","['acknowledge', 'instruct']",0.6956521739130435,0.2631578947368421,0.13076923076923078,0.08,0.034482758620689655,0.0
follower,up the way,"['q2nc8.f.move.228', 'q2nc8.f.move.231.5']",['check'],0.36363636363636365,0.07462686567164178,0.012048192771084338,0.0,0.0,0.0
giver,up the way,"['q2nc8.g.move.229', 'q2nc8.g.move.232.5']",['reply_y'],1.0,1.0,1.0,1.0,1.0,1.0
follower,uh-huh,"['q2nc8.f.move.232', 'q2nc8.f.move.233.5']",['reply_y'],0.2,0.0,0.0,0.0,0.0,0.0
giver,until you're say above that that's your half circle,"['q2nc8.g.move.233', 'q2nc8.g.move.234.5']",['clarify'],0.10526315789473684,0.0,0.0,0.0,0.0,0.0
follower,okay,['q2nc8.f.move.234'],['acknowledge'],0.15789473684210525,0.023255813953488372,0.0,0.0,0.0,0.0
giver,"okay you've done a ""u"" turn now see where you have the east lake at the top","['q2nc8.g.move.235', 'q2nc8.g.move.236', 'q2nc8.g.move.237.9']","['align', 'ready']",0.21052631578947367,0.05454545454545454,0.03076923076923077,0.07142857142857142,0.0,0.0
follower,yeah,['q2nc8.f.move.238'],['reply_y'],0.21052631578947367,0.017543859649122806,0.0,0.0,0.0,0.0
giver,"right if you draw a line if you go from the ""e"" in lake down the way","['q2nc8.g.move.239', 'q2nc8.g.move.241.5']",['instruct'],0.21052631578947367,0.0,0.0,0.0,0.0,0.0
follower,okay,"['q2nc8.f.move.241', 'q2nc8.f.move.242.5']",['reply_y'],0.21052631578947367,0.0196078431372549,0.0,0.0,0.0,0.0
giver,on to the edge of the lake,"['q2nc8.g.move.242', 'q2nc8.g.move.243.5']",['instruct'],0.23076923076923078,0.0,0.0,0.0,0.0,0.0
follower,right,"['q2nc8.f.move.243', 'q2nc8.f.move.244.5']",['acknowledge'],0.21428571428571427,0.0,0.0,0.0,0.0,0.0
giver,and then say about half a centimetre from the edge of the lake if you connect those two points,['q2nc8.g.move.244'],['instruct'],0.22727272727272727,0.0,0.0,0.0,0.0,0.0
follower,okay,['q2nc8.f.move.245'],['acknowledge'],0.18181818181818182,0.0136986301369863,0.0,0.0,0.0,0.0
giver,now skirt the edge of the lake to the left move left along the edge of the lake,"['q2nc8.g.move.246', 'q2nc8.g.move.247.5']",['instruct'],0.15789473684210525,0.0,0.0,0.0,0.0,0.0
follower,okay,"['q2nc8.f.move.247', 'q2nc8.f.move.248.5']",['acknowledge'],0.15789473684210525,0.0,0.0,0.0,0.0,0.0
giver,for about three inches,"['q2nc8.g.move.248', 'q2nc8.g.move.249.5']",['instruct'],0.125,0.0,0.0,0.0,0.0,0.0
follower,to the corner,"['q2nc8.f.move.249', 'q2nc8.f.move.250.5']",['check'],0.5714285714285714,0.17857142857142858,0.03333333333333333,0.0,0.0,0.0
giver,yeah to the corner,['q2nc8.g.move.250'],['reply_y'],0.8,0.75,0.6875,0.75,0.6666666666666666,0.5
follower,okay,"['q2nc8.f.move.251', 'q2nc8.f.move.252.5']",['acknowledge'],0.2727272727272727,0.0,0.0,0.0,0.0,0.0
giver,so you're just past go past that co-- don't go up or anything like that just go past the corner for about an inch,"['q2nc8.g.move.252', 'q2nc8.g.move.253.5']",['clarify'],0.17391304347826086,0.0,0.0,0.0,0.0,0.0
follower,right,"['q2nc8.f.move.253', 'q2nc8.f.move.256.5']",['acknowledge'],0.21739130434782608,0.0,0.0,0.0,0.0,0.0
giver,and finish there,"['q2nc8.g.move.254', 'q2nc8.g.move.255.5']",['instruct'],0.3333333333333333,0.0,0.0,0.0,0.0,0.0
follower,right,['q2nc8.f.move.257'],['acknowledge'],0.3333333333333333,0.0,0.0,0.0,0.0,0.0
giver,okay,['q2nc8.g.move.256'],['align'],0.0,0.0,0.0,0.0,0.0,0.0
