speaker,sentence,move_id,label,jaccard_sim_char_1_1,jaccard_sim_char_2_2,jaccard_sim_char_3_3,jaccard_sim_word_1_1,jaccard_sim_word_2_2,jaccard_sim_word_3_3
giver,okay,['q2nc4.g.move.1'],['query_yn'],,,,,,
follower,yeah,['q2nc4.f.move.3'],['reply_y'],0.3333333333333333,0.0,0.0,0.0,0.0,0.0
giver,if you go from the start,"['q2nc4.g.move.4', 'q2nc4.g.move.5.5']",['instruct'],0.2857142857142857,0.0,0.0,0.0,0.0,0.0
follower,mmhmm,"['q2nc4.f.move.5', 'q2nc4.f.move.6.5']",['acknowledge'],0.14285714285714285,0.0,0.0,0.0,0.0,0.0
follower,okay,"['q2nc4.f.move.7', 'q2nc4.f.move.8.5']",['acknowledge'],0.0,0.0,0.0,0.0,0.0,0.0
giver,and,"['q2nc4.g.move.8', 'q2nc4.g.move.9.5']",['ready'],0.16666666666666666,0.0,0.0,0.0,0.0,0.0
follower,straight down,"['q2nc4.f.move.9', 'q2nc4.f.move.10.5']",['check'],0.25,0.0,0.0,0.0,0.0,0.0
giver,just as you get to the bottom of the diamond stop,"['q2nc4.g.move.10', 'q2nc4.g.move.11.5']",['instruct'],0.5,0.0625,0.0,0.0,0.0,0.0
follower,straight down chris,"['q2nc4.f.move.11', 'q2nc4.f.move.12.5']",['check'],0.47619047619047616,0.05555555555555555,0.0,0.0,0.0,0.0
giver,yeah,['q2nc4.g.move.12'],['reply_y'],0.13333333333333333,0.0,0.0,0.0,0.0,0.0
follower,okay okay here i am,"['q2nc4.f.move.13', 'q2nc4.f.move.14']",['acknowledge'],0.4,0.0,0.0,0.0,0.0,0.0
giver,move right across the page,"['q2nc4.g.move.15', 'q2nc4.g.move.16.5']",['instruct'],0.5,0.08571428571428572,0.0,0.0,0.0,0.0
giver,yeah,"['q2nc4.g.move.17', 'q2nc4.g.move.19.5']",['reply_y'],0.2,0.0,0.0,0.0,0.0,0.0
follower,no,"['q2nc4.f.move.19', 'q2nc4.f.move.22.5']",['reply_n'],0.0,0.0,0.0,0.0,0.0,0.0
giver,okay,"['q2nc4.g.move.20', 'q2nc4.g.move.23.5']",['acknowledge'],0.2,0.0,0.0,0.0,0.0,0.0
follower,halfway between,"['q2nc4.f.move.23', 'q2nc4.f.move.24.5']",['check'],0.15384615384615385,0.0625,0.0,0.0,0.0,0.0
giver,the diamond and the edge of the page on the right,"['q2nc4.g.move.24', 'q2nc4.g.move.25.5']",['clarify'],0.3888888888888889,0.0,0.0,0.0,0.0,0.0
follower,mmhmm,"['q2nc4.f.move.25', 'q2nc4.f.move.26.5']",['acknowledge'],0.14285714285714285,0.0,0.0,0.0,0.0,0.0
giver,imagine an obstacle,"['q2nc4.g.move.26', 'q2nc4.g.move.27.5']",['clarify'],0.07142857142857142,0.0,0.0,0.0,0.0,0.0
follower,mmhmm,"['q2nc4.f.move.27', 'q2nc4.f.move.28.5']",['acknowledge'],0.07142857142857142,0.0,0.0,0.0,0.0,0.0
giver,draw the line across an--,"['q2nc4.g.move.28', 'q2nc4.g.move.30.5']",['instruct'],0.0625,0.0,0.0,0.0,0.0,0.0
follower,i've a cactus,"['q2nc4.f.move.29', 'q2nc4.f.move.31.5']",['explain'],0.3888888888888889,0.0967741935483871,0.030303030303030304,0.0,0.0,0.0
giver,no,"['q2nc4.g.move.31', 'q2nc4.g.move.32.5']",['reply_n'],0.0,0.0,0.0,0.0,0.0,0.0
follower,do you have a r--,"['q2nc4.f.move.32', 'q2nc4.f.move.33.5']",['query_yn'],0.08333333333333333,0.0,0.0,0.0,0.0,0.0
giver,draw,"['q2nc4.g.move.33', 'q2nc4.g.move.33.4']",['instruct'],0.25,0.0,0.0,0.0,0.0,0.0
follower,sorry okay,"['q2nc4.f.move.34', 'q2nc4.f.move.36.5']",['acknowledge'],0.2222222222222222,0.0,0.0,0.0,0.0,0.0
giver,draw across to the right and up round the imaginary obstacle which is halfway between the diamond and the end of the page,"['q2nc4.g.move.33.9', 'q2nc4.g.move.38.5']",['instruct'],0.2727272727272727,0.04597701149425287,0.018867924528301886,0.0,0.0,0.0
follower,okay go up over it,"['q2nc4.f.move.37', 'q2nc4.f.move.38']","['acknowledge', 'check']",0.4782608695652174,0.08791208791208792,0.02654867256637168,0.045454545454545456,0.0,0.0
giver,yeah do you have a rift valley,"['q2nc4.g.move.39', 'q2nc4.g.move.40', 'q2nc4.g.move.41.5']","['reply_y', 'query_yn']",0.5882352941176471,0.045454545454545456,0.0,0.0,0.0,0.0
follower,mmhmm,"['q2nc4.f.move.41', 'q2nc4.f.move.42.5']",['reply_y'],0.06666666666666667,0.0,0.0,0.0,0.0,0.0
giver,at the top corner,['q2nc4.g.move.42'],['check'],0.09090909090909091,0.0,0.0,0.0,0.0,0.0
follower,yeah,['q2nc4.f.move.43'],['reply_y'],0.2727272727272727,0.0,0.0,0.0,0.0,0.0
giver,okay,"['q2nc4.g.move.44', 'q2nc4.g.move.46.5']",['ready'],0.3333333333333333,0.0,0.0,0.0,0.0,0.0
follower,okay,"['q2nc4.f.move.46', 'q2nc4.f.move.47.5']",['acknowledge'],1.0,1.0,1.0,1.0,0.0,0.0
giver,okay,['q2nc4.g.move.47'],['align'],1.0,1.0,1.0,1.0,0.0,0.0
follower,yeah,['q2nc4.f.move.48'],['reply_y'],0.3333333333333333,0.0,0.0,0.0,0.0,0.0
giver,now go down about three inches,"['q2nc4.g.move.49', 'q2nc4.g.move.52.5']",['instruct'],0.17647058823529413,0.0,0.0,0.0,0.0,0.0
follower,about three inches one two three,"['q2nc4.f.move.51', 'q2nc4.f.move.53.5']",['acknowledge'],0.875,0.5294117647058824,0.42105263157894735,0.375,0.25,0.14285714285714285
giver,do you have rocks,"['q2nc4.g.move.53', 'q2nc4.g.move.54.5']",['query_yn'],0.5,0.08108108108108109,0.0,0.0,0.0,0.0
follower,yeah,"['q2nc4.f.move.54', 'q2nc4.f.move.55.5']",['reply_y'],0.3076923076923077,0.0,0.0,0.0,0.0,0.0
giver,and stone creek to the left of the rocks,"['q2nc4.g.move.55', 'q2nc4.g.move.56.5']",['query_yn'],0.2,0.0,0.0,0.0,0.0,0.0
follower,no,['q2nc4.f.move.56'],['reply_n'],0.14285714285714285,0.0,0.0,0.0,0.0,0.0
giver,okay,['q2nc4.g.move.57'],['acknowledge'],0.2,0.0,0.0,0.0,0.0,0.0
giver,imagine that about four inches to the left of the rocks there's a creek,['q2nc4.g.move.58'],['explain'],0.15,0.0,0.0,0.0,0.0,0.0
follower,two,['q2nc4.f.move.59'],['uncodable'],0.1,0.0,0.0,0.0,0.0,0.0
giver,draw a line between the rocks and this creek,"['q2nc4.g.move.60', 'q2nc4.g.move.61.5']",['instruct'],0.1875,0.02631578947368421,0.0,0.0,0.0,0.0
follower,i've got rapids,"['q2nc4.f.move.61', 'q2nc4.f.move.63.5']",['explain'],0.45,0.0625,0.0,0.0,0.0,0.0
giver,okay,"['q2nc4.g.move.62', 'q2nc4.g.move.65.5']",['acknowledge'],0.13333333333333333,0.0,0.0,0.0,0.0,0.0
follower,okay,"['q2nc4.f.move.64', 'q2nc4.f.move.66.5']",['acknowledge'],1.0,1.0,1.0,1.0,0.0,0.0
giver,yeah,"['q2nc4.g.move.66', 'q2nc4.g.move.67.5']",['reply_y'],0.3333333333333333,0.0,0.0,0.0,0.0,0.0
follower,and then down the middle in my rapids and my rocks,"['q2nc4.f.move.67', 'q2nc4.f.move.71.5']",['check'],0.2222222222222222,0.0,0.0,0.0,0.0,0.0
giver,yeah and then stop,"['q2nc4.g.move.68', 'q2nc4.g.move.71']","['reply_y', 'instruct']",0.6111111111111112,0.21428571428571427,0.16326530612244897,0.18181818181818182,0.08333333333333333,0.0
follower,okay right,"['q2nc4.f.move.72', 'q2nc4.f.move.73']",['acknowledge'],0.4,0.0,0.0,0.0,0.0,0.0
giver,now do you have white water,"['q2nc4.g.move.74', 'q2nc4.g.move.76.5']",['query_yn'],0.5,0.0,0.0,0.0,0.0,0.0
follower,that'll be the rapids i would imagine no i don't have white water,"['q2nc4.f.move.75', 'q2nc4.f.move.76']","['explain', 'reply_n']",0.6190476190476191,0.32142857142857145,0.21428571428571427,0.2,0.14285714285714285,0.07692307692307693
giver,okay,['q2nc4.g.move.77'],['acknowledge'],0.09090909090909091,0.0,0.0,0.0,0.0,0.0
giver,where i've said the creek is,"['q2nc4.g.move.77.5', 'q2nc4.g.move.78']",['align'],0.125,0.0,0.0,0.0,0.0,0.0
follower,mmhmm,['q2nc4.f.move.79'],['acknowledge'],0.06666666666666667,0.0,0.0,0.0,0.0,0.0
giver,below that and slightly to the left there's an obstacle,"['q2nc4.g.move.80', 'q2nc4.g.move.83.5']",['explain'],0.05,0.0,0.0,0.0,0.0,0.0
follower,right,"['q2nc4.f.move.82', 'q2nc4.f.move.84.5']",['ready'],0.2631578947368421,0.06666666666666667,0.04,0.0,0.0,0.0
giver,okay,"['q2nc4.g.move.84', 'q2nc4.g.move.85.5']",['acknowledge'],0.0,0.0,0.0,0.0,0.0,0.0
follower,and you want me to move which from which direction le--,"['q2nc4.f.move.85', 'q2nc4.f.move.86.5']",['query_w'],0.15,0.0,0.0,0.0,0.0,0.0
giver,left,"['q2nc4.g.move.86', 'q2nc4.g.move.88.5']",['clarify'],0.21052631578947367,0.021739130434782608,0.0,0.0,0.0,0.0
follower,left,"['q2nc4.f.move.87', 'q2nc4.f.move.90.5']",['acknowledge'],1.0,1.0,1.0,1.0,0.0,0.0
giver,yeah i think so,"['q2nc4.g.move.89', 'q2nc4.g.move.90']",['reply_y'],0.15384615384615385,0.0,0.0,0.0,0.0,0.0
follower,okay yeah,"['q2nc4.f.move.91', 'q2nc4.f.move.92']",['acknowledge'],0.6363636363636364,0.15789473684210525,0.1111111111111111,0.25,0.0,0.0
giver,right now,"['q2nc4.g.move.93', 'q2nc4.g.move.95.5']",['ready'],0.23076923076923078,0.0,0.0,0.0,0.0,0.0
follower,i've got a manned fort in the way,"['q2nc4.f.move.95', 'q2nc4.f.move.96.5']",['explain'],0.5294117647058824,0.02702702702702703,0.0,0.0,0.0,0.0
giver,ehm where is it in relation to the side of the page,"['q2nc4.g.move.96', 'q2nc4.g.move.97.5']",['query_w'],0.7,0.15254237288135594,0.1,0.125,0.0,0.0
follower,right it's about two inches in from the left-hand side,"['q2nc4.f.move.97', 'q2nc4.f.move.98.5']",['reply_w'],0.7272727272727273,0.23529411764705882,0.12790697674418605,0.2222222222222222,0.0,0.0
giver,okay well,"['q2nc4.g.move.98', 'q2nc4.g.move.99.5']",['acknowledge'],0.2608695652173913,0.0,0.0,0.0,0.0,0.0
follower,oh wait a minute stone creek,"['q2nc4.f.move.99', 'q2nc4.f.move.100.5']",['explain'],0.35294117647058826,0.030303030303030304,0.0,0.0,0.0,0.0
giver,doesn't matter alright er,"['q2nc4.g.move.100', 'q2nc4.g.move.101.5']",['instruct'],0.5789473684210527,0.09090909090909091,0.0,0.0,0.0,0.0
follower,see the stone creek you were talking about,['q2nc4.f.move.101'],['align'],0.5714285714285714,0.05660377358490566,0.0,0.0,0.0,0.0
giver,yeah,"['q2nc4.g.move.102', 'q2nc4.g.move.103.5']",['reply_y'],0.2222222222222222,0.0,0.0,0.0,0.0,0.0
follower,is that right down at the bottom of the page,"['q2nc4.f.move.103', 'q2nc4.f.move.104.5']",['query_yn'],0.16666666666666666,0.0,0.0,0.0,0.0,0.0
giver,no no,"['q2nc4.g.move.104', 'q2nc4.g.move.105.5']",['reply_n'],0.17647058823529413,0.0,0.0,0.0,0.0,0.0
follower,no,"['q2nc4.f.move.105', 'q2nc4.f.move.106.5']",['acknowledge'],0.6666666666666666,0.3333333333333333,0.0,1.0,0.0,0.0
giver,there's another one there,"['q2nc4.g.move.106', 'q2nc4.g.move.107.5']",['explain'],0.2,0.058823529411764705,0.0,0.0,0.0,0.0
follower,okay,"['q2nc4.f.move.107', 'q2nc4.f.move.109.5']",['acknowledge'],0.16666666666666666,0.0,0.0,0.0,0.0,0.0
giver,right,"['q2nc4.g.move.108', 'q2nc4.g.move.110.5']",['ready'],0.0,0.0,0.0,0.0,0.0,0.0
follower,directly beneath me at the moment it's about two inches in it's about two thirds of the way down the page,"['q2nc4.f.move.110', 'q2nc4.f.move.111.5']",['reply_w'],0.22727272727272727,0.0,0.0,0.0,0.0,0.0
giver,two inches in,"['q2nc4.g.move.111', 'q2nc4.g.move.112.5']",['acknowledge'],0.45454545454545453,0.16666666666666666,0.125,0.1875,0.1111111111111111,0.05555555555555555
follower,and it's about,"['q2nc4.f.move.112', 'q2nc4.f.move.113.5']",['reply_w'],0.4,0.09523809523809523,0.0,0.0,0.0,0.0
giver,okay well keep,"['q2nc4.g.move.113', 'q2nc4.g.move.114.5']",['ready'],0.17647058823529413,0.0,0.0,0.0,0.0,0.0
follower,yeah mmhmm okay straight down straight down chris okay okay here i am underneath the words diamond no halfway between mmhmm mmhmm i've a cactus do you have a cactus do you have a r-- sorry okay okay go up over it mmhmm yeah okay yeah about three inches one two three i've got rocks yeah no two i've got rapids okay so come down over the top top edge of the rocks yeah and then down the middle in my rapids and my rocks okay right that'll be the rapids i would imagine no i don't have white water mmhmm right i'm in the rocks and on my right and the rapids in the middle and you want me to move which from which direction le-- left underneath underneath the rapids yeah okay yeah i've got a manned fort in the way right it's about two inches in from the left-hand side oh wait a minute stone creek see the stone creek you were talking about is that right down at the bottom of the page no okay directly beneath me at the moment it's about two inches in it's about two thirds of the way down the page and it's about two inches down from where i am now,"['q2nc4.f.move.114', 'q2nc4.f.move.115.5']",['reply_w'],0.36,0.04712041884816754,0.012106537530266344,0.011494252873563218,0.0,0.0
giver,keep to the right of it,"['q2nc4.g.move.115', 'q2nc4.g.move.117.5']",['instruct'],0.44,0.10052910052910052,0.038929440389294405,0.05813953488372093,0.0,0.0
follower,keep to the right of it okay,"['q2nc4.f.move.116', 'q2nc4.f.move.119.5']",['acknowledge'],0.8461538461538461,0.875,0.84,0.8571428571428571,0.8333333333333334,0.8
giver,yeah the page,"['q2nc4.g.move.118', 'q2nc4.g.move.121']","['reply_y', 'clarify']",0.6153846153846154,0.125,0.09090909090909091,0.1111111111111111,0.0,0.0
follower,okay,['q2nc4.f.move.120'],['acknowledge'],0.2,0.0,0.0,0.0,0.0,0.0
giver,now,"['q2nc4.g.move.122', 'q2nc4.g.move.124.5']",['ready'],0.16666666666666666,0.0,0.0,0.0,0.0,0.0
follower,to the right-hand side,"['q2nc4.f.move.124', 'q2nc4.f.move.126.5']",['check'],0.14285714285714285,0.0,0.0,0.0,0.0,0.0
giver,yeah,"['q2nc4.g.move.125', 'q2nc4.g.move.129.5']",['reply_y'],0.21428571428571427,0.0,0.0,0.0,0.0,0.0
follower,yeah,"['q2nc4.f.move.127', 'q2nc4.f.move.130.5']",['reply_y'],1.0,1.0,1.0,1.0,0.0,0.0
giver,okay well you go up towards it but draw just beneath the words outlaws' hideout,"['q2nc4.g.move.130', 'q2nc4.g.move.131.5']",['instruct'],0.19047619047619047,0.015151515151515152,0.0,0.0,0.0,0.0
follower,okay,"['q2nc4.f.move.131', 'q2nc4.f.move.132.5']",['acknowledge'],0.19047619047619047,0.046875,0.0273972602739726,0.06666666666666667,0.0,0.0
giver,is that right over in the right-hand side,"['q2nc4.g.move.132', 'q2nc4.g.move.133.5']",['check'],0.125,0.0,0.0,0.0,0.0,0.0
follower,yeah,"['q2nc4.f.move.133', 'q2nc4.f.move.134.5']",['reply_y'],0.2,0.0,0.0,0.0,0.0,0.0
giver,okay,"['q2nc4.g.move.134', 'q2nc4.g.move.135.5']",['acknowledge'],0.3333333333333333,0.0,0.0,0.0,0.0,0.0
follower,and there's a gold directly beneath it,"['q2nc4.f.move.135', 'q2nc4.f.move.136.5']",['explain'],0.16666666666666666,0.0,0.0,0.0,0.0,0.0
giver,no i don't have that,"['q2nc4.g.move.136', 'q2nc4.g.move.138.5']",['reply_n'],0.5555555555555556,0.10638297872340426,0.018867924528301886,0.0,0.0,0.0
follower,okay,"['q2nc4.f.move.137', 'q2nc4.f.move.140.5']",['acknowledge'],0.15384615384615385,0.0,0.0,0.0,0.0,0.0
giver,okay move slightly more to the right 'til you're about an inch away from the edge of the page,"['q2nc4.g.move.139', 'q2nc4.g.move.140']","['acknowledge', 'instruct']",0.16666666666666666,0.046153846153846156,0.02531645569620253,0.05555555555555555,0.0,0.0
follower,okay,['q2nc4.f.move.141'],['acknowledge'],0.16666666666666666,0.046153846153846156,0.02531645569620253,0.05555555555555555,0.0,0.0
giver,do you have a noose at the bottom of the page,['q2nc4.g.move.142'],['query_yn'],0.16666666666666666,0.0,0.0,0.0,0.0,0.0
follower,yeah,['q2nc4.f.move.143'],['reply_y'],0.23529411764705882,0.0,0.0,0.0,0.0,0.0
giver,draw a straight line down keeping a-- an inch away from the edge of the page round under the noose,['q2nc4.g.move.144'],['instruct'],0.18181818181818182,0.0,0.0,0.0,0.0,0.0
follower,okay,['q2nc4.f.move.145'],['acknowledge'],0.18181818181818182,0.013157894736842105,0.0,0.0,0.0,0.0
giver,now do you have a swan pond,"['q2nc4.g.move.146', 'q2nc4.g.move.147.5']",['query_yn'],0.21428571428571427,0.0,0.0,0.0,0.0,0.0
follower,no,['q2nc4.f.move.147'],['reply_n'],0.15384615384615385,0.038461538461538464,0.0,0.0,0.0,0.0
giver,okay,['q2nc4.g.move.148'],['acknowledge'],0.2,0.0,0.0,0.0,0.0,0.0
follower,mmhmm,"['q2nc4.f.move.150', 'q2nc4.f.move.151.5']",['acknowledge'],0.0,0.0,0.0,0.0,0.0,0.0
giver,underneath the noose,['q2nc4.g.move.151'],['align'],0.08333333333333333,0.0,0.0,0.0,0.0,0.0
follower,mmhmm,['q2nc4.f.move.152'],['acknowledge'],0.08333333333333333,0.0,0.0,0.0,0.0,0.0
giver,how far are you underneath it,"['q2nc4.g.move.153', 'q2nc4.g.move.154.5']",['query_w'],0.06666666666666667,0.0,0.0,0.0,0.0,0.0
follower,about half an inch,['q2nc4.f.move.154'],['reply_w'],0.5294117647058824,0.07317073170731707,0.0,0.0,0.0,0.0
giver,okay,['q2nc4.g.move.155'],['acknowledge'],0.14285714285714285,0.0,0.0,0.0,0.0,0.0
follower,okay,"['q2nc4.f.move.157', 'q2nc4.f.move.158.5']",['acknowledge'],1.0,1.0,1.0,1.0,0.0,0.0
giver,sloping slightly down,"['q2nc4.g.move.158', 'q2nc4.g.move.159.5']",['instruct'],0.13333333333333333,0.0,0.0,0.0,0.0,0.0
follower,mmhmm,"['q2nc4.f.move.159', 'q2nc4.f.move.161.5']",['acknowledge'],0.07142857142857142,0.0,0.0,0.0,0.0,0.0
giver,for another thr-- three inches i would say to the left,"['q2nc4.g.move.160', 'q2nc4.g.move.162.5']",['instruct'],0.05263157894736842,0.0,0.0,0.0,0.0,0.0
follower,mmhmm,['q2nc4.f.move.162'],['reply_y'],0.05263157894736842,0.0,0.0,0.0,0.0,0.0
giver,stop there now imagine a circle you have to go up and carrying on to the left as if there's a bump in the route,"['q2nc4.g.move.163', 'q2nc4.g.move.164', 'q2nc4.g.move.167.5']",['instruct'],0.08695652173913043,0.0,0.0,0.0,0.0,0.0
follower,okay,"['q2nc4.f.move.166', 'q2nc4.f.move.169.5']",['acknowledge'],0.125,0.0,0.0,0.0,0.0,0.0
giver,about two three inches,"['q2nc4.g.move.168', 'q2nc4.g.move.170.5']",['reply_w'],0.125,0.0,0.0,0.0,0.0,0.0
follower,well i'm only about an inch from the bottom of the page just now,"['q2nc4.f.move.170', 'q2nc4.f.move.172.5']",['explain'],0.6363636363636364,0.22807017543859648,0.11594202898550725,0.06666666666666667,0.0,0.0
giver,no you have to be higher up than that,['q2nc4.g.move.171'],['reply_n'],0.6086956521739131,0.14705882352941177,0.022727272727272728,0.0,0.0,0.0
follower,right okay,"['q2nc4.f.move.173', 'q2nc4.f.move.174']",['acknowledge'],0.5625,0.05714285714285714,0.025,0.0,0.0,0.0
giver,do you have the saloon bar,['q2nc4.g.move.175'],['query_yn'],0.3888888888888889,0.0,0.0,0.0,0.0,0.0
follower,yeah,['q2nc4.f.move.176'],['reply_y'],0.26666666666666666,0.0,0.0,0.0,0.0,0.0
giver,go underneath the words saloon bar,['q2nc4.g.move.177'],['instruct'],0.1875,0.029411764705882353,0.0,0.0,0.0,0.0
follower,sounds odd but okay,['q2nc4.f.move.178'],['acknowledge'],0.5294117647058824,0.11363636363636363,0.0425531914893617,0.0,0.0,0.0
giver,and then go up and stop when you're i-- in a direct line with the roof of the saloon bar and about an inch away from the left-hand side of the page,['q2nc4.g.move.179'],['instruct'],0.4166666666666667,0.08421052631578947,0.007462686567164179,0.0,0.0,0.0
