speaker,sentence,move_id,label,jaccard_sim_char_1_1,jaccard_sim_char_2_2,jaccard_sim_char_3_3,jaccard_sim_word_1_1,jaccard_sim_word_2_2,jaccard_sim_word_3_3
giver,right,"['q4ec6.g.move.1', 'q4ec6.g.move.4.5']",['ready'],,,,,,
follower,to the left of the camera shop,"['q4ec6.f.move.4', 'q4ec6.f.move.5.5']",['check'],0.2,0.0,0.0,0.0,0.0,0.0
giver,yes,"['q4ec6.g.move.5', 'q4ec6.g.move.6.5']",['reply_y'],0.14285714285714285,0.0,0.0,0.0,0.0,0.0
follower,to the bottom corner,['q4ec6.f.move.6'],['check'],0.08333333333333333,0.0,0.0,0.0,0.0,0.0
giver,ehm y-- yeah eh er you have a parked van marked on your map underneath the camera shop,"['q4ec6.g.move.7', 'q4ec6.g.move.8', 'q4ec6.g.move.9.5']","['reply_y', 'query_yn']",0.47368421052631576,0.12857142857142856,0.044444444444444446,0.05263157894736842,0.0,0.0
follower,no,['q4ec6.f.move.9'],['reply_n'],0.1111111111111111,0.0,0.0,0.0,0.0,0.0
giver,no,['q4ec6.g.move.10'],['acknowledge'],1.0,1.0,0.0,1.0,0.0,0.0
follower,so go right underneath the camera shop at the bottom,"['q4ec6.f.move.12', 'q4ec6.f.move.14.5']",['check'],0.11764705882352941,0.0,0.0,0.0,0.0,0.0
giver,yes and then up,"['q4ec6.g.move.13', 'q4ec6.g.move.14']","['reply_y', 'clarify']",0.5555555555555556,0.12,0.034482758620689655,0.0,0.0,0.0
follower,and then up,"['q4ec6.f.move.15', 'q4ec6.f.move.15.1']",['check'],0.8181818181818182,0.7142857142857143,0.6923076923076923,0.75,0.6666666666666666,0.5
giver,straight up,"['q4ec6.g.move.16', 'q4ec6.g.move.16.5']",['clarify'],0.46153846153846156,0.1111111111111111,0.058823529411764705,0.25,0.0,0.0
follower,the left-hand side of the allotments,"['q4ec6.f.move.15.2', 'q4ec6.f.move.17.5']",['check'],0.3333333333333333,0.0,0.0,0.0,0.0,0.0
giver,yes,"['q4ec6.g.move.17', 'q4ec6.g.move.18.5']",['reply_y'],0.13333333333333333,0.0,0.0,0.0,0.0,0.0
follower,i stop at the top of the allotments,"['q4ec6.f.move.18', 'q4ec6.f.move.20.5']",['check'],0.14285714285714285,0.0,0.0,0.0,0.0,0.0
giver,yes,"['q4ec6.g.move.19', 'q4ec6.g.move.19.5']",['reply_y'],0.14285714285714285,0.0,0.0,0.0,0.0,0.0
follower,right,['q4ec6.f.move.21'],['acknowledge'],0.0,0.0,0.0,0.0,0.0,0.0
giver,and you have a l-- a yacht club in the bottom right corner,"['q4ec6.g.move.20', 'q4ec6.g.move.22']","['ready', 'query_yn']",0.2631578947368421,0.08,0.05660377358490566,0.1,0.0,0.0
follower,yes,['q4ec6.f.move.23'],['reply_y'],0.1,0.0,0.0,0.0,0.0,0.0
giver,slightly to the left of that you have to draw a point on a level with the c-- the top of the camera shop and then draw a straight line from the corner of the allotments to that point,"['q4ec6.g.move.25', 'q4ec6.g.move.27.5']",['instruct'],0.13636363636363635,0.0,0.0,0.0,0.0,0.0
follower,so have you got a flight museum on your,"['q4ec6.f.move.27', 'q4ec6.f.move.28.5']",['query_yn'],0.7727272727272727,0.23,0.09523809523809523,0.10714285714285714,0.0,0.0
giver,no,"['q4ec6.g.move.28', 'q4ec6.g.move.30.5']",['reply_n'],0.11764705882352941,0.0,0.0,0.0,0.0,0.0
follower,no,"['q4ec6.f.move.29', 'q4ec6.f.move.32.5']",['acknowledge'],1.0,1.0,0.0,1.0,0.0,0.0
giver,yes,"['q4ec6.g.move.31', 'q4ec6.g.move.33.5']",['reply_y'],0.0,0.0,0.0,0.0,0.0,0.0
follower,and how far away from the yacht club,"['q4ec6.f.move.33', 'q4ec6.f.move.34.5']",['query_w'],0.1111111111111111,0.0,0.0,0.0,0.0,0.0
giver,it's on a l-- it's on a level with the cam-- the roof of the camera shop horizontally and vertically slightly to the left of the c-- yacht club,"['q4ec6.g.move.34', 'q4ec6.g.move.38.5']",['clarify'],0.68,0.2391304347826087,0.12096774193548387,0.18181818181818182,0.07407407407407407,0.03571428571428571
follower,uh-huh,"['q4ec6.f.move.35', 'q4ec6.f.move.39.5']",['acknowledge'],0.12,0.0,0.0,0.0,0.0,0.0
giver,you got that,['q4ec6.g.move.39'],['align'],0.2222222222222222,0.0,0.0,0.0,0.0,0.0
follower,mmhmm,['q4ec6.f.move.40'],['reply_y'],0.1111111111111111,0.0,0.0,0.0,0.0,0.0
giver,then you go straight up and curve over the top of the disused monastery,"['q4ec6.g.move.42', 'q4ec6.g.move.44.5']",['instruct'],0.10526315789473684,0.0,0.0,0.0,0.0,0.0
follower,straight up right,"['q4ec6.f.move.43', 'q4ec6.f.move.45.5']",['acknowledge'],0.5263157894736842,0.1896551724137931,0.14705882352941177,0.14285714285714285,0.07142857142857142,0.0
giver,have you over th-- o-- are you eh curved over the monastery,"['q4ec6.g.move.45', 'q4ec6.g.move.46.5']",['align'],0.3684210526315789,0.0196078431372549,0.0,0.0,0.0,0.0
follower,mmhmm above the monastery,"['q4ec6.f.move.46', 'q4ec6.f.move.48.5']",['reply_y'],0.7058823529411765,0.35555555555555557,0.2545454545454545,0.18181818181818182,0.08333333333333333,0.0
giver,you go down to the left-hand side in this following the same curve,"['q4ec6.g.move.47', 'q4ec6.g.move.49.5']",['instruct'],0.5454545454545454,0.07352941176470588,0.0379746835443038,0.0625,0.0,0.0
follower,so it's right round the monastery,"['q4ec6.f.move.49', 'q4ec6.f.move.50.5']",['check'],0.6818181818181818,0.1388888888888889,0.046511627906976744,0.05555555555555555,0.0,0.0
giver,yeah,['q4ec6.g.move.50'],['reply_y'],0.25,0.0,0.0,0.0,0.0,0.0
follower,mmhmm,['q4ec6.f.move.51'],['acknowledge'],0.2,0.0,0.0,0.0,0.0,0.0
giver,then at that point the curve reverses itself and dips round to a level which is vertically at the left-hand side of the alpine garden roughly but it ends at the same line as the disused monastery in a curve that dips down from the left-hand side of it,"['q4ec6.g.move.53', 'q4ec6.g.move.55']",['instruct'],0.08695652173913043,0.0,0.0,0.0,0.0,0.0
follower,s--,['q4ec6.f.move.54'],['uncodable'],0.08695652173913043,0.0,0.0,0.0,0.0,0.0
giver,then you go straight up to the left-hand side of the alpine garden,"['q4ec6.g.move.56', 'q4ec6.g.move.57.5']",['instruct'],0.1111111111111111,0.0,0.0,0.0,0.0,0.0
follower,mmhmm,['q4ec6.f.move.57'],['acknowledge'],0.05263157894736842,0.0,0.0,0.0,0.0,0.0
giver,then to the right 'til the other side of the lef-- the alpine garden and straight up now have you got a youth hostel marked there,"['q4ec6.g.move.58', 'q4ec6.g.move.59', 'q4ec6.g.move.60.5']","['instruct', 'query_yn']",0.08695652173913043,0.0,0.0,0.0,0.0,0.0
follower,no,['q4ec6.f.move.60'],['reply_n'],0.08695652173913043,0.012345679012345678,0.0,0.0,0.0,0.0
giver,no,['q4ec6.g.move.61'],['acknowledge'],1.0,1.0,0.0,1.0,0.0,0.0
follower,have you got parked van,"['q4ec6.f.move.64', 'q4ec6.f.move.66.5']",['query_yn'],0.13333333333333333,0.0,0.0,0.0,0.0,0.0
giver,yes,"['q4ec6.g.move.65', 'q4ec6.g.move.67.5']",['reply_y'],0.125,0.0,0.0,0.0,0.0,0.0
follower,uh-huh,"['q4ec6.f.move.67', 'q4ec6.f.move.69.5']",['acknowledge'],0.0,0.0,0.0,0.0,0.0,0.0
giver,it's about it's below the level of the picket fence,"['q4ec6.g.move.68', 'q4ec6.g.move.70.5']",['instruct'],0.1,0.0,0.0,0.0,0.0,0.0
follower,yeah,"['q4ec6.f.move.70', 'q4ec6.f.move.71.5']",['reply_y'],0.15,0.0,0.0,0.0,0.0,0.0
giver,it's about an inch below the level of the picket fence,"['q4ec6.g.move.71', 'q4ec6.g.move.74.5']",['instruct'],0.15,0.0,0.0,0.0,0.0,0.0
follower,right,"['q4ec6.f.move.72', 'q4ec6.f.move.76.5']",['acknowledge'],0.14285714285714285,0.0,0.0,0.0,0.0,0.0
giver,and then you go to your right,"['q4ec6.g.move.75', 'q4ec6.g.move.77.5']",['instruct'],0.38461538461538464,0.17391304347826086,0.12,0.14285714285714285,0.0,0.0
follower,underneath the parked van,"['q4ec6.f.move.77', 'q4ec6.f.move.79.5']",['check'],0.5625,0.15,0.043478260869565216,0.0,0.0,0.0
giver,yes to appro-- to roughly about the middle of the parked van a line and that,"['q4ec6.g.move.78', 'q4ec6.g.move.79']","['reply_y', 'clarify']",0.5454545454545454,0.27419354838709675,0.16666666666666666,0.21428571428571427,0.13333333333333333,0.07142857142857142
follower,uh-huh,['q4ec6.f.move.80'],['acknowledge'],0.13636363636363635,0.0,0.0,0.0,0.0,0.0
giver,and do you have a telephone box,['q4ec6.g.move.82'],['query_yn'],0.125,0.0,0.0,0.0,0.0,0.0
follower,yeah,['q4ec6.f.move.83'],['reply_y'],0.26666666666666666,0.0,0.0,0.0,0.0,0.0
giver,well do,"['q4ec6.g.move.85', 'q4ec6.g.move.88.5']",['ready'],0.1111111111111111,0.0,0.0,0.0,0.0,0.0
follower,i don't have youth hostel,"['q4ec6.f.move.88', 'q4ec6.f.move.90.5']",['explain'],0.3125,0.11538461538461539,0.037037037037037035,0.0,0.0,0.0
giver,oh right,"['q4ec6.g.move.89', 'q4ec6.g.move.91.5']",['acknowledge'],0.29411764705882354,0.034482758620689655,0.0,0.0,0.0,0.0
follower,mmhmm,"['q4ec6.f.move.91', 'q4ec6.f.move.92.5']",['acknowledge'],0.125,0.0,0.0,0.0,0.0,0.0
giver,down to the it's slightly to the left of the telephone box 'cause there's,"['q4ec6.g.move.92', 'q4ec6.g.move.94.5']",['instruct'],0.043478260869565216,0.0,0.0,0.0,0.0,0.0
follower,so vertical,"['q4ec6.f.move.93', 'q4ec6.f.move.95.5']",['check'],0.43478260869565216,0.05084745762711865,0.0,0.0,0.0,0.0
giver,no,"['q4ec6.g.move.95', 'q4ec6.g.move.96.5']",['reply_n'],0.08333333333333333,0.0,0.0,0.0,0.0,0.0
follower,no,"['q4ec6.f.move.96', 'q4ec6.f.move.97.5']",['acknowledge'],1.0,1.0,0.0,1.0,0.0,0.0
giver,there's a v-- there's a hori-- horizontal line that goes under the telephone box,"['q4ec6.g.move.97', 'q4ec6.g.move.98.5']",['instruct'],0.09523809523809523,0.0,0.0,0.0,0.0,0.0
follower,uh-huh,"['q4ec6.f.move.98', 'q4ec6.f.move.99.5']",['acknowledge'],0.14285714285714285,0.0,0.0,0.0,0.0,0.0
giver,eh that's on a line with the yacht club and you've to draw a diagonal line between that and the point you've just ended at,['q4ec6.g.move.99'],['instruct'],0.08695652173913043,0.0,0.0,0.0,0.0,0.0
follower,right right i've done that,"['q4ec6.f.move.100', 'q4ec6.f.move.100.9']",['acknowledge'],0.5909090909090909,0.14814814814814814,0.07272727272727272,0.09523809523809523,0.0,0.0
giver,then you go up to about slightly above the top of the telephone box,['q4ec6.g.move.102'],['instruct'],0.47619047619047616,0.17857142857142858,0.10144927536231885,0.0,0.0,0.0
follower,mmhmm,['q4ec6.f.move.103'],['acknowledge'],0.05263157894736842,0.0,0.0,0.0,0.0,0.0
giver,then the path curves it in a follows a curve rising to the left until it reaches a line approximately level with the middle of east lake that's a ve-- a vertical line approximately the middle of east lake,"['q4ec6.g.move.105', 'q4ec6.g.move.108.5']",['instruct'],0.08,0.0,0.0,0.0,0.0,0.0
follower,mmhmm,"['q4ec6.f.move.106', 'q4ec6.f.move.109.5']",['acknowledge'],0.08,0.0,0.0,0.0,0.0,0.0
giver,yes,"['q4ec6.g.move.109', 'q4ec6.g.move.111.5']",['reply_y'],0.0,0.0,0.0,0.0,0.0,0.0
follower,right,"['q4ec6.f.move.110', 'q4ec6.f.move.112.5']",['acknowledge'],0.0,0.0,0.0,0.0,0.0,0.0
giver,to a line approximately just it's below the m--,"['q4ec6.g.move.112', 'q4ec6.g.move.113.5']",['clarify'],0.18181818181818182,0.0,0.0,0.0,0.0,0.0
follower,yeah uh-huh,"['q4ec6.f.move.113', 'q4ec6.f.move.114.5']",['acknowledge'],0.3333333333333333,0.0,0.0,0.0,0.0,0.0
giver,east lake it's approximately level with the the bottom of the picket fence,['q4ec6.g.move.114'],['clarify'],0.20833333333333334,0.03076923076923077,0.0,0.0,0.0,0.0
follower,mm right done that,"['q4ec6.f.move.115', 'q4ec6.f.move.115.9']",['acknowledge'],0.4166666666666667,0.08695652173913043,0.025,0.0,0.0,0.0
giver,right and from there it's a straight line to another line which is ehm level with the top of the picket fence and the furthest most part of east lake that bulge that goes out the left-hand side,"['q4ec6.g.move.117', 'q4ec6.g.move.119.5']",['instruct'],0.5,0.11214953271028037,0.057692307692307696,0.06060606060606061,0.0,0.0
follower,mmhmm,"['q4ec6.f.move.118', 'q4ec6.f.move.120.5']",['acknowledge'],0.08333333333333333,0.009615384615384616,0.0,0.0,0.0,0.0
giver,on a l-- eh the finish point is on a line level with the picket fence,"['q4ec6.g.move.120', 'q4ec6.g.move.121.5']",['clarify'],0.05555555555555555,0.0,0.0,0.0,0.0,0.0
follower,mmhmm,"['q4ec6.f.move.121', 'q4ec6.f.move.122.5']",['acknowledge'],0.05555555555555555,0.0,0.0,0.0,0.0,0.0
giver,about the middle of the picket fence and a vertical line that touches the outer m-- the left most part of east lake,"['q4ec6.g.move.122', 'q4ec6.g.move.125.5']",['clarify'],0.09523809523809523,0.0,0.0,0.0,0.0,0.0
follower,right,"['q4ec6.f.move.123', 'q4ec6.f.move.126.5']",['acknowledge'],0.18181818181818182,0.0,0.0,0.0,0.0,0.0
giver,it doesn't eh doesn't actually touch the east lake,['q4ec6.g.move.126'],['clarify'],0.16666666666666666,0.0,0.0,0.0,0.0,0.0
follower,no think that's where it is,"['q4ec6.f.move.127', 'q4ec6.f.move.130']","['acknowledge', 'explain']",0.6111111111111112,0.11320754716981132,0.031746031746031744,0.07692307692307693,0.0,0.0
