speaker,sentence,move_id,label,jaccard_sim_char_1_1,jaccard_sim_char_2_2,jaccard_sim_char_3_3,jaccard_sim_word_1_1,jaccard_sim_word_2_2,jaccard_sim_word_3_3
giver,okay,"['q4nc2.g.move.1', 'q4nc2.g.move.4.5']",['ready'],,,,,,
follower,uh-huh,"['q4nc2.f.move.2', 'q4nc2.f.move.6.5']",['acknowledge'],0.0,0.0,0.0,0.0,0.0,0.0
follower,uh-huh that's right,['q4nc2.f.move.7'],['acknowledge'],0.2727272727272727,0.23529411764705882,0.23529411764705882,0.5,0.3333333333333333,0.0
giver,ehm come straight down,"['q4nc2.g.move.8', 'q4nc2.g.move.9.5']",['instruct'],0.4444444444444444,0.08571428571428572,0.05714285714285714,0.0,0.0,0.0
follower,straight down,"['q4nc2.f.move.9', 'q4nc2.f.move.10.5']",['check'],0.8,0.5714285714285714,0.55,0.5,0.3333333333333333,0.0
giver,straight down,"['q4nc2.g.move.10', 'q4nc2.g.move.11.5']",['reply_y'],1.0,1.0,1.0,1.0,1.0,0.0
follower,straight down yeah,"['q4nc2.f.move.11', 'q4nc2.f.move.12.5']",['check'],0.8571428571428571,0.7058823529411765,0.6875,0.6666666666666666,0.5,0.0
giver,straight down,"['q4nc2.g.move.12', 'q4nc2.g.move.15.5']",['reply_y'],0.8571428571428571,0.7058823529411765,0.6875,0.6666666666666666,0.5,0.0
follower,uh-huh,"['q4nc2.f.move.13', 'q4nc2.f.move.18.5']",['acknowledge'],0.07142857142857142,0.0,0.0,0.0,0.0,0.0
giver,is i--,"['q4nc2.g.move.15.6', 'q4nc2.g.move.15.7']",['query_yn'],0.16666666666666666,0.0,0.0,0.0,0.0,0.0
follower,okay,"['q4nc2.f.move.18.6', 'q4nc2.f.move.19.2']",['acknowledge'],0.0,0.0,0.0,0.0,0.0,0.0
giver,do you have a,"['q4nc2.g.move.16.2', 'q4nc2.g.move.19.5']",['query_yn'],0.3,0.0,0.0,0.0,0.0,0.0
follower,uh-huh,"['q4nc2.f.move.19.3', 'q4nc2.f.move.21.5']",['acknowledge'],0.2,0.0,0.0,0.0,0.0,0.0
giver,go no,"['q4nc2.g.move.20', 'q4nc2.g.move.21.4']",['reply_n'],0.0,0.0,0.0,0.0,0.0,0.0
follower,the diamond and the field station,"['q4nc2.f.move.22', 'q4nc2.f.move.23.5']",['explain'],0.21428571428571427,0.0,0.0,0.0,0.0,0.0
giver,the diamond and the field station,['q4nc2.g.move.21.9'],['reply_w'],1.0,1.0,1.0,1.0,1.0,1.0
follower,okay,['q4nc2.f.move.24'],['acknowledge'],0.13333333333333333,0.0,0.0,0.0,0.0,0.0
giver,and then turn to the right,"['q4nc2.g.move.25', 'q4nc2.g.move.27.5']",['instruct'],0.14285714285714285,0.0,0.0,0.0,0.0,0.0
follower,the right okay,"['q4nc2.f.move.26', 'q4nc2.f.move.28.5']",['acknowledge'],0.6428571428571429,0.3333333333333333,0.2692307692307692,0.2857142857142857,0.16666666666666666,0.0
giver,i'm g-- ca-- is there a mountain in the top,"['q4nc2.g.move.28', 'q4nc2.g.move.29.5']",['query_yn'],0.47368421052631576,0.07142857142857142,0.0425531914893617,0.1111111111111111,0.0,0.0
follower,the highest viewpoint,['q4nc2.f.move.29'],['check'],0.5263157894736842,0.10869565217391304,0.037037037037037035,0.1111111111111111,0.0,0.0
giver,the highest viewpoint,['q4nc2.g.move.30'],['reply_y'],1.0,1.0,1.0,1.0,1.0,1.0
follower,uh-huh,"['q4nc2.f.move.31', 'q4nc2.f.move.32.5']",['reply_y'],0.07142857142857142,0.0,0.0,0.0,0.0,0.0
giver,are springboks marked on the map,"['q4nc2.g.move.32', 'q4nc2.g.move.33.5']",['query_yn'],0.05555555555555555,0.0,0.0,0.0,0.0,0.0
follower,ehm no,"['q4nc2.f.move.33', 'q4nc2.f.move.36.5']",['reply_n'],0.375,0.0,0.0,0.0,0.0,0.0
giver,no,"['q4nc2.g.move.34', 'q4nc2.g.move.37.5']",['acknowledge'],0.3333333333333333,0.2,0.0,0.5,0.0,0.0
follower,i have,"['q4nc2.f.move.37', 'q4nc2.f.move.38.5']",['acknowledge'],0.0,0.0,0.0,0.0,0.0,0.0
giver,and come over to the right to until you're just below the left-hand side of the mountain,"['q4nc2.g.move.38', 'q4nc2.g.move.40.5']",['reply_w'],0.25,0.029850746268656716,0.0,0.0,0.0,0.0
follower,okay,"['q4nc2.f.move.39', 'q4nc2.f.move.41.5']",['acknowledge'],0.12,0.0,0.0,0.0,0.0,0.0
giver,in a straight line,['q4nc2.g.move.41'],['reply_y'],0.07142857142857142,0.0,0.0,0.0,0.0,0.0
follower,right okay,['q4nc2.f.move.42'],['acknowledge'],0.5,0.19047619047619047,0.14285714285714285,0.0,0.0,0.0
giver,then go straight up to above the mountain,"['q4nc2.g.move.43', 'q4nc2.g.move.44.5']",['instruct'],0.4444444444444444,0.10256410256410256,0.06976744186046512,0.0,0.0,0.0
follower,right okay not going through the mountain,"['q4nc2.f.move.42.9', 'q4nc2.f.move.44']","['acknowledge', 'check']",0.6666666666666666,0.36,0.2459016393442623,0.15384615384615385,0.08333333333333333,0.0
giver,not going through the mountain,['q4nc2.g.move.45'],['reply_n'],0.8571428571428571,0.7352941176470589,0.7105263157894737,0.7142857142857143,0.6666666666666666,0.6
follower,at all okay,"['q4nc2.f.move.46', 'q4nc2.f.move.47.5']",['acknowledge'],0.26666666666666666,0.029411764705882353,0.0,0.0,0.0,0.0
giver,straight up to above the mountain,"['q4nc2.g.move.47', 'q4nc2.g.move.49.5']",['instruct'],0.21052631578947367,0.05405405405405406,0.0,0.0,0.0,0.0
follower,straight up uh-huh,"['q4nc2.f.move.48', 'q4nc2.f.move.50.5']",['acknowledge'],0.5882352941176471,0.3333333333333333,0.2702702702702703,0.25,0.14285714285714285,0.0
giver,to the to-- near the top of the page,"['q4nc2.g.move.50', 'q4nc2.g.move.52.5']",['reply_w'],0.5333333333333333,0.02702702702702703,0.0,0.0,0.0,0.0
follower,near it,"['q4nc2.f.move.51', 'q4nc2.f.move.54.5']",['acknowledge'],0.46153846153846156,0.16,0.10714285714285714,0.14285714285714285,0.0,0.0
giver,i i haven't got birds mar--,"['q4nc2.g.move.53', 'q4nc2.g.move.55.5']",['explain'],0.4117647058823529,0.07142857142857142,0.0,0.0,0.0,0.0
follower,okay,"['q4nc2.f.move.55', 'q4nc2.f.move.56.5']",['acknowledge'],0.10526315789473684,0.0,0.0,0.0,0.0,0.0
giver,ehm,['q4nc2.g.move.56'],['uncodable'],0.0,0.0,0.0,0.0,0.0,0.0
follower,right,['q4nc2.f.move.57'],['acknowledge'],0.14285714285714285,0.0,0.0,0.0,0.0,0.0
giver,turn right along to the e-- the ed-- to-- towards the edge of the page,"['q4nc2.g.move.58', 'q4nc2.g.move.59.5']",['instruct'],0.2777777777777778,0.09302325581395349,0.06,0.1,0.0,0.0
follower,uh-huh,"['q4nc2.f.move.59', 'q4nc2.f.move.60.5']",['acknowledge'],0.16666666666666666,0.0,0.0,0.0,0.0,0.0
giver,okay,['q4nc2.g.move.60'],['align'],0.0,0.0,0.0,0.0,0.0,0.0
follower,uh-huh,['q4nc2.f.move.61'],['reply_y'],0.0,0.0,0.0,0.0,0.0,0.0
giver,right,"['q4nc2.g.move.62', 'q4nc2.g.move.64.5']",['ready'],0.14285714285714285,0.0,0.0,0.0,0.0,0.0
follower,uh-huh,"['q4nc2.f.move.64', 'q4nc2.f.move.68.5']",['acknowledge'],0.14285714285714285,0.0,0.0,0.0,0.0,0.0
giver,and come back to the the right-hand side of the mountains,"['q4nc2.g.move.65', 'q4nc2.g.move.68']","['uncodable', 'clarify']",0.15789473684210525,0.022222222222222223,0.0,0.0,0.0,0.0
follower,oh right okay right uh-huh,['q4nc2.f.move.69'],['acknowledge'],0.55,0.1320754716981132,0.06451612903225806,0.07142857142857142,0.0,0.0
giver,and i want you to drop straight down until you're level with the field station,"['q4nc2.g.move.70', 'q4nc2.g.move.71.1']",['instruct'],0.45454545454545453,0.08333333333333333,0.033707865168539325,0.0,0.0,0.0
follower,what field station,"['q4nc2.f.move.71', 'q4nc2.f.move.72.5']",['query_w'],0.65,0.22580645161290322,0.15584415584415584,0.13333333333333333,0.06666666666666667,0.0
giver,it-- there's a field station marked,"['q4nc2.g.move.71.2', 'q4nc2.g.move.71.5']",['reply_w'],0.6666666666666666,0.35135135135135137,0.32432432432432434,0.3333333333333333,0.2,0.0
follower,oh right okay,"['q4nc2.f.move.73', 'q4nc2.f.move.75.5']",['acknowledge'],0.42105263157894735,0.0,0.0,0.0,0.0,0.0
giver,oh dear right,"['q4nc2.g.move.72', 'q4nc2.g.move.76.5']",['ready'],0.6666666666666666,0.4117647058823529,0.29411764705882354,0.5,0.0,0.0
follower,on your,"['q4nc2.f.move.76', 'q4nc2.f.move.77.5']",['check'],0.23076923076923078,0.0,0.0,0.0,0.0,0.0
giver,wait a minute,"['q4nc2.g.move.77', 'q4nc2.g.move.78.5']",['instruct'],0.25,0.0,0.0,0.0,0.0,0.0
follower,on my left,"['q4nc2.f.move.78', 'q4nc2.f.move.80.5']",['check'],0.38461538461538464,0.05,0.0,0.0,0.0,0.0
giver,right,"['q4nc2.g.move.79', 'q4nc2.g.move.82.5']",['acknowledge'],0.07692307692307693,0.0,0.0,0.0,0.0,0.0
follower,i've got one on my left,"['q4nc2.f.move.81', 'q4nc2.f.move.83.5']",['explain'],0.2,0.0,0.0,0.0,0.0,0.0
giver,have you got a field station marked on the left-hand side,"['q4nc2.g.move.83', 'q4nc2.g.move.84.5']",['query_yn'],0.5714285714285714,0.25925925925925924,0.15873015873015872,0.21428571428571427,0.0,0.0
follower,uh-huh where i'm looking at it it's on my left,"['q4nc2.f.move.84', 'q4nc2.f.move.85.5']",['reply_y'],0.8181818181818182,0.1891891891891892,0.06741573033707865,0.1111111111111111,0.0,0.0
giver,have you also got a field station marked in the centre,"['q4nc2.g.move.85', 'q4nc2.g.move.86.5']",['query_yn'],0.7391304347826086,0.14285714285714285,0.021739130434782608,0.0,0.0,0.0
follower,no,"['q4nc2.f.move.86', 'q4nc2.f.move.87.5']",['reply_n'],0.1,0.0,0.0,0.0,0.0,0.0
giver,no you don't,"['q4nc2.g.move.87', 'q4nc2.g.move.88.5']",['acknowledge'],0.25,0.09090909090909091,0.0,0.3333333333333333,0.0,0.0
follower,no,"['q4nc2.f.move.88', 'q4nc2.f.move.90.5']",['reply_n'],0.25,0.09090909090909091,0.0,0.3333333333333333,0.0,0.0
giver,it's on it-- it's on the far far left-hand side of the page,"['q4nc2.g.move.89', 'q4nc2.g.move.91.5']",['check'],0.11764705882352941,0.0,0.0,0.0,0.0,0.0
follower,uh-huh,"['q4nc2.f.move.91', 'q4nc2.f.move.92.5']",['reply_y'],0.1111111111111111,0.024390243902439025,0.0,0.0,0.0,0.0
giver,drop down 'til you're level with that field station,"['q4nc2.g.move.92', 'q4nc2.g.move.94.5']",['instruct'],0.1,0.0,0.0,0.0,0.0,0.0
follower,okay,"['q4nc2.f.move.93', 'q4nc2.f.move.95.5']",['acknowledge'],0.15,0.0,0.0,0.0,0.0,0.0
giver,no,"['q4nc2.g.move.95', 'q4nc2.g.move.96.5']",['reply_n'],0.2,0.0,0.0,0.0,0.0,0.0
follower,oh right oh,"['q4nc2.f.move.96', 'q4nc2.f.move.98.5']",['acknowledge'],0.125,0.0,0.0,0.0,0.0,0.0
giver,i don't,"['q4nc2.g.move.97', 'q4nc2.g.move.100.5']",['reply_n'],0.4,0.0,0.0,0.0,0.0,0.0
follower,oh,"['q4nc2.f.move.98.6', 'q4nc2.f.move.98.7']",['acknowledge'],0.125,0.0,0.0,0.0,0.0,0.0
giver,come back to a point,"['q4nc2.g.move.101', 'q4nc2.g.move.104.5']",['instruct'],0.07692307692307693,0.0,0.0,0.0,0.0,0.0
follower,well i,"['q4nc2.f.move.99.2', 'q4nc2.f.move.105.5']",['uncodable'],0.21428571428571427,0.0,0.0,0.0,0.0,0.0
giver,no there's absolutely nothing there,"['q4nc2.g.move.105', 'q4nc2.g.move.107.5']",['reply_n'],0.23529411764705882,0.03225806451612903,0.0,0.0,0.0,0.0
follower,right,"['q4nc2.f.move.106', 'q4nc2.f.move.108.5']",['acknowledge'],0.3125,0.0,0.0,0.0,0.0,0.0
giver,you can drop right down there yeah,"['q4nc2.g.move.108', 'q4nc2.g.move.110.5']",['reply_y'],0.3125,0.12903225806451613,0.09375,0.14285714285714285,0.0,0.0
follower,okay,"['q4nc2.f.move.109', 'q4nc2.f.move.111.5']",['acknowledge'],0.17647058823529413,0.0,0.0,0.0,0.0,0.0
giver,go 'til you're down to the level with this field station okay,"['q4nc2.g.move.111', 'q4nc2.g.move.113']","['reply_y', 'align']",0.2,0.06,0.034482758620689655,0.07692307692307693,0.0,0.0
follower,field station okay then,"['q4nc2.f.move.112', 'q4nc2.f.move.115.5']",['acknowledge'],0.7,0.38461538461538464,0.29508196721311475,0.21428571428571427,0.15384615384615385,0.08333333333333333
giver,right now you've got to turn left and go towards the field station but only 'til you're level with,"['q4nc2.g.move.113.5', 'q4nc2.g.move.114', 'q4nc2.g.move.115', 'q4nc2.g.move.116.5']","['ready', 'instruct']",0.6190476190476191,0.24324324324324326,0.14583333333333334,0.09090909090909091,0.045454545454545456,0.0
follower,the diamond or the banana tree,"['q4nc2.f.move.116', 'q4nc2.f.move.120.5']",['query_yn'],0.5238095238095238,0.13414634146341464,0.03636363636363636,0.041666666666666664,0.0,0.0
giver,no no not as far a-- not f-- not as far across as that,"['q4nc2.g.move.117', 'q4nc2.g.move.122.5']",['reply_n'],0.4375,0.06666666666666667,0.01818181818181818,0.0,0.0,0.0
follower,okay then right okay,"['q4nc2.f.move.121', 'q4nc2.f.move.123.5']",['acknowledge'],0.4375,0.07894736842105263,0.021739130434782608,0.0,0.0,0.0
giver,okay,['q4nc2.g.move.123'],['align'],0.3333333333333333,0.1875,0.125,0.3333333333333333,0.0,0.0
follower,uh-huh,['q4nc2.f.move.124'],['reply_y'],0.0,0.0,0.0,0.0,0.0,0.0
giver,right,"['q4nc2.g.move.125', 'q4nc2.g.move.127.5']",['ready'],0.14285714285714285,0.0,0.0,0.0,0.0,0.0
follower,uh-huh right,"['q4nc2.f.move.127', 'q4nc2.f.move.128.5']",['acknowledge'],0.625,0.4,0.3,0.3333333333333333,0.0,0.0
giver,and drop straight down ehm,"['q4nc2.g.move.128', 'q4nc2.g.move.131.5']",['instruct'],0.35294117647058826,0.0967741935483871,0.0625,0.0,0.0,0.0
follower,i've went in a circle,"['q4nc2.f.move.129', 'q4nc2.f.move.132.5']",['explain'],0.42105263157894735,0.047619047619047616,0.0,0.0,0.0,0.0
giver,you do,"['q4nc2.g.move.132', 'q4nc2.g.move.133.5']",['check'],0.0625,0.0,0.0,0.0,0.0,0.0
follower,uh-huh,"['q4nc2.f.move.133', 'q4nc2.f.move.134.5']",['reply_y'],0.14285714285714285,0.0,0.0,0.0,0.0,0.0
giver,drop straight down,"['q4nc2.g.move.134', 'q4nc2.g.move.135.5']",['instruct'],0.06666666666666667,0.0,0.0,0.0,0.0,0.0
follower,mmhmm,"['q4nc2.f.move.135', 'q4nc2.f.move.136.5']",['acknowledge'],0.07142857142857142,0.0,0.0,0.0,0.0,0.0
giver,so-- 'til you're level with the top branches of the banana tree,"['q4nc2.g.move.136', 'q4nc2.g.move.138.5']",['instruct'],0.045454545454545456,0.0,0.0,0.0,0.0,0.0
follower,right okay mmhmm,"['q4nc2.f.move.137', 'q4nc2.f.move.139.5']",['acknowledge'],0.3333333333333333,0.016666666666666666,0.0,0.0,0.0,0.0
giver,okay,['q4nc2.g.move.139'],['align'],0.36363636363636365,0.21428571428571427,0.14285714285714285,0.3333333333333333,0.0,0.0
follower,mmhmm,['q4nc2.f.move.140'],['reply_y'],0.0,0.0,0.0,0.0,0.0,0.0
giver,and then i want you to come across and go round the top of the banana tree,"['q4nc2.g.move.141', 'q4nc2.g.move.142.5']",['instruct'],0.1,0.0,0.0,0.0,0.0,0.0
follower,just straight across,"['q4nc2.f.move.144', 'q4nc2.f.move.146.5']",['check'],0.5238095238095238,0.14035087719298245,0.06756756756756757,0.0625,0.0,0.0
giver,you co--,"['q4nc2.g.move.143', 'q4nc2.g.move.147.5']",['uncodable'],0.2857142857142857,0.0,0.0,0.0,0.0,0.0
follower,okay right,"['q4nc2.f.move.147', 'q4nc2.f.move.148.5']",['acknowledge'],0.23076923076923078,0.0,0.0,0.0,0.0,0.0
giver,you don't have any other obstacles in the way there do you,"['q4nc2.g.move.148', 'q4nc2.g.move.149.5']",['query_yn'],0.38095238095238093,0.04,0.017543859649122806,0.0,0.0,0.0
follower,no,['q4nc2.f.move.149'],['reply_n'],0.10526315789473684,0.0,0.0,0.0,0.0,0.0
giver,right okay have you got a gold marked,"['q4nc2.g.move.150', 'q4nc2.g.move.151', 'q4nc2.g.move.152.5']","['acknowledge', 'query_yn']",0.058823529411764705,0.0,0.0,0.0,0.0,0.0
follower,ehm no,['q4nc2.f.move.152'],['reply_n'],0.29411764705882354,0.0,0.0,0.0,0.0,0.0
giver,right,['q4nc2.g.move.153'],['acknowledge'],0.1,0.0,0.0,0.0,0.0,0.0
giver,from the banana tree y-- you're dropping straight down,['q4nc2.g.move.154'],['instruct'],0.23809523809523808,0.06818181818181818,0.038461538461538464,0.0,0.0,0.0
follower,mmhmm,['q4nc2.f.move.155'],['acknowledge'],0.09523809523809523,0.0,0.0,0.0,0.0,0.0
giver,ehm a rope bridge is that marked,"['q4nc2.g.move.156', 'q4nc2.g.move.157.5']",['query_yn'],0.13333333333333333,0.03125,0.0,0.0,0.0,0.0
follower,uh-huh,['q4nc2.f.move.157'],['reply_y'],0.058823529411764705,0.0,0.0,0.0,0.0,0.0
giver,okay,['q4nc2.g.move.158'],['acknowledge'],0.0,0.0,0.0,0.0,0.0,0.0
follower,can i,"['q4nc2.f.move.160', 'q4nc2.f.move.166.5']",['query_yn'],0.125,0.0,0.0,0.0,0.0,0.0
giver,come down in a straight line,"['q4nc2.g.move.163', 'q4nc2.g.move.169.5']",['reply_y'],0.3125,0.07407407407407407,0.03571428571428571,0.0,0.0,0.0
follower,okay and,"['q4nc2.f.move.167', 'q4nc2.f.move.170.5']",['acknowledge'],0.2777777777777778,0.03225806451612903,0.0,0.0,0.0,0.0
giver,no obstacles,"['q4nc2.g.move.170', 'q4nc2.g.move.171.5']",['reply_y'],0.3076923076923077,0.0,0.0,0.0,0.0,0.0
follower,right okay,"['q4nc2.f.move.171', 'q4nc2.f.move.172.5']",['acknowledge'],0.25,0.05263157894736842,0.0,0.0,0.0,0.0
giver,straight straight,"['q4nc2.g.move.172', 'q4nc2.g.move.174.5']",['reply_y'],0.6363636363636364,0.2857142857142857,0.21428571428571427,0.0,0.0,0.0
follower,right,"['q4nc2.f.move.173', 'q4nc2.f.move.176.5']",['ready'],0.625,0.3,0.2,0.0,0.0,0.0
giver,no you've not,"['q4nc2.g.move.175', 'q4nc2.g.move.177.5']",['reply_n'],0.07692307692307693,0.0,0.0,0.0,0.0,0.0
follower,no it's just it's,"['q4nc2.f.move.177', 'q4nc2.f.move.178.5']",['reply_n'],0.5,0.09523809523809523,0.045454545454545456,0.16666666666666666,0.0,0.0
giver,you you just come straight down right,"['q4nc2.g.move.178', 'q4nc2.g.move.179.5']",['acknowledge'],0.42105263157894735,0.14285714285714285,0.10256410256410256,0.125,0.0,0.0
follower,yeah,"['q4nc2.f.move.179', 'q4nc2.f.move.181.5']",['acknowledge'],0.2222222222222222,0.0,0.0,0.0,0.0,0.0
giver,okay so you're okay,"['q4nc2.g.move.180', 'q4nc2.g.move.181']",['ready'],0.2727272727272727,0.0,0.0,0.0,0.0,0.0
follower,vertical line,['q4nc2.f.move.182'],['explain'],0.25,0.0,0.0,0.0,0.0,0.0
giver,now,"['q4nc2.g.move.181.9', 'q4nc2.g.move.184.5']",['ready'],0.08333333333333333,0.0,0.0,0.0,0.0,0.0
follower,why didn't you just go straight down from the start sign it would've been easier,"['q4nc2.f.move.184', 'q4nc2.f.move.187.5']",['query_yn'],0.13636363636363635,0.015384615384615385,0.0,0.0,0.0,0.0
giver,yeah you're not kidding,"['q4nc2.g.move.185', 'q4nc2.g.move.186.5']",['reply_y'],0.6086956521739131,0.10256410256410256,0.020833333333333332,0.05,0.0,0.0
follower,i mean it's just straight down from there,['q4nc2.f.move.188'],['explain'],0.65,0.05357142857142857,0.0,0.0,0.0,0.0
giver,ehm,"['q4nc2.g.move.187', 'q4nc2.g.move.188.5']",['uncodable'],0.16666666666666666,0.0,0.0,0.0,0.0,0.0
giver,okay have you got a rock fall marked,"['q4nc2.g.move.189', 'q4nc2.g.move.190']","['ready', 'query_yn']",0.17647058823529413,0.0,0.0,0.0,0.0,0.0
follower,uh-huh,['q4nc2.f.move.191'],['reply_y'],0.1111111111111111,0.0,0.0,0.0,0.0,0.0
giver,okay,"['q4nc2.g.move.192', 'q4nc2.g.move.194.5']",['ready'],0.0,0.0,0.0,0.0,0.0,0.0
follower,mmhmm,"['q4nc2.f.move.194', 'q4nc2.f.move.195.5']",['acknowledge'],0.0,0.0,0.0,0.0,0.0,0.0
giver,okay,['q4nc2.g.move.195'],['align'],0.0,0.0,0.0,0.0,0.0,0.0
follower,right okay in a straight line,['q4nc2.f.move.196'],['reply_y'],0.2857142857142857,0.13043478260869565,0.08333333333333333,0.2,0.0,0.0
giver,and now head across for,"['q4nc2.g.move.197', 'q4nc2.g.move.198.5']",['instruct'],0.4444444444444444,0.023255813953488372,0.0,0.0,0.0,0.0
follower,oops,"['q4nc2.f.move.198', 'q4nc2.f.move.199.5']",['uncodable'],0.15384615384615385,0.0,0.0,0.0,0.0,0.0
giver,the r-- now head across to the rope bridge you can just go straight straight across from there to the rope bridge,"['q4nc2.g.move.199', 'q4nc2.g.move.200.5']",['instruct'],0.13636363636363635,0.015873015873015872,0.0,0.0,0.0,0.0
giver,yeah,"['q4nc2.g.move.201', 'q4nc2.g.move.204.5']",['reply_y'],0.18181818181818182,0.015873015873015872,0.0,0.0,0.0,0.0
follower,right,"['q4nc2.f.move.202', 'q4nc2.f.move.205.5']",['ready'],0.125,0.0,0.0,0.0,0.0,0.0
giver,li-- like,"['q4nc2.g.move.205', 'q4nc2.g.move.210.5']",['uncodable'],0.1,0.0,0.0,0.0,0.0,0.0
follower,well,"['q4nc2.f.move.206', 'q4nc2.f.move.211.5']",['ready'],0.2857142857142857,0.0,0.0,0.0,0.0,0.0
giver,aye well not straight across but you you're you'll be going back up towards the rope bridge,"['q4nc2.g.move.211', 'q4nc2.g.move.215.5']",['reply_w'],0.14285714285714285,0.04411764705882353,0.024096385542168676,0.058823529411764705,0.0,0.0
follower,just,"['q4nc2.f.move.212', 'q4nc2.f.move.217.5']",['uncodable'],0.13636363636363635,0.014285714285714285,0.0,0.0,0.0,0.0
giver,so so you're at the moment you're below the rope bridge,"['q4nc2.g.move.216', 'q4nc2.g.move.221.5']",['reply_y'],0.14285714285714285,0.0,0.0,0.0,0.0,0.0
follower,mmhmm,"['q4nc2.f.move.218', 'q4nc2.f.move.224.5']",['acknowledge'],0.1,0.0,0.0,0.0,0.0,0.0
giver,heading for the rope bridge yeah,"['q4nc2.g.move.222', 'q4nc2.g.move.225.5']",['reply_y'],0.0625,0.0,0.0,0.0,0.0,0.0
follower,from there in like a uh-huh a diagonal line then from the rock fall,"['q4nc2.f.move.225', 'q4nc2.f.move.226.5']",['check'],0.5714285714285714,0.14754098360655737,0.0625,0.058823529411764705,0.0,0.0
giver,yeah that's right yeah,"['q4nc2.g.move.226', 'q4nc2.g.move.227.5']",['reply_y'],0.38095238095238093,0.07017543859649122,0.013888888888888888,0.0,0.0,0.0
follower,you don't want me to go across and up,"['q4nc2.f.move.227', 'q4nc2.f.move.228.5']",['check'],0.47368421052631576,0.06382978723404255,0.0,0.0,0.0,0.0
giver,no just straight just a diagonal line up to the rope bridge,['q4nc2.g.move.228'],['reply_n'],0.5454545454545454,0.1791044776119403,0.03529411764705882,0.11764705882352941,0.0,0.0
follower,okay then right,"['q4nc2.f.move.229', 'q4nc2.f.move.230']",['acknowledge'],0.5263157894736842,0.1509433962264151,0.06451612903225806,0.0,0.0,0.0
giver,and then a-- across the rope bridge to the right-hand side of the page,"['q4nc2.g.move.231', 'q4nc2.g.move.232.5']",['instruct'],0.5263157894736842,0.20408163265306123,0.12903225806451613,0.15384615384615385,0.0,0.0
follower,oh from the the top of the rope bridge or,"['q4nc2.f.move.232', 'q4nc2.f.move.233.5']",['query_yn'],0.6666666666666666,0.33962264150943394,0.3088235294117647,0.25,0.15789473684210525,0.05263157894736842
giver,yeah across the top of the rope bridge,"['q4nc2.g.move.233', 'q4nc2.g.move.236.5']",['reply_y'],0.7058823529411765,0.5714285714285714,0.5116279069767442,0.5,0.45454545454545453,0.4
follower,right okay i've went and drawn this,"['q4nc2.f.move.234', 'q4nc2.f.move.235', 'q4nc2.f.move.239.5']","['acknowledge', 'explain']",0.5714285714285714,0.10714285714285714,0.015384615384615385,0.0,0.0,0.0
giver,yeah fine yeah and across the rope bridge,"['q4nc2.g.move.237', 'q4nc2.g.move.239']",['reply_y'],0.6190476190476191,0.14035087719298245,0.06153846153846154,0.07692307692307693,0.0,0.0
follower,uh-huh right i've done that,"['q4nc2.f.move.240', 'q4nc2.f.move.241']","['acknowledge', 'ready']",0.5238095238095238,0.14285714285714285,0.03389830508474576,0.0,0.0,0.0
giver,have you got giraffes marked,['q4nc2.g.move.242'],['query_yn'],0.6,0.08695652173913043,0.02,0.0,0.0,0.0
follower,uh-huh,['q4nc2.f.move.243'],['reply_y'],0.1111111111111111,0.0,0.0,0.0,0.0,0.0
follower,i've got crocodiles as well,"['q4nc2.f.move.243.5', 'q4nc2.f.move.244']",['explain'],0.0,0.0,0.0,0.0,0.0,0.0
giver,crocodiles,['q4nc2.g.move.245'],['acknowledge'],0.5333333333333333,0.36,0.32,0.2,0.0,0.0
giver,well you'll have to avoid the crocodiles as well but but you've got to go round the the the giraffes at the bottom right-hand corner of the page,"['q4nc2.g.move.246', 'q4nc2.g.move.247.5']",['instruct'],0.3333333333333333,0.11538461538461539,0.0761904761904762,0.045454545454545456,0.0,0.0
follower,so i just go straight down right,"['q4nc2.f.move.247', 'q4nc2.f.move.248.5']",['check'],0.52,0.10752688172043011,0.047244094488188976,0.07692307692307693,0.0,0.0
giver,yeah that's right mmhmm,"['q4nc2.g.move.248', 'q4nc2.g.move.250.5']",['reply_y'],0.4444444444444444,0.15,0.11363636363636363,0.1111111111111111,0.0,0.0
follower,okay i just go straight down,"['q4nc2.f.move.249', 'q4nc2.f.move.251.5']",['acknowledge'],0.47368421052631576,0.09523809523809523,0.06818181818181818,0.0,0.0,0.0
giver,d-- okay,['q4nc2.g.move.251'],['acknowledge'],0.35294117647058826,0.10344827586206896,0.06666666666666667,0.2,0.0,0.0
follower,okay,['q4nc2.f.move.252'],['ready'],0.5714285714285714,0.42857142857142855,0.3333333333333333,1.0,0.0,0.0
giver,now the only thing you've got to dodge is the great lake,"['q4nc2.g.move.253', 'q4nc2.g.move.254.5']",['instruct'],0.21052631578947367,0.0,0.0,0.0,0.0,0.0
follower,i've got that on,"['q4nc2.f.move.254', 'q4nc2.f.move.255.5']",['explain'],0.5789473684210527,0.2608695652173913,0.18867924528301888,0.14285714285714285,0.07142857142857142,0.0
giver,you've got that marked,['q4nc2.g.move.255'],['check'],0.5294117647058824,0.4782608695652174,0.4782608695652174,0.5,0.4,0.25
follower,uh-huh,['q4nc2.f.move.256'],['reply_y'],0.125,0.0,0.0,0.0,0.0,0.0
giver,now the great the great lake on my map is in the bottom left-hand,"['q4nc2.g.move.257', 'q4nc2.g.move.259.5']",['explain'],0.09090909090909091,0.020833333333333332,0.0,0.0,0.0,0.0
follower,yeah,"['q4nc2.f.move.258', 'q4nc2.f.move.260.5']",['acknowledge'],0.19047619047619047,0.02127659574468085,0.0,0.0,0.0,0.0
giver,corner it's di-- directly below the rock fall,"['q4nc2.g.move.260', 'q4nc2.g.move.261.5']",['explain'],0.2,0.0,0.0,0.0,0.0,0.0
follower,mmhmm,"['q4nc2.f.move.261', 'q4nc2.f.move.262.5']",['acknowledge'],0.047619047619047616,0.0,0.0,0.0,0.0,0.0
giver,so you've got t--,['q4nc2.g.move.262'],['instruct'],0.0,0.0,0.0,0.0,0.0,0.0
follower,and parallel to the disused warehouse,['q4nc2.f.move.263'],['check'],0.3,0.09302325581395349,0.0,0.0,0.0,0.0
giver,i don't have a a disused warehouse on mine,['q4nc2.g.move.264'],['explain'],0.7222222222222222,0.32653061224489793,0.2631578947368421,0.2,0.1111111111111111,0.0
follower,oh right,['q4nc2.f.move.265'],['acknowledge'],0.35294117647058826,0.0,0.0,0.0,0.0,0.0
follower,well i-- it's just parallel to it like just ehm well not underneath the giraffes you know over to the left,['q4nc2.f.move.267'],['explain'],0.2916666666666667,0.01282051282051282,0.0,0.0,0.0,0.0
giver,yeah,['q4nc2.g.move.268'],['acknowledge'],0.16666666666666666,0.013513513513513514,0.0,0.0,0.0,0.0
giver,well i i would come down c-- i i would head right yeah on according to my map you've got to go ehm down towards the bottom of the page and underneath the great lake,"['q4nc2.g.move.269', 'q4nc2.g.move.272.5']",['instruct'],0.16,0.030303030303030304,0.014705882352941176,0.038461538461538464,0.0,0.0
follower,uh-huh,"['q4nc2.f.move.270', 'q4nc2.f.move.274.5']",['acknowledge'],0.12,0.0,0.0,0.0,0.0,0.0
giver,yeah,"['q4nc2.g.move.273', 'q4nc2.g.move.275.5']",['reply_y'],0.16666666666666666,0.0,0.0,0.0,0.0,0.0
follower,okay,"['q4nc2.f.move.275', 'q4nc2.f.move.277.5']",['acknowledge'],0.3333333333333333,0.0,0.0,0.0,0.0,0.0
giver,the lake's in the b-- the lake in mine is b-- directly below the l-- the rock fall,"['q4nc2.g.move.276', 'q4nc2.g.move.278.5']",['explain'],0.19047619047619047,0.0,0.0,0.0,0.0,0.0
follower,uh-huh,"['q4nc2.f.move.278', 'q4nc2.f.move.279.5']",['acknowledge'],0.09090909090909091,0.0,0.0,0.0,0.0,0.0
giver,you can you can just come straight across i would not straight across and down a bit,"['q4nc2.g.move.279', 'q4nc2.g.move.282.5']",['instruct'],0.09523809523809523,0.0,0.0,0.0,0.0,0.0
follower,so oh right okay right,"['q4nc2.f.move.280', 'q4nc2.f.move.283.5']",['acknowledge'],0.47619047619047616,0.06557377049180328,0.04054054054054054,0.0,0.0,0.0
giver,and below the great lake,['q4nc2.g.move.283'],['instruct'],0.47058823529411764,0.02702702702702703,0.0,0.0,0.0,0.0
follower,okay oops,['q4nc2.f.move.284'],['acknowledge'],0.23529411764705882,0.0,0.0,0.0,0.0,0.0
giver,and turn r-- turn right once you've gone past the lake and come up,"['q4nc2.g.move.285', 'q4nc2.g.move.288.5']",['instruct'],0.3181818181818182,0.01818181818181818,0.0,0.0,0.0,0.0
follower,turn right,"['q4nc2.f.move.286', 'q4nc2.f.move.291.5']",['check'],0.36363636363636365,0.1875,0.14035087719298245,0.16666666666666666,0.07692307692307693,0.0
giver,you've drawn a line you've,"['q4nc2.g.move.289', 'q4nc2.g.move.292.5']",['align'],0.29411764705882354,0.037037037037037035,0.0,0.0,0.0,0.0
follower,uh-huh,"['q4nc2.f.move.292', 'q4nc2.f.move.293.5']",['reply_y'],0.0625,0.0,0.0,0.0,0.0,0.0
giver,coming across towards the great lake,"['q4nc2.g.move.293', 'q4nc2.g.move.294.5']",['align'],0.05263157894736842,0.0,0.0,0.0,0.0,0.0
follower,uh-huh well it's over the d-- great i mean i've went under the,"['q4nc2.f.move.294', 'q4nc2.f.move.296']","['reply_y', 'explain']",0.7142857142857143,0.15942028985507245,0.1,0.13333333333333333,0.06666666666666667,0.0
giver,okay you've gone under it,"['q4nc2.g.move.295', 'q4nc2.g.move.297']","['acknowledge', 'check']",0.6190476190476191,0.20689655172413793,0.11428571428571428,0.21428571428571427,0.0,0.0
follower,great lake uh-huh,['q4nc2.f.move.298'],['reply_y'],0.4444444444444444,0.05555555555555555,0.02702702702702703,0.0,0.0,0.0
giver,right,"['q4nc2.g.move.299', 'q4nc2.g.move.301.5']",['ready'],0.3333333333333333,0.0,0.0,0.0,0.0,0.0
follower,go up it,"['q4nc2.f.move.301', 'q4nc2.f.move.302.5']",['check'],0.3333333333333333,0.0,0.0,0.0,0.0,0.0
giver,up yeah towa--,"['q4nc2.g.move.302', 'q4nc2.g.move.303.5']",['reply_y'],0.38461538461538464,0.1111111111111111,0.058823529411764705,0.2,0.0,0.0
follower,towards the rock fall,"['q4nc2.f.move.303', 'q4nc2.f.move.304.5']",['query_yn'],0.3888888888888889,0.13793103448275862,0.06896551724137931,0.0,0.0,0.0
giver,up well not towards ehm stay on the left-hand side but go up,"['q4nc2.g.move.304', 'q4nc2.g.move.305.5']",['reply_w'],0.5217391304347826,0.1935483870967742,0.1323529411764706,0.13333333333333333,0.0,0.0
follower,where from,"['q4nc2.f.move.305', 'q4nc2.f.move.306.5']",['query_w'],0.38095238095238093,0.03278688524590164,0.0,0.0,0.0,0.0
giver,ehm until you're just about half an inch below the rock fall and that's the finish,"['q4nc2.g.move.306', 'q4nc2.g.move.307.5']",['reply_w'],0.36363636363636365,0.07352941176470588,0.024691358024691357,0.0,0.0,0.0
follower,where from which bit of the great lake,"['q4nc2.f.move.307', 'q4nc2.f.move.310.5']",['query_w'],0.6521739130434783,0.17073170731707318,0.0673076923076923,0.043478260869565216,0.0,0.0
giver,the great lake right you've come right under the great lake,"['q4nc2.g.move.308', 'q4nc2.g.move.310', 'q4nc2.g.move.311.5']","['acknowledge', 'align']",0.5909090909090909,0.3137254901960784,0.20967741935483872,0.23076923076923078,0.14285714285714285,0.07142857142857142
follower,uh-huh,"['q4nc2.f.move.311', 'q4nc2.f.move.312.5']",['reply_y'],0.1,0.0,0.0,0.0,0.0,0.0
giver,ehm you've got to the far left-hand edge of the great lake,"['q4nc2.g.move.312', 'q4nc2.g.move.313.5']",['align'],0.15789473684210525,0.02,0.0,0.0,0.0,0.0
follower,mmhmm,['q4nc2.f.move.313'],['reply_y'],0.10526315789473684,0.02040816326530612,0.0,0.0,0.0,0.0
giver,ehm head up until you're level with the giraffes,"['q4nc2.g.move.314', 'q4nc2.g.move.315.5']",['instruct'],0.09523809523809523,0.022727272727272728,0.0,0.0,0.0,0.0
follower,okay,"['q4nc2.f.move.315', 'q4nc2.f.move.316.5']",['acknowledge'],0.13636363636363635,0.0,0.0,0.0,0.0,0.0
giver,the the l-- giraffes,"['q4nc2.g.move.316', 'q4nc2.g.move.317.5']",['explain'],0.06666666666666667,0.0,0.0,0.0,0.0,0.0
follower,so we're on the far side of the,"['q4nc2.f.move.317', 'q4nc2.f.move.318.5']",['check'],0.5294117647058824,0.1111111111111111,0.07692307692307693,0.1111111111111111,0.0,0.0
giver,head up until you're level with the giraffes' kneecaps,"['q4nc2.g.move.318', 'q4nc2.g.move.321.5']",['instruct'],0.6363636363636364,0.1076923076923077,0.0684931506849315,0.125,0.0,0.0
follower,just to be exact,"['q4nc2.f.move.319', 'q4nc2.f.move.322.5']",['acknowledge'],0.32,0.03278688524590164,0.0,0.0,0.0,0.0
giver,yeah,"['q4nc2.g.move.322', 'q4nc2.g.move.324.5']",['reply_y'],0.15384615384615385,0.0,0.0,0.0,0.0,0.0
follower,oh right okay,"['q4nc2.f.move.323', 'q4nc2.f.move.326.5']",['acknowledge'],0.2727272727272727,0.0,0.0,0.0,0.0,0.0
giver,yeah,"['q4nc2.g.move.325', 'q4nc2.g.move.328.5']",['reply_y'],0.2727272727272727,0.0,0.0,0.0,0.0,0.0
follower,okay,"['q4nc2.f.move.327', 'q4nc2.f.move.327.5']",['acknowledge'],0.3333333333333333,0.0,0.0,0.0,0.0,0.0
giver,yeah we've done it,['q4nc2.g.move.329'],['reply_y'],0.21428571428571427,0.0,0.0,0.0,0.0,0.0
follower,that's us,['q4nc2.f.move.328'],['check'],0.3333333333333333,0.0,0.0,0.0,0.0,0.0
follower,right i'll draw this line again,"['q4nc2.f.move.330', 'q4nc2.f.move.333.5']",['explain'],0.4,0.05714285714285714,0.0,0.0,0.0,0.0
giver,yeah i think so yeah,['q4nc2.g.move.332'],['reply_y'],0.47058823529411764,0.125,0.046511627906976744,0.0,0.0,0.0
follower,right okay it's just i drew this line wrong okay,['q4nc2.f.move.334'],['acknowledge'],0.5789473684210527,0.12,0.05357142857142857,0.0,0.0,0.0
giver,i think we've got it,"['q4nc2.g.move.335', 'q4nc2.g.move.336.5']",['explain'],0.55,0.20408163265306123,0.07017543859649122,0.08333333333333333,0.0,0.0
follower,right,"['q4nc2.f.move.336', 'q4nc2.f.move.337.5']",['acknowledge'],0.3076923076923077,0.0,0.0,0.0,0.0,0.0
giver,i'd like to see this,['q4nc2.g.move.337'],['explain'],0.23076923076923078,0.0,0.0,0.0,0.0,0.0
follower,i think that's it it looks,['q4nc2.f.move.338'],['explain'],0.6923076923076923,0.12121212121212122,0.05555555555555555,0.0,0.0,0.0
