speaker,sentence,move_id,label,jaccard_sim_char_1_1,jaccard_sim_char_2_2,jaccard_sim_char_3_3,jaccard_sim_word_1_1,jaccard_sim_word_2_2,jaccard_sim_word_3_3
giver,eh starting at the top of the caravan park,"['q5ec1.g.move.1', 'q5ec1.g.move.2.5']",['instruct'],,,,,,
follower,aye,"['q5ec1.f.move.2', 'q5ec1.f.move.3.5']",['acknowledge'],0.11764705882352941,0.0,0.0,0.0,0.0,0.0
giver,turning to your left then left again,"['q5ec1.g.move.3', 'q5ec1.g.move.4.5']",['instruct'],0.21428571428571427,0.0,0.0,0.0,0.0,0.0
follower,my left,"['q5ec1.f.move.4', 'q5ec1.f.move.6.5']",['check'],0.4,0.13793103448275862,0.09375,0.14285714285714285,0.0,0.0
giver,yes,"['q5ec1.g.move.5', 'q5ec1.g.move.7.5']",['reply_y'],0.25,0.0,0.0,0.0,0.0,0.0
follower,uh-huh,"['q5ec1.f.move.7', 'q5ec1.f.move.8.5']",['acknowledge'],0.0,0.0,0.0,0.0,0.0,0.0
giver,you turn left,"['q5ec1.g.move.8', 'q5ec1.g.move.9.5']",['instruct'],0.08333333333333333,0.0,0.0,0.0,0.0,0.0
follower,uh-huh,"['q5ec1.f.move.9', 'q5ec1.f.move.10.5']",['acknowledge'],0.08333333333333333,0.0,0.0,0.0,0.0,0.0
giver,then left again so you're coming down the side of the caravan park,"['q5ec1.g.move.10', 'q5ec1.g.move.11.5']",['instruct'],0.08333333333333333,0.0,0.0,0.0,0.0,0.0
follower,right,['q5ec1.f.move.11'],['acknowledge'],0.21739130434782608,0.0,0.0,0.0,0.0,0.0
giver,keep going down,"['q5ec1.g.move.12', 'q5ec1.g.move.13.5']",['instruct'],0.15384615384615385,0.0,0.0,0.0,0.0,0.0
follower,mmhmm,"['q5ec1.f.move.13', 'q5ec1.f.move.14.5']",['acknowledge'],0.0,0.0,0.0,0.0,0.0,0.0
giver,then you turn left,"['q5ec1.g.move.14', 'q5ec1.g.move.16.5']",['instruct'],0.08333333333333333,0.0,0.0,0.0,0.0,0.0
follower,aye,"['q5ec1.f.move.15', 'q5ec1.f.move.17.5']",['acknowledge'],0.16666666666666666,0.0,0.0,0.0,0.0,0.0
giver,you're coming you're coming back you're coming down the map so you're turning left that's into that's into the map,"['q5ec1.g.move.17', 'q5ec1.g.move.20.5']",['instruct'],0.13043478260869565,0.0,0.0,0.0,0.0,0.0
follower,aye,"['q5ec1.f.move.18', 'q5ec1.f.move.21.5']",['acknowledge'],0.13043478260869565,0.0,0.0,0.0,0.0,0.0
giver,okay you got that,"['q5ec1.g.move.21', 'q5ec1.g.move.22.5']",['align'],0.2,0.058823529411764705,0.0,0.0,0.0,0.0
follower,uh-huh,"['q5ec1.f.move.22', 'q5ec1.f.move.23.5']",['reply_y'],0.2,0.0,0.0,0.0,0.0,0.0
giver,you're going along and you're turning left again,"['q5ec1.g.move.23', 'q5ec1.g.move.24.5']",['instruct'],0.058823529411764705,0.0,0.0,0.0,0.0,0.0
follower,right well stop now,"['q5ec1.f.move.24', 'q5ec1.f.move.25.5']",['instruct'],0.47368421052631576,0.02,0.0,0.0,0.0,0.0
giver,okay,['q5ec1.g.move.25'],['acknowledge'],0.0625,0.0,0.0,0.0,0.0,0.0
follower,right,"['q5ec1.f.move.26', 'q5ec1.f.move.28.5']",['ready'],0.0,0.0,0.0,0.0,0.0,0.0
giver,ah out the top of the caravan park,"['q5ec1.g.move.28', 'q5ec1.g.move.29.5']",['reply_y'],0.1875,0.0,0.0,0.0,0.0,0.0
follower,right go left then left again,"['q5ec1.f.move.29', 'q5ec1.f.move.30.5']",['check'],0.5294117647058824,0.11627906976744186,0.061224489795918366,0.0,0.0,0.0
giver,then so you're coming down the side of the caravan park,"['q5ec1.g.move.30', 'q5ec1.g.move.32.5']",['clarify'],0.4782608695652174,0.125,0.05970149253731343,0.06666666666666667,0.0,0.0
follower,right,"['q5ec1.f.move.31', 'q5ec1.f.move.34.5']",['acknowledge'],0.22727272727272727,0.0,0.0,0.0,0.0,0.0
giver,not not to the,"['q5ec1.g.move.33', 'q5ec1.g.move.35.5']",['reply_n'],0.2222222222222222,0.0,0.0,0.0,0.0,0.0
follower,aye,"['q5ec1.f.move.35', 'q5ec1.f.move.36.5']",['reply_y'],0.125,0.0,0.0,0.0,0.0,0.0
giver,you turn left,"['q5ec1.g.move.36', 'q5ec1.g.move.37.5']",['instruct'],0.18181818181818182,0.0,0.0,0.0,0.0,0.0
follower,immediately past the caravan park,"['q5ec1.f.move.37', 'q5ec1.f.move.39.5']",['check'],0.35,0.05128205128205128,0.0,0.0,0.0,0.0
giver,no,"['q5ec1.g.move.38', 'q5ec1.g.move.40.5']",['reply_n'],0.05555555555555555,0.0,0.0,0.0,0.0,0.0
follower,uh-huh,['q5ec1.f.move.40'],['acknowledge'],0.0,0.0,0.0,0.0,0.0,0.0
giver,then you go along,"['q5ec1.g.move.41', 'q5ec1.g.move.42.5']",['instruct'],0.16666666666666666,0.0,0.0,0.0,0.0,0.0
follower,right,"['q5ec1.f.move.42', 'q5ec1.f.move.43.5']",['acknowledge'],0.23076923076923078,0.0,0.0,0.0,0.0,0.0
giver,turn left again,"['q5ec1.g.move.43', 'q5ec1.g.move.44.5']",['instruct'],0.3333333333333333,0.0,0.0,0.0,0.0,0.0
follower,i don't go to the bottom of the map,"['q5ec1.f.move.44', 'q5ec1.f.move.45.5']",['check'],0.4444444444444444,0.025,0.0,0.0,0.0,0.0
giver,no you don't go to the bottom of the map,['q5ec1.g.move.45'],['reply_n'],0.8235294117647058,0.8125,0.8,0.7777777777777778,0.7777777777777778,0.75
follower,right uh-huh,"['q5ec1.f.move.46', 'q5ec1.f.move.46.9']",['acknowledge'],0.2631578947368421,0.025,0.0,0.0,0.0,0.0
giver,turn left so that's two turns left after you come out the caravan park,"['q5ec1.g.move.47', 'q5ec1.g.move.48.5']",['instruct'],0.21739130434782608,0.017543859649122806,0.0,0.0,0.0,0.0
follower,left come out turn left then turn left again and get to the bottom then turn left again,"['q5ec1.f.move.48', 'q5ec1.f.move.50.5']",['check'],0.5416666666666666,0.359375,0.26436781609195403,0.2631578947368421,0.08333333333333333,0.0
giver,yeah,"['q5ec1.g.move.49', 'q5ec1.g.move.51.5']",['reply_y'],0.16666666666666666,0.0,0.0,0.0,0.0,0.0
follower,right,['q5ec1.f.move.51'],['acknowledge'],0.125,0.0,0.0,0.0,0.0,0.0
giver,and left back up into the map,"['q5ec1.g.move.52', 'q5ec1.g.move.53.5']",['instruct'],0.15789473684210525,0.0,0.0,0.0,0.0,0.0
follower,how how h-- how,"['q5ec1.f.move.53', 'q5ec1.f.move.55.5']",['query_w'],0.15789473684210525,0.0,0.0,0.0,0.0,0.0
giver,be careful for the old mill you'll see it it should be on your right-hand side,"['q5ec1.g.move.54', 'q5ec1.g.move.56.5']",['instruct'],0.18181818181818182,0.01639344262295082,0.0,0.0,0.0,0.0
follower,right,"['q5ec1.f.move.56', 'q5ec1.f.move.58.5']",['acknowledge'],0.23809523809523808,0.07272727272727272,0.04411764705882353,0.0625,0.0,0.0
giver,you go up past the the old mill keeping the old mill on your right-hand side,"['q5ec1.g.move.57', 'q5ec1.g.move.59.5']",['instruct'],0.2631578947368421,0.07407407407407407,0.05172413793103448,0.07692307692307693,0.0,0.0
follower,aye i'm by the old mill,['q5ec1.f.move.59'],['reply_y'],0.5238095238095238,0.19047619047619047,0.16176470588235295,0.2,0.125,0.0625
giver,right turn round the old turn to the right after the old mill,"['q5ec1.g.move.60', 'q5ec1.g.move.61', 'q5ec1.g.move.62.5']","['acknowledge', 'instruct']",0.5555555555555556,0.27906976744186046,0.22,0.3,0.15384615384615385,0.07692307692307693
follower,the right,"['q5ec1.f.move.62', 'q5ec1.f.move.63.5']",['check'],0.4666666666666667,0.23529411764705882,0.175,0.25,0.09090909090909091,0.0
giver,yeah to the right after the old mill,"['q5ec1.g.move.63', 'q5ec1.g.move.64.5']",['clarify'],0.5,0.26666666666666666,0.22580645161290322,0.2857142857142857,0.14285714285714285,0.0
follower,right,"['q5ec1.f.move.64', 'q5ec1.f.move.65.5']",['acknowledge'],0.35714285714285715,0.13333333333333333,0.0967741935483871,0.14285714285714285,0.0,0.0
giver,that's you going across to the other side of the map,"['q5ec1.g.move.65', 'q5ec1.g.move.66.5']",['instruct'],0.2631578947368421,0.0,0.0,0.0,0.0,0.0
follower,uh-huh,"['q5ec1.f.move.66', 'q5ec1.f.move.67.5']",['acknowledge'],0.1,0.0,0.0,0.0,0.0,0.0
giver,keep going,"['q5ec1.g.move.67', 'q5ec1.g.move.68.5']",['instruct'],0.0,0.0,0.0,0.0,0.0,0.0
follower,uh-huh,['q5ec1.f.move.68'],['acknowledge'],0.0,0.0,0.0,0.0,0.0,0.0
giver,now you should come to a fenced meadow on your right,"['q5ec1.g.move.69', 'q5ec1.g.move.70.5']",['align'],0.1,0.0,0.0,0.0,0.0,0.0
follower,aye,"['q5ec1.f.move.70', 'q5ec1.f.move.71.5']",['reply_y'],0.15789473684210525,0.0,0.0,0.0,0.0,0.0
giver,well you turn left so you're going up the map again,"['q5ec1.g.move.71', 'q5ec1.g.move.72.5']",['instruct'],0.15789473684210525,0.0,0.0,0.0,0.0,0.0
follower,right up the map,"['q5ec1.f.move.72', 'q5ec1.f.move.74.5']",['acknowledge'],0.5789473684210527,0.23404255319148937,0.17307692307692307,0.25,0.16666666666666666,0.09090909090909091
giver,up the map,"['q5ec1.g.move.73', 'q5ec1.g.move.75.5']",['instruct'],0.7272727272727273,0.6,0.5714285714285714,0.75,0.6666666666666666,0.5
follower,uh i'm nowhere near it,"['q5ec1.f.move.75', 'q5ec1.f.move.77.5']",['explain'],0.5,0.07692307692307693,0.0,0.0,0.0,0.0
giver,well never mind,"['q5ec1.g.move.76', 'q5ec1.g.move.78.5']",['instruct'],0.4375,0.13793103448275862,0.03125,0.0,0.0,0.0
follower,ah but there's something in the road,"['q5ec1.f.move.78', 'q5ec1.f.move.79.5']",['explain'],0.3684210526315789,0.047619047619047616,0.0,0.0,0.0,0.0
giver,is there,"['q5ec1.g.move.79', 'q5ec1.g.move.80.5']",['check'],0.4375,0.1935483870967742,0.11764705882352941,0.125,0.0,0.0
follower,aye,"['q5ec1.f.move.80', 'q5ec1.f.move.81.5']",['reply_y'],0.1111111111111111,0.0,0.0,0.0,0.0,0.0
giver,what,"['q5ec1.g.move.81', 'q5ec1.g.move.82.5']",['query_w'],0.16666666666666666,0.0,0.0,0.0,0.0,0.0
follower,a forest,"['q5ec1.f.move.82', 'q5ec1.f.move.83.5']",['reply_w'],0.2,0.0,0.0,0.0,0.0,0.0
giver,is there,"['q5ec1.g.move.83', 'q5ec1.g.move.85.5']",['check'],0.5,0.07692307692307693,0.0,0.0,0.0,0.0
follower,aye,"['q5ec1.f.move.84', 'q5ec1.f.move.86.5']",['reply_y'],0.1111111111111111,0.0,0.0,0.0,0.0,0.0
giver,i think you're on the wrong one,"['q5ec1.g.move.86', 'q5ec1.g.move.87.5']",['explain'],0.13333333333333333,0.0,0.0,0.0,0.0,0.0
follower,the maps have been drawn by different explorers,"['q5ec1.f.move.87', 'q5ec1.f.move.88.5']",['explain'],0.4166666666666667,0.08620689655172414,0.02857142857142857,0.07142857142857142,0.0,0.0
giver,aye aye,"['q5ec1.g.move.88', 'q5ec1.g.move.89.5']",['acknowledge'],0.2,0.023809523809523808,0.0,0.0,0.0,0.0
follower,see i've landed in an obstacle,"['q5ec1.f.move.89', 'q5ec1.f.move.91.5']",['explain'],0.2,0.07407407407407407,0.0,0.0,0.0,0.0
giver,i see,"['q5ec1.g.move.90', 'q5ec1.g.move.92.5']",['acknowledge'],0.2857142857142857,0.07407407407407407,0.03333333333333333,0.16666666666666666,0.0,0.0
follower,i'll have to go through the forest,"['q5ec1.f.move.92', 'q5ec1.f.move.93.5']",['acknowledge'],0.26666666666666666,0.0,0.0,0.0,0.0,0.0
giver,mm,"['q5ec1.g.move.93', 'q5ec1.g.move.94.5']",['acknowledge'],0.0,0.0,0.0,0.0,0.0,0.0
follower,unfortunately right,"['q5ec1.f.move.94', 'q5ec1.f.move.95.5']",['acknowledge'],0.0,0.0,0.0,0.0,0.0,0.0
giver,can you manage that,"['q5ec1.g.move.95', 'q5ec1.g.move.96.5']",['query_yn'],0.625,0.0625,0.0,0.0,0.0,0.0
follower,right i've managed to get through it,"['q5ec1.f.move.96', 'q5ec1.f.move.97.5']",['reply_w'],0.5882352941176471,0.2702702702702703,0.13333333333333333,0.0,0.0,0.0
giver,right now you should em-- hopefully emerge at the cottage yeah,"['q5ec1.g.move.97', 'q5ec1.g.move.100.5']",['align'],0.5652173913043478,0.17391304347826086,0.08235294117647059,0.058823529411764705,0.0,0.0
follower,at the abandoned cottage,"['q5ec1.f.move.98', 'q5ec1.f.move.101.5']",['reply_y'],0.45454545454545453,0.2542372881355932,0.17647058823529413,0.25,0.08333333333333333,0.0
giver,that should be on your left-hand side,"['q5ec1.g.move.101', 'q5ec1.g.move.102.5']",['align'],0.47368421052631576,0.1702127659574468,0.03636363636363636,0.0,0.0,0.0
follower,yes,['q5ec1.f.move.102'],['reply_y'],0.17647058823529413,0.0,0.0,0.0,0.0,0.0
giver,okay,['q5ec1.g.move.103'],['align'],0.16666666666666666,0.0,0.0,0.0,0.0,0.0
follower,uh-huh,"['q5ec1.f.move.105', 'q5ec1.f.move.106.5']",['acknowledge'],0.0,0.0,0.0,0.0,0.0,0.0
giver,keeping it always on your left,"['q5ec1.g.move.106', 'q5ec1.g.move.107.5']",['instruct'],0.05263157894736842,0.0,0.0,0.0,0.0,0.0
follower,right,"['q5ec1.f.move.107', 'q5ec1.f.move.108.5']",['acknowledge'],0.2222222222222222,0.0,0.0,0.0,0.0,0.0
giver,no your left,"['q5ec1.g.move.108', 'q5ec1.g.move.109.5']",['clarify'],0.15384615384615385,0.0,0.0,0.0,0.0,0.0
follower,uh okay,"['q5ec1.f.move.109', 'q5ec1.f.move.111.5']",['acknowledge'],0.3076923076923077,0.0,0.0,0.0,0.0,0.0
giver,okay,"['q5ec1.g.move.110', 'q5ec1.g.move.112.5']",['align'],0.5714285714285714,0.5,0.4,0.5,0.0,0.0
follower,another one,"['q5ec1.f.move.112', 'q5ec1.f.move.113.5']",['check'],0.2,0.0,0.0,0.0,0.0,0.0
giver,yes,"['q5ec1.g.move.113', 'q5ec1.g.move.114.5']",['reply_y'],0.1,0.0,0.0,0.0,0.0,0.0
follower,no i've had a fenced meadow but there's only another there's nae more fenced meadows,"['q5ec1.f.move.114', 'q5ec1.f.move.115.5']",['explain'],0.14285714285714285,0.0,0.0,0.0,0.0,0.0
giver,there's no,"['q5ec1.g.move.115', 'q5ec1.g.move.117.5']",['check'],0.42857142857142855,0.17647058823529413,0.11290322580645161,0.16666666666666666,0.0,0.0
follower,no,"['q5ec1.f.move.116', 'q5ec1.f.move.118.5']",['reply_n'],0.2222222222222222,0.1111111111111111,0.0,0.5,0.0,0.0
giver,you no got two fenced meadows,"['q5ec1.g.move.118', 'q5ec1.g.move.119.5']",['check'],0.13333333333333333,0.037037037037037035,0.0,0.16666666666666666,0.0,0.0
follower,no,"['q5ec1.f.move.119', 'q5ec1.f.move.120.5']",['reply_n'],0.13333333333333333,0.037037037037037035,0.0,0.16666666666666666,0.0,0.0
giver,well what have you got instead a fenced meadow,"['q5ec1.g.move.120', 'q5ec1.g.move.121.5']",['query_w'],0.10526315789473684,0.0,0.0,0.0,0.0,0.0
follower,i can't i don't know if i'm supposed to tell you that,"['q5ec1.f.move.121', 'q5ec1.f.move.122.5']",['reply_w'],0.7727272727272727,0.23529411764705882,0.09523809523809523,0.0625,0.0,0.0
giver,well you've just told me about the forest,"['q5ec1.g.move.122', 'q5ec1.g.move.124.5']",['explain'],0.625,0.16417910447761194,0.0875,0.058823529411764705,0.0,0.0
follower,aye right,"['q5ec1.f.move.123', 'q5ec1.f.move.125.5']",['acknowledge'],0.3333333333333333,0.024390243902439025,0.0,0.0,0.0,0.0
giver,yes,"['q5ec1.g.move.125', 'q5ec1.g.move.126.5']",['acknowledge'],0.2,0.1111111111111111,0.0,0.0,0.0,0.0
follower,because uh the the maps are different,"['q5ec1.f.move.126', 'q5ec1.f.move.127.5']",['explain'],0.11764705882352941,0.0,0.0,0.0,0.0,0.0
giver,aye,"['q5ec1.g.move.127', 'q5ec1.g.move.128.5']",['acknowledge'],0.11764705882352941,0.0,0.0,0.0,0.0,0.0
follower,so there's nae fenced meadow right,"['q5ec1.f.move.128', 'q5ec1.f.move.129.5']",['explain'],0.1111111111111111,0.0,0.0,0.0,0.0,0.0
giver,no fenced meadow,"['q5ec1.g.move.129', 'q5ec1.g.move.130.5']",['acknowledge'],0.5882352941176471,0.4117647058823529,0.35294117647058826,0.2857142857142857,0.16666666666666666,0.0
follower,no,"['q5ec1.f.move.130', 'q5ec1.f.move.132.5']",['reply_n'],0.2,0.06666666666666667,0.0,0.3333333333333333,0.0,0.0
giver,you should be round a hundred and eighty degrees around to the abandoned cottage and then turn right,"['q5ec1.g.move.131', 'q5ec1.g.move.133.5']",['instruct'],0.11764705882352941,0.0,0.0,0.0,0.0,0.0
follower,come up to the abandoned cottage skirted it,"['q5ec1.f.move.133', 'q5ec1.f.move.136.5']",['reply_w'],0.75,0.32432432432432434,0.25,0.2,0.15,0.10526315789473684
giver,cottage round,"['q5ec1.g.move.134', 'q5ec1.g.move.137.5']",['acknowledge'],0.6111111111111112,0.2,0.13333333333333333,0.1111111111111111,0.0,0.0
follower,and then turn right right,"['q5ec1.f.move.137', 'q5ec1.f.move.138.5']",['acknowledge'],0.6923076923076923,0.07407407407407407,0.0,0.0,0.0,0.0
giver,right,"['q5ec1.g.move.138', 'q5ec1.g.move.139.5']",['acknowledge'],0.45454545454545453,0.23529411764705882,0.15789473684210525,0.25,0.0,0.0
follower,verstanden,"['q5ec1.f.move.139', 'q5ec1.f.move.140.5']",['acknowledge'],0.18181818181818182,0.0,0.0,0.0,0.0,0.0
giver,i'll keep it english,"['q5ec1.g.move.140', 'q5ec1.g.move.141.5']",['explain'],0.25,0.037037037037037035,0.0,0.0,0.0,0.0
follower,right,"['q5ec1.f.move.141', 'q5ec1.f.move.142.5']",['acknowledge'],0.3076923076923077,0.0,0.0,0.0,0.0,0.0
giver,okay,"['q5ec1.g.move.142', 'q5ec1.g.move.144.5']",['align'],0.0,0.0,0.0,0.0,0.0,0.0
follower,uh-huh,"['q5ec1.f.move.143', 'q5ec1.f.move.145.5']",['acknowledge'],0.0,0.0,0.0,0.0,0.0,0.0
giver,cottage,['q5ec1.g.move.145'],['reply_y'],0.0,0.0,0.0,0.0,0.0,0.0
follower,okay,['q5ec1.f.move.146'],['acknowledge'],0.25,0.0,0.0,0.0,0.0,0.0
giver,now you're going along,"['q5ec1.g.move.147', 'q5ec1.g.move.148.5']",['instruct'],0.21428571428571427,0.0,0.0,0.0,0.0,0.0
follower,uh-huh,"['q5ec1.f.move.148', 'q5ec1.f.move.149.5']",['acknowledge'],0.06666666666666667,0.0,0.0,0.0,0.0,0.0
giver,and then you turn up right again and you keep going until you find a lake,['q5ec1.g.move.149'],['instruct'],0.1111111111111111,0.0,0.0,0.0,0.0,0.0
follower,wait a minute,"['q5ec1.f.move.150', 'q5ec1.f.move.151.5']",['ready'],0.3684210526315789,0.08928571428571429,0.028169014084507043,0.0,0.0,0.0
giver,what you mean turn left,"['q5ec1.g.move.151', 'q5ec1.g.move.152.5']",['query_w'],0.5333333333333333,0.06451612903225806,0.0,0.0,0.0,0.0
follower,if i turn right by the abandoned cottage that means i'm heading that way,"['q5ec1.f.move.152', 'q5ec1.f.move.153.5']",['clarify'],0.6190476190476191,0.18181818181818182,0.11688311688311688,0.06666666666666667,0.0,0.0
giver,i cannae see your hands fae here,"['q5ec1.g.move.153', 'q5ec1.g.move.155.5']",['explain'],0.7,0.136986301369863,0.021739130434782608,0.0,0.0,0.0
follower,no you cannae,"['q5ec1.f.move.154', 'q5ec1.f.move.156.5']",['reply_y'],0.5714285714285714,0.3103448275862069,0.21212121212121213,0.125,0.0,0.0
giver,uh-huh i know,"['q5ec1.g.move.156', 'q5ec1.g.move.157.5']",['reply_y'],0.3076923076923077,0.045454545454545456,0.0,0.0,0.0,0.0
follower,but i'm heading towards the edge of the map,"['q5ec1.f.move.157', 'q5ec1.f.move.158.5']",['clarify'],0.3333333333333333,0.045454545454545456,0.0,0.0,0.0,0.0
giver,which edg-- you are you heading towards your left-hand edge of the map,"['q5ec1.g.move.158', 'q5ec1.g.move.159.5']",['query_yn'],0.7391304347826086,0.45901639344262296,0.4142857142857143,0.42857142857142855,0.25,0.125
follower,my right-hand edge of the map,"['q5ec1.f.move.159', 'q5ec1.f.move.160.5']",['reply_w'],0.7619047619047619,0.32786885245901637,0.29411764705882354,0.3333333333333333,0.26666666666666666,0.21428571428571427
giver,yes your right-hand edge my left-hand edge,"['q5ec1.g.move.160', 'q5ec1.g.move.161.5']",['explain'],0.7894736842105263,0.48717948717948717,0.4146341463414634,0.4,0.18181818181818182,0.09090909090909091
follower,this edge here,"['q5ec1.f.move.161', 'q5ec1.f.move.162.5']",['reply_w'],0.5,0.15789473684210525,0.10256410256410256,0.1111111111111111,0.0,0.0
giver,oh,"['q5ec1.g.move.162', 'q5ec1.g.move.164.5']",['acknowledge'],0.1,0.0,0.0,0.0,0.0,0.0
follower,right aye,"['q5ec1.f.move.163', 'q5ec1.f.move.166.5']",['ready'],0.1,0.0,0.0,0.0,0.0,0.0
giver,uh-huh,['q5ec1.g.move.165'],['acknowledge'],0.09090909090909091,0.0,0.0,0.0,0.0,0.0
follower,uh-huh,"['q5ec1.f.move.167', 'q5ec1.f.move.167.4']",['acknowledge'],1.0,1.0,1.0,1.0,1.0,0.0
giver,okay you're,"['q5ec1.g.move.166', 'q5ec1.g.move.167.5']",['ready'],0.09090909090909091,0.0,0.0,0.0,0.0,0.0
follower,right i've come up by the abandoned cottage right i was heading straight up the map towards the top of the blackboard,"['q5ec1.f.move.167.9', 'q5ec1.f.move.171.5']",['check'],0.375,0.011904761904761904,0.0,0.0,0.0,0.0
giver,abandoned cottage,"['q5ec1.g.move.168', 'q5ec1.g.move.172.5']",['acknowledge'],0.4166666666666667,0.21333333333333335,0.16304347826086957,0.125,0.05,0.0
follower,and then you told me to turn right,"['q5ec1.f.move.172', 'q5ec1.f.move.174.5']",['check'],0.47058823529411764,0.075,0.022222222222222223,0.0,0.0,0.0
giver,no,"['q5ec1.g.move.173', 'q5ec1.g.move.176.5']",['reply_n'],0.13333333333333333,0.0,0.0,0.0,0.0,0.0
follower,sorry,"['q5ec1.f.move.175', 'q5ec1.f.move.177.5']",['acknowledge'],0.2,0.0,0.0,0.0,0.0,0.0
giver,aye get the tippex out,"['q5ec1.g.move.177', 'q5ec1.g.move.180.5']",['instruct'],0.14285714285714285,0.0,0.0,0.0,0.0,0.0
follower,right,"['q5ec1.f.move.178', 'q5ec1.f.move.181.5']",['acknowledge'],0.3076923076923077,0.0,0.0,0.0,0.0,0.0
giver,right you've come through the forest,"['q5ec1.g.move.181', 'q5ec1.g.move.182.5']",['align'],0.3125,0.13793103448275862,0.09090909090909091,0.14285714285714285,0.0,0.0
follower,uh-huh,"['q5ec1.f.move.182', 'q5ec1.f.move.183.5']",['reply_y'],0.11764705882352941,0.0,0.0,0.0,0.0,0.0
giver,you see the abandoned cottage in front of you,"['q5ec1.g.move.183', 'q5ec1.g.move.184.5']",['align'],0.1111111111111111,0.0,0.0,0.0,0.0,0.0
follower,right,"['q5ec1.f.move.184', 'q5ec1.f.move.185.5']",['reply_y'],0.29411764705882354,0.0,0.0,0.0,0.0,0.0
giver,you go up the map past the abandoned cottage turn left,"['q5ec1.g.move.185', 'q5ec1.g.move.186.5']",['instruct'],0.2,0.0,0.0,0.0,0.0,0.0
follower,oh by the by the abandoned cottage and turn left,"['q5ec1.f.move.186', 'q5ec1.f.move.187.5']",['check'],0.8421052631578947,0.5686274509803921,0.5,0.38461538461538464,0.2,0.0625
giver,left yes,"['q5ec1.g.move.187', 'q5ec1.g.move.189.5']",['reply_y'],0.35294117647058826,0.07894736842105263,0.047619047619047616,0.1111111111111111,0.0,0.0
follower,right i've got that,"['q5ec1.f.move.188', 'q5ec1.f.move.191.4']",['acknowledge'],0.2,0.043478260869565216,0.0,0.0,0.0,0.0
giver,so the abandoned cottage should now be below you on the map,"['q5ec1.g.move.190', 'q5ec1.g.move.192.5']",['align'],0.3181818181818182,0.06896551724137931,0.014705882352941176,0.0,0.0,0.0
follower,it's aye,"['q5ec1.f.move.191.9', 'q5ec1.f.move.193.5']",['reply_y'],0.3,0.0196078431372549,0.0,0.0,0.0,0.0
giver,yes,"['q5ec1.g.move.193', 'q5ec1.g.move.194.5']",['reply_y'],0.375,0.125,0.0,0.0,0.0,0.0
follower,right that's fine,"['q5ec1.f.move.194', 'q5ec1.f.move.195.5']",['acknowledge'],0.15384615384615385,0.0,0.0,0.0,0.0,0.0
giver,so you do that again,"['q5ec1.g.move.195', 'q5ec1.g.move.196.5']",['instruct'],0.5,0.21428571428571427,0.1,0.14285714285714285,0.0,0.0
follower,uh-huh,"['q5ec1.f.move.196', 'q5ec1.f.move.197.5']",['acknowledge'],0.15384615384615385,0.0,0.0,0.0,0.0,0.0
giver,you turn round to a abandoned cottage so always keeping it on your left-hand side,"['q5ec1.g.move.197', 'q5ec1.g.move.198.5']",['instruct'],0.13636363636363635,0.014925373134328358,0.0,0.0,0.0,0.0
follower,aye,"['q5ec1.f.move.198', 'q5ec1.f.move.199.5']",['acknowledge'],0.13636363636363635,0.015384615384615385,0.0,0.0,0.0,0.0
giver,okay you got that much,"['q5ec1.g.move.199', 'q5ec1.g.move.200.5']",['align'],0.16666666666666666,0.047619047619047616,0.0,0.0,0.0,0.0
follower,mmhmm,['q5ec1.f.move.200'],['reply_y'],0.18181818181818182,0.0,0.0,0.0,0.0,0.0
giver,now you turn to your right sh-- should be taking you towards the edge of the paper away from the abandoned cottage,"['q5ec1.g.move.201', 'q5ec1.g.move.202.5']",['instruct'],0.08695652173913043,0.0,0.0,0.0,0.0,0.0
follower,it's taking me straight buh up a up a up again,"['q5ec1.f.move.202', 'q5ec1.f.move.204.5']",['explain'],0.625,0.17708333333333334,0.08064516129032258,0.04,0.0,0.0
giver,no it's no,"['q5ec1.g.move.203', 'q5ec1.g.move.205.5']",['reply_n'],0.35294117647058826,0.10526315789473684,0.07317073170731707,0.125,0.0,0.0
follower,passed it twice,"['q5ec1.f.move.205', 'q5ec1.f.move.207.5']",['reply_w'],0.3076923076923077,0.1,0.05,0.25,0.0,0.0
giver,you've passed twice,"['q5ec1.g.move.206', 'q5ec1.g.move.208.5']",['acknowledge'],0.6666666666666666,0.5238095238095238,0.42857142857142855,0.4,0.0,0.0
follower,right c--,"['q5ec1.f.move.208', 'q5ec1.f.move.209.5']",['ready'],0.21052631578947367,0.0,0.0,0.0,0.0,0.0
giver,so you've anyway after you've turned around the cottage,"['q5ec1.g.move.209', 'q5ec1.g.move.210.5']",['instruct'],0.3,0.020833333333333332,0.0,0.0,0.0,0.0
follower,you come straight back down,"['q5ec1.f.move.210', 'q5ec1.f.move.211.5']",['check'],0.6818181818181818,0.08064516129032258,0.02857142857142857,0.07692307692307693,0.0,0.0
giver,aye,"['q5ec1.g.move.211', 'q5ec1.g.move.212.5']",['reply_y'],0.15789473684210525,0.0,0.0,0.0,0.0,0.0
follower,you said a hundred and eighty degrees should be three hundred sixty you should have said,"['q5ec1.f.move.212', 'q5ec1.f.move.213.5']",['explain'],0.16666666666666666,0.0,0.0,0.0,0.0,0.0
giver,oh three hundred sixty,"['q5ec1.g.move.213', 'q5ec1.g.move.216.5']",['acknowledge'],0.7222222222222222,0.35294117647058826,0.2727272727272727,0.25,0.13333333333333333,0.07142857142857142
follower,right,"['q5ec1.f.move.214', 'q5ec1.f.move.221.5']",['ready'],0.2857142857142857,0.0,0.0,0.0,0.0,0.0
giver,ah yeah back down the paper turn right now,"['q5ec1.g.move.217', 'q5ec1.g.move.219', 'q5ec1.g.move.220', 'q5ec1.g.move.222.5']","['acknowledge', 'reply_y', 'instruct']",0.2777777777777778,0.1111111111111111,0.07692307692307693,0.1111111111111111,0.0,0.0
follower,uh-huh aye turn right,"['q5ec1.f.move.222', 'q5ec1.f.move.224.5']",['acknowledge'],0.5789473684210527,0.30952380952380953,0.1836734693877551,0.16666666666666666,0.09090909090909091,0.0
giver,okay,"['q5ec1.g.move.223', 'q5ec1.g.move.225.5']",['align'],0.14285714285714285,0.047619047619047616,0.0,0.0,0.0,0.0
follower,no i don't have a fenced meadow,"['q5ec1.f.move.225', 'q5ec1.f.move.231.5']",['reply_n'],0.11764705882352941,0.0,0.0,0.0,0.0,0.0
giver,no that's right okay,"['q5ec1.g.move.226', 'q5ec1.g.move.227', 'q5ec1.g.move.232.5']","['acknowledge', 'ready']",0.4,0.09090909090909091,0.021739130434782608,0.125,0.0,0.0
follower,uh-huh,"['q5ec1.f.move.232', 'q5ec1.f.move.233.5']",['reply_y'],0.06666666666666667,0.0,0.0,0.0,0.0,0.0
giver,okay you got the lake,"['q5ec1.g.move.233', 'q5ec1.g.move.235.5']",['align'],0.16666666666666666,0.0,0.0,0.0,0.0,0.0
follower,there's two lakes i've got a lake right,"['q5ec1.f.move.234', 'q5ec1.f.move.235']","['explain', 'reply_y']",0.5294117647058824,0.3,0.15217391304347827,0.2,0.0,0.0
giver,you've got a lake now you skirt around the inside o-- side of the lake that's side of the lake that is nearest to the middle of the map,"['q5ec1.g.move.236', 'q5ec1.g.move.237', 'q5ec1.g.move.238.5']","['acknowledge', 'instruct']",0.6521739130434783,0.2857142857142857,0.14018691588785046,0.14285714285714285,0.07692307692307693,0.037037037037037035
follower,uh-huh,"['q5ec1.f.move.238', 'q5ec1.f.move.241.5']",['acknowledge'],0.13043478260869565,0.0,0.0,0.0,0.0,0.0
giver,okay,"['q5ec1.g.move.239', 'q5ec1.g.move.242.5']",['align'],0.0,0.0,0.0,0.0,0.0,0.0
follower,no i don't have any trig points,"['q5ec1.f.move.242', 'q5ec1.f.move.243.5']",['reply_n'],0.17647058823529413,0.0,0.0,0.0,0.0,0.0
giver,you don't have a trig point,"['q5ec1.g.move.243', 'q5ec1.g.move.244.5']",['check'],0.8823529411764706,0.6470588235294118,0.5882352941176471,0.375,0.125,0.0
follower,no,"['q5ec1.f.move.244', 'q5ec1.f.move.246.5']",['reply_n'],0.125,0.0,0.0,0.0,0.0,0.0
giver,okay,"['q5ec1.g.move.245', 'q5ec1.g.move.247.5']",['acknowledge'],0.2,0.0,0.0,0.0,0.0,0.0
follower,aye,"['q5ec1.f.move.247', 'q5ec1.f.move.250.5']",['reply_y'],0.4,0.25,0.0,0.0,0.0,0.0
giver,uh we turn right there at that bulge since you don't have a trig point we'll use that instead,"['q5ec1.g.move.248', 'q5ec1.g.move.250']","['instruct', 'explain']",0.14285714285714285,0.0,0.0,0.0,0.0,0.0
follower,uh-huh,['q5ec1.f.move.251'],['acknowledge'],0.09090909090909091,0.014705882352941176,0.0,0.05555555555555555,0.0,0.0
giver,turn right now go diagonally down towards the bot-- not a steep diagonal towards the middle,"['q5ec1.g.move.252', 'q5ec1.g.move.253.5']",['instruct'],0.15,0.0,0.0,0.0,0.0,0.0
follower,uh-huh,"['q5ec1.f.move.253', 'q5ec1.f.move.254.5']",['acknowledge'],0.15,0.0,0.0,0.0,0.0,0.0
giver,edge of the map,"['q5ec1.g.move.254', 'q5ec1.g.move.255.5']",['instruct'],0.07692307692307693,0.0,0.0,0.0,0.0,0.0
follower,right,"['q5ec1.f.move.255', 'q5ec1.f.move.257.5']",['acknowledge'],0.23076923076923078,0.0,0.0,0.0,0.0,0.0
giver,okay now should come to a mon-- do you have a monument,"['q5ec1.g.move.256', 'q5ec1.g.move.257', 'q5ec1.g.move.258.5']","['align', 'query_yn']",0.09523809523809523,0.0,0.0,0.0,0.0,0.0
follower,i have a monument,"['q5ec1.f.move.258', 'q5ec1.f.move.259.5']",['reply_y'],0.5263157894736842,0.3333333333333333,0.2857142857142857,0.2,0.1111111111111111,0.0
giver,go round the monument keeping the monument always on your left,"['q5ec1.g.move.259', 'q5ec1.g.move.260.5']",['instruct'],0.47619047619047616,0.19230769230769232,0.125,0.1,0.0,0.0
follower,always on my left,"['q5ec1.f.move.260', 'q5ec1.f.move.261.5']",['check'],0.6,0.2916666666666667,0.21153846153846154,0.3,0.09090909090909091,0.0
giver,yes,['q5ec1.g.move.261'],['reply_y'],0.25,0.0,0.0,0.0,0.0,0.0
follower,right,['q5ec1.f.move.262'],['acknowledge'],0.0,0.0,0.0,0.0,0.0,0.0
giver,go up past the monument,"['q5ec1.g.move.263', 'q5ec1.g.move.265.5']",['instruct'],0.21428571428571427,0.0,0.0,0.0,0.0,0.0
follower,right round it,"['q5ec1.f.move.265', 'q5ec1.f.move.267.5']",['check'],0.4666666666666667,0.029411764705882353,0.0,0.0,0.0,0.0
giver,no,"['q5ec1.g.move.266', 'q5ec1.g.move.268.5']",['reply_n'],0.2,0.0,0.0,0.0,0.0,0.0
follower,aye got that,['q5ec1.f.move.268'],['acknowledge'],0.1111111111111111,0.0,0.0,0.0,0.0,0.0
giver,okay,"['q5ec1.g.move.269', 'q5ec1.g.move.271.5']",['align'],0.3333333333333333,0.07692307692307693,0.0,0.0,0.0,0.0
follower,uh-huh,"['q5ec1.f.move.271', 'q5ec1.f.move.272.5']",['acknowledge'],0.0,0.0,0.0,0.0,0.0,0.0
giver,now do you see a nuclear test site,"['q5ec1.g.move.272', 'q5ec1.g.move.273.5']",['query_yn'],0.058823529411764705,0.0,0.0,0.0,0.0,0.0
follower,no i don't see a nuclear test site,"['q5ec1.f.move.273', 'q5ec1.f.move.275.5']",['reply_n'],0.8125,0.6944444444444444,0.575,0.4444444444444444,0.375,0.2857142857142857
giver,okay,"['q5ec1.g.move.274', 'q5ec1.g.move.276.5']",['acknowledge'],0.125,0.0,0.0,0.0,0.0,0.0
follower,alright keep going 'til i find a lake right,"['q5ec1.f.move.276', 'q5ec1.f.move.278.5']",['acknowledge'],0.17647058823529413,0.0,0.0,0.0,0.0,0.0
giver,okay,['q5ec1.g.move.277'],['align'],0.17647058823529413,0.0,0.0,0.0,0.0,0.0
follower,i've got to a lake,['q5ec1.f.move.279'],['explain'],0.25,0.0,0.0,0.0,0.0,0.0
giver,now you turn left towards the middle of the page,"['q5ec1.g.move.280', 'q5ec1.g.move.283.5']",['instruct'],0.36363636363636365,0.1,0.03508771929824561,0.0,0.0,0.0
follower,uh-huh,"['q5ec1.f.move.281', 'q5ec1.f.move.284.5']",['acknowledge'],0.1,0.0,0.0,0.0,0.0,0.0
giver,and you should finish just past the the lake,"['q5ec1.g.move.284', 'q5ec1.g.move.285.5']",['instruct'],0.1111111111111111,0.0,0.0,0.0,0.0,0.0
follower,finish just past the lake,"['q5ec1.f.move.285', 'q5ec1.f.move.286.5']",['check'],0.8235294117647058,0.6470588235294118,0.5789473684210527,0.625,0.5,0.25
giver,yes,['q5ec1.g.move.286'],['reply_y'],0.13333333333333333,0.0,0.0,0.0,0.0,0.0
follower,uh-huh,['q5ec1.f.move.287'],['acknowledge'],0.0,0.0,0.0,0.0,0.0,0.0
giver,okay and that's you,"['q5ec1.g.move.288', 'q5ec1.g.move.289.5']",['explain'],0.15384615384615385,0.0,0.0,0.0,0.0,0.0
follower,is it,['q5ec1.f.move.289'],['check'],0.23076923076923078,0.047619047619047616,0.0,0.0,0.0,0.0
giver,aye quite why you want to go there i don't know but,"['q5ec1.g.move.290', 'q5ec1.g.move.291']","['reply_y', 'explain']",0.15789473684210525,0.043478260869565216,0.0,0.0,0.0,0.0
follower,i know i've had i've had two detours wrong,"['q5ec1.f.move.292', 'q5ec1.f.move.293.5']",['explain'],0.75,0.2459016393442623,0.05194805194805195,0.0625,0.0,0.0
giver,ah we better score them out then,['q5ec1.g.move.293'],['instruct'],0.55,0.09259259259259259,0.0,0.0,0.0,0.0
follower,aye that's wrong,['q5ec1.f.move.294'],['explain'],0.5882352941176471,0.10526315789473684,0.05,0.0,0.0,0.0
