speaker,sentence,move_id,label,jaccard_sim_char_1_1,jaccard_sim_char_2_2,jaccard_sim_char_3_3,jaccard_sim_word_1_1,jaccard_sim_word_2_2,jaccard_sim_word_3_3
giver,right,"['q6ec1.g.move.1', 'q6ec1.g.move.3.5']",['ready'],,,,,,
follower,okay,"['q6ec1.f.move.3', 'q6ec1.f.move.4.5']",['acknowledge'],0.0,0.0,0.0,0.0,0.0,0.0
giver,down at the bottom of it bottom left of it follow the s-- line stream i presume it is to the top of the well,"['q6ec1.g.move.4', 'q6ec1.g.move.5.5']",['instruct'],0.09523809523809523,0.0,0.0,0.0,0.0,0.0
follower,i don't have a well,"['q6ec1.f.move.5', 'q6ec1.f.move.10.5']",['explain'],0.5238095238095238,0.13043478260869565,0.031914893617021274,0.058823529411764705,0.0,0.0
giver,you don't have a stream,"['q6ec1.g.move.6', 'q6ec1.g.move.12.5']",['query_yn'],0.5555555555555556,0.48148148148148145,0.46153846153846156,0.4,0.25,0.0
follower,right i've got the sandy shore and i've got a cross saying start,"['q6ec1.f.move.11', 'q6ec1.f.move.12']","['ready', 'explain']",0.7222222222222222,0.13793103448275862,0.057971014492753624,0.0,0.0,0.0
giver,right right okay,"['q6ec1.g.move.13', 'q6ec1.g.move.15', 'q6ec1.g.move.17.5']","['acknowledge', 'ready']",0.5294117647058824,0.125,0.06896551724137931,0.09090909090909091,0.0,0.0
follower,down the middle or straight,"['q6ec1.f.move.17', 'q6ec1.f.move.18.5']",['query_w'],0.47058823529411764,0.12903225806451613,0.06060606060606061,0.0,0.0,0.0
giver,slightly sloped slightly sloped that way,"['q6ec1.g.move.18', 'q6ec1.g.move.19.5']",['reply_w'],0.7058823529411765,0.14634146341463414,0.06666666666666667,0.0,0.0,0.0
follower,to the towards the west or east,"['q6ec1.f.move.19', 'q6ec1.f.move.22.5']",['query_w'],0.6,0.125,0.020833333333333332,0.0,0.0,0.0
giver,right,"['q6ec1.g.move.20', 'q6ec1.g.move.23.5']",['reply_w'],0.25,0.0,0.0,0.0,0.0,0.0
follower,right okay,"['q6ec1.f.move.23', 'q6ec1.f.move.24.5']",['acknowledge'],0.5,0.4444444444444444,0.375,0.5,0.0,0.0
giver,but don't go down too far,['q6ec1.g.move.24'],['instruct'],0.35294117647058826,0.03571428571428571,0.0,0.0,0.0,0.0
follower,straight,"['q6ec1.f.move.25', 'q6ec1.f.move.29.5']",['query_yn'],0.25,0.0,0.0,0.0,0.0,0.0
giver,uh-huh and then,"['q6ec1.g.move.27', 'q6ec1.g.move.28', 'q6ec1.g.move.30.5']","['reply_y', 'ready']",0.23076923076923078,0.0,0.0,0.0,0.0,0.0
follower,no,"['q6ec1.f.move.30', 'q6ec1.f.move.32.5']",['reply_n'],0.1,0.0,0.0,0.0,0.0,0.0
giver,right,"['q6ec1.g.move.31', 'q6ec1.g.move.33.5']",['ready'],0.0,0.0,0.0,0.0,0.0,0.0
follower,i don't have a stream,"['q6ec1.f.move.33', 'q6ec1.f.move.34.5']",['reply_w'],0.26666666666666666,0.0,0.0,0.0,0.0,0.0
giver,you don't have anything,"['q6ec1.g.move.34', 'q6ec1.g.move.35.5']",['check'],0.6470588235294118,0.4,0.3793103448275862,0.4,0.25,0.0
follower,are we talking about the top left,"['q6ec1.f.move.35', 'q6ec1.f.move.36.5']",['align'],0.47619047619047616,0.16279069767441862,0.02,0.0,0.0,0.0
giver,yes,"['q6ec1.g.move.36', 'q6ec1.g.move.37.5']",['reply_y'],0.05263157894736842,0.0,0.0,0.0,0.0,0.0
follower,right okay,"['q6ec1.f.move.37', 'q6ec1.f.move.38.5']",['acknowledge'],0.08333333333333333,0.0,0.0,0.0,0.0,0.0
giver,do you have anything,"['q6ec1.g.move.38', 'q6ec1.g.move.39.5']",['check'],0.5333333333333333,0.0,0.0,0.0,0.0,0.0
follower,no nothing at all,"['q6ec1.f.move.39', 'q6ec1.f.move.40.5']",['reply_n'],0.5714285714285714,0.2222222222222222,0.1,0.0,0.0,0.0
giver,is your page just blank,"['q6ec1.g.move.40', 'q6ec1.g.move.42.5']",['query_yn'],0.4444444444444444,0.02857142857142857,0.0,0.0,0.0,0.0
follower,no no,"['q6ec1.f.move.41', 'q6ec1.f.move.44.5']",['reply_n'],0.17647058823529413,0.0,0.0,0.0,0.0,0.0
giver,okay,"['q6ec1.g.move.43', 'q6ec1.g.move.45.5']",['ready'],0.16666666666666666,0.0,0.0,0.0,0.0,0.0
follower,uh-huh,"['q6ec1.f.move.45', 'q6ec1.f.move.46.5']",['acknowledge'],0.0,0.0,0.0,0.0,0.0,0.0
giver,and then slightly to the east that way and then turn to the west and like curve round like that except it'll be the other way,['q6ec1.g.move.46'],['instruct'],0.08333333333333333,0.0,0.0,0.0,0.0,0.0
follower,okay,['q6ec1.f.move.47'],['acknowledge'],0.17391304347826086,0.015151515151515152,0.0,0.0,0.0,0.0
giver,and then after you finish the curve continue to the east do you have a house with local residents,"['q6ec1.g.move.48', 'q6ec1.g.move.49', 'q6ec1.g.move.50', 'q6ec1.g.move.51.5']","['ready', 'instruct', 'query_yn']",0.15789473684210525,0.0,0.0,0.0,0.0,0.0
follower,under crane bay,"['q6ec1.f.move.51', 'q6ec1.f.move.52.5']",['check'],0.47368421052631576,0.09210526315789473,0.010309278350515464,0.0,0.0,0.0
giver,yeah,"['q6ec1.g.move.52', 'q6ec1.g.move.53.5']",['reply_y'],0.2727272727272727,0.0,0.0,0.0,0.0,0.0
follower,do you see this river coming down,"['q6ec1.f.move.53', 'q6ec1.f.move.54.5']",['align'],0.16666666666666666,0.0,0.0,0.0,0.0,0.0
giver,the big river,"['q6ec1.g.move.54', 'q6ec1.g.move.54.4']",['check'],0.4444444444444444,0.22857142857142856,0.10526315789473684,0.1111111111111111,0.0,0.0
follower,yeah,"['q6ec1.f.move.55', 'q6ec1.f.move.59.5']",['reply_y'],0.18181818181818182,0.0,0.0,0.0,0.0,0.0
giver,no no mm,"['q6ec1.g.move.54.9', 'q6ec1.g.move.59', 'q6ec1.g.move.59.4', 'q6ec1.g.move.59.9']","['reply_n', 'uncodable']",0.0,0.0,0.0,0.0,0.0,0.0
follower,are you going to the treasure,"['q6ec1.f.move.60', 'q6ec1.f.move.64.5']",['query_yn'],0.21428571428571427,0.037037037037037035,0.0,0.0,0.0,0.0
giver,treasure,"['q6ec1.g.move.61', 'q6ec1.g.move.67.5']",['acknowledge'],0.46153846153846156,0.2608695652173913,0.2222222222222222,0.16666666666666666,0.0,0.0
follower,no okay never mind have you got hills,"['q6ec1.f.move.65', 'q6ec1.f.move.66', 'q6ec1.f.move.67', 'q6ec1.f.move.68.5']","['reply_n', 'instruct', 'query_yn']",0.3333333333333333,0.0,0.0,0.0,0.0,0.0
giver,yeah,"['q6ec1.g.move.68', 'q6ec1.g.move.70.5']",['reply_y'],0.2222222222222222,0.0,0.0,0.0,0.0,0.0
follower,right,"['q6ec1.f.move.69', 'q6ec1.f.move.71.5']",['ready'],0.125,0.0,0.0,0.0,0.0,0.0
giver,above the hills,"['q6ec1.g.move.71', 'q6ec1.g.move.72.5']",['reply_y'],0.23076923076923078,0.0,0.0,0.0,0.0,0.0
follower,to the east of that or what,"['q6ec1.f.move.72', 'q6ec1.f.move.74.5']",['query_yn'],0.5,0.13793103448275862,0.09375,0.1111111111111111,0.0,0.0
giver,to the east of that,"['q6ec1.g.move.73', 'q6ec1.g.move.75.5']",['reply_y'],0.8,0.8,0.7272727272727273,0.7142857142857143,0.6666666666666666,0.6
follower,i'm just going straight down there then,"['q6ec1.f.move.75', 'q6ec1.f.move.78.5']",['query_yn'],0.3888888888888889,0.13953488372093023,0.0625,0.0,0.0,0.0
giver,no,"['q6ec1.g.move.76', 'q6ec1.g.move.79.5']",['reply_n'],0.11764705882352941,0.0,0.0,0.0,0.0,0.0
follower,well sort yeah,"['q6ec1.f.move.79', 'q6ec1.f.move.81.5']",['reply_y'],0.08333333333333333,0.0,0.0,0.0,0.0,0.0
giver,right,"['q6ec1.g.move.80', 'q6ec1.g.move.84.5']",['ready'],0.23076923076923078,0.0,0.0,0.0,0.0,0.0
follower,how far down the page am i now,"['q6ec1.f.move.82', 'q6ec1.f.move.85.5']",['query_w'],0.3333333333333333,0.0,0.0,0.0,0.0,0.0
giver,ten centimetres,"['q6ec1.g.move.85', 'q6ec1.g.move.87.5']",['reply_w'],0.4117647058823529,0.02631578947368421,0.0,0.0,0.0,0.0
follower,east,"['q6ec1.f.move.86', 'q6ec1.f.move.89.5']",['acknowledge'],0.3,0.0,0.0,0.0,0.0,0.0
giver,east to about couple centimetres off the top off the end of the hills,"['q6ec1.g.move.88', 'q6ec1.g.move.89']","['reply_y', 'clarify']",0.2222222222222222,0.06666666666666667,0.037037037037037035,0.09090909090909091,0.0,0.0
follower,we've probably got different hills okay that's me,"['q6ec1.f.move.90', 'q6ec1.f.move.92']","['explain', 'acknowledge']",0.6666666666666666,0.2328767123287671,0.07446808510638298,0.05263157894736842,0.0,0.0
giver,and,"['q6ec1.g.move.93', 'q6ec1.g.move.95.5']",['ready'],0.13636363636363635,0.0,0.0,0.0,0.0,0.0
follower,mmhmm,"['q6ec1.f.move.95', 'q6ec1.f.move.96.5']",['acknowledge'],0.0,0.0,0.0,0.0,0.0,0.0
giver,back to the stream to where you c-- to where you cross the stream,"['q6ec1.g.move.96', 'q6ec1.g.move.97.5']",['instruct'],0.125,0.0,0.0,0.0,0.0,0.0
follower,this big thing,['q6ec1.f.move.97'],['check'],0.2631578947368421,0.07317073170731707,0.02040816326530612,0.0,0.0,0.0
giver,do you have like two black lines and then a big stream,['q6ec1.g.move.98'],['query_yn'],0.38095238095238093,0.16326530612244897,0.06896551724137931,0.07692307692307693,0.0,0.0
follower,right,"['q6ec1.f.move.99', 'q6ec1.f.move.102.5']",['ready'],0.23809523809523808,0.02040816326530612,0.0,0.0,0.0,0.0
giver,uh-huh,"['q6ec1.g.move.102', 'q6ec1.g.move.103.5']",['reply_y'],0.14285714285714285,0.0,0.0,0.0,0.0,0.0
follower,and i've got one big sort river thing coming down and that's it,"['q6ec1.f.move.103', 'q6ec1.f.move.104.5']",['explain'],0.05,0.0,0.0,0.0,0.0,0.0
giver,right s--,"['q6ec1.g.move.104', 'q6ec1.g.move.106']","['ready', 'uncodable']",0.3684210526315789,0.07547169811320754,0.0,0.0,0.0,0.0
follower,and then it splits into two,['q6ec1.f.move.105'],['explain'],0.3125,0.06896551724137931,0.03225806451612903,0.0,0.0,0.0
giver,you've got crane bay,"['q6ec1.g.move.106.9', 'q6ec1.g.move.107.5']",['align'],0.2857142857142857,0.05128205128205128,0.0,0.0,0.0,0.0
follower,mmhmm,"['q6ec1.f.move.107', 'q6ec1.f.move.108.5']",['reply_y'],0.0,0.0,0.0,0.0,0.0,0.0
giver,at the top,"['q6ec1.g.move.108', 'q6ec1.g.move.109.5']",['align'],0.125,0.0,0.0,0.0,0.0,0.0
follower,yeah,['q6ec1.f.move.109'],['reply_y'],0.375,0.0,0.0,0.0,0.0,0.0
giver,uh,['q6ec1.g.move.110'],['uncodable'],0.2,0.0,0.0,0.0,0.0,0.0
giver,and you've got like the two bits round two lines round crane bay,"['q6ec1.g.move.110.4', 'q6ec1.g.move.111']",['align'],0.09523809523809523,0.0,0.0,0.0,0.0,0.0
follower,uh-huh,['q6ec1.f.move.112'],['reply_y'],0.09090909090909091,0.0,0.0,0.0,0.0,0.0
giver,so you cross that go up go back up and cross that,"['q6ec1.g.move.113', 'q6ec1.g.move.114.5']",['instruct'],0.11764705882352941,0.0,0.0,0.0,0.0,0.0
follower,how far down the river bit,['q6ec1.f.move.114'],['query_w'],0.42857142857142855,0.058823529411764705,0.017543859649122806,0.0,0.0,0.0
giver,about two centimetres from where the two lines meet more sort come into one,['q6ec1.g.move.115'],['reply_w'],0.631578947368421,0.09230769230769231,0.03409090909090909,0.05555555555555555,0.0,0.0
follower,describe what you've got,"['q6ec1.f.move.116', 'q6ec1.f.move.120.5']",['instruct'],0.5909090909090909,0.09375,0.011363636363636364,0.0,0.0,0.0
giver,right,"['q6ec1.g.move.117', 'q6ec1.g.move.122.5']",['ready'],0.2777777777777778,0.04,0.0,0.0,0.0,0.0
follower,i have,"['q6ec1.f.move.121', 'q6ec1.f.move.126.5']",['reply_y'],0.2222222222222222,0.0,0.0,0.0,0.0,0.0
giver,right now go up to the left from that,"['q6ec1.g.move.123', 'q6ec1.g.move.128.5']",['instruct'],0.29411764705882354,0.02857142857142857,0.0,0.0,0.0,0.0
follower,but i thought we're starting at the top,"['q6ec1.f.move.127', 'q6ec1.f.move.131.5']",['query_yn'],0.6842105263157895,0.16666666666666666,0.09375,0.0625,0.0,0.0
giver,yeah i know,"['q6ec1.g.move.129', 'q6ec1.g.move.132.5']",['reply_y'],0.4444444444444444,0.05,0.022727272727272728,0.0,0.0,0.0
follower,oh alright okay,"['q6ec1.f.move.132', 'q6ec1.f.move.135.5']",['acknowledge'],0.5,0.043478260869565216,0.0,0.0,0.0,0.0
giver,on the page,"['q6ec1.g.move.133', 'q6ec1.g.move.136.5']",['explain'],0.42857142857142855,0.0,0.0,0.0,0.0,0.0
follower,one bit goes up,['q6ec1.f.move.136'],['check'],0.5384615384615384,0.09090909090909091,0.0,0.0,0.0,0.0
giver,it round crane bay,['q6ec1.g.move.137'],['reply_w'],0.5,0.19230769230769232,0.11538461538461539,0.0,0.0,0.0
follower,mine just goes straight up goes like that into crane bay have you got bridges,"['q6ec1.f.move.138', 'q6ec1.f.move.139.9']","['explain', 'query_yn']",0.5909090909090909,0.1774193548387097,0.1038961038961039,0.125,0.0625,0.0
giver,no,['q6ec1.g.move.140'],['reply_n'],0.09090909090909091,0.0,0.0,0.0,0.0,0.0
giver,i don't have a bridge but maybe that's your bridge then that's how it's crossed,"['q6ec1.g.move.141', 'q6ec1.g.move.143.5']",['explain'],0.1,0.0,0.0,0.0,0.0,0.0
follower,up at the very very top at crane bay,['q6ec1.f.move.143'],['reply_w'],0.6190476190476191,0.18461538461538463,0.047619047619047616,0.0,0.0,0.0
giver,how many centimetres off the top of the page yeah that could be it,"['q6ec1.g.move.144', 'q6ec1.g.move.145']","['query_w', 'explain']",0.5909090909090909,0.20634920634920634,0.1038961038961039,0.1111111111111111,0.0,0.0
follower,but i've got a house just below that local residents,['q6ec1.f.move.146'],['explain'],0.7083333333333334,0.2125,0.08,0.047619047619047616,0.0,0.0
giver,yeah so have i,"['q6ec1.g.move.147', 'q6ec1.g.move.148']","['acknowledge', 'explain']",0.38095238095238093,0.09433962264150944,0.01639344262295082,0.0,0.0,0.0
follower,so am i going on top of that or what,['q6ec1.f.move.149'],['query_w'],0.35294117647058826,0.10256410256410256,0.022727272727272728,0.09090909090909091,0.0,0.0
giver,mmhmm,['q6ec1.g.move.150'],['reply_y'],0.14285714285714285,0.0,0.0,0.0,0.0,0.0
follower,under it,"['q6ec1.f.move.151', 'q6ec1.f.move.154.5']",['query_yn'],0.0,0.0,0.0,0.0,0.0,0.0
giver,go up round the round to the le-- the left of the house,"['q6ec1.g.move.152', 'q6ec1.g.move.154']",['instruct'],0.4375,0.05555555555555555,0.024390243902439025,0.0,0.0,0.0
follower,right okay,['q6ec1.f.move.155'],['acknowledge'],0.3157894736842105,0.05263157894736842,0.023255813953488372,0.0,0.0,0.0
giver,and up to probably where your bridge is then,['q6ec1.g.move.156'],['instruct'],0.47368421052631576,0.020833333333333332,0.0,0.0,0.0,0.0
follower,right okay,['q6ec1.f.move.157'],['acknowledge'],0.47368421052631576,0.020833333333333332,0.0,0.0,0.0,0.0
giver,right,"['q6ec1.g.move.158', 'q6ec1.g.move.160.5']",['ready'],0.5,0.4444444444444444,0.375,0.5,0.0,0.0
follower,over the bridge,"['q6ec1.f.move.160', 'q6ec1.f.move.161.5']",['check'],0.45454545454545453,0.058823529411764705,0.0,0.0,0.0,0.0
giver,over the bridge,"['q6ec1.g.move.161', 'q6ec1.g.move.162.5']",['reply_y'],1.0,1.0,1.0,1.0,1.0,1.0
follower,uh-huh,"['q6ec1.f.move.162', 'q6ec1.f.move.164.5']",['acknowledge'],0.07692307692307693,0.0,0.0,0.0,0.0,0.0
giver,well i don't know i don't have the bridge but it looks over the bridge,"['q6ec1.g.move.163', 'q6ec1.g.move.165.5']",['reply_w'],0.1,0.0,0.0,0.0,0.0,0.0
follower,not that side,"['q6ec1.f.move.165', 'q6ec1.f.move.168.5']",['reply_n'],0.5263157894736842,0.12244897959183673,0.01639344262295082,0.0,0.0,0.0
giver,up near where that one is no well keep going right for about four centimetres do you have a wood,"['q6ec1.g.move.166', 'q6ec1.g.move.167', 'q6ec1.g.move.168', 'q6ec1.g.move.169.5']","['query_yn', 'instruct']",0.43478260869565216,0.075,0.04040404040404041,0.047619047619047616,0.0,0.0
follower,yeah,"['q6ec1.f.move.169', 'q6ec1.f.move.170.5']",['reply_y'],0.17391304347826086,0.012987012987012988,0.0,0.0,0.0,0.0
giver,you're roughly in line with the wood or slightly,"['q6ec1.g.move.170', 'q6ec1.g.move.171.5']",['instruct'],0.17647058823529413,0.0,0.0,0.0,0.0,0.0
follower,okay,"['q6ec1.f.move.171', 'q6ec1.f.move.172.5']",['acknowledge'],0.1111111111111111,0.0,0.0,0.0,0.0,0.0
giver,sort nearly the middle of the wood but not quite down a bit in the middle,"['q6ec1.g.move.172', 'q6ec1.g.move.174']",['instruct'],0.15,0.0,0.0,0.0,0.0,0.0
follower,mmhmm,"['q6ec1.f.move.173', 'q6ec1.f.move.176.5']",['acknowledge'],0.10526315789473684,0.0,0.0,0.0,0.0,0.0
follower,quite a lot,['q6ec1.f.move.177'],['query_yn'],0.0,0.0,0.0,0.0,0.0,0.0
giver,"round the forked stream 'til you come to like about the ""m"" in stream now do you have farmed land","['q6ec1.g.move.178', 'q6ec1.g.move.179', 'q6ec1.g.move.180']","['reply_w', 'ready', 'query_yn']",0.3333333333333333,0.0410958904109589,0.011235955056179775,0.0,0.0,0.0
follower,nope,['q6ec1.f.move.181'],['reply_n'],0.125,0.014705882352941176,0.0,0.0,0.0,0.0
giver,do you have a dead tree,['q6ec1.g.move.182'],['query_yn'],0.15384615384615385,0.0,0.0,0.0,0.0,0.0
follower,yeah,['q6ec1.f.move.183'],['reply_y'],0.36363636363636365,0.041666666666666664,0.0,0.0,0.0,0.0
giver,right in like where two streams meet you have a dead tree,['q6ec1.g.move.184'],['check'],0.21052631578947367,0.02040816326530612,0.0,0.0,0.0,0.0
follower,uh-huh,['q6ec1.f.move.185'],['reply_y'],0.1,0.0,0.0,0.0,0.0,0.0
giver,right,"['q6ec1.g.move.186', 'q6ec1.g.move.189.5']",['ready'],0.14285714285714285,0.0,0.0,0.0,0.0,0.0
follower,mmhmm,['q6ec1.f.move.189'],['reply_y'],0.16666666666666666,0.0,0.0,0.0,0.0,0.0
giver,about seven or eight centimetres along,['q6ec1.g.move.190'],['explain'],0.11764705882352941,0.0,0.0,0.0,0.0,0.0
follower,in the the farmed land and the stream or round the whole thing,"['q6ec1.f.move.192', 'q6ec1.f.move.194.5']",['query_w'],0.7,0.1746031746031746,0.038461538461538464,0.06666666666666667,0.0,0.0
giver,no,"['q6ec1.g.move.193', 'q6ec1.g.move.196.5']",['reply_n'],0.11764705882352941,0.0,0.0,0.0,0.0,0.0
follower,right,"['q6ec1.f.move.195', 'q6ec1.f.move.200.5']",['ready'],0.0,0.0,0.0,0.0,0.0,0.0
giver,way out 'til about,"['q6ec1.g.move.197', 'q6ec1.g.move.201.5']",['reply_y'],0.14285714285714285,0.0,0.0,0.0,0.0,0.0
follower,okay,"['q6ec1.f.move.201', 'q6ec1.f.move.202.5']",['acknowledge'],0.25,0.058823529411764705,0.0,0.0,0.0,0.0
giver,then about four centimetres down,"['q6ec1.g.move.202', 'q6ec1.g.move.203.5']",['clarify'],0.10526315789473684,0.0,0.0,0.0,0.0,0.0
follower,mmhmm,"['q6ec1.f.move.203', 'q6ec1.f.move.204.5']",['acknowledge'],0.11764705882352941,0.0,0.0,0.0,0.0,0.0
giver,and then back in again,"['q6ec1.g.move.204', 'q6ec1.g.move.205.5']",['clarify'],0.07692307692307693,0.0,0.0,0.0,0.0,0.0
follower,about in line with this dead tree,"['q6ec1.f.move.205', 'q6ec1.f.move.206.5']",['check'],0.5,0.14285714285714285,0.0851063829787234,0.09090909090909091,0.0,0.0
giver,so you're just below the dead tree,['q6ec1.g.move.206'],['reply_w'],0.7222222222222222,0.2826086956521739,0.16666666666666666,0.15384615384615385,0.08333333333333333,0.0
follower,okay,['q6ec1.f.move.207'],['acknowledge'],0.17647058823529413,0.0,0.0,0.0,0.0,0.0
giver,and then you cross the stream so's that you are actually below the dead tree,"['q6ec1.g.move.208', 'q6ec1.g.move.209.5']",['instruct'],0.15789473684210525,0.0,0.0,0.0,0.0,0.0
follower,i don't actually have anything to cross it with but,"['q6ec1.f.move.209', 'q6ec1.f.move.210.5']",['explain'],0.8095238095238095,0.30666666666666664,0.14432989690721648,0.1,0.0,0.0
giver,neither do i,['q6ec1.g.move.210'],['explain'],0.45,0.11764705882352941,0.03508771929824561,0.0,0.0,0.0
follower,that's okay,['q6ec1.f.move.211'],['explain'],0.2857142857142857,0.05,0.0,0.0,0.0,0.0
giver,right do you have pine grove,"['q6ec1.g.move.212', 'q6ec1.g.move.213']","['ready', 'query_yn']",0.3333333333333333,0.029411764705882353,0.0,0.0,0.0,0.0
follower,yeah bottom right,"['q6ec1.f.move.214', 'q6ec1.f.move.215']","['reply_y', 'check']",0.5882352941176471,0.10810810810810811,0.07894736842105263,0.125,0.0,0.0
giver,do you have a lagoon,"['q6ec1.g.move.217', 'q6ec1.g.move.220.5']",['query_yn'],0.4117647058823529,0.0,0.0,0.0,0.0,0.0
follower,no,"['q6ec1.f.move.218', 'q6ec1.f.move.222.5']",['reply_n'],0.16666666666666666,0.0,0.0,0.0,0.0,0.0
giver,about the middle,['q6ec1.g.move.221'],['reply_w'],0.07692307692307693,0.0,0.0,0.0,0.0,0.0
follower,oh yeah i've got lagoon yeah,['q6ec1.f.move.223'],['reply_y'],0.47058823529411764,0.058823529411764705,0.0,0.0,0.0,0.0
giver,mm right,"['q6ec1.g.move.224', 'q6ec1.g.move.226.5']",['ready'],0.3333333333333333,0.0,0.0,0.0,0.0,0.0
follower,straight down uh past the buried treasure,"['q6ec1.f.move.226', 'q6ec1.f.move.227.5']",['check'],0.35294117647058826,0.1111111111111111,0.046511627906976744,0.0,0.0,0.0
giver,which i don't have,['q6ec1.g.move.227'],['explain'],0.5263157894736842,0.08695652173913043,0.018518518518518517,0.0,0.0,0.0
follower,never mind okay,"['q6ec1.f.move.228', 'q6ec1.f.move.229']",['acknowledge'],0.47058823529411764,0.03333333333333333,0.0,0.0,0.0,0.0
giver,and then go west 'til you nearly reach the lagoon right and then down round that to the bottom the tip of the lagoon right now do you have a rock fall,"['q6ec1.g.move.230', 'q6ec1.g.move.231', 'q6ec1.g.move.232', 'q6ec1.g.move.233', 'q6ec1.g.move.234']","['instruct', 'align', 'ready', 'query_yn']",0.5,0.05555555555555555,0.008333333333333333,0.0,0.0,0.0
follower,no,['q6ec1.f.move.235'],['reply_n'],0.08333333333333333,0.012345679012345678,0.0,0.0,0.0,0.0
giver,right you have green bay,['q6ec1.g.move.237'],['check'],0.14285714285714285,0.0,0.0,0.0,0.0,0.0
follower,mmhmm,['q6ec1.f.move.238'],['reply_y'],0.06666666666666667,0.0,0.0,0.0,0.0,0.0
giver,do you have ehm,"['q6ec1.g.move.239', 'q6ec1.g.move.242.5']",['query_yn'],0.2,0.0625,0.0,0.0,0.0,0.0
follower,the westerly one,"['q6ec1.f.move.242', 'q6ec1.f.move.244.5']",['check'],0.3125,0.03571428571428571,0.0,0.0,0.0,0.0
giver,yeah,"['q6ec1.g.move.243', 'q6ec1.g.move.245.5']",['reply_y'],0.25,0.0,0.0,0.0,0.0,0.0
follower,mmhmm,"['q6ec1.f.move.245', 'q6ec1.f.move.246.5']",['reply_y'],0.2,0.0,0.0,0.0,0.0,0.0
giver,that like comes to a point right,"['q6ec1.g.move.246', 'q6ec1.g.move.247.5']",['align'],0.125,0.0,0.0,0.0,0.0,0.0
follower,the bit that looks a bit like india or something,['q6ec1.f.move.247'],['check'],0.7777777777777778,0.32,0.16129032258064516,0.16666666666666666,0.0,0.0
giver,yeah mmhmm,['q6ec1.g.move.248'],['reply_y'],0.29411764705882354,0.0,0.0,0.0,0.0,0.0
follower,mmhmm,"['q6ec1.f.move.252', 'q6ec1.f.move.253.5']",['reply_y'],0.3333333333333333,0.375,0.375,0.5,0.0,0.0
giver,that's a rock fall of about three centimetres high,"['q6ec1.g.move.253', 'q6ec1.g.move.254.5']",['explain'],0.10526315789473684,0.0,0.0,0.0,0.0,0.0
follower,okay,"['q6ec1.f.move.254', 'q6ec1.f.move.255.5']",['acknowledge'],0.15,0.0,0.0,0.0,0.0,0.0
giver,so you have to come from the bottom of the lagoon over that and then down to the tip,"['q6ec1.g.move.255', 'q6ec1.g.move.256.5']",['instruct'],0.13043478260869565,0.0,0.0,0.0,0.0,0.0
follower,right,['q6ec1.f.move.256'],['acknowledge'],0.22727272727272727,0.0,0.0,0.0,0.0,0.0
giver,'kay now,"['q6ec1.g.move.257', 'q6ec1.g.move.258', 'q6ec1.g.move.261.5']","['align', 'ready']",0.0,0.0,0.0,0.0,0.0,0.0
follower,yeah,"['q6ec1.f.move.261', 'q6ec1.f.move.263.5']",['reply_y'],0.2,0.0,0.0,0.0,0.0,0.0
giver,right yeah and,"['q6ec1.g.move.262', 'q6ec1.g.move.264.5']",['ready'],0.36363636363636365,0.23076923076923078,0.16666666666666666,0.3333333333333333,0.0,0.0
follower,over the water,"['q6ec1.f.move.264', 'q6ec1.f.move.265.5']",['check'],0.42857142857142855,0.0,0.0,0.0,0.0,0.0
giver,yeah,"['q6ec1.g.move.265', 'q6ec1.g.move.266.5']",['reply_y'],0.3,0.0,0.0,0.0,0.0,0.0
follower,anywhere in this pirate ship,"['q6ec1.f.move.266', 'q6ec1.f.move.267.5']",['query_w'],0.3333333333333333,0.0,0.0,0.0,0.0,0.0
giver,the the west the front,"['q6ec1.g.move.267', 'q6ec1.g.move.268.5']",['reply_w'],0.5714285714285714,0.11428571428571428,0.025,0.0,0.0,0.0
follower,aye okay,['q6ec1.f.move.268'],['acknowledge'],0.23076923076923078,0.05263157894736842,0.0,0.0,0.0,0.0
giver,and that's you,['q6ec1.g.move.269'],['instruct'],0.3076923076923077,0.0,0.0,0.0,0.0,0.0
