speaker,sentence,move_id,label,jaccard_sim_char_1_1,jaccard_sim_char_2_2,jaccard_sim_char_3_3,jaccard_sim_word_1_1,jaccard_sim_word_2_2,jaccard_sim_word_3_3
giver,right ehm have you got the start yeah,"['q6nc7.g.move.1', 'q6nc7.g.move.2']","['ready', 'query_yn']",,,,,,
follower,yeah,"['q6nc7.f.move.3', 'q6nc7.f.move.4.5']",['reply_y'],0.2857142857142857,0.09375,0.05714285714285714,0.125,0.0,0.0
giver,at the sandy shore,['q6nc7.g.move.4'],['query_yn'],0.36363636363636365,0.0,0.0,0.0,0.0,0.0
follower,yeah,['q6nc7.f.move.5'],['reply_y'],0.36363636363636365,0.0,0.0,0.0,0.0,0.0
giver,right ehm see at the tip of crane bay have you got a well,"['q6nc7.g.move.6', 'q6nc7.g.move.7']","['ready', 'query_yn']",0.19047619047619047,0.0,0.0,0.0,0.0,0.0
follower,no i've not got a well no,['q6nc7.f.move.8'],['reply_n'],0.5,0.21428571428571427,0.15151515151515152,0.125,0.0625,0.0
giver,ehm have you got anything there no,"['q6nc7.g.move.9', 'q6nc7.g.move.11.5']",['query_yn'],0.5294117647058824,0.21951219512195122,0.15217391304347827,0.2,0.0,0.0
follower,i've got s-- ehm at the bottom of crane bay where it goes into the gurgling brook i've got an iron bridge over that have you got that,"['q6nc7.f.move.10', 'q6nc7.f.move.11']","['reply_w', 'query_yn']",0.5833333333333334,0.3170731707317073,0.19827586206896552,0.16,0.06896551724137931,0.034482758620689655
giver,oh right no,"['q6nc7.g.move.12', 'q6nc7.g.move.14']","['acknowledge', 'reply_n']",0.3333333333333333,0.023529411764705882,0.0,0.0,0.0,0.0
giver,ehm you know how there's local residents,"['q6nc7.g.move.14.5', 'q6nc7.g.move.15']",['align'],0.35,0.045454545454545456,0.0,0.0,0.0,0.0
follower,uh-huh,['q6nc7.f.move.16'],['reply_y'],0.1,0.0,0.0,0.0,0.0,0.0
giver,is that to the left of it you've got that,"['q6nc7.g.move.17', 'q6nc7.g.move.18.5']",['query_yn'],0.125,0.0,0.0,0.0,0.0,0.0
follower,it's just above the iron bridge is just above local residents,['q6nc7.f.move.18'],['reply_w'],0.6190476190476191,0.1774193548387097,0.08,0.1875,0.0,0.0
giver,oh right,"['q6nc7.g.move.19', 'q6nc7.g.move.19.5']",['acknowledge'],0.3684210526315789,0.04081632653061224,0.0,0.0,0.0,0.0
giver,well,"['q6nc7.g.move.20', 'q6nc7.g.move.24.5']",['ready'],0.0,0.0,0.0,0.0,0.0,0.0
follower,uh-huh,['q6nc7.f.move.24'],['acknowledge'],0.0,0.0,0.0,0.0,0.0,0.0
giver,and then go around the tip as though there is a well there and then up to the wee groove where in crane bay just well above the local residents if you go there,"['q6nc7.g.move.25', 'q6nc7.g.move.26.5']",['instruct'],0.08695652173913043,0.0,0.0,0.0,0.0,0.0
follower,up,"['q6nc7.f.move.26', 'q6nc7.f.move.28.5']",['check'],0.09090909090909091,0.01282051282051282,0.0,0.04,0.0,0.0
giver,to the left of to the left of sandy shore right,"['q6nc7.g.move.27', 'q6nc7.g.move.28']","['clarify', 'align']",0.0,0.0,0.0,0.0,0.0,0.0
follower,right,"['q6nc7.f.move.29', 'q6nc7.f.move.32.5']",['reply_y'],0.3333333333333333,0.13793103448275862,0.09375,0.14285714285714285,0.0,0.0
giver,uh-huh,"['q6nc7.g.move.31', 'q6nc7.g.move.35.5']",['reply_y'],0.14285714285714285,0.0,0.0,0.0,0.0,0.0
follower,right,"['q6nc7.f.move.33', 'q6nc7.f.move.36.5']",['acknowledge'],0.14285714285714285,0.0,0.0,0.0,0.0,0.0
giver,uh-huh yeah,"['q6nc7.g.move.36', 'q6nc7.g.move.38.5']",['reply_y'],0.09090909090909091,0.0,0.0,0.0,0.0,0.0
follower,right and then,"['q6nc7.f.move.37', 'q6nc7.f.move.38', 'q6nc7.f.move.40.5']","['acknowledge', 'query_w']",0.3076923076923077,0.0,0.0,0.0,0.0,0.0
giver,and then up,"['q6nc7.g.move.39', 'q6nc7.g.move.41.5']",['clarify'],0.5833333333333334,0.4375,0.4,0.5,0.3333333333333333,0.0
follower,yeah,"['q6nc7.f.move.41', 'q6nc7.f.move.44.5']",['reply_y'],0.3,0.0,0.0,0.0,0.0,0.0
giver,if you go up to there and just stop there,"['q6nc7.g.move.42', 'q6nc7.g.move.44']",['clarify'],0.23529411764705882,0.0,0.0,0.0,0.0,0.0
follower,uh-huh,['q6nc7.f.move.45'],['reply_y'],0.1111111111111111,0.0,0.0,0.0,0.0,0.0
giver,right ehm you know how there's local residents there,"['q6nc7.g.move.47', 'q6nc7.g.move.48']","['ready', 'align']",0.09523809523809523,0.0,0.0,0.0,0.0,0.0
follower,yeah,['q6nc7.f.move.49'],['reply_y'],0.2,0.0,0.0,0.0,0.0,0.0
giver,right well see where you've stopped,"['q6nc7.g.move.50', 'q6nc7.g.move.51']","['ready', 'align']",0.16666666666666666,0.0,0.0,0.0,0.0,0.0
follower,uh-huh,"['q6nc7.f.move.53', 'q6nc7.f.move.54.5']",['reply_y'],0.1111111111111111,0.0,0.0,0.0,0.0,0.0
giver,just go to the right,"['q6nc7.g.move.52', 'q6nc7.g.move.55.5']",['instruct'],0.16666666666666666,0.0,0.0,0.0,0.0,0.0
follower,round the side of it yeah,['q6nc7.f.move.55'],['check'],0.5625,0.14285714285714285,0.08108108108108109,0.1,0.0,0.0
giver,uh-huh just to the right and then stop a couple of centimetres after crane bay now ehm have you got a forked stream yeah,"['q6nc7.g.move.56', 'q6nc7.g.move.57', 'q6nc7.g.move.58', 'q6nc7.g.move.59']","['reply_y', 'instruct', 'ready', 'query_yn']",0.56,0.16494845360824742,0.08870967741935484,0.11538461538461539,0.0,0.0
follower,yeah i've got a forked stream right down gurgling,"['q6nc7.f.move.60', 'q6nc7.f.move.61']","['reply_y', 'explain']",0.7692307692307693,0.3106796116504854,0.20454545454545456,0.19230769230769232,0.07407407407407407,0.038461538461538464
follower,have you got gurgling brook coming out of crane bay,"['q6nc7.f.move.61.5', 'q6nc7.f.move.62']",['query_yn'],0.7391304347826086,0.18055555555555555,0.13253012048192772,0.125,0.0,0.0
giver,no i don't have a gurgling brook,['q6nc7.g.move.63'],['reply_n'],0.7142857142857143,0.36538461538461536,0.26229508196721313,0.25,0.08333333333333333,0.0
follower,eh just it forks where there's a tree is that right,['q6nc7.f.move.64'],['check'],0.5714285714285714,0.0967741935483871,0.013333333333333334,0.0,0.0,0.0
giver,uh-huh,['q6nc7.g.move.65'],['reply_y'],0.11764705882352941,0.0,0.0,0.0,0.0,0.0
follower,uh-huh yeah,['q6nc7.f.move.67'],['acknowledge'],0.42857142857142855,0.4444444444444444,0.4444444444444444,0.6666666666666666,0.5,0.0
giver,yeah right,"['q6nc7.g.move.68', 'q6nc7.g.move.72.5']",['ready'],0.45454545454545453,0.2857142857142857,0.13333333333333333,0.25,0.0,0.0
follower,right right okay,"['q6nc7.f.move.70', 'q6nc7.f.move.72']",['acknowledge'],0.7272727272727273,0.35714285714285715,0.2857142857142857,0.3333333333333333,0.0,0.0
giver,right,['q6nc7.g.move.73'],['ready'],0.5,0.4,0.3,0.5,0.0,0.0
follower,right,['q6nc7.f.move.74'],['acknowledge'],1.0,1.0,1.0,1.0,0.0,0.0
giver,ehm now to the right of the dead tree have you got farmed land,"['q6nc7.g.move.75', 'q6nc7.g.move.76']","['ready', 'query_yn']",0.2777777777777778,0.0784313725490196,0.05263157894736842,0.07692307692307693,0.0,0.0
follower,no i've not no,['q6nc7.f.move.77'],['reply_n'],0.3684210526315789,0.12962962962962962,0.046153846153846156,0.0,0.0,0.0
giver,ehm right,"['q6nc7.g.move.78', 'q6nc7.g.move.80.5']",['ready'],0.3333333333333333,0.0,0.0,0.0,0.0,0.0
follower,no i've not got anything no,['q6nc7.f.move.80'],['reply_n'],0.42857142857142855,0.0,0.0,0.0,0.0,0.0
giver,no,"['q6nc7.g.move.81', 'q6nc7.g.move.82.5']",['acknowledge'],0.16666666666666666,0.047619047619047616,0.0,0.2,0.0,0.0
giver,right,"['q6nc7.g.move.83', 'q6nc7.g.move.85.5']",['ready'],0.0,0.0,0.0,0.0,0.0,0.0
follower,to the right,"['q6nc7.f.move.85', 'q6nc7.f.move.86.5']",['check'],0.625,0.36363636363636365,0.3,0.3333333333333333,0.0,0.0
giver,uh-huh to the right,"['q6nc7.g.move.86', 'q6nc7.g.move.87.5']",['reply_y'],0.8,0.6875,0.5882352941176471,0.6,0.5,0.3333333333333333
follower,so over the river then,['q6nc7.f.move.87'],['check'],0.5384615384615384,0.2916666666666667,0.18518518518518517,0.1111111111111111,0.0,0.0
giver,ehm no hang on,"['q6nc7.g.move.88', 'q6nc7.g.move.89.5']",['reply_n'],0.38461538461538464,0.07692307692307693,0.0,0.0,0.0,0.0
follower,i'm at i'm at the left of the of the stream going down,"['q6nc7.f.move.89', 'q6nc7.f.move.91.5']",['explain'],0.47058823529411764,0.09302325581395349,0.02040816326530612,0.0,0.0,0.0
giver,oh right right sorry,"['q6nc7.g.move.90', 'q6nc7.g.move.92.5']",['acknowledge'],0.4444444444444444,0.044444444444444446,0.0,0.0,0.0,0.0
follower,oh i'm supposed to right i'm supposed to go over the river then,['q6nc7.f.move.92'],['check'],0.47058823529411764,0.225,0.1276595744680851,0.2,0.0,0.0
giver,ehm no,"['q6nc7.g.move.93', 'q6nc7.g.move.95']","['uncodable', 'reply_n']",0.375,0.025,0.0,0.0,0.0,0.0
giver,right go back to where the groove in crane bay is,"['q6nc7.g.move.96', 'q6nc7.g.move.97']","['ready', 'instruct']",0.2777777777777778,0.0,0.0,0.0,0.0,0.0
follower,uh-huh,['q6nc7.f.move.98'],['acknowledge'],0.05263157894736842,0.0,0.0,0.0,0.0,0.0
giver,right,['q6nc7.g.move.99'],['align'],0.14285714285714285,0.0,0.0,0.0,0.0,0.0
follower,i went to the right and down past the side of the local residents you know between that and the river,"['q6nc7.f.move.101', 'q6nc7.f.move.103']","['reply_y', 'explain']",0.22727272727272727,0.06153846153846154,0.0379746835443038,0.0625,0.0,0.0
giver,oh right right oh right sorry ehm,['q6nc7.g.move.104'],['acknowledge'],0.43478260869565216,0.10666666666666667,0.053763440860215055,0.05263157894736842,0.0,0.0
giver,no you were supposed to go past the river a few centimetres out of the river so that you were to the right of it,"['q6nc7.g.move.104.5', 'q6nc7.g.move.105']",['instruct'],0.55,0.12162162162162163,0.07526881720430108,0.05,0.0,0.0
follower,right right okay i'm to the right of the i'm to the right of the river and then down,"['q6nc7.f.move.106', 'q6nc7.f.move.108', 'q6nc7.f.move.109', 'q6nc7.f.move.110.5']","['acknowledge', 'check']",0.7272727272727273,0.2911392405063291,0.21782178217821782,0.23809523809523808,0.17857142857142858,0.0967741935483871
giver,uh-huh,['q6nc7.g.move.110'],['reply_y'],0.05,0.0,0.0,0.0,0.0,0.0
follower,down,"['q6nc7.f.move.111', 'q6nc7.f.move.112.5']",['check'],0.0,0.0,0.0,0.0,0.0,0.0
giver,down to where it divides,['q6nc7.g.move.112'],['clarify'],0.3333333333333333,0.13043478260869565,0.09090909090909091,0.2,0.0,0.0
follower,down to where it divides,"['q6nc7.f.move.113', 'q6nc7.f.move.114.5']",['acknowledge'],1.0,1.0,1.0,1.0,1.0,1.0
giver,to the right of it,"['q6nc7.g.move.114', 'q6nc7.g.move.115.5']",['clarify'],0.5,0.25,0.05555555555555555,0.25,0.0,0.0
follower,right okay i'm there now,['q6nc7.f.move.115'],['check'],0.5,0.3793103448275862,0.22580645161290322,0.125,0.0,0.0
giver,right and ehm you're going to have to like curve out to the right as though there's something there,"['q6nc7.g.move.116', 'q6nc7.g.move.117']","['ready', 'instruct']",0.6666666666666666,0.18571428571428572,0.1,0.1111111111111111,0.0,0.0
follower,right,"['q6nc7.f.move.119', 'q6nc7.f.move.119.4']",['acknowledge'],0.25,0.06666666666666667,0.03896103896103896,0.0625,0.0,0.0
giver,'cause i've got farmed land here so,"['q6nc7.g.move.118', 'q6nc7.g.move.119.5']",['explain'],0.2631578947368421,0.0,0.0,0.0,0.0,0.0
follower,right,"['q6nc7.f.move.119.9', 'q6nc7.f.move.120.5']",['acknowledge'],0.2631578947368421,0.0,0.0,0.0,0.0,0.0
giver,curve out have to ehm,"['q6nc7.g.move.120', 'q6nc7.g.move.121.5']",['instruct'],0.23076923076923078,0.0,0.0,0.0,0.0,0.0
follower,is it a sort straight line out or just a you know to the right or s-- just curved lands out,"['q6nc7.f.move.121', 'q6nc7.f.move.124.5']",['query_w'],0.45454545454545453,0.18461538461538463,0.10714285714285714,0.1111111111111111,0.0,0.0
giver,eh just sloping very slightly,"['q6nc7.g.move.122', 'q6nc7.g.move.125.5']",['reply_w'],0.6818181818181818,0.1643835616438356,0.07446808510638298,0.05263157894736842,0.0,0.0
follower,right,"['q6nc7.f.move.125', 'q6nc7.f.move.126.5']",['acknowledge'],0.3125,0.1111111111111111,0.07407407407407407,0.0,0.0,0.0
giver,very slightly ehm curve out about five six centimetres,"['q6nc7.g.move.126', 'q6nc7.g.move.128']","['reply_w', 'instruct']",0.25,0.06666666666666667,0.04,0.0,0.0,0.0
follower,right right okay,"['q6nc7.f.move.127', 'q6nc7.f.move.129']",['acknowledge'],0.42857142857142855,0.10204081632653061,0.03508771929824561,0.0,0.0,0.0
giver,and curve round and then ehm go straight along to the bottom of the dead tree,"['q6nc7.g.move.130', 'q6nc7.g.move.131.5']",['instruct'],0.38095238095238093,0.1016949152542373,0.0410958904109589,0.0,0.0,0.0
follower,so curve round and then straight along to the bottom,"['q6nc7.f.move.131', 'q6nc7.f.move.133.5']",['check'],0.9473684210526315,0.7142857142857143,0.6376811594202898,0.6,0.4117647058823529,0.29411764705882354
giver,uh-huh,"['q6nc7.g.move.132', 'q6nc7.g.move.135.5']",['reply_y'],0.10526315789473684,0.0,0.0,0.0,0.0,0.0
follower,right,"['q6nc7.f.move.134', 'q6nc7.f.move.137.5']",['acknowledge'],0.14285714285714285,0.0,0.0,0.0,0.0,0.0
giver,uh well,"['q6nc7.g.move.136', 'q6nc7.g.move.139.5']",['ready'],0.1,0.0,0.0,0.0,0.0,0.0
follower,right,"['q6nc7.f.move.138', 'q6nc7.f.move.140.5']",['ready'],0.1,0.0,0.0,0.0,0.0,0.0
giver,uh-huh,"['q6nc7.g.move.140', 'q6nc7.g.move.141.5']",['reply_y'],0.14285714285714285,0.0,0.0,0.0,0.0,0.0
follower,right okay,"['q6nc7.f.move.141', 'q6nc7.f.move.142.5']",['acknowledge'],0.08333333333333333,0.0,0.0,0.0,0.0,0.0
giver,at the bottom of dead tree,['q6nc7.g.move.142'],['clarify'],0.4,0.06451612903225806,0.0,0.0,0.0,0.0
follower,right,['q6nc7.f.move.143'],['acknowledge'],0.23076923076923078,0.0,0.0,0.0,0.0,0.0
giver,right ehm now,"['q6nc7.g.move.144', 'q6nc7.g.move.146.5']",['ready'],0.45454545454545453,0.3333333333333333,0.2727272727272727,0.3333333333333333,0.0,0.0
follower,yes i have yeah,['q6nc7.f.move.146'],['reply_y'],0.26666666666666666,0.0,0.0,0.0,0.0,0.0
giver,uh-huh,"['q6nc7.g.move.147', 'q6nc7.g.move.148.5']",['acknowledge'],0.1,0.0,0.0,0.0,0.0,0.0
giver,right if you go straight down about six seven centimetres,"['q6nc7.g.move.149', 'q6nc7.g.move.150']","['ready', 'instruct']",0.09090909090909091,0.0,0.0,0.0,0.0,0.0
follower,right,['q6nc7.f.move.151'],['acknowledge'],0.23809523809523808,0.08888888888888889,0.057692307692307696,0.1,0.0,0.0
giver,right and then,"['q6nc7.g.move.152', 'q6nc7.g.move.155.5']",['ready'],0.5,0.3076923076923077,0.25,0.3333333333333333,0.0,0.0
follower,right,"['q6nc7.f.move.154', 'q6nc7.f.move.156.5']",['acknowledge'],0.5,0.3076923076923077,0.25,0.3333333333333333,0.0,0.0
giver,uh-huh yeah right,"['q6nc7.g.move.156', 'q6nc7.g.move.158']",['reply_y'],0.45454545454545453,0.2857142857142857,0.2,0.25,0.0,0.0
follower,right,['q6nc7.f.move.157'],['acknowledge'],0.45454545454545453,0.2857142857142857,0.2,0.25,0.0,0.0
giver,now if you go ehm down the right-hand side of the lagoon and stop at the bottom of the lagoon where at the tip of the lagoon,['q6nc7.g.move.159'],['instruct'],0.23809523809523808,0.06153846153846154,0.036585365853658534,0.05555555555555555,0.0,0.0
follower,right,['q6nc7.f.move.160'],['acknowledge'],0.23809523809523808,0.06153846153846154,0.036585365853658534,0.05555555555555555,0.0,0.0
giver,ehm right,"['q6nc7.g.move.161', 'q6nc7.g.move.163.5']",['ready'],0.625,0.5,0.42857142857142855,0.5,0.0,0.0
follower,yeah i've got green bay yeah,['q6nc7.f.move.165'],['reply_y'],0.4666666666666667,0.0,0.0,0.0,0.0,0.0
giver,right,"['q6nc7.g.move.164', 'q6nc7.g.move.165.5']",['acknowledge'],0.35714285714285715,0.0,0.0,0.0,0.0,0.0
giver,just ehm above green bay have you got rock fall,['q6nc7.g.move.166'],['query_yn'],0.19047619047619047,0.0,0.0,0.0,0.0,0.0
follower,no i've not no,['q6nc7.f.move.167'],['reply_n'],0.2727272727272727,0.08333333333333333,0.03773584905660377,0.0,0.0,0.0
giver,ehm have you got anything there,"['q6nc7.g.move.168', 'q6nc7.g.move.169.5']",['query_yn'],0.4666666666666667,0.11428571428571428,0.05263157894736842,0.0,0.0,0.0
follower,no,['q6nc7.f.move.169'],['reply_n'],0.14285714285714285,0.0,0.0,0.0,0.0,0.0
giver,no,"['q6nc7.g.move.170', 'q6nc7.g.move.171.5']",['query_yn'],1.0,1.0,0.0,1.0,0.0,0.0
follower,i've just got green bay i've got the ship in it and a com-- computer controlled sub that's all,"['q6nc7.f.move.171', 'q6nc7.f.move.173']",['explain'],0.08695652173913043,0.0,0.0,0.0,0.0,0.0
giver,oh right oh right,"['q6nc7.g.move.172', 'q6nc7.g.move.174']",['acknowledge'],0.30434782608695654,0.013513513513513514,0.0,0.0,0.0,0.0
giver,ehm now,"['q6nc7.g.move.175', 'q6nc7.g.move.179.5']",['ready'],0.2727272727272727,0.0,0.0,0.0,0.0,0.0
follower,so i w-- i want to curve out to the left,"['q6nc7.f.move.178', 'q6nc7.f.move.179']","['ready', 'check']",0.3333333333333333,0.0,0.0,0.0,0.0,0.0
giver,so uh-huh yeah,"['q6nc7.g.move.180', 'q6nc7.g.move.182']","['ready', 'reply_y']",0.4444444444444444,0.05128205128205128,0.022727272727272728,0.1,0.0,0.0
follower,eh heading heading for where the top of green bay,"['q6nc7.f.move.183', 'q6nc7.f.move.185.5']",['query_w'],0.3157894736842105,0.044444444444444446,0.0,0.0,0.0,0.0
giver,eh right,"['q6nc7.g.move.184', 'q6nc7.g.move.185.4']",['ready'],0.4375,0.05,0.022727272727272728,0.1,0.0,0.0
follower,uh-huh,"['q6nc7.f.move.186', 'q6nc7.f.move.187.5']",['reply_y'],0.1111111111111111,0.0,0.0,0.0,0.0,0.0
giver,know how where sandy shore is that line towards the left it comes right down to the bottom forms a tip,"['q6nc7.g.move.185.9', 'q6nc7.g.move.187']",['align'],0.043478260869565216,0.0,0.0,0.0,0.0,0.0
follower,yeah,"['q6nc7.f.move.188', 'q6nc7.f.move.190.5']",['reply_y'],0.19047619047619047,0.0,0.0,0.0,0.0,0.0
giver,if you go to there,"['q6nc7.g.move.190', 'q6nc7.g.move.192.5']",['reply_w'],0.25,0.0,0.0,0.0,0.0,0.0
follower,right,"['q6nc7.f.move.191', 'q6nc7.f.move.195.5']",['ready'],0.45454545454545453,0.0,0.0,0.0,0.0,0.0
giver,uh-huh yeah,"['q6nc7.g.move.193', 'q6nc7.g.move.197.5']",['reply_y'],0.09090909090909091,0.0,0.0,0.0,0.0,0.0
follower,right,"['q6nc7.f.move.196', 'q6nc7.f.move.200.5']",['acknowledge'],0.09090909090909091,0.0,0.0,0.0,0.0,0.0
giver,uh-huh,"['q6nc7.g.move.198', 'q6nc7.g.move.199.5']",['reply_y'],0.14285714285714285,0.0,0.0,0.0,0.0,0.0
follower,right that's right i'm there okay,['q6nc7.f.move.201'],['acknowledge'],0.0625,0.0,0.0,0.0,0.0,0.0
giver,right right and have you got the pirate ship yeah,"['q6nc7.g.move.200', 'q6nc7.g.move.202', 'q6nc7.g.move.203']","['acknowledge', 'ready', 'query_yn']",0.5789473684210527,0.23076923076923078,0.13114754098360656,0.08333333333333333,0.0,0.0
follower,yeah i have uh-huh,['q6nc7.f.move.204'],['reply_y'],0.47058823529411764,0.1702127659574468,0.11320754716981132,0.18181818181818182,0.0,0.0
giver,right 'cause the finish is just to the left of the pirate ship ehm just go straight down,"['q6nc7.g.move.205', 'q6nc7.g.move.206']","['ready', 'instruct']",0.25,0.04225352112676056,0.011363636363636364,0.0,0.0,0.0
follower,right uh-huh,"['q6nc7.f.move.207', 'q6nc7.f.move.208.2']",['acknowledge'],0.3181818181818182,0.07936507936507936,0.05063291139240506,0.058823529411764705,0.0,0.0
giver,and then along a few centimetres to the right just to the t-- ehm left of the pirate ship and that's where it finishes,"['q6nc7.g.move.208', 'q6nc7.g.move.210.5']",['instruct'],0.36363636363636365,0.058823529411764705,0.037383177570093455,0.05,0.0,0.0
follower,straight down a few centimetres to the right right,"['q6nc7.f.move.209', 'q6nc7.f.move.211.5']",['acknowledge'],0.7272727272727273,0.38823529411764707,0.27927927927927926,0.25,0.17391304347826086,0.13043478260869565
giver,uh-huh right,"['q6nc7.g.move.211', 'q6nc7.g.move.213.5']",['acknowledge'],0.3333333333333333,0.11627906976744186,0.0851063829787234,0.1111111111111111,0.0,0.0
follower,avoid,"['q6nc7.f.move.212', 'q6nc7.f.move.214.5']",['explain'],0.08333333333333333,0.0,0.0,0.0,0.0,0.0
giver,uh-huh yeah,"['q6nc7.g.move.214', 'q6nc7.g.move.216.5']",['reply_y'],0.09090909090909091,0.0,0.0,0.0,0.0,0.0
follower,right,"['q6nc7.f.move.215', 'q6nc7.f.move.217.5']",['acknowledge'],0.09090909090909091,0.0,0.0,0.0,0.0,0.0
giver,uh-huh,['q6nc7.g.move.217'],['reply_y'],0.14285714285714285,0.0,0.0,0.0,0.0,0.0
follower,right that's it,['q6nc7.f.move.218'],['acknowledge'],0.09090909090909091,0.0,0.0,0.0,0.0,0.0
