speaker,sentence,move_id,label,jaccard_sim_char_1_1,jaccard_sim_char_2_2,jaccard_sim_char_3_3,jaccard_sim_word_1_1,jaccard_sim_word_2_2,jaccard_sim_word_3_3
giver,right,"['q6nc4.g.move.1', 'q6nc4.g.move.3.5']",['ready'],,,,,,
follower,uh-huh yeah,"['q6nc4.f.move.3', 'q6nc4.f.move.4.5']",['reply_y'],0.09090909090909091,0.0,0.0,0.0,0.0,0.0
giver,up at the the top on the sort left-hand side,"['q6nc4.g.move.4', 'q6nc4.g.move.6.5']",['query_yn'],0.35294117647058826,0.02564102564102564,0.0,0.0,0.0,0.0
follower,yeah,"['q6nc4.f.move.5', 'q6nc4.f.move.9.5']",['reply_y'],0.17647058823529413,0.0,0.0,0.0,0.0,0.0
giver,have you got yeah,"['q6nc4.g.move.7', 'q6nc4.g.move.9']","['query_yn', 'reply_y']",0.4,0.2,0.13333333333333333,0.25,0.0,0.0
follower,uh-huh,['q6nc4.f.move.10'],['acknowledge'],0.18181818181818182,0.0,0.0,0.0,0.0,0.0
follower,right,"['q6nc4.f.move.12', 'q6nc4.f.move.13.5']",['acknowledge'],0.14285714285714285,0.0,0.0,0.0,0.0,0.0
giver,so you're at the bottom of that,['q6nc4.g.move.13'],['instruct'],0.1875,0.0,0.0,0.0,0.0,0.0
follower,right,['q6nc4.f.move.14'],['acknowledge'],0.1875,0.0,0.0,0.0,0.0,0.0
giver,right now ehm have you got a wagon wheel,"['q6nc4.g.move.15', 'q6nc4.g.move.16']","['ready', 'query_yn']",0.3125,0.1111111111111111,0.07894736842105263,0.125,0.0,0.0
follower,um no,['q6nc4.f.move.17'],['reply_n'],0.3125,0.08108108108108109,0.025,0.0,0.0,0.0
follower,i've got a swamp,"['q6nc4.f.move.18', 'q6nc4.f.move.18.4']",['explain'],0.2,0.0,0.0,0.0,0.0,0.0
giver,you've got,"['q6nc4.g.move.19', 'q6nc4.g.move.20.5']",['check'],0.4666666666666667,0.3333333333333333,0.29411764705882354,0.5,0.3333333333333333,0.0
follower,to the left of the bottom left of the diamond there's a swamp,['q6nc4.f.move.18.9'],['explain'],0.22727272727272727,0.043478260869565216,0.0,0.0,0.0,0.0
giver,right the bottom the bottom left,"['q6nc4.g.move.20.6', 'q6nc4.g.move.21.5']",['acknowledge'],0.5789473684210527,0.37209302325581395,0.2857142857142857,0.3333333333333333,0.18181818181818182,0.08333333333333333
giver,you got the stone you s-- you got a stone creek yes,"['q6nc4.g.move.21.9', 'q6nc4.g.move.24']",['query_yn'],0.35,0.16279069767441862,0.0784313725490196,0.1111111111111111,0.0,0.0
follower,eh stone creek,"['q6nc4.f.move.24.6', 'q6nc4.f.move.25.2']","['uncodable', 'acknowledge']",0.6666666666666666,0.34375,0.2702702702702703,0.2857142857142857,0.1111111111111111,0.0
giver,you got stone slabs,['q6nc4.g.move.26'],['query_yn'],0.375,0.25,0.20833333333333334,0.16666666666666666,0.0,0.0
follower,no,"['q6nc4.f.move.25.9', 'q6nc4.f.move.26.5']",['reply_n'],0.16666666666666666,0.0,0.0,0.0,0.0,0.0
follower,i've got like just to the right of that there's rapids,"['q6nc4.f.move.27', 'q6nc4.f.move.29']",['explain'],0.05,0.0,0.0,0.0,0.0,0.0
giver,oh right,['q6nc4.g.move.30'],['acknowledge'],0.3684210526315789,0.11627906976744186,0.08,0.08333333333333333,0.0,0.0
giver,i've i've not got any of that i've got,"['q6nc4.g.move.30.5', 'q6nc4.g.move.31']",['explain'],0.42857142857142855,0.0,0.0,0.0,0.0,0.0
follower,mm,"['q6nc4.f.move.33', 'q6nc4.f.move.33.4']",['uncodable'],0.0,0.0,0.0,0.0,0.0,0.0
giver,sorry right i see,['q6nc4.g.move.35'],['acknowledge'],0.0,0.0,0.0,0.0,0.0,0.0
follower,right,"['q6nc4.f.move.38', 'q6nc4.f.move.39.5']",['acknowledge'],0.5,0.25,0.2,0.3333333333333333,0.0,0.0
giver,in a slight slight up gradient for about,"['q6nc4.g.move.39', 'q6nc4.g.move.41.5']",['instruct'],0.29411764705882354,0.0967741935483871,0.06060606060606061,0.0,0.0,0.0
follower,right,"['q6nc4.f.move.40', 'q6nc4.f.move.42.5']",['acknowledge'],0.29411764705882354,0.0967741935483871,0.06060606060606061,0.0,0.0,0.0
giver,ehm eh have you got the swan pond at the bottom,"['q6nc4.g.move.42', 'q6nc4.g.move.43.5']",['query_yn'],0.15789473684210525,0.0,0.0,0.0,0.0,0.0
follower,eh swamp's at the bottom left yeah,"['q6nc4.f.move.43', 'q6nc4.f.move.44.5']",['reply_w'],0.6,0.4,0.25862068965517243,0.3076923076923077,0.14285714285714285,0.07692307692307693
giver,the s-- no the,"['q6nc4.g.move.44', 'q6nc4.g.move.45.5']",['explain'],0.35294117647058826,0.13157894736842105,0.075,0.125,0.0,0.0
follower,and i've to go to the right,"['q6nc4.f.move.45', 'q6nc4.f.move.48.5']",['check'],0.4,0.19230769230769232,0.13793103448275862,0.14285714285714285,0.0,0.0
giver,ah you've to go to the right,"['q6nc4.g.move.46', 'q6nc4.g.move.49.5']",['reply_y'],0.7333333333333333,0.5769230769230769,0.6071428571428571,0.625,0.625,0.5714285714285714
follower,there's a saloon bar at the bottom of my map,"['q6nc4.f.move.49', 'q6nc4.f.move.52.5']",['reply_w'],0.45,0.09259259259259259,0.04918032786885246,0.06666666666666667,0.0,0.0
giver,uh-huh,"['q6nc4.g.move.50', 'q6nc4.g.move.53.5']",['acknowledge'],0.05555555555555555,0.0,0.0,0.0,0.0,0.0
follower,no,"['q6nc4.f.move.53', 'q6nc4.f.move.55.5']",['reply_n'],0.0,0.0,0.0,0.0,0.0,0.0
giver,well,"['q6nc4.g.move.54', 'q6nc4.g.move.56.5']",['ready'],0.0,0.0,0.0,0.0,0.0,0.0
follower,uh-huh,"['q6nc4.f.move.56', 'q6nc4.f.move.57.5']",['acknowledge'],0.0,0.0,0.0,0.0,0.0,0.0
giver,eh in a slight up gradient 'til you're just sort past centre of the map,"['q6nc4.g.move.57', 'q6nc4.g.move.60.5']",['instruct'],0.09090909090909091,0.0,0.0,0.0,0.0,0.0
follower,right right okay,"['q6nc4.f.move.58', 'q6nc4.f.move.60.9']",['acknowledge'],0.4090909090909091,0.078125,0.0410958904109589,0.0,0.0,0.0
giver,uh-huh ehm,['q6nc4.g.move.61'],['acknowledge'],0.14285714285714285,0.0,0.0,0.0,0.0,0.0
follower,right,['q6nc4.f.move.64'],['acknowledge'],0.1,0.0,0.0,0.0,0.0,0.0
giver,right now y-- ehm,"['q6nc4.g.move.65', 'q6nc4.g.move.65.5']","['ready', 'uncodable']",0.38461538461538464,0.25,0.2,0.3333333333333333,0.0,0.0
giver,you've got have you got a rift valley in the top right hand corner,"['q6nc4.g.move.65.9', 'q6nc4.g.move.66']",['query_yn'],0.45454545454545453,0.1016949152542373,0.05970149253731343,0.07142857142857142,0.0,0.0
follower,yeah uh-huh uh-huh,"['q6nc4.f.move.67', 'q6nc4.f.move.69.5']",['reply_y'],0.3,0.0,0.0,0.0,0.0,0.0
giver,and is that the only obstacle you've got,['q6nc4.g.move.69'],['query_yn'],0.3157894736842105,0.0,0.0,0.0,0.0,0.0
follower,in just where i'm going there's a cactus as well,['q6nc4.f.move.70'],['reply_w'],0.6363636363636364,0.18032786885245902,0.03896103896103896,0.0,0.0,0.0
giver,right well,"['q6nc4.g.move.71', 'q6nc4.g.move.74.5']",['ready'],0.5,0.11904761904761904,0.0851063829787234,0.1111111111111111,0.0,0.0
follower,right,"['q6nc4.f.move.73', 'q6nc4.f.move.75.5']",['acknowledge'],0.5555555555555556,0.4444444444444444,0.375,0.5,0.0,0.0
giver,uh-huh right so you've got a a start i presume up at the the top on the sort left-hand side have you got yeah so you want to go just round the side of the diamond so you're at the bottom of that right now ehm have you got a wagon wheel you've got right well the bottom the bottom left well you want to just go ehm along to you got the stone you s-- you got a stone creek yes you got stone slabs oh right i've i've not got any of that i've got oh the swamp is that to the left of the diamond sorry right i see well you want to go to the right of the diamond just keep going the same sort direction you are in a slight slight up gradient for about ehm eh have you got the swan pond at the bottom the s-- no the ah you've to go to the right no sorry right at the bottom of the map there's a swan pond do you see that right at the very bottom uh-huh to to the right of that have you not got a swan pond no well just just go eh to your right from the bottom of the diamond eh in a slight up gradient 'til you're just sort past centre of the map uh-huh ehm better make sure you're f-- a f-- a reasonable bit to the right-hand side map actually 'cause there's a wh-- a wagon wheel here you've got to miss right now y-- ehm you've got have you got a rift valley in the top right hand corner and is that the only obstacle you've got right well you want to go up straight up and then along over the top of the rift valley and then down through the middle of it uh-huh,"['q6nc4.g.move.75', 'q6nc4.g.move.76.5']",['reply_y'],0.19230769230769232,0.01951219512195122,0.0064516129032258064,0.010638297872340425,0.0,0.0
follower,and then down through the middle of it,"['q6nc4.f.move.76', 'q6nc4.f.move.77.5']",['check'],0.6153846153846154,0.14634146341463414,0.07096774193548387,0.0851063829787234,0.03317535545023697,0.022388059701492536
giver,down through the middle of it yes,"['q6nc4.g.move.77', 'q6nc4.g.move.78.5']",['reply_y'],0.8333333333333334,0.7352941176470589,0.7027027027027027,0.6666666666666666,0.625,0.5714285714285714
follower,right,"['q6nc4.f.move.78', 'q6nc4.f.move.80.5']",['acknowledge'],0.29411764705882354,0.03125,0.0,0.0,0.0,0.0
giver,right so you're you're at the middle of the rift valley,"['q6nc4.g.move.79', 'q6nc4.g.move.80']","['ready', 'align']",0.2777777777777778,0.10810810810810811,0.06818181818181818,0.1,0.0,0.0
follower,uh-huh,['q6nc4.f.move.81'],['reply_y'],0.10526315789473684,0.0,0.0,0.0,0.0,0.0
giver,now,"['q6nc4.g.move.82', 'q6nc4.g.move.85.5']",['ready'],0.0,0.0,0.0,0.0,0.0,0.0
follower,yeah it uh-huh,"['q6nc4.f.move.84', 'q6nc4.f.move.87']","['reply_y', 'acknowledge']",0.0,0.0,0.0,0.0,0.0,0.0
giver,uh-huh quite a bit below,['q6nc4.g.move.86'],['acknowledge'],0.5714285714285714,0.28,0.1724137931034483,0.2857142857142857,0.16666666666666666,0.0
giver,it s-- now,"['q6nc4.g.move.88', 'q6nc4.g.move.90.5']",['ready'],0.4,0.11538461538461539,0.034482758620689655,0.0,0.0,0.0
follower,right,"['q6nc4.f.move.90', 'q6nc4.f.move.91.5']",['acknowledge'],0.18181818181818182,0.0,0.0,0.0,0.0,0.0
giver,a sort miss them by go a diagonal line straight down in a diagonal line,"['q6nc4.g.move.91', 'q6nc4.g.move.92.5']",['instruct'],0.29411764705882354,0.061224489795918366,0.03571428571428571,0.0,0.0,0.0
follower,right okay,"['q6nc4.f.move.92', 'q6nc4.f.move.93.5']",['acknowledge'],0.5,0.07547169811320754,0.05,0.0,0.0,0.0
giver,missing the rocks by a couple of centimetres,['q6nc4.g.move.93'],['instruct'],0.5,0.02040816326530612,0.0,0.0,0.0,0.0
follower,right,['q6nc4.f.move.94'],['acknowledge'],0.25,0.0,0.0,0.0,0.0,0.0
giver,right eh you've,"['q6nc4.g.move.95', 'q6nc4.g.move.97.5']",['ready'],0.4166666666666667,0.2857142857142857,0.23076923076923078,0.25,0.0,0.0
follower,eh no,['q6nc4.f.move.97'],['reply_n'],0.3076923076923077,0.125,0.06666666666666667,0.2,0.0,0.0
giver,no you've not right,"['q6nc4.g.move.98', 'q6nc4.g.move.99']","['check', 'acknowledge']",0.38461538461538464,0.10526315789473684,0.05263157894736842,0.16666666666666666,0.0,0.0
follower,ehm there's like to the left of the rocks there's rapids and then like below the rocks there's an outlaws' hideout,['q6nc4.f.move.100'],['explain'],0.4166666666666667,0.07042253521126761,0.0,0.0,0.0,0.0
giver,uh-huh,['q6nc4.g.move.101'],['acknowledge'],0.09090909090909091,0.0,0.0,0.0,0.0,0.0
giver,well,"['q6nc4.g.move.102', 'q6nc4.g.move.105.5']",['ready'],0.0,0.0,0.0,0.0,0.0,0.0
follower,uh-huh,"['q6nc4.f.move.105', 'q6nc4.f.move.106.5']",['acknowledge'],0.0,0.0,0.0,0.0,0.0,0.0
giver,and 'til you're about the middle of the paper,"['q6nc4.g.move.106', 'q6nc4.g.move.107.5']",['instruct'],0.10526315789473684,0.0,0.0,0.0,0.0,0.0
follower,right,"['q6nc4.f.move.107', 'q6nc4.f.move.108.5']",['acknowledge'],0.21052631578947367,0.0,0.0,0.0,0.0,0.0
giver,and you stop so you're in sort in a line with the writing of rocks,"['q6nc4.g.move.108', 'q6nc4.g.move.110.5']",['instruct'],0.23809523809523808,0.019230769230769232,0.0,0.0,0.0,0.0
follower,right,"['q6nc4.f.move.109', 'q6nc4.f.move.111.5']",['acknowledge'],0.23809523809523808,0.019230769230769232,0.0,0.0,0.0,0.0
giver,you need to go down yeah,['q6nc4.g.move.111'],['reply_y'],0.21428571428571427,0.0,0.0,0.0,0.0,0.0
follower,right got that,['q6nc4.f.move.112'],['acknowledge'],0.42857142857142855,0.0967741935483871,0.030303030303030304,0.0,0.0,0.0
giver,right,"['q6nc4.g.move.113', 'q6nc4.g.move.118.5']",['ready'],0.625,0.3333333333333333,0.25,0.3333333333333333,0.0,0.0
follower,rapids,"['q6nc4.f.move.118', 'q6nc4.f.move.119.5']",['reply_w'],0.2222222222222222,0.0,0.0,0.0,0.0,0.0
giver,you've got rapids,"['q6nc4.g.move.119', 'q6nc4.g.move.120.5']",['check'],0.4,0.3125,0.26666666666666666,0.25,0.0,0.0
follower,uh-huh,"['q6nc4.f.move.120', 'q6nc4.f.move.121.5']",['reply_y'],0.058823529411764705,0.0,0.0,0.0,0.0,0.0
giver,ah right i've got white water so it's the same,"['q6nc4.g.move.121', 'q6nc4.g.move.122.5']",['explain'],0.0625,0.0,0.0,0.0,0.0,0.0
follower,yeah,"['q6nc4.f.move.122', 'q6nc4.f.move.123.5']",['acknowledge'],0.2,0.02564102564102564,0.0,0.0,0.0,0.0
giver,sort thing presumably,"['q6nc4.g.move.123', 'q6nc4.g.move.125.5']",['explain'],0.23529411764705882,0.0,0.0,0.0,0.0,0.0
follower,yeah,"['q6nc4.f.move.124', 'q6nc4.f.move.127.5']",['acknowledge'],0.23529411764705882,0.0,0.0,0.0,0.0,0.0
giver,you want to go up the same sort gradient to the left as you've been going down,"['q6nc4.g.move.126', 'q6nc4.g.move.129.5']",['instruct'],0.18181818181818182,0.0,0.0,0.0,0.0,0.0
follower,oh right okay,"['q6nc4.f.move.128', 'q6nc4.f.move.130.5']",['reply_y'],0.391304347826087,0.015151515151515152,0.0,0.0,0.0,0.0
giver,so you're above,"['q6nc4.g.move.130', 'q6nc4.g.move.133.5']",['instruct'],0.3125,0.0,0.0,0.0,0.0,0.0
follower,the rapids uh-huh right,"['q6nc4.f.move.131', 'q6nc4.f.move.133']","['query_yn', 'acknowledge']",0.3333333333333333,0.030303030303030304,0.0,0.0,0.0,0.0
giver,and then,"['q6nc4.g.move.134', 'q6nc4.g.move.138.5']",['ready'],0.42857142857142855,0.08,0.038461538461538464,0.0,0.0,0.0
follower,right okay,"['q6nc4.f.move.138', 'q6nc4.f.move.139.5']",['acknowledge'],0.3076923076923077,0.0,0.0,0.0,0.0,0.0
giver,right,['q6nc4.g.move.139'],['align'],0.5,0.4444444444444444,0.375,0.5,0.0,0.0
follower,right,['q6nc4.f.move.140'],['reply_y'],1.0,1.0,1.0,1.0,0.0,0.0
giver,so have you got anything in the sort vicinity round about here any obstacles,"['q6nc4.g.move.141', 'q6nc4.g.move.142']","['ready', 'query_yn']",0.2777777777777778,0.0,0.0,0.0,0.0,0.0
follower,rapids well below the rapids there's a manned fort,['q6nc4.f.move.143'],['reply_w'],0.5652173913043478,0.14285714285714285,0.056074766355140186,0.05,0.0,0.0
giver,well,"['q6nc4.g.move.144', 'q6nc4.g.move.147.5']",['ready'],0.16666666666666666,0.07894736842105263,0.04878048780487805,0.14285714285714285,0.0,0.0
follower,yeah uh-huh,"['q6nc4.f.move.147', 'q6nc4.f.move.148.5']",['reply_y'],0.1111111111111111,0.0,0.0,0.0,0.0,0.0
giver,ehm sort well ten centimetres above the stone creek in a line with just above the stone slabs that sort level,"['q6nc4.g.move.148', 'q6nc4.g.move.151.5']",['instruct'],0.23809523809523808,0.014285714285714285,0.0,0.0,0.0,0.0
follower,right,"['q6nc4.f.move.149', 'q6nc4.f.move.152.5']",['acknowledge'],0.2,0.0,0.0,0.0,0.0,0.0
giver,and and above the stone creek you want to go down there in a sort curved slight curved circle the sort shape of an eye,"['q6nc4.g.move.152', 'q6nc4.g.move.153.5']",['instruct'],0.22727272727272727,0.04225352112676056,0.021052631578947368,0.0,0.0,0.0
follower,right,"['q6nc4.f.move.153', 'q6nc4.f.move.154.5']",['acknowledge'],0.22727272727272727,0.04225352112676056,0.021052631578947368,0.0,0.0,0.0
giver,i would say,"['q6nc4.g.move.154', 'q6nc4.g.move.155.5']",['instruct'],0.07142857142857142,0.0,0.0,0.0,0.0,0.0
follower,down to about where just where the stone creek is yeah,"['q6nc4.f.move.155', 'q6nc4.f.move.156.5']",['check'],0.47368421052631576,0.06521739130434782,0.0,0.0,0.0,0.0
giver,above above the stone creek directly above the middle of that about where the just above the level of the stone slabs,"['q6nc4.g.move.156', 'q6nc4.g.move.159.5']",['clarify'],0.8181818181818182,0.40298507462686567,0.37209302325581395,0.35294117647058826,0.16666666666666666,0.03571428571428571
follower,right,"['q6nc4.f.move.157', 'q6nc4.f.move.161.5']",['acknowledge'],0.17391304347826086,0.0,0.0,0.0,0.0,0.0
giver,right you there yeah,"['q6nc4.g.move.160', 'q6nc4.g.move.161']","['acknowledge', 'align']",0.45454545454545453,0.2222222222222222,0.16666666666666666,0.25,0.0,0.0
follower,uh-huh yeah,['q6nc4.f.move.162'],['reply_y'],0.5,0.17391304347826086,0.125,0.16666666666666666,0.0,0.0
giver,right,"['q6nc4.g.move.163', 'q6nc4.g.move.166.5']",['ready'],0.09090909090909091,0.0,0.0,0.0,0.0,0.0
follower,yeah,"['q6nc4.f.move.165', 'q6nc4.f.move.167.5']",['reply_y'],0.125,0.0,0.0,0.0,0.0,0.0
giver,quite a b-- yeah that's right,['q6nc4.g.move.167'],['reply_y'],0.26666666666666666,0.10714285714285714,0.07407407407407407,0.25,0.0,0.0
follower,uh-huh,['q6nc4.f.move.168'],['acknowledge'],0.2,0.0,0.0,0.0,0.0,0.0
giver,you want to go eh up up to that so you're just underneath the outlaws' hideout,"['q6nc4.g.move.169', 'q6nc4.g.move.170.5']",['instruct'],0.1,0.0,0.0,0.0,0.0,0.0
follower,right,['q6nc4.f.move.170'],['acknowledge'],0.2631578947368421,0.0,0.0,0.0,0.0,0.0
giver,now right you're direct underneath the ou-- outlaws' hideout,"['q6nc4.g.move.171', 'q6nc4.g.move.172']","['ready', 'acknowledge']",0.2631578947368421,0.08163265306122448,0.05357142857142857,0.1,0.0,0.0
follower,right,"['q6nc4.f.move.170.9', 'q6nc4.f.move.173.5']",['acknowledge'],0.2631578947368421,0.08163265306122448,0.05357142857142857,0.1,0.0,0.0
giver,and then just go straight down,['q6nc4.g.move.175'],['instruct'],0.3333333333333333,0.10714285714285714,0.06896551724137931,0.0,0.0,0.0
follower,right,['q6nc4.f.move.174'],['acknowledge'],0.3333333333333333,0.10714285714285714,0.06896551724137931,0.0,0.0,0.0
giver,have you got the noose,"['q6nc4.g.move.176', 'q6nc4.g.move.177.5']",['query_yn'],0.21428571428571427,0.0,0.0,0.0,0.0,0.0
follower,yeah uh-huh,"['q6nc4.f.move.177', 'q6nc4.f.move.179.5']",['reply_y'],0.46153846153846156,0.0,0.0,0.0,0.0,0.0
giver,uh-huh,"['q6nc4.g.move.178', 'q6nc4.g.move.182.5']",['acknowledge'],0.42857142857142855,0.4444444444444444,0.4444444444444444,0.6666666666666666,0.5,0.0
follower,right,"['q6nc4.f.move.180', 'q6nc4.f.move.181.5']",['acknowledge'],0.14285714285714285,0.0,0.0,0.0,0.0,0.0
giver,just a straight line down,['q6nc4.g.move.183'],['instruct'],0.3125,0.13043478260869565,0.08333333333333333,0.0,0.0,0.0
follower,right,['q6nc4.f.move.182'],['acknowledge'],0.3125,0.13043478260869565,0.08333333333333333,0.0,0.0,0.0
giver,right now you want to curve down,"['q6nc4.g.move.184', 'q6nc4.g.move.186.5']",['instruct'],0.3125,0.13793103448275862,0.1,0.14285714285714285,0.0,0.0
follower,no,"['q6nc4.f.move.186', 'q6nc4.f.move.187.5']",['reply_n'],0.125,0.034482758620689655,0.0,0.0,0.0,0.0
giver,you've not got the swan pond,"['q6nc4.g.move.187', 'q6nc4.g.move.188.5']",['acknowledge'],0.125,0.041666666666666664,0.0,0.0,0.0,0.0
follower,there's just a noose and then like to the left there's stone creek and below that there's a saloon bar but nothing else,"['q6nc4.f.move.188', 'q6nc4.f.move.191.5']",['explain'],0.5416666666666666,0.17105263157894737,0.05357142857142857,0.041666666666666664,0.0,0.0
giver,aye right the saloon bar right,"['q6nc4.g.move.189', 'q6nc4.g.move.192.5']",['acknowledge'],0.5909090909090909,0.2222222222222222,0.13592233009708737,0.15,0.041666666666666664,0.0
follower,uh-huh,"['q6nc4.f.move.192', 'q6nc4.f.move.193.5']",['acknowledge'],0.0625,0.0,0.0,0.0,0.0,0.0
giver,what you've got to do is y-- ehm drop from the the noose in a sort curve to your left,"['q6nc4.g.move.193', 'q6nc4.g.move.194.5']",['instruct'],0.13043478260869565,0.0,0.0,0.0,0.0,0.0
follower,right,"['q6nc4.f.move.194', 'q6nc4.f.move.195.5']",['acknowledge'],0.21739130434782608,0.0,0.0,0.0,0.0,0.0
giver,so that you're just about the level at the top of the saloon bar,['q6nc4.g.move.195'],['instruct'],0.15,0.0,0.0,0.0,0.0,0.0
follower,right right,"['q6nc4.f.move.196', 'q6nc4.f.move.196.9']",['acknowledge'],0.2,0.02,0.0,0.0,0.0,0.0
giver,right now just go along a a couple centimetres not too much,"['q6nc4.g.move.197', 'q6nc4.g.move.198']","['ready', 'instruct']",0.3333333333333333,0.1,0.07017543859649122,0.1,0.0,0.0
follower,right,['q6nc4.f.move.199'],['acknowledge'],0.2777777777777778,0.08163265306122448,0.05454545454545454,0.1,0.0,0.0
giver,and and curve curve up and then back down so you're ah,"['q6nc4.g.move.200', 'q6nc4.g.move.202.5']",['instruct'],0.14285714285714285,0.0,0.0,0.0,0.0,0.0
follower,mmhmm,"['q6nc4.f.move.202', 'q6nc4.f.move.203.5']",['acknowledge'],0.05,0.0,0.0,0.0,0.0,0.0
giver,so you want to be going up,"['q6nc4.g.move.203', 'q6nc4.g.move.206.5']",['instruct'],0.0,0.0,0.0,0.0,0.0,0.0
follower,right,"['q6nc4.f.move.204', 'q6nc4.f.move.208.5']",['ready'],0.1875,0.0,0.0,0.0,0.0,0.0
giver,right so you've got a a start i presume up at the the top on the sort left-hand side have you got yeah so you want to go just round the side of the diamond so you're at the bottom of that right now ehm have you got a wagon wheel you've got right well the bottom the bottom left well you want to just go ehm along to you got the stone you s-- you got a stone creek yes you got stone slabs oh right i've i've not got any of that i've got oh the swamp is that to the left of the diamond sorry right i see well you want to go to the right of the diamond just keep going the same sort direction you are in a slight slight up gradient for about ehm eh have you got the swan pond at the bottom the s-- no the ah you've to go to the right no sorry right at the bottom of the map there's a swan pond do you see that right at the very bottom uh-huh to to the right of that have you not got a swan pond no well just just go eh to your right from the bottom of the diamond eh in a slight up gradient 'til you're just sort past centre of the map uh-huh ehm better make sure you're f-- a f-- a reasonable bit to the right-hand side map actually 'cause there's a wh-- a wagon wheel here you've got to miss right now y-- ehm you've got have you got a rift valley in the top right hand corner and is that the only obstacle you've got right well you want to go up straight up and then along over the top of the rift valley and then down through the middle of it uh-huh down through the middle of it yes right so you're you're at the middle of the rift valley now have you got rocks below that uh-huh quite a bit below it s-- now you want to go down straight down to about halfway to the rocks and then just miss the rocks on the left-hand side a sort miss them by go a diagonal line straight down in a diagonal line missing the rocks by a couple of centimetres right eh you've have you got a stone creek no you've not right uh-huh well straight across from the rocks on the left i've got the stone creek so what you want to do is you want to keep going down the same direction you're going and 'til you're about the middle of the paper and you stop so you're in sort in a line with the writing of rocks you need to go down yeah right now you want to go i've got white water you've you've got something else apparently you want to go up slightly and what what have you got to the left of where we are you've got rapids ah right i've got white water so it's the same sort thing presumably you want to go up the same sort gradient to the left as you've been going down if you know what i mean so you're above you're above the rapids and then c-- and then come down the side of them at the side of them right so have you got anything in the sort vicinity round about here any obstacles well you want to go ehm s-- straight down well curve out slightly from where you are and then curve back in eh straight down to have you got the stone creek ehm sort well ten centimetres above the stone creek in a line with just above the stone slabs that sort level and and above the stone creek you want to go down there in a sort curved slight curved circle the sort shape of an eye i would say above above the stone creek directly above the middle of that about where the just above the level of the stone slabs have you got the stone slabs yeah right right you there yeah right have you got an outlaws' hideout to your right quite a b-- yeah that's right you want to go eh up up to that so you're just underneath the outlaws' hideout now right you're direct underneath the ou-- outlaws' hideout you want to curve out to your right slightly so you're about two or three centimetres well five centimetres off the edge of the page and then just go straight down have you got the noose uh-huh go go just go straight down from there so you're eh at the bottom of the noose on the right-hand side of it just a straight line down right now you want to curve down have you got the swan pond you've not got the swan pond aye right the saloon bar right well basically from the noose you're wanting to get to underneath the saloon bar what you've got to do is y-- ehm drop from the the noose in a sort curve to your left so that you're just about the level at the top of the saloon bar right now just go along a a couple centimetres not too much and and curve curve up and then back down so you're ah you've not got the swan pond of course see i've got a swan pond there you need to go up over and round so you want to be going up up the way slightly then back down i'm ehm yes you go underneath the saloon bar and finish to the to the left of it yeah so from from here you want to go up in a curve and then back down so you're at the same level you were originally avoiding the swan pond that i've got,"['q6nc4.g.move.207', 'q6nc4.g.move.207.9', 'q6nc4.g.move.208']","['uncodable', 'reply_y', 'instruct']",0.18518518518518517,0.01486988847583643,0.003745318352059925,0.005714285714285714,0.0,0.0
follower,right okay,"['q6nc4.f.move.209', 'q6nc4.f.move.213']",['acknowledge'],0.37037037037037035,0.025830258302583026,0.006218905472636816,0.005681818181818182,0.0,0.0
giver,right from there you just want to go g-- eh curves you're underneath the saloon bar,"['q6nc4.g.move.214', 'q6nc4.g.move.215']","['ready', 'instruct']",0.36,0.07246376811594203,0.05063291139240506,0.0625,0.0,0.0
follower,right,['q6nc4.f.move.216'],['acknowledge'],0.20833333333333334,0.06153846153846154,0.04,0.06666666666666667,0.0,0.0
giver,and from underneath the saloon bar ehm a couple of i'd say five centimetres above the saloon bar and just off a few centimetres off the side of the map on the left-hand side that's where the finish is,"['q6nc4.g.move.216.6', 'q6nc4.g.move.220']","['instruct', 'explain']",0.16,0.0,0.0,0.0,0.0,0.0
follower,oh right ehm,['q6nc4.f.move.221'],['acknowledge'],0.32,0.04854368932038835,0.013986013986013986,0.037037037037037035,0.0,0.0
giver,right so you've got a a start i presume up at the the top on the sort left-hand side have you got yeah so you want to go just round the side of the diamond so you're at the bottom of that right now ehm have you got a wagon wheel you've got right well the bottom the bottom left well you want to just go ehm along to you got the stone you s-- you got a stone creek yes you got stone slabs oh right i've i've not got any of that i've got oh the swamp is that to the left of the diamond sorry right i see well you want to go to the right of the diamond just keep going the same sort direction you are in a slight slight up gradient for about ehm eh have you got the swan pond at the bottom the s-- no the ah you've to go to the right no sorry right at the bottom of the map there's a swan pond do you see that right at the very bottom uh-huh to to the right of that have you not got a swan pond no well just just go eh to your right from the bottom of the diamond eh in a slight up gradient 'til you're just sort past centre of the map uh-huh ehm better make sure you're f-- a f-- a reasonable bit to the right-hand side map actually 'cause there's a wh-- a wagon wheel here you've got to miss right now y-- ehm you've got have you got a rift valley in the top right hand corner and is that the only obstacle you've got right well you want to go up straight up and then along over the top of the rift valley and then down through the middle of it uh-huh down through the middle of it yes right so you're you're at the middle of the rift valley now have you got rocks below that uh-huh quite a bit below it s-- now you want to go down straight down to about halfway to the rocks and then just miss the rocks on the left-hand side a sort miss them by go a diagonal line straight down in a diagonal line missing the rocks by a couple of centimetres right eh you've have you got a stone creek no you've not right uh-huh well straight across from the rocks on the left i've got the stone creek so what you want to do is you want to keep going down the same direction you're going and 'til you're about the middle of the paper and you stop so you're in sort in a line with the writing of rocks you need to go down yeah right now you want to go i've got white water you've you've got something else apparently you want to go up slightly and what what have you got to the left of where we are you've got rapids ah right i've got white water so it's the same sort thing presumably you want to go up the same sort gradient to the left as you've been going down if you know what i mean so you're above you're above the rapids and then c-- and then come down the side of them at the side of them right so have you got anything in the sort vicinity round about here any obstacles well you want to go ehm s-- straight down well curve out slightly from where you are and then curve back in eh straight down to have you got the stone creek ehm sort well ten centimetres above the stone creek in a line with just above the stone slabs that sort level and and above the stone creek you want to go down there in a sort curved slight curved circle the sort shape of an eye i would say above above the stone creek directly above the middle of that about where the just above the level of the stone slabs have you got the stone slabs yeah right right you there yeah right have you got an outlaws' hideout to your right quite a b-- yeah that's right you want to go eh up up to that so you're just underneath the outlaws' hideout now right you're direct underneath the ou-- outlaws' hideout you want to curve out to your right slightly so you're about two or three centimetres well five centimetres off the edge of the page and then just go straight down have you got the noose uh-huh go go just go straight down from there so you're eh at the bottom of the noose on the right-hand side of it just a straight line down right now you want to curve down have you got the swan pond you've not got the swan pond aye right the saloon bar right well basically from the noose you're wanting to get to underneath the saloon bar what you've got to do is y-- ehm drop from the the noose in a sort curve to your left so that you're just about the level at the top of the saloon bar right now just go along a a couple centimetres not too much and and curve curve up and then back down so you're ah you've not got the swan pond of course see i've got a swan pond there you need to go up over and round so you want to be going up up the way slightly then back down i'm ehm yes you go underneath the saloon bar and finish to the to the left of it yeah so from from here you want to go up in a curve and then back down so you're at the same level you were originally avoiding the swan pond that i've got right from there you just want to go g-- eh curves you're underneath the saloon bar and from underneath the saloon bar ehm well the finish is ehm i was going to say where where the says finish but of course that's not particularly ehm a couple of i'd say five centimetres above the saloon bar and just off a few centimetres off the side of the map on the left-hand side that's where the finish is right you're bottom of the saloon bar,"['q6nc4.g.move.223', 'q6nc4.g.move.224']","['ready', 'check']",0.3333333333333333,0.03985507246376811,0.01201923076923077,0.016574585635359115,0.0016666666666666668,0.0
follower,uh-huh,['q6nc4.f.move.225'],['reply_y'],0.1111111111111111,0.014492753623188406,0.004807692307692308,0.011049723756906077,0.001669449081803005,0.0
giver,right,"['q6nc4.g.move.226', 'q6nc4.g.move.228.5']",['ready'],0.14285714285714285,0.0,0.0,0.0,0.0,0.0
follower,right,"['q6nc4.f.move.228', 'q6nc4.f.move.229.5']",['acknowledge'],1.0,1.0,1.0,1.0,0.0,0.0
giver,and,"['q6nc4.g.move.228.6', 'q6nc4.g.move.229.4']",['ready'],0.0,0.0,0.0,0.0,0.0,0.0
follower,oh right,"['q6nc4.f.move.230', 'q6nc4.f.move.232.5']",['acknowledge'],0.0,0.0,0.0,0.0,0.0,0.0
giver,it's it's about eh it's just a few centimetres out from the left-hand side of the page a few centimetres up from the saloon bar it's oh you're going towards the right sorry,"['q6nc4.g.move.229.9', 'q6nc4.g.move.234']","['instruct', 'acknowledge']",0.2916666666666667,0.06930693069306931,0.03968253968253968,0.08333333333333333,0.0,0.0
follower,uh-huh,['q6nc4.f.move.233'],['reply_y'],0.125,0.009615384615384616,0.0,0.0,0.0,0.0
giver,right,"['q6nc4.g.move.235', 'q6nc4.g.move.237.5']",['ready'],0.14285714285714285,0.0,0.0,0.0,0.0,0.0
follower,uh-huh,"['q6nc4.f.move.237', 'q6nc4.f.move.238.5']",['acknowledge'],0.14285714285714285,0.0,0.0,0.0,0.0,0.0
giver,and you want to just head up head up to your left basically in in a diagonal past the saloon bar,"['q6nc4.g.move.238', 'q6nc4.g.move.241.5']",['instruct'],0.09090909090909091,0.0,0.0,0.0,0.0,0.0
follower,oh right,"['q6nc4.f.move.239', 'q6nc4.f.move.241.4']",['acknowledge'],0.3333333333333333,0.0,0.0,0.0,0.0,0.0
giver,right,"['q6nc4.g.move.242', 'q6nc4.g.move.244.5']",['ready'],0.7142857142857143,0.5714285714285714,0.5,0.5,0.0,0.0
follower,right,"['q6nc4.f.move.241.9', 'q6nc4.f.move.245.5']",['acknowledge'],1.0,1.0,1.0,1.0,0.0,0.0
giver,is that right,['q6nc4.g.move.245'],['align'],0.625,0.3333333333333333,0.2727272727272727,0.3333333333333333,0.0,0.0
giver,that's it,"['q6nc4.g.move.246.5', 'q6nc4.g.move.248']",['instruct'],0.6666666666666666,0.25,0.125,0.25,0.0,0.0
