speaker,sentence,move_id,label,jaccard_sim_char_1_1,jaccard_sim_char_2_2,jaccard_sim_char_3_3,jaccard_sim_word_1_1,jaccard_sim_word_2_2,jaccard_sim_word_3_3
giver,right,"['q6nc2.g.move.1', 'q6nc2.g.move.4.5']",['ready'],,,,,,
follower,yeah,"['q6nc2.f.move.3', 'q6nc2.f.move.5.5']",['acknowledge'],0.125,0.0,0.0,0.0,0.0,0.0
giver,does it,['q6nc2.g.move.5'],['check'],0.1,0.0,0.0,0.0,0.0,0.0
follower,uh-huh,['q6nc2.f.move.6'],['reply_y'],0.0,0.0,0.0,0.0,0.0,0.0
giver,right,"['q6nc2.g.move.7', 'q6nc2.g.move.9.5']",['ready'],0.14285714285714285,0.0,0.0,0.0,0.0,0.0
follower,the left-hand side right,['q6nc2.f.move.9'],['acknowledge'],0.35714285714285715,0.18181818181818182,0.13636363636363635,0.2,0.0,0.0
giver,down past the stone circle,"['q6nc2.g.move.10', 'q6nc2.g.move.11.5']",['instruct'],0.6111111111111112,0.125,0.045454545454545456,0.1111111111111111,0.0,0.0
follower,the what,"['q6nc2.f.move.11', 'q6nc2.f.move.12.5']",['query_w'],0.4,0.1111111111111111,0.07142857142857142,0.16666666666666666,0.0,0.0
giver,the stone circle,"['q6nc2.g.move.12', 'q6nc2.g.move.14.5']",['reply_w'],0.3076923076923077,0.16666666666666666,0.1111111111111111,0.25,0.0,0.0
follower,i've not got a stone circle,"['q6nc2.f.move.13', 'q6nc2.f.move.16.5']",['explain'],0.6666666666666666,0.48,0.4074074074074074,0.3333333333333333,0.2,0.0
giver,yeah,"['q6nc2.g.move.15', 'q6nc2.g.move.20.5']",['reply_y'],0.125,0.0,0.0,0.0,0.0,0.0
follower,oh right,"['q6nc2.f.move.17', 'q6nc2.f.move.21.5']",['acknowledge'],0.1,0.0,0.0,0.0,0.0,0.0
giver,eh say about five centimetres on the map,"['q6nc2.g.move.21', 'q6nc2.g.move.23.5']",['reply_w'],0.3157894736842105,0.022727272727272728,0.0,0.0,0.0,0.0
follower,right,"['q6nc2.f.move.22', 'q6nc2.f.move.24.5']",['ready'],0.21052631578947367,0.0,0.0,0.0,0.0,0.0
giver,yeah,"['q6nc2.g.move.24', 'q6nc2.g.move.25.5']",['reply_y'],0.125,0.0,0.0,0.0,0.0,0.0
follower,and about in a line with the the writing of broken gate roughly,"['q6nc2.f.move.25', 'q6nc2.f.move.27.5']",['check'],0.2222222222222222,0.0,0.0,0.0,0.0,0.0
giver,yeah,"['q6nc2.g.move.26', 'q6nc2.g.move.28.5']",['reply_y'],0.2222222222222222,0.0,0.0,0.0,0.0,0.0
follower,right,"['q6nc2.f.move.28', 'q6nc2.f.move.29.5']",['acknowledge'],0.125,0.0,0.0,0.0,0.0,0.0
giver,whe-- whe--,"['q6nc2.g.move.29', 'q6nc2.g.move.30.5']",['uncodable'],0.1111111111111111,0.0,0.0,0.0,0.0,0.0
follower,and where's the st-- the other side the stone circle eh,"['q6nc2.f.move.30', 'q6nc2.f.move.31.5']",['query_w'],0.3125,0.13513513513513514,0.06521739130434782,0.0,0.0,0.0
giver,eh the left-hand side of the telephone kiosk,"['q6nc2.g.move.31', 'q6nc2.g.move.33.5']",['reply_w'],0.631578947368421,0.3148148148148148,0.18840579710144928,0.21428571428571427,0.0,0.0
follower,right,"['q6nc2.f.move.32', 'q6nc2.f.move.35.5']",['acknowledge'],0.17647058823529413,0.0,0.0,0.0,0.0,0.0
giver,no,"['q6nc2.g.move.34', 'q6nc2.g.move.36.5']",['reply_n'],0.0,0.0,0.0,0.0,0.0,0.0
follower,right,"['q6nc2.f.move.36', 'q6nc2.f.move.37.5']",['acknowledge'],0.0,0.0,0.0,0.0,0.0,0.0
giver,which is called farmer's gate,"['q6nc2.g.move.37', 'q6nc2.g.move.39.5']",['explain'],0.3125,0.0,0.0,0.0,0.0,0.0
follower,right,"['q6nc2.f.move.38', 'q6nc2.f.move.40.5']",['acknowledge'],0.3125,0.0,0.0,0.0,0.0,0.0
giver,underneath the stone circle,"['q6nc2.g.move.40', 'q6nc2.g.move.41.5']",['reply_y'],0.26666666666666666,0.0,0.0,0.0,0.0,0.0
follower,sort it's directly down from telephone kiosk,"['q6nc2.f.move.41', 'q6nc2.f.move.42.5']",['check'],0.5714285714285714,0.1016949152542373,0.03076923076923077,0.0,0.0,0.0
giver,yeah,"['q6nc2.g.move.42', 'q6nc2.g.move.43.5']",['reply_y'],0.15,0.0,0.0,0.0,0.0,0.0
follower,right,"['q6nc2.f.move.43', 'q6nc2.f.move.45.5']",['acknowledge'],0.125,0.0,0.0,0.0,0.0,0.0
giver,right you're underneath it,"['q6nc2.g.move.44', 'q6nc2.g.move.45']","['ready', 'align']",0.35714285714285715,0.16,0.125,0.2,0.0,0.0
follower,uh-huh,['q6nc2.f.move.46'],['reply_y'],0.13333333333333333,0.0,0.0,0.0,0.0,0.0
giver,right,"['q6nc2.g.move.47', 'q6nc2.g.move.49.5']",['ready'],0.14285714285714285,0.0,0.0,0.0,0.0,0.0
follower,eh underneath the broken gate,"['q6nc2.f.move.49', 'q6nc2.f.move.52.5']",['query_yn'],0.2857142857142857,0.0,0.0,0.0,0.0,0.0
giver,no,"['q6nc2.g.move.50', 'q6nc2.g.move.53.5']",['reply_n'],0.15384615384615385,0.0,0.0,0.0,0.0,0.0
follower,so i go between the the circle the stone circle and the gate then,"['q6nc2.f.move.53', 'q6nc2.f.move.54.5']",['check'],0.125,0.0,0.0,0.0,0.0,0.0
giver,yeah,"['q6nc2.g.move.54', 'q6nc2.g.move.55.5']",['reply_y'],0.17647058823529413,0.0,0.0,0.0,0.0,0.0
follower,so that's quite a small space is it i i presume,"['q6nc2.f.move.55', 'q6nc2.f.move.56.5']",['check'],0.17647058823529413,0.0,0.0,0.0,0.0,0.0
giver,yeah,"['q6nc2.g.move.56', 'q6nc2.g.move.58.5']",['reply_y'],0.17647058823529413,0.0,0.0,0.0,0.0,0.0
follower,right,"['q6nc2.f.move.57', 'q6nc2.f.move.59.5']",['acknowledge'],0.125,0.0,0.0,0.0,0.0,0.0
giver,just stop above the farmer's gate,"['q6nc2.g.move.59', 'q6nc2.g.move.61.5']",['reply_w'],0.2222222222222222,0.0,0.0,0.0,0.0,0.0
follower,right,"['q6nc2.f.move.60', 'q6nc2.f.move.62.5']",['ready'],0.2222222222222222,0.0,0.0,0.0,0.0,0.0
giver,yeah,"['q6nc2.g.move.62', 'q6nc2.g.move.63.5']",['reply_y'],0.125,0.0,0.0,0.0,0.0,0.0
follower,right,"['q6nc2.f.move.63', 'q6nc2.f.move.64.5']",['acknowledge'],0.125,0.0,0.0,0.0,0.0,0.0
giver,you there,['q6nc2.g.move.64'],['align'],0.3,0.0,0.0,0.0,0.0,0.0
follower,uh-huh straight above it,['q6nc2.f.move.65'],['reply_y'],0.4666666666666667,0.0,0.0,0.0,0.0,0.0
giver,right now,"['q6nc2.g.move.66', 'q6nc2.g.move.69.5']",['ready'],0.4375,0.15384615384615385,0.11538461538461539,0.0,0.0,0.0
follower,yeah i do,"['q6nc2.f.move.68', 'q6nc2.f.move.72.5']",['reply_y'],0.3076923076923077,0.0,0.0,0.0,0.0,0.0
giver,right,"['q6nc2.g.move.70', 'q6nc2.g.move.70.5']",['reply_y'],0.18181818181818182,0.0,0.0,0.0,0.0,0.0
follower,uh-huh,"['q6nc2.f.move.73', 'q6nc2.f.move.75.5']",['reply_y'],0.14285714285714285,0.0,0.0,0.0,0.0,0.0
giver,well right,"['q6nc2.g.move.71', 'q6nc2.g.move.75']","['ready', 'align']",0.09090909090909091,0.0,0.0,0.0,0.0,0.0
follower,uh-huh,['q6nc2.f.move.76'],['reply_y'],0.09090909090909091,0.0,0.0,0.0,0.0,0.0
giver,what do well basically you go up sort a very slight diagonal line until you're above the meadow,"['q6nc2.g.move.77', 'q6nc2.g.move.79.5']",['instruct'],0.08695652173913043,0.0,0.0,0.0,0.0,0.0
follower,right,"['q6nc2.f.move.78', 'q6nc2.f.move.80.5']",['acknowledge'],0.22727272727272727,0.0410958904109589,0.02197802197802198,0.0,0.0,0.0
giver,yeah,['q6nc2.g.move.80'],['reply_y'],0.125,0.0,0.0,0.0,0.0,0.0
follower,right,['q6nc2.f.move.81'],['acknowledge'],0.125,0.0,0.0,0.0,0.0,0.0
giver,right,"['q6nc2.g.move.82', 'q6nc2.g.move.84.5']",['ready'],1.0,1.0,1.0,1.0,0.0,0.0
follower,no,['q6nc2.f.move.84'],['reply_n'],0.0,0.0,0.0,0.0,0.0,0.0
giver,no,['q6nc2.g.move.85'],['acknowledge'],1.0,1.0,0.0,1.0,0.0,0.0
follower,i'm i'm und-- at the moment i'm underneath overnight accommodation and just almost in the i'm just in the beginning of the meadow,['q6nc2.f.move.86'],['explain'],0.08695652173913043,0.0,0.0,0.0,0.0,0.0
giver,i don't have that i don't have overnight accommodation,"['q6nc2.g.move.87', 'q6nc2.g.move.89']",['explain'],0.6521739130434783,0.37333333333333335,0.22727272727272727,0.11764705882352941,0.047619047619047616,0.0
follower,right well,"['q6nc2.f.move.90', 'q6nc2.f.move.95.5']",['ready'],0.4117647058823529,0.1,0.06521739130434782,0.0,0.0,0.0
giver,yeah well,"['q6nc2.g.move.92', 'q6nc2.g.move.97.5']",['ready'],0.45454545454545453,0.3076923076923077,0.25,0.3333333333333333,0.0,0.0
follower,oh,"['q6nc2.f.move.96', 'q6nc2.f.move.98.5']",['ready'],0.125,0.0,0.0,0.0,0.0,0.0
giver,it doesn't say go anywhere it just it turns turns northwards,"['q6nc2.g.move.98', 'q6nc2.g.move.99.5']",['reply_w'],0.11764705882352941,0.0,0.0,0.0,0.0,0.0
follower,oh right i see,"['q6nc2.f.move.99', 'q6nc2.f.move.100.5']",['acknowledge'],0.5294117647058824,0.05357142857142857,0.01639344262295082,0.0,0.0,0.0
giver,a-- at that point,"['q6nc2.g.move.100', 'q6nc2.g.move.101.5']",['reply_w'],0.38461538461538464,0.038461538461538464,0.0,0.0,0.0,0.0
follower,so so it's going to overnight accommodation then,"['q6nc2.f.move.101', 'q6nc2.f.move.102.5']",['check'],0.3888888888888889,0.14,0.03508771929824561,0.0,0.0,0.0
giver,yeah,['q6nc2.g.move.102'],['reply_y'],0.17647058823529413,0.0,0.0,0.0,0.0,0.0
follower,where's it head after that,"['q6nc2.f.move.103', 'q6nc2.f.move.105.5']",['query_w'],0.23076923076923078,0.04,0.0,0.0,0.0,0.0
giver,right,"['q6nc2.g.move.104', 'q6nc2.g.move.106.5']",['ready'],0.3076923076923077,0.0,0.0,0.0,0.0,0.0
follower,i'll just just tell briefly and then i'll go to overnight accommodation we'll start again just sort point of interest,"['q6nc2.f.move.106', 'q6nc2.f.move.107.5']",['instruct'],0.20833333333333334,0.05333333333333334,0.020202020202020204,0.0,0.0,0.0
giver,it goes up for it goes up for about ten ten or twelve centimetres it skirt-- it goes round the north of the ruined monastery,['q6nc2.g.move.107'],['reply_w'],0.8461538461538461,0.26495726495726496,0.07954545454545454,0.03125,0.0,0.0
follower,right right well i'll i'll move into overnight accommodation,"['q6nc2.f.move.108', 'q6nc2.f.move.109']","['ready', 'explain']",0.64,0.16666666666666666,0.022556390977443608,0.0,0.0,0.0
follower,and it just goes straight up from where i say overnight accommodation would be just right up northwards yeah,"['q6nc2.f.move.109.5', 'q6nc2.f.move.110']",['check'],0.6666666666666666,0.3076923076923077,0.23423423423423423,0.15,0.041666666666666664,0.0
giver,oh,"['q6nc2.g.move.111', 'q6nc2.g.move.113.5']",['ready'],0.08695652173913043,0.0,0.0,0.0,0.0,0.0
follower,it's the middle of of it's a wee a wee house the middle of it is straight up from the meadow,"['q6nc2.f.move.113', 'q6nc2.f.move.114.5']",['reply_w'],0.1111111111111111,0.0,0.0,0.0,0.0,0.0
giver,right,"['q6nc2.g.move.114', 'q6nc2.g.move.115.5']",['acknowledge'],0.2777777777777778,0.057692307692307696,0.03225806451612903,0.0,0.0,0.0
follower,on the left of the meadow yo-- the the far left the meadow straight up from there,"['q6nc2.f.move.115', 'q6nc2.f.move.118.5']",['reply_w'],0.25,0.0625,0.03636363636363636,0.0,0.0,0.0
giver,yeah,"['q6nc2.g.move.116', 'q6nc2.g.move.119.5']",['acknowledge'],0.2,0.02040816326530612,0.0,0.0,0.0,0.0
follower,yeah above the wee birds uh-huh,"['q6nc2.f.move.119', 'q6nc2.f.move.120.5']",['reply_y'],0.25,0.1111111111111111,0.06896551724137931,0.14285714285714285,0.0,0.0
giver,right that's tha-- the-- right i know where you are,"['q6nc2.g.move.120', 'q6nc2.g.move.121.5']",['acknowledge'],0.65,0.125,0.029411764705882353,0.07142857142857142,0.0,0.0
follower,and sight and eh the start of it is s-- straight across from the start writing,"['q6nc2.f.move.121', 'q6nc2.f.move.122.5']",['reply_w'],0.6190476190476191,0.2318840579710145,0.07446808510638298,0.05263157894736842,0.0,0.0
giver,right that's it,"['q6nc2.g.move.122', 'q6nc2.g.move.123.5']",['acknowledge'],0.4444444444444444,0.18867924528301888,0.07352941176470588,0.07142857142857142,0.0,0.0
follower,so,"['q6nc2.f.move.123', 'q6nc2.f.move.125.5']",['ready'],0.1,0.0,0.0,0.0,0.0,0.0
giver,right that's that's where on my map is,"['q6nc2.g.move.124', 'q6nc2.g.move.125']","['acknowledge', 'explain']",0.125,0.0,0.0,0.0,0.0,0.0
follower,uh-huh so i just want to go up from there,"['q6nc2.f.move.126', 'q6nc2.f.move.128']","['acknowledge', 'check']",0.7,0.16363636363636364,0.06153846153846154,0.0,0.0,0.0
giver,uh-huh,['q6nc2.g.move.129'],['reply_y'],0.16666666666666666,0.11428571428571428,0.10256410256410256,0.2,0.1111111111111111,0.0
follower,which side of the ruined monastery should i sort be coming out at the right side,"['q6nc2.f.move.130', 'q6nc2.f.move.132.5']",['query_w'],0.09523809523809523,0.0,0.0,0.0,0.0,0.0
giver,oh have you got the ruined monastery,"['q6nc2.g.move.131', 'q6nc2.g.move.134.5']",['check'],0.7142857142857143,0.32857142857142857,0.23529411764705882,0.17647058823529413,0.1111111111111111,0.058823529411764705
follower,yeah,"['q6nc2.f.move.133', 'q6nc2.f.move.139.5']",['reply_y'],0.25,0.0,0.0,0.0,0.0,0.0
giver,right right,"['q6nc2.g.move.135', 'q6nc2.g.move.139']","['ready', 'align']",0.1111111111111111,0.0,0.0,0.0,0.0,0.0
follower,right right,"['q6nc2.f.move.140', 'q6nc2.f.move.141', 'q6nc2.f.move.143.5']","['reply_y', 'ready']",1.0,1.0,1.0,1.0,1.0,0.0
giver,yeah,"['q6nc2.g.move.143', 'q6nc2.g.move.144.5']",['reply_y'],0.1111111111111111,0.0,0.0,0.0,0.0,0.0
follower,and how far down so i'm just sort where the writing is on the left-hand side,"['q6nc2.f.move.144', 'q6nc2.f.move.147.5']",['query_yn'],0.14285714285714285,0.0,0.0,0.0,0.0,0.0
giver,just,"['q6nc2.g.move.145', 'q6nc2.g.move.148.5']",['reply_w'],0.2,0.05172413793103448,0.029411764705882353,0.06666666666666667,0.0,0.0
follower,right right i'm there,"['q6nc2.f.move.148', 'q6nc2.f.move.149.5']",['acknowledge'],0.08333333333333333,0.0,0.0,0.0,0.0,0.0
giver,are you,['q6nc2.g.move.149'],['align'],0.23076923076923078,0.05,0.0,0.0,0.0,0.0
follower,uh-huh,['q6nc2.f.move.150'],['reply_y'],0.1111111111111111,0.0,0.0,0.0,0.0,0.0
giver,right have you got that,"['q6nc2.g.move.151', 'q6nc2.g.move.154']","['ready', 'query_yn']",0.15384615384615385,0.0,0.0,0.0,0.0,0.0
follower,no i've only got east lake i've not got west lake,"['q6nc2.f.move.155', 'q6nc2.f.move.156']","['reply_n', 'explain']",0.5,0.14285714285714285,0.0784313725490196,0.08333333333333333,0.0,0.0
giver,right,"['q6nc2.g.move.157', 'q6nc2.g.move.159.5']",['ready'],0.17647058823529413,0.0,0.0,0.0,0.0,0.0
follower,uh-huh,['q6nc2.f.move.159'],['acknowledge'],0.14285714285714285,0.0,0.0,0.0,0.0,0.0
giver,so it's just a sort of big circle,['q6nc2.g.move.160'],['explain'],0.05555555555555555,0.0,0.0,0.0,0.0,0.0
follower,right,"['q6nc2.f.move.162', 'q6nc2.f.move.165.6']",['ready'],0.23529411764705882,0.030303030303030304,0.0,0.0,0.0,0.0
giver,well,"['q6nc2.g.move.164', 'q6nc2.g.move.166.4']",['ready'],0.0,0.0,0.0,0.0,0.0,0.0
follower,what's this,"['q6nc2.f.move.166.1', 'q6nc2.f.move.167.5']",['query_w'],0.1,0.0,0.0,0.0,0.0,0.0
giver,it's above the start whereas the th-- what is it it's a sort eh,"['q6nc2.g.move.166.5', 'q6nc2.g.move.169.4']",['instruct'],0.5714285714285714,0.23684210526315788,0.11764705882352941,0.09090909090909091,0.0,0.0
follower,uh,"['q6nc2.f.move.168', 'q6nc2.f.move.169.5']",['uncodable'],0.06666666666666667,0.0,0.0,0.0,0.0,0.0
giver,fo-- you could join the bottom of the lake with the start and the and the left-hand side of it to make a triangle,"['q6nc2.g.move.169.9', 'q6nc2.g.move.173.4']",['instruct'],0.08695652173913043,0.0,0.0,0.0,0.0,0.0
follower,you join the the bottom,"['q6nc2.f.move.170', 'q6nc2.f.move.174.5']",['check'],0.5217391304347826,0.2647058823529412,0.1797752808988764,0.2222222222222222,0.08333333333333333,0.0
giver,yeah,"['q6nc2.g.move.173.9', 'q6nc2.g.move.175.5']",['reply_y'],0.23076923076923078,0.0,0.0,0.0,0.0,0.0
follower,uh-huh,"['q6nc2.f.move.175', 'q6nc2.f.move.176.5']",['acknowledge'],0.16666666666666666,0.0,0.0,0.0,0.0,0.0
giver,but it doesn't go right the way along to the start it stops about halfway,"['q6nc2.g.move.176', 'q6nc2.g.move.179.5']",['instruct'],0.09523809523809523,0.0,0.0,0.0,0.0,0.0
follower,right,"['q6nc2.f.move.177', 'q6nc2.f.move.180.5']",['acknowledge'],0.25,0.08,0.04838709677419355,0.07692307692307693,0.0,0.0
giver,right,"['q6nc2.g.move.180', 'q6nc2.g.move.182.5']",['align'],1.0,1.0,1.0,1.0,0.0,0.0
follower,i've got that roughly,"['q6nc2.f.move.181', 'q6nc2.f.move.184.5']",['reply_y'],0.35714285714285715,0.045454545454545456,0.0,0.0,0.0,0.0
giver,eh no wait a minute,"['q6nc2.g.move.183', 'q6nc2.g.move.185.5']",['reply_n'],0.47058823529411764,0.027777777777777776,0.0,0.0,0.0,0.0
follower,i've got a,"['q6nc2.f.move.185', 'q6nc2.f.move.186.5']",['reply_w'],0.42857142857142855,0.08,0.041666666666666664,0.0,0.0,0.0
giver,a line along the top,"['q6nc2.g.move.186', 'q6nc2.g.move.187.5']",['instruct'],0.5384615384615384,0.08333333333333333,0.0,0.0,0.0,0.0
follower,a line right a straight line along the top,"['q6nc2.f.move.187', 'q6nc2.f.move.188.5']",['check'],0.8461538461538461,0.6071428571428571,0.5454545454545454,0.6666666666666666,0.5,0.4
giver,right,"['q6nc2.g.move.188', 'q6nc2.g.move.189.5']",['reply_y'],0.38461538461538464,0.14285714285714285,0.09090909090909091,0.16666666666666666,0.0,0.0
follower,from from where i am sort thing,"['q6nc2.f.move.189', 'q6nc2.f.move.190.5']",['check'],0.35714285714285715,0.0,0.0,0.0,0.0,0.0
giver,yeah,"['q6nc2.g.move.190', 'q6nc2.g.move.191.5']",['reply_y'],0.2,0.0,0.0,0.0,0.0,0.0
follower,right,"['q6nc2.f.move.191', 'q6nc2.f.move.193.4']",['acknowledge'],0.125,0.0,0.0,0.0,0.0,0.0
giver,it's not really straight but it's but it's easier to draw it straight,"['q6nc2.g.move.192', 'q6nc2.g.move.195.5']",['instruct'],0.2777777777777778,0.07317073170731707,0.04081632653061224,0.0,0.0,0.0
follower,right uh-huh,"['q6nc2.f.move.193.9', 'q6nc2.f.move.197.5']",['acknowledge'],0.3684210526315789,0.08695652173913043,0.05454545454545454,0.0,0.0,0.0
giver,then,"['q6nc2.g.move.196', 'q6nc2.g.move.198.5']",['ready'],0.2,0.0,0.0,0.0,0.0,0.0
follower,eh to just the start bit down from down from where where's it start going down from the stile or from the start or what,"['q6nc2.f.move.198', 'q6nc2.f.move.199.5']",['query_w'],0.2,0.03773584905660377,0.014705882352941176,0.0,0.0,0.0
giver,eh it's going down towards the start,"['q6nc2.g.move.199', 'q6nc2.g.move.201.5']",['reply_w'],0.7,0.48214285714285715,0.27848101265822783,0.4,0.08333333333333333,0.0
follower,right,"['q6nc2.f.move.200', 'q6nc2.f.move.202.5']",['acknowledge'],0.35714285714285715,0.0,0.0,0.0,0.0,0.0
giver,sort s-- straight down,"['q6nc2.g.move.202', 'q6nc2.g.move.204.5']",['reply_w'],0.38461538461538464,0.15,0.09523809523809523,0.0,0.0,0.0
follower,right,"['q6nc2.f.move.203', 'q6nc2.f.move.207.5']",['acknowledge'],0.38461538461538464,0.15,0.09523809523809523,0.0,0.0,0.0
giver,it goes about three centimetres towards uh it stops at the start you know,"['q6nc2.g.move.205', 'q6nc2.g.move.206.5']",['instruct'],0.25,0.0,0.0,0.0,0.0,0.0
follower,uh-huh s-- right,"['q6nc2.f.move.208', 'q6nc2.f.move.209.5']",['acknowledge'],0.38095238095238093,0.04838709677419355,0.01282051282051282,0.06666666666666667,0.0,0.0
giver,in line with it it goes about three centimetres towards it,"['q6nc2.g.move.207', 'q6nc2.g.move.210.5']",['instruct'],0.42105263157894735,0.01818181818181818,0.0,0.0,0.0,0.0
follower,right,"['q6nc2.f.move.210', 'q6nc2.f.move.212.5']",['acknowledge'],0.2777777777777778,0.0,0.0,0.0,0.0,0.0
giver,right,"['q6nc2.g.move.211', 'q6nc2.g.move.213.5']",['ready'],1.0,1.0,1.0,1.0,0.0,0.0
follower,right,"['q6nc2.f.move.213', 'q6nc2.f.move.215.5']",['acknowledge'],1.0,1.0,1.0,1.0,0.0,0.0
giver,and then,"['q6nc2.g.move.214', 'q6nc2.g.move.216.5']",['ready'],0.2,0.0,0.0,0.0,0.0,0.0
follower,right okay f--,"['q6nc2.f.move.216', 'q6nc2.f.move.217.5']",['acknowledge'],0.26666666666666666,0.0,0.0,0.0,0.0,0.0
giver,right,"['q6nc2.g.move.217', 'q6nc2.g.move.220.5']",['align'],0.4166666666666667,0.3076923076923077,0.25,0.5,0.0,0.0
follower,five fi--,"['q6nc2.f.move.218', 'q6nc2.f.move.224.5']",['acknowledge'],0.1,0.0,0.0,0.0,0.0,0.0
giver,avoid it that's west lake,"['q6nc2.g.move.221', 'q6nc2.g.move.224']","['instruct', 'explain']",0.25,0.0,0.0,0.0,0.0,0.0
follower,right,['q6nc2.f.move.225'],['acknowledge'],0.1875,0.0,0.0,0.0,0.0,0.0
giver,so,"['q6nc2.g.move.226', 'q6nc2.g.move.229.5']",['ready'],0.0,0.0,0.0,0.0,0.0,0.0
follower,i should be above i should be slightly above the lake then am i,"['q6nc2.f.move.228', 'q6nc2.f.move.230.5']",['check'],0.1111111111111111,0.0,0.0,0.0,0.0,0.0
giver,yeah,['q6nc2.g.move.230'],['reply_y'],0.2222222222222222,0.0,0.0,0.0,0.0,0.0
follower,uh-huh right,['q6nc2.f.move.231'],['acknowledge'],0.09090909090909091,0.0,0.0,0.0,0.0,0.0
giver,right you go left along 'til you're in line with the left-hand side of the stile,"['q6nc2.g.move.232', 'q6nc2.g.move.233']","['ready', 'instruct']",0.42105263157894735,0.09836065573770492,0.039473684210526314,0.058823529411764705,0.0,0.0
follower,right,['q6nc2.f.move.234'],['acknowledge'],0.2631578947368421,0.07017543859649122,0.043478260869565216,0.06666666666666667,0.0,0.0
giver,then go up and over the top the stile and stop there,"['q6nc2.g.move.235', 'q6nc2.g.move.236.5']",['instruct'],0.3125,0.0,0.0,0.0,0.0,0.0
follower,straight up over the stile,['q6nc2.f.move.236'],['check'],0.875,0.4722222222222222,0.32608695652173914,0.36363636363636365,0.15384615384615385,0.0
giver,straight up,['q6nc2.g.move.237'],['reply_y'],0.7142857142857143,0.4166666666666667,0.375,0.4,0.25,0.0
follower,right,"['q6nc2.f.move.240', 'q6nc2.f.move.242.5']",['ready'],0.5,0.2727272727272727,0.2,0.0,0.0,0.0
giver,right,"['q6nc2.g.move.242', 'q6nc2.g.move.244.5']",['reply_y'],1.0,1.0,1.0,1.0,0.0,0.0
follower,uh-huh,"['q6nc2.f.move.243', 'q6nc2.f.move.245.5']",['acknowledge'],0.14285714285714285,0.0,0.0,0.0,0.0,0.0
giver,uh-huh,"['q6nc2.g.move.245', 'q6nc2.g.move.246.5']",['reply_y'],1.0,1.0,1.0,1.0,1.0,0.0
follower,right,"['q6nc2.f.move.246', 'q6nc2.f.move.247.5']",['acknowledge'],0.14285714285714285,0.0,0.0,0.0,0.0,0.0
giver,then you stop,['q6nc2.g.move.247'],['instruct'],0.15384615384615385,0.0,0.0,0.0,0.0,0.0
follower,uh-huh,['q6nc2.f.move.248'],['acknowledge'],0.18181818181818182,0.0,0.0,0.0,0.0,0.0
giver,right you go n-- go north for about three centimetres,"['q6nc2.g.move.249', 'q6nc2.g.move.250']","['ready', 'instruct']",0.16666666666666666,0.0,0.0,0.0,0.0,0.0
follower,right,['q6nc2.f.move.251'],['acknowledge'],0.2777777777777778,0.09302325581395349,0.0625,0.125,0.0,0.0
giver,and then go along for about one centimetre one or two i'd say two,"['q6nc2.g.move.252', 'q6nc2.g.move.255.5']",['instruct'],0.23809523809523808,0.0,0.0,0.0,0.0,0.0
follower,so i'm at the bo-- i'm sort at the left-hand bottom of the popular tourist spot castle thing,"['q6nc2.f.move.253', 'q6nc2.f.move.256.5']",['check'],0.8260869565217391,0.23255813953488372,0.056,0.0,0.0,0.0
giver,i don't have that,"['q6nc2.g.move.256', 'q6nc2.g.move.257.5']",['reply_n'],0.45454545454545453,0.08823529411764706,0.02247191011235955,0.0,0.0,0.0
follower,right,"['q6nc2.f.move.257', 'q6nc2.f.move.260.5']",['acknowledge'],0.23076923076923078,0.0,0.0,0.0,0.0,0.0
giver,it says great viewpoint,"['q6nc2.g.move.258', 'q6nc2.g.move.262.5']",['explain'],0.26666666666666666,0.0,0.0,0.0,0.0,0.0
follower,yeah great viewpoint's awa-- quite a bit above it,"['q6nc2.f.move.261', 'q6nc2.f.move.263.5']",['explain'],0.7,0.37777777777777777,0.2830188679245283,0.3333333333333333,0.1111111111111111,0.0
giver,yeah,"['q6nc2.g.move.263', 'q6nc2.g.move.264.5']",['acknowledge'],0.2,0.07317073170731707,0.0425531914893617,0.125,0.0,0.0
follower,and to the left yeah,"['q6nc2.f.move.264', 'q6nc2.f.move.265.5']",['explain'],0.36363636363636365,0.16666666666666666,0.1111111111111111,0.2,0.0,0.0
giver,yeah you should be there,['q6nc2.g.move.265'],['instruct'],0.6,0.2903225806451613,0.1111111111111111,0.1111111111111111,0.0,0.0
follower,so right i'm i'm there,"['q6nc2.f.move.266', 'q6nc2.f.move.267']","['ready', 'acknowledge']",0.4117647058823529,0.14705882352941177,0.11428571428571428,0.14285714285714285,0.0,0.0
follower,is there any hazards round about here then,"['q6nc2.f.move.269', 'q6nc2.f.move.270.5']",['query_yn'],0.4444444444444444,0.175,0.08333333333333333,0.1,0.0,0.0
giver,eh no there's nothing on my map,"['q6nc2.g.move.270', 'q6nc2.g.move.271.5']",['reply_n'],0.5789473684210527,0.14285714285714285,0.06779661016949153,0.07142857142857142,0.0,0.0
follower,right,['q6nc2.f.move.271'],['acknowledge'],0.3333333333333333,0.0,0.0,0.0,0.0,0.0
giver,right,"['q6nc2.g.move.272', 'q6nc2.g.move.274.5']",['ready'],1.0,1.0,1.0,1.0,0.0,0.0
follower,eh to my right,"['q6nc2.f.move.274', 'q6nc2.f.move.275.5']",['check'],0.5,0.3076923076923077,0.25,0.25,0.0,0.0
giver,to your right,['q6nc2.g.move.275'],['reply_y'],0.7272727272727273,0.3888888888888889,0.2777777777777778,0.4,0.0,0.0
follower,uh-huh,['q6nc2.f.move.276'],['acknowledge'],0.2,0.0,0.0,0.0,0.0,0.0
giver,then take a diagonal route down,"['q6nc2.g.move.277', 'q6nc2.g.move.279.5']",['instruct'],0.125,0.0,0.0,0.0,0.0,0.0
follower,the dutch elm,"['q6nc2.f.move.279', 'q6nc2.f.move.280.5']",['check'],0.4117647058823529,0.14285714285714285,0.05263157894736842,0.0,0.0,0.0
giver,it says dead tree,"['q6nc2.g.move.280', 'q6nc2.g.move.282.4']",['reply_w'],0.2857142857142857,0.037037037037037035,0.0,0.0,0.0,0.0
follower,is it er underneath the rocket launch pad at your right,"['q6nc2.f.move.281', 'q6nc2.f.move.282.5']",['query_yn'],0.5,0.1509433962264151,0.030303030303030304,0.07142857142857142,0.0,0.0
giver,i don't have a l-- a rocket launch pad,"['q6nc2.g.move.282.9', 'q6nc2.g.move.288.5']",['reply_w'],0.7142857142857143,0.3220338983050847,0.2222222222222222,0.23076923076923078,0.16666666666666666,0.09090909090909091
follower,right well,"['q6nc2.f.move.283', 'q6nc2.f.move.286.5']",['ready'],0.35,0.024390243902439025,0.0,0.0,0.0,0.0
giver,yeah i've got the east lake,"['q6nc2.g.move.289', 'q6nc2.g.move.291.5']",['reply_y'],0.4375,0.03225806451612903,0.0,0.0,0.0,0.0
follower,well,"['q6nc2.f.move.287', 'q6nc2.f.move.292.5']",['ready'],0.13333333333333333,0.0,0.0,0.0,0.0,0.0
giver,oh i don't have that,"['q6nc2.g.move.292', 'q6nc2.g.move.293.5']",['reply_w'],0.07692307692307693,0.0,0.0,0.0,0.0,0.0
follower,ah my my east lake's top hand right corner,"['q6nc2.f.move.293', 'q6nc2.f.move.295.5']",['explain'],0.5,0.1,0.01818181818181818,0.0,0.0,0.0
giver,yeah,"['q6nc2.g.move.294', 'q6nc2.g.move.296.5']",['acknowledge'],0.21052631578947367,0.05263157894736842,0.0,0.0,0.0,0.0
follower,uh-huh,"['q6nc2.f.move.296', 'q6nc2.f.move.298.5']",['acknowledge'],0.16666666666666666,0.0,0.0,0.0,0.0,0.0
giver,and there's a great viewpoint just underneath it,"['q6nc2.g.move.297', 'q6nc2.g.move.300.5']",['explain'],0.10526315789473684,0.0,0.0,0.0,0.0,0.0
follower,no,"['q6nc2.f.move.299', 'q6nc2.f.move.301.5']",['reply_n'],0.1111111111111111,0.0,0.0,0.0,0.0,0.0
giver,oh i've got two v-- great viewpoints,"['q6nc2.g.move.301', 'q6nc2.g.move.302.5']",['explain'],0.125,0.0,0.0,0.0,0.0,0.0
follower,ah right i see,"['q6nc2.f.move.302', 'q6nc2.f.move.304.5']",['acknowledge'],0.5625,0.07142857142857142,0.0,0.0,0.0,0.0
giver,right so i've got a great viewpoint just underneath the lake,"['q6nc2.g.move.303', 'q6nc2.g.move.303.5']",['explain'],0.45,0.14545454545454545,0.06153846153846154,0.08333333333333333,0.0,0.0
follower,s--,"['q6nc2.f.move.305', 'q6nc2.f.move.305.4']",['uncodable'],0.047619047619047616,0.0,0.0,0.0,0.0,0.0
giver,but the-- there's a tree it's sort black and wee branches it's g-- it's oh it's dead it's got no leaves on it,"['q6nc2.g.move.304', 'q6nc2.g.move.308.5']",['explain'],0.09523809523809523,0.015873015873015872,0.0,0.0,0.0,0.0
follower,yeah i don't i don't have,"['q6nc2.f.move.305.9', 'q6nc2.f.move.310.5']",['explain'],0.5,0.11428571428571428,0.020833333333333332,0.0,0.0,0.0
giver,yeah,"['q6nc2.g.move.309', 'q6nc2.g.move.312.5']",['acknowledge'],0.3333333333333333,0.1875,0.125,0.3333333333333333,0.0,0.0
follower,oh right it's underneath the east lake about ten centimetres down from it,"['q6nc2.f.move.311', 'q6nc2.f.move.312']","['acknowledge', 'check']",0.13636363636363635,0.016129032258064516,0.0,0.0,0.0,0.0
giver,uh-huh,['q6nc2.g.move.313'],['reply_y'],0.09090909090909091,0.0,0.0,0.0,0.0,0.0
follower,right i'm i'm i'm pos-- right i'm now sort above the stile to the right so where where from here,"['q6nc2.f.move.314', 'q6nc2.f.move.315', 'q6nc2.f.move.316', 'q6nc2.f.move.317.5']","['ready', 'explain', 'query_w']",0.09523809523809523,0.0,0.0,0.0,0.0,0.0
giver,you're above the stile to the right did you you you went along to the stile and then you went up,"['q6nc2.g.move.317', 'q6nc2.g.move.319']","['check', 'align']",0.7391304347826086,0.3380281690140845,0.2736842105263158,0.25,0.18518518518518517,0.13333333333333333
follower,uh-huh i went eh along i went along to the right-hand side the stile like you said then went up sort a few centimetres and along slightly again to the right,"['q6nc2.f.move.318', 'q6nc2.f.move.320']","['reply_y', 'reply_w']",0.68,0.43333333333333335,0.3153846153846154,0.4,0.15789473684210525,0.06818181818181818
giver,right,"['q6nc2.g.move.321', 'q6nc2.g.move.324.5']",['ready'],0.22727272727272727,0.04878048780487805,0.026785714285714284,0.045454545454545456,0.0,0.0
follower,right,"['q6nc2.f.move.323', 'q6nc2.f.move.324.4']",['acknowledge'],1.0,1.0,1.0,1.0,0.0,0.0
giver,i don't know,['q6nc2.g.move.325'],['explain'],0.16666666666666666,0.0,0.0,0.0,0.0,0.0
follower,if the tourist spot's a trap or what down so i'm right underneath the tree,"['q6nc2.f.move.324.9', 'q6nc2.f.move.327.9']","['explain', 'check']",0.42105263157894735,0.06060606060606061,0.013157894736842105,0.0,0.0,0.0
giver,right,"['q6nc2.g.move.328', 'q6nc2.g.move.330.5']",['ready'],0.2777777777777778,0.06779661016949153,0.04477611940298507,0.08333333333333333,0.0,0.0
follower,is it right on top of the tree or just at the right-hand side at the top,"['q6nc2.f.move.330', 'q6nc2.f.move.331.5']",['query_w'],0.29411764705882354,0.09302325581395349,0.05555555555555555,0.07692307692307693,0.0,0.0
giver,go round the right-hand side the tree,"['q6nc2.g.move.331', 'q6nc2.g.move.332.5']",['clarify'],0.8235294117647058,0.4583333333333333,0.3770491803278688,0.3333333333333333,0.21052631578947367,0.1
follower,uh-huh,"['q6nc2.f.move.332', 'q6nc2.f.move.333.5']",['acknowledge'],0.21428571428571427,0.03333333333333333,0.0,0.0,0.0,0.0
giver,and then go along along the the top 'til you're right above it,['q6nc2.g.move.333'],['clarify'],0.10526315789473684,0.0,0.0,0.0,0.0,0.0
follower,right i'm right above it,['q6nc2.f.move.334'],['acknowledge'],0.631578947368421,0.2978723404255319,0.24074074074074073,0.25,0.14285714285714285,0.07692307692307693
giver,right,"['q6nc2.g.move.335', 'q6nc2.g.move.337.5']",['ready'],0.38461538461538464,0.23529411764705882,0.16666666666666666,0.3333333333333333,0.0,0.0
follower,eh to the left or right,"['q6nc2.f.move.337', 'q6nc2.f.move.338.5']",['query_w'],0.5,0.19047619047619047,0.14285714285714285,0.16666666666666666,0.0,0.0
giver,to the left,"['q6nc2.g.move.338', 'q6nc2.g.move.339.5']",['reply_w'],0.7,0.47619047619047616,0.42857142857142855,0.5,0.4,0.25
follower,right,['q6nc2.f.move.339'],['acknowledge'],0.2,0.0,0.0,0.0,0.0,0.0
giver,right,['q6nc2.g.move.340'],['acknowledge'],1.0,1.0,1.0,1.0,0.0,0.0
follower,right well,"['q6nc2.f.move.343', 'q6nc2.f.move.345.5']",['ready'],0.5555555555555556,0.4444444444444444,0.375,0.5,0.0,0.0
giver,yeah,"['q6nc2.g.move.345', 'q6nc2.g.move.346.5']",['acknowledge'],0.18181818181818182,0.0,0.0,0.0,0.0,0.0
follower,so i want to be right underneath the bottom of the lake,"['q6nc2.f.move.346', 'q6nc2.f.move.347.5']",['check'],0.15,0.022222222222222223,0.0,0.0,0.0,0.0
giver,right,"['q6nc2.g.move.347', 'q6nc2.g.move.348.5']",['reply_y'],0.2631578947368421,0.09302325581395349,0.06,0.1,0.0,0.0
follower,on the sort right-hand side of the lake,"['q6nc2.f.move.348', 'q6nc2.f.move.350.5']",['query_yn'],0.3125,0.125,0.08823529411764706,0.125,0.0,0.0
giver,well,"['q6nc2.g.move.349', 'q6nc2.g.move.351.5']",['ready'],0.11764705882352941,0.0,0.0,0.0,0.0,0.0
follower,oh i shouldn't actually be a-- below the lake no,"['q6nc2.f.move.351', 'q6nc2.f.move.352.5']",['check'],0.15789473684210525,0.046511627906976744,0.0,0.0,0.0,0.0
giver,you're about three centimetres from the right hand side of the lake,"['q6nc2.g.move.352', 'q6nc2.g.move.355.5']",['clarify'],0.7391304347826086,0.14457831325301204,0.08163265306122448,0.1111111111111111,0.05555555555555555,0.0
follower,oh right,"['q6nc2.f.move.353', 'q6nc2.f.move.356.5']",['acknowledge'],0.3333333333333333,0.09090909090909091,0.06349206349206349,0.07692307692307693,0.0,0.0
giver,towards the left-hand side,"['q6nc2.g.move.356', 'q6nc2.g.move.358.5']",['clarify'],0.375,0.0,0.0,0.0,0.0,0.0
follower,yeah yeah that's where i am yeah so i just want to go up so i'm underneath the lake,"['q6nc2.f.move.357', 'q6nc2.f.move.358', 'q6nc2.f.move.359.5']","['acknowledge', 'check']",0.5652173913043478,0.20634920634920634,0.045454545454545456,0.058823529411764705,0.0,0.0
giver,yeah,['q6nc2.g.move.359'],['reply_y'],0.19047619047619047,0.058823529411764705,0.029411764705882353,0.07692307692307693,0.0,0.0
follower,and and the same sort position,['q6nc2.f.move.360'],['check'],0.21428571428571427,0.0,0.0,0.0,0.0,0.0
giver,now,"['q6nc2.g.move.361', 'q6nc2.g.move.363.5']",['ready'],0.14285714285714285,0.0,0.0,0.0,0.0,0.0
follower,ehm y-- yeah uh-huh,"['q6nc2.f.move.363', 'q6nc2.f.move.364.5']",['reply_y'],0.0,0.0,0.0,0.0,0.0,0.0
giver,do you see that,['q6nc2.g.move.364'],['align'],0.5,0.034482758620689655,0.0,0.0,0.0,0.0
follower,yeah,['q6nc2.f.move.365'],['reply_y'],0.4,0.0,0.0,0.0,0.0,0.0
giver,right go straight along the bottom of the lake following it 'til you reach there and then go about two centimetres further and that's the finish,"['q6nc2.g.move.366', 'q6nc2.g.move.367']","['ready', 'instruct']",0.18181818181818182,0.010752688172043012,0.0,0.0,0.0,0.0
follower,right so i want to,"['q6nc2.f.move.367.5', 'q6nc2.f.move.368.4']",['check'],0.5,0.12631578947368421,0.03875968992248062,0.04,0.0,0.0
giver,mmhmm,"['q6nc2.g.move.369', 'q6nc2.g.move.369.4']",['reply_y'],0.08333333333333333,0.0,0.0,0.0,0.0,0.0
follower,so in other words i want to sort follow the shape of the lake,"['q6nc2.f.move.368.9', 'q6nc2.f.move.369.5']",['check'],0.058823529411764705,0.0,0.0,0.0,0.0,0.0
giver,follow the shape of the lake until you y-- until like you reach the,"['q6nc2.g.move.369.9', 'q6nc2.g.move.370.5']",['clarify'],0.75,0.359375,0.27710843373493976,0.3125,0.2631578947368421,0.2222222222222222
follower,the sort diagonal bit near the end,"['q6nc2.f.move.370', 'q6nc2.f.move.372.5']",['check'],0.5,0.1076923076923077,0.05194805194805195,0.07142857142857142,0.0,0.0
giver,'til you reach the end of the bo--,"['q6nc2.g.move.371', 'q6nc2.g.move.373.5']",['clarify'],0.6,0.20833333333333334,0.11320754716981132,0.18181818181818182,0.08333333333333333,0.0
follower,uh-huh,"['q6nc2.f.move.373', 'q6nc2.f.move.375.5']",['reply_y'],0.16666666666666666,0.0,0.0,0.0,0.0,0.0
giver,right you want to go along to about there and then go another two centimetres following the same line,"['q6nc2.g.move.374', 'q6nc2.g.move.375']","['ready', 'clarify']",0.09523809523809523,0.0,0.0,0.0,0.0,0.0
follower,so i want to go to the the bottom right-hand corner of the lake to start with,"['q6nc2.f.move.376', 'q6nc2.f.move.377.5']",['check'],0.8181818181818182,0.3181818181818182,0.15873015873015872,0.2,0.0625,0.03225806451612903
giver,yeah,"['q6nc2.g.move.377', 'q6nc2.g.move.380.5']",['reply_y'],0.14285714285714285,0.0,0.0,0.0,0.0,0.0
follower,right,"['q6nc2.f.move.378', 'q6nc2.f.move.382.5']",['acknowledge'],0.125,0.0,0.0,0.0,0.0,0.0
giver,right,"['q6nc2.g.move.381', 'q6nc2.g.move.383.5']",['ready'],1.0,1.0,1.0,1.0,0.0,0.0
follower,eh ab-- abo-- up or to the side,"['q6nc2.f.move.383', 'q6nc2.f.move.384.5']",['query_w'],0.26666666666666666,0.0,0.0,0.0,0.0,0.0
giver,just on the same a-- the same same way,"['q6nc2.g.move.384', 'q6nc2.g.move.386.5']",['reply_w'],0.47368421052631576,0.23684210526315788,0.1111111111111111,0.08333333333333333,0.0,0.0
follower,right,"['q6nc2.f.move.385', 'q6nc2.f.move.388.5']",['ready'],0.11764705882352941,0.0,0.0,0.0,0.0,0.0
giver,no,"['q6nc2.g.move.387', 'q6nc2.g.move.387.5']",['reply_n'],0.0,0.0,0.0,0.0,0.0,0.0
follower,y--,"['q6nc2.f.move.389', 'q6nc2.f.move.389.4']",['uncodable'],0.0,0.0,0.0,0.0,0.0,0.0
giver,the same way you were traveling,"['q6nc2.g.move.388', 'q6nc2.g.move.391.5']",['clarify'],0.05555555555555555,0.0,0.0,0.0,0.0,0.0
follower,oh eh,"['q6nc2.f.move.389.5', 'q6nc2.f.move.392.5']",['acknowledge'],0.23529411764705882,0.0,0.0,0.0,0.0,0.0
giver,hmm,"['q6nc2.g.move.392', 'q6nc2.g.move.394.5']",['query_w'],0.2,0.0,0.0,0.0,0.0,0.0
follower,ehm,"['q6nc2.f.move.393', 'q6nc2.f.move.395.5']",['ready'],0.6666666666666666,0.3333333333333333,0.0,0.0,0.0,0.0
giver,right,"['q6nc2.g.move.395', 'q6nc2.g.move.397.5']",['acknowledge'],0.14285714285714285,0.0,0.0,0.0,0.0,0.0
follower,the bottom right-hand corner of the lake,"['q6nc2.f.move.396', 'q6nc2.f.move.400.5']",['explain'],0.2777777777777778,0.1111111111111111,0.08333333333333333,0.14285714285714285,0.0,0.0
giver,oh no,"['q6nc2.g.move.398', 'q6nc2.g.move.401.5']",['reply_n'],0.2222222222222222,0.0,0.0,0.0,0.0,0.0
follower,oh the bottom left-hand side,"['q6nc2.f.move.401', 'q6nc2.f.move.402.5']",['acknowledge'],0.26666666666666666,0.06896551724137931,0.03571428571428571,0.14285714285714285,0.0,0.0
giver,yeah,"['q6nc2.g.move.402', 'q6nc2.g.move.405.5']",['reply_y'],0.1875,0.0,0.0,0.0,0.0,0.0
follower,oh right i see wh-- i see what you're doing a bit better now right,"['q6nc2.f.move.403', 'q6nc2.f.move.407.5']",['acknowledge'],0.2222222222222222,0.0,0.0,0.0,0.0,0.0
giver,no it was my mistake i didn't realise you were saying bottom right-hand,"['q6nc2.g.move.406', 'q6nc2.g.move.407']","['reply_n', 'explain']",0.8571428571428571,0.3132530120481928,0.0990990990990991,0.09090909090909091,0.0,0.0
follower,don't know what the what the wha-- what the psychologists'll take from that i don't know right from my left perhaps i'm i'm there i'm at the bottom so i want to just go up same way the lake's going about two centimetres,"['q6nc2.f.move.408', 'q6nc2.f.move.412', 'q6nc2.f.move.413', 'q6nc2.f.move.415.5']","['explain', 'check']",0.84,0.3282442748091603,0.1414141414141414,0.075,0.0,0.0
giver,no,"['q6nc2.g.move.414', 'q6nc2.g.move.416.5']",['reply_n'],0.08,0.008849557522123894,0.0,0.0,0.0,0.0
follower,uh-huh right,"['q6nc2.f.move.416', 'q6nc2.f.move.417.5']",['acknowledge'],0.0,0.0,0.0,0.0,0.0,0.0
giver,just beyond the beyond the bottom of the lake for about two centimetres and that's the finish,"['q6nc2.g.move.417', 'q6nc2.g.move.418.5']",['clarify'],0.25,0.0,0.0,0.0,0.0,0.0
follower,right,"['q6nc2.f.move.418', 'q6nc2.f.move.419.5']",['acknowledge'],0.17391304347826086,0.0,0.0,0.0,0.0,0.0
giver,it it should be directly under the left-hand side of the lake,['q6nc2.g.move.419'],['instruct'],0.2,0.0,0.0,0.0,0.0,0.0
follower,right i know where you are,['q6nc2.f.move.420'],['acknowledge'],0.5714285714285714,0.109375,0.012987012987012988,0.0,0.0,0.0
