speaker,sentence,move_id,label,jaccard_sim_char_1_1,jaccard_sim_char_2_2,jaccard_sim_char_3_3,jaccard_sim_word_1_1,jaccard_sim_word_2_2,jaccard_sim_word_3_3
giver,ready dave,['q7ec5.g.move.1'],['align'],,,,,,
follower,yeah fire away,"['q7ec5.f.move.2', 'q7ec5.f.move.2.9']","['reply_y', 'instruct']",0.45454545454545453,0.1,0.0,0.0,0.0,0.0
giver,right,"['q7ec5.g.move.3', 'q7ec5.g.move.5.5']",['ready'],0.2727272727272727,0.0,0.0,0.0,0.0,0.0
follower,certainly am,['q7ec5.f.move.5'],['reply_y'],0.23076923076923078,0.0,0.0,0.0,0.0,0.0
giver,right,['q7ec5.g.move.6'],['acknowledge'],0.23076923076923078,0.0,0.0,0.0,0.0,0.0
follower,and go hang a big left right past it right,"['q7ec5.f.move.8', 'q7ec5.f.move.9']","['check', 'acknowledge']",0.3125,0.13333333333333333,0.08571428571428572,0.125,0.0,0.0
giver,so you go so you're going east west then south down,['q7ec5.g.move.10'],['align'],0.6,0.13793103448275862,0.06944444444444445,0.058823529411764705,0.0,0.0
follower,yep,"['q7ec5.f.move.10.5', 'q7ec5.f.move.11']",['reply_y'],0.11764705882352941,0.0,0.0,0.0,0.0,0.0
giver,have you got a picnic site,"['q7ec5.g.move.12', 'q7ec5.g.move.14.5']",['query_yn'],0.2,0.0,0.0,0.0,0.0,0.0
follower,nope,"['q7ec5.f.move.13', 'q7ec5.f.move.17.5']",['reply_n'],0.26666666666666666,0.0,0.0,0.0,0.0,0.0
giver,right okay it's about an inch is it below the s-- site of the forest fire and about an inch above the an inch and a half above the bottom of the the page,"['q7ec5.g.move.15', 'q7ec5.g.move.17']","['acknowledge', 'reply_w']",0.16,0.0,0.0,0.0,0.0,0.0
follower,an inch,"['q7ec5.f.move.18', 'q7ec5.f.move.20.5']",['acknowledge'],0.24,0.08450704225352113,0.052083333333333336,0.1111111111111111,0.038461538461538464,0.0
giver,so you go south and then you go round the bottom of it so you go south and then east,"['q7ec5.g.move.19.5', 'q7ec5.g.move.20']",['instruct'],0.2777777777777778,0.06818181818181818,0.0,0.0,0.0,0.0
follower,so i'm go-- right,"['q7ec5.f.move.21', 'q7ec5.f.move.23']","['check', 'acknowledge']",0.47368421052631576,0.14,0.03278688524590164,0.15384615384615385,0.0,0.0
giver,f-- and you go east about from the side of the page going about th-- three inch,"['q7ec5.g.move.24', 'q7ec5.g.move.26.5']",['instruct'],0.47619047619047616,0.11290322580645161,0.02564102564102564,0.0625,0.0,0.0
follower,mmhmm,['q7ec5.f.move.26'],['reply_y'],0.1,0.0,0.0,0.0,0.0,0.0
giver,which is just to the it's to the right and below the site of the forest fire,['q7ec5.g.move.27'],['explain'],0.047619047619047616,0.0,0.0,0.0,0.0,0.0
follower,mm,"['q7ec5.f.move.31', 'q7ec5.f.move.32.5']",['acknowledge'],0.0,0.0,0.0,0.0,0.0,0.0
giver,what have you done dave have you d--,"['q7ec5.g.move.32', 'q7ec5.g.move.33.5']",['query_w'],0.0,0.0,0.0,0.0,0.0,0.0
follower,so i'm going between the picnic site and the adventure playground,"['q7ec5.f.move.33', 'q7ec5.f.move.34.5']",['check'],0.5217391304347826,0.043478260869565216,0.0,0.0,0.0,0.0
giver,yeah,['q7ec5.g.move.34'],['reply_y'],0.18181818181818182,0.0,0.0,0.0,0.0,0.0
follower,okey-dokey here we go,['q7ec5.f.move.35'],['acknowledge'],0.25,0.0,0.0,0.0,0.0,0.0
giver,so,"['q7ec5.g.move.36', 'q7ec5.g.move.37']","['ready', 'query_w']",0.08333333333333333,0.0,0.0,0.0,0.0,0.0
follower,"well it's like a ""q"" with a wee extra bit i've added on",['q7ec5.f.move.38'],['reply_w'],0.1,0.0,0.0,0.0,0.0,0.0
giver,you're now you're above the just go up just above the adventure playground,['q7ec5.g.move.40'],['instruct'],0.6,0.07317073170731707,0.03,0.0,0.0,0.0
follower,mmhmm,['q7ec5.f.move.41'],['acknowledge'],0.047619047619047616,0.0,0.0,0.0,0.0,0.0
giver,and start going right across the page to the east ehm at a five degree angle can you do that just a wee angle,"['q7ec5.g.move.42', 'q7ec5.g.move.45.5']",['instruct'],0.09090909090909091,0.0136986301369863,0.0,0.0,0.0,0.0
follower,how far,"['q7ec5.f.move.43', 'q7ec5.f.move.46.5']",['query_w'],0.3181818181818182,0.02666666666666667,0.0,0.0,0.0,0.0
giver,just a wee angle it's just,"['q7ec5.g.move.46', 'q7ec5.g.move.47.5']",['clarify'],0.17647058823529413,0.0,0.0,0.0,0.0,0.0
follower,so i'm going up like that then,"['q7ec5.f.move.47', 'q7ec5.f.move.48.5']",['check'],0.6111111111111112,0.09302325581395349,0.0,0.0,0.0,0.0
giver,you are,"['q7ec5.g.move.48', 'q7ec5.g.move.49.5']",['reply_y'],0.2777777777777778,0.0,0.0,0.0,0.0,0.0
follower,you mean five degree fae a horizontal right,"['q7ec5.f.move.49', 'q7ec5.f.move.50.5']",['check'],0.3888888888888889,0.1282051282051282,0.045454545454545456,0.125,0.0,0.0
giver,aye,"['q7ec5.g.move.50', 'q7ec5.g.move.51.5']",['reply_y'],0.16666666666666666,0.0,0.0,0.0,0.0,0.0
follower,right along to the end of the page,"['q7ec5.f.move.51', 'q7ec5.f.move.55.5']",['query_yn'],0.13333333333333333,0.0,0.0,0.0,0.0,0.0
giver,across to get at least two thirds of the way across the page dave,"['q7ec5.g.move.52', 'q7ec5.g.move.55']",['instruct'],0.6842105263157895,0.26785714285714285,0.20588235294117646,0.26666666666666666,0.1111111111111111,0.0
follower,right got you,['q7ec5.f.move.56'],['acknowledge'],0.42105263157894735,0.038461538461538464,0.0,0.0,0.0,0.0
giver,got a granite quarry,['q7ec5.g.move.57'],['query_yn'],0.6153846153846154,0.15384615384615385,0.07407407407407407,0.2,0.0,0.0
follower,nope,['q7ec5.f.move.58'],['reply_n'],0.23076923076923078,0.0,0.0,0.0,0.0,0.0
giver,above,"['q7ec5.g.move.59', 'q7ec5.g.move.60.5']",['query_yn'],0.2857142857142857,0.0,0.0,0.0,0.0,0.0
follower,got privately owned fields,"['q7ec5.f.move.60', 'q7ec5.f.move.61.5']",['explain'],0.2222222222222222,0.0,0.0,0.0,0.0,0.0
giver,no have you got a granite quarry somewhere on the page about in the mi-- mid centre,['q7ec5.g.move.61'],['query_yn'],0.625,0.09876543209876543,0.02040816326530612,0.05555555555555555,0.0,0.0
follower,yes,['q7ec5.f.move.62'],['reply_y'],0.13636363636363635,0.0,0.0,0.0,0.0,0.0
giver,just above centre,['q7ec5.g.move.63'],['check'],0.14285714285714285,0.0,0.0,0.0,0.0,0.0
follower,mmhmm,['q7ec5.f.move.64'],['reply_y'],0.0,0.0,0.0,0.0,0.0,0.0
giver,right you should your line should've gone t-- across and just past it,"['q7ec5.g.move.65', 'q7ec5.g.move.66']","['ready', 'explain']",0.045454545454545456,0.0,0.0,0.0,0.0,0.0
follower,mmhmm,['q7ec5.f.move.67'],['acknowledge'],0.045454545454545456,0.0,0.0,0.0,0.0,0.0
giver,so that you when you go north you start going north you you come up on the right-hand side of it and you curve round over the top of it so in a sort you've got to go up and round,['q7ec5.g.move.68'],['instruct'],0.09090909090909091,0.0,0.0,0.0,0.0,0.0
follower,fish hook,['q7ec5.f.move.69'],['check'],0.2608695652173913,0.012345679012345678,0.0,0.0,0.0,0.0
giver,waterfall have you got a waterfall,"['q7ec5.g.move.70', 'q7ec5.g.move.71.5']",['query_yn'],0.23529411764705882,0.03125,0.0,0.0,0.0,0.0
follower,mmhmm,['q7ec5.f.move.71'],['reply_y'],0.06666666666666667,0.0,0.0,0.0,0.0,0.0
giver,right,['q7ec5.g.move.72'],['acknowledge'],0.16666666666666666,0.0,0.0,0.0,0.0,0.0
follower,mmhmm,['q7ec5.f.move.74'],['acknowledge'],0.16666666666666666,0.0,0.0,0.0,0.0,0.0
giver,t-- and you go just past the waterfall you curve round and go start going north again up past the waterfall to get to the top of the waterfall you go right i mean you go east just past the side of the waterfall,['q7ec5.g.move.75'],['instruct'],0.08695652173913043,0.0,0.0,0.0,0.0,0.0
follower,mmhmm,['q7ec5.f.move.76'],['acknowledge'],0.08695652173913043,0.0,0.0,0.0,0.0,0.0
giver,you go up about two inches so you should be,"['q7ec5.g.move.77', 'q7ec5.g.move.79.5']",['instruct'],0.05263157894736842,0.0,0.0,0.0,0.0,0.0
follower,mmhmm,"['q7ec5.f.move.79', 'q7ec5.f.move.80.5']",['reply_y'],0.05263157894736842,0.0,0.0,0.0,0.0,0.0
giver,the top you should be like at the right to about two inches below them at the right-hand corner of that,"['q7ec5.g.move.80', 'q7ec5.g.move.81.5']",['explain'],0.08695652173913043,0.0,0.0,0.0,0.0,0.0
follower,of the corn field,['q7ec5.f.move.81'],['check'],0.5217391304347826,0.17647058823529413,0.09090909090909091,0.1,0.0,0.0
giver,the left-hand corner,['q7ec5.g.move.82'],['reply_w'],0.7857142857142857,0.25,0.17857142857142858,0.14285714285714285,0.0,0.0
follower,just made a right coo's arse of that one,['q7ec5.f.move.83'],['explain'],0.55,0.1276595744680851,0.01818181818181818,0.0,0.0,0.0
giver,right,['q7ec5.g.move.84'],['acknowledge'],0.2777777777777778,0.11764705882352941,0.07894736842105263,0.125,0.0,0.0
follower,okay we've got the west highland way on this one no tourist,"['q7ec5.f.move.85', 'q7ec5.f.move.86']","['ready', 'explain']",0.2631578947368421,0.06976744186046512,0.01818181818181818,0.0,0.0,0.0
giver,shit,['q7ec5.g.move.87'],['acknowledge'],0.21052631578947367,0.022727272727272728,0.0,0.0,0.0,0.0
follower,this map's got stitches it's excellent,['q7ec5.f.move.90'],['explain'],0.25,0.06060606060606061,0.0,0.0,0.0,0.0
giver,right,['q7ec5.g.move.91'],['ready'],0.23529411764705882,0.0,0.0,0.0,0.0,0.0
follower,this is awful,['q7ec5.f.move.90.9'],['explain'],0.25,0.0,0.0,0.0,0.0,0.0
giver,right you're below the cornfields right,"['q7ec5.g.move.91.9', 'q7ec5.g.move.92']","['ready', 'align']",0.45,0.05,0.0,0.0,0.0,0.0
follower,right,['q7ec5.f.move.93'],['reply_y'],0.2631578947368421,0.125,0.08823529411764706,0.16666666666666666,0.0,0.0
giver,s-- you've got to go down sss-- southeast,"['q7ec5.g.move.94', 'q7ec5.g.move.95.5']",['instruct'],0.16666666666666666,0.0,0.0,0.0,0.0,0.0
follower,yeah,"['q7ec5.f.move.95', 'q7ec5.f.move.97.5']",['acknowledge'],0.25,0.030303030303030304,0.0,0.0,0.0,0.0
giver,to,"['q7ec5.g.move.96', 'q7ec5.g.move.99.5']",['instruct'],0.0,0.0,0.0,0.0,0.0,0.0
follower,that's southw-- aye that's southeast yes,"['q7ec5.f.move.98', 'q7ec5.f.move.102.5']",['reply_y'],0.16666666666666666,0.0,0.0,0.0,0.0,0.0
giver,right,"['q7ec5.g.move.100', 'q7ec5.g.move.103.5']",['acknowledge'],0.13333333333333333,0.0,0.0,0.0,0.0,0.0
follower,right,"['q7ec5.f.move.103', 'q7ec5.f.move.105.5']",['acknowledge'],1.0,1.0,1.0,1.0,0.0,0.0
giver,so you'll avoid lion country,"['q7ec5.g.move.104', 'q7ec5.g.move.108.5']",['instruct'],0.17647058823529413,0.0,0.0,0.0,0.0,0.0
follower,i'll try and miss that i don't fancy being eaten,"['q7ec5.f.move.106', 'q7ec5.f.move.109.5']",['explain'],0.6190476190476191,0.13333333333333333,0.043478260869565216,0.07142857142857142,0.0,0.0
giver,s-- southeast from where you are,"['q7ec5.g.move.109', 'q7ec5.g.move.110.5']",['instruct'],0.5,0.07692307692307693,0.013333333333333334,0.0,0.0,0.0
follower,right down to fallen cairn,['q7ec5.f.move.110'],['check'],0.45,0.04,0.0,0.0,0.0,0.0
giver,down down so you come down on the left-hand side of it and you go round the bottom of it,"['q7ec5.g.move.111', 'q7ec5.g.move.112']","['reply_w', 'instruct']",0.7142857142857143,0.16923076923076924,0.058823529411764705,0.05263157894736842,0.0,0.0
follower,below right,"['q7ec5.f.move.113', 'q7ec5.f.move.115']","['check', 'acknowledge']",0.5238095238095238,0.03333333333333333,0.0,0.0,0.0,0.0
giver,just past and then you go start cutting up,"['q7ec5.g.move.116', 'q7ec5.g.move.117.5']",['instruct'],0.4,0.0,0.0,0.0,0.0,0.0
follower,straight up,['q7ec5.f.move.117'],['check'],0.5882352941176471,0.09302325581395349,0.02127659574468085,0.1,0.0,0.0
giver,right,['q7ec5.g.move.118'],['reply_y'],0.5,0.2727272727272727,0.2,0.0,0.0,0.0
follower,towards the lake,"['q7ec5.f.move.119', 'q7ec5.f.move.121.5']",['check'],0.21428571428571427,0.0,0.0,0.0,0.0,0.0
giver,have you got oh you don't have limestone cliffs do you eh you you start going up sort parallel to the line you just drew round for just a couple of inches,"['q7ec5.g.move.120', 'q7ec5.g.move.121']","['query_yn', 'instruct']",0.4583333333333333,0.08602150537634409,0.030303030303030304,0.038461538461538464,0.0,0.0
follower,right,['q7ec5.f.move.122'],['acknowledge'],0.21739130434782608,0.0,0.0,0.0,0.0,0.0
giver,"then you go ss-- you go north straight up to just below the east lake and you should be up to about about the ""k"" below the k-- ""k"" in lake","['q7ec5.g.move.123', 'q7ec5.g.move.124.5']",['instruct'],0.22727272727272727,0.04225352112676056,0.020618556701030927,0.0,0.0,0.0
follower,mmhmm,['q7ec5.f.move.124'],['acknowledge'],0.043478260869565216,0.0,0.0,0.0,0.0,0.0
giver,and then you skirt the lake along going west just skirt along the lake,['q7ec5.g.move.125'],['instruct'],0.05263157894736842,0.0,0.0,0.0,0.0,0.0
follower,right,['q7ec5.f.move.126'],['acknowledge'],0.2777777777777778,0.0,0.0,0.0,0.0,0.0
giver,and your finish is the bottom the west bottom west corner of east lake it's about an inch to the left of that,"['q7ec5.g.move.127', 'q7ec5.g.move.127.4']",['explain'],0.18181818181818182,0.0,0.0,0.0,0.0,0.0
follower,inch to the left,['q7ec5.f.move.128'],['check'],0.47619047619047616,0.21875,0.16091954022988506,0.2222222222222222,0.13636363636363635,0.09523809523809523
giver,so you just your skirt goes along and reaches there,['q7ec5.g.move.127.9'],['instruct'],0.47368421052631576,0.1,0.034482758620689655,0.0,0.0,0.0
follower,and that's it,['q7ec5.f.move.130'],['query_yn'],0.42105263157894735,0.1276595744680851,0.05555555555555555,0.08333333333333333,0.0,0.0
giver,and that's it,['q7ec5.g.move.131'],['reply_y'],1.0,1.0,1.0,1.0,1.0,1.0
