speaker,sentence,move_id,label,jaccard_sim_char_1_1,jaccard_sim_char_2_2,jaccard_sim_char_3_3,jaccard_sim_word_1_1,jaccard_sim_word_2_2,jaccard_sim_word_3_3
giver,okay laura,"['q7nc5.g.move.1', 'q7nc5.g.move.4.5']",['ready'],,,,,,
follower,yeah okay i've got that,['q7nc5.f.move.3'],['acknowledge'],0.3333333333333333,0.14814814814814814,0.11538461538461539,0.16666666666666666,0.0,0.0
giver,right,['q7nc5.g.move.5'],['acknowledge'],0.3076923076923077,0.0,0.0,0.0,0.0,0.0
giver,and can you pa-- i want you to just go slightly to the left just and skim the side of the site of the forest fire so that you're nearly at the edge of this page,"['q7nc5.g.move.6', 'q7nc5.g.move.8.5']",['instruct'],0.20833333333333334,0.03529411764705882,0.017543859649122806,0.0,0.0,0.0
follower,okay straight left yeah,['q7nc5.f.move.10'],['check'],0.5833333333333334,0.14130434782608695,0.05511811023622047,0.03571428571428571,0.0,0.0
giver,and can y-- uh-huh,"['q7nc5.g.move.9', 'q7nc5.g.move.11']","['instruct', 'reply_y']",0.21052631578947367,0.02857142857142857,0.0,0.0,0.0,0.0
giver,y-- i know there's nothing there but on my map there's a picnic site which you have to try and avoid,"['q7nc5.g.move.11.5', 'q7nc5.g.move.13']",['explain'],0.391304347826087,0.10126582278481013,0.04040404040404041,0.05263157894736842,0.0,0.0
follower,h--,"['q7nc5.f.move.15', 'q7nc5.f.move.15.4']",['uncodable'],0.08695652173913043,0.0136986301369863,0.0,0.0,0.0,0.0
giver,okay,"['q7nc5.g.move.14', 'q7nc5.g.move.16.5']",['align'],0.0,0.0,0.0,0.0,0.0,0.0
follower,right so,"['q7nc5.f.move.15.9', 'q7nc5.f.move.19.5']",['ready'],0.09090909090909091,0.0,0.0,0.0,0.0,0.0
giver,uh-huh,"['q7nc5.g.move.17', 'q7nc5.g.move.20.5']",['reply_y'],0.1,0.0,0.0,0.0,0.0,0.0
follower,an inch above the bottom,['q7nc5.f.move.20'],['check'],0.07142857142857142,0.0,0.0,0.0,0.0,0.0
giver,uh-huh,"['q7nc5.g.move.21', 'q7nc5.g.move.22.5']",['reply_y'],0.07142857142857142,0.0,0.0,0.0,0.0,0.0
follower,okay,['q7nc5.f.move.22'],['acknowledge'],0.0,0.0,0.0,0.0,0.0,0.0
giver,right if that's okay,"['q7nc5.g.move.23', 'q7nc5.g.move.25', 'q7nc5.g.move.27.5']","['acknowledge', 'align']",0.3076923076923077,0.15789473684210525,0.1111111111111111,0.25,0.0,0.0
follower,to my right yeah,['q7nc5.f.move.27'],['check'],0.6,0.1724137931034483,0.14285714285714285,0.14285714285714285,0.0,0.0
giver,mmhmm,['q7nc5.g.move.28'],['reply_y'],0.18181818181818182,0.0,0.0,0.0,0.0,0.0
follower,well obviously,['q7nc5.f.move.29'],['ready'],0.0,0.0,0.0,0.0,0.0,0.0
giver,well,"['q7nc5.g.move.31', 'q7nc5.g.move.33.5']",['ready'],0.2727272727272727,0.23076923076923078,0.16666666666666666,0.5,0.0,0.0
follower,well put one way if i go the other way it's off the page so,['q7nc5.f.move.35'],['explain'],0.16666666666666666,0.075,0.04081632653061224,0.08333333333333333,0.0,0.0
giver,ehm right exactly,"['q7nc5.g.move.34', 'q7nc5.g.move.36']","['uncodable', 'acknowledge']",0.47619047619047616,0.01818181818181818,0.0,0.0,0.0,0.0
follower,okay,['q7nc5.f.move.39'],['reply_y'],0.13333333333333333,0.0,0.0,0.0,0.0,0.0
giver,and then,['q7nc5.g.move.40'],['instruct'],0.1,0.0,0.0,0.0,0.0,0.0
follower,i've got um adventure playground just there yeah,['q7nc5.f.move.41'],['explain'],0.35,0.13953488372093023,0.0625,0.0,0.0,0.0
giver,yeah um,"['q7nc5.g.move.42', 'q7nc5.g.move.43.5']",['acknowledge'],0.35,0.11627906976744186,0.06382978723404255,0.25,0.0,0.0
giver,well just there,"['q7nc5.g.move.44', 'q7nc5.g.move.45']","['ready', 'check']",0.3076923076923077,0.0,0.0,0.0,0.0,0.0
follower,well,['q7nc5.f.move.46'],['ready'],0.3,0.21428571428571427,0.15384615384615385,0.3333333333333333,0.0,0.0
follower,yeah,['q7nc5.f.move.48'],['reply_y'],0.16666666666666666,0.0,0.0,0.0,0.0,0.0
giver,right,"['q7nc5.g.move.50', 'q7nc5.g.move.55.5']",['ready'],0.125,0.0,0.0,0.0,0.0,0.0
follower,look oh right okay,['q7nc5.f.move.54'],['acknowledge'],0.45454545454545453,0.26666666666666666,0.1875,0.25,0.0,0.0
giver,fuck,['q7nc5.g.move.56'],['uncodable'],0.07142857142857142,0.0,0.0,0.0,0.0,0.0
follower,i was wanting for a separate climbing frame,['q7nc5.f.move.55'],['explain'],0.10526315789473684,0.0,0.0,0.0,0.0,0.0
giver,certainly different,['q7nc5.g.move.56.5'],['acknowledge'],0.5263157894736842,0.04,0.0,0.0,0.0,0.0
giver,right so you're sort in the l-- top left-hand corner of the adventure playground of the climbing frame right,"['q7nc5.g.move.56.9', 'q7nc5.g.move.57']",['align'],0.5217391304347826,0.06818181818181818,0.009345794392523364,0.0,0.0,0.0
follower,yeah,['q7nc5.f.move.58'],['reply_y'],0.17391304347826086,0.0,0.0,0.0,0.0,0.0
giver,right,"['q7nc5.g.move.60', 'q7nc5.g.move.63.5']",['ready'],0.125,0.0,0.0,0.0,0.0,0.0
follower,millimetres,"['q7nc5.f.move.62', 'q7nc5.f.move.65.5']",['check'],0.3333333333333333,0.0,0.0,0.0,0.0,0.0
giver,no above the adventure playground,"['q7nc5.g.move.64', 'q7nc5.g.move.65']","['reply_n', 'clarify']",0.21052631578947367,0.02702702702702703,0.0,0.0,0.0,0.0
follower,right okay,"['q7nc5.f.move.66', 'q7nc5.f.move.69.5']",['acknowledge'],0.4444444444444444,0.027777777777777776,0.0,0.0,0.0,0.0
giver,right,"['q7nc5.g.move.68', 'q7nc5.g.move.70.5']",['align'],0.5,0.4444444444444444,0.375,0.5,0.0,0.0
follower,about halfway along the page or just after halfway,"['q7nc5.f.move.70', 'q7nc5.f.move.74.5']",['check'],0.21052631578947367,0.0,0.0,0.0,0.0,0.0
giver,uh-huh,"['q7nc5.g.move.71', 'q7nc5.g.move.75.5']",['reply_y'],0.10526315789473684,0.0,0.0,0.0,0.0,0.0
follower,yeah,"['q7nc5.f.move.75', 'q7nc5.f.move.76.5']",['acknowledge'],0.16666666666666666,0.0,0.0,0.0,0.0,0.0
giver,just,"['q7nc5.g.move.76', 'q7nc5.g.move.77.5']",['uncodable'],0.0,0.0,0.0,0.0,0.0,0.0
follower,to above that,"['q7nc5.f.move.77', 'q7nc5.f.move.78.5']",['query_yn'],0.09090909090909091,0.0,0.0,0.0,0.0,0.0
giver,yeah mmhmm,['q7nc5.g.move.78'],['reply_y'],0.4,0.0,0.0,0.0,0.0,0.0
follower,okay,['q7nc5.f.move.79'],['acknowledge'],0.25,0.0,0.0,0.0,0.0,0.0
giver,right then stop now,"['q7nc5.g.move.80', 'q7nc5.g.move.81', 'q7nc5.g.move.82', 'q7nc5.g.move.84.5']","['ready', 'instruct']",0.06666666666666667,0.0,0.0,0.0,0.0,0.0
follower,above where i am just now i h--,"['q7nc5.f.move.84', 'q7nc5.f.move.85.5']",['explain'],0.5263157894736842,0.15384615384615385,0.046511627906976744,0.125,0.0,0.0
giver,private fields don't you,['q7nc5.g.move.85'],['query_yn'],0.4782608695652174,0.041666666666666664,0.0,0.0,0.0,0.0
follower,uh-huh,"['q7nc5.f.move.86', 'q7nc5.f.move.90.5']",['reply_y'],0.05263157894736842,0.0,0.0,0.0,0.0,0.0
giver,do you,"['q7nc5.g.move.87.5', 'q7nc5.g.move.90']",['query_yn'],0.14285714285714285,0.0,0.0,0.0,0.0,0.0
follower,right yeah,['q7nc5.f.move.91'],['reply_y'],0.16666666666666666,0.07692307692307693,0.0,0.0,0.0,0.0
giver,right what i want you to do is stop there and where you've stopped and go straight up right skimming,"['q7nc5.g.move.92', 'q7nc5.g.move.93']","['ready', 'instruct']",0.45,0.09836065573770492,0.06172839506172839,0.05555555555555555,0.0,0.0
follower,the side of the private fields okay,['q7nc5.f.move.94'],['acknowledge'],0.6363636363636364,0.10256410256410256,0.02830188679245283,0.0,0.0,0.0
giver,and to the right of the granite quarry then i want you to sort to go over the granite quarry in a circle sort half moon,"['q7nc5.g.move.95', 'q7nc5.g.move.96.5']",['instruct'],0.6086956521739131,0.11627906976744186,0.07339449541284404,0.09523809523809523,0.038461538461538464,0.0
follower,towards the left,"['q7nc5.f.move.96', 'q7nc5.f.move.97.5']",['check'],0.5714285714285714,0.10666666666666667,0.030927835051546393,0.05263157894736842,0.0,0.0
giver,towards the left yeah,['q7nc5.g.move.97'],['reply_y'],0.9230769230769231,0.75,0.7368421052631579,0.75,0.6666666666666666,0.5
follower,right half moon,['q7nc5.f.move.98'],['acknowledge'],0.47058823529411764,0.030303030303030304,0.0,0.0,0.0,0.0
follower,does it need to be quite close to the quarry,"['q7nc5.f.move.99', 'q7nc5.f.move.100.5']",['query_yn'],0.45,0.021739130434782608,0.0,0.0,0.0,0.0
giver,quite close yeah,['q7nc5.g.move.100'],['reply_y'],0.7647058823529411,0.2702702702702703,0.23809523809523808,0.2,0.1,0.0
follower,right okay,['q7nc5.f.move.101'],['acknowledge'],0.4375,0.0,0.0,0.0,0.0,0.0
giver,right,"['q7nc5.g.move.102', 'q7nc5.g.move.103.5']",['align'],0.5,0.4444444444444444,0.375,0.5,0.0,0.0
follower,back down again,"['q7nc5.f.move.103', 'q7nc5.f.move.104.5']",['check'],0.14285714285714285,0.0,0.0,0.0,0.0,0.0
giver,it's down for about an inch not too far stop,['q7nc5.g.move.104'],['reply_w'],0.47368421052631576,0.1590909090909091,0.0784313725490196,0.08333333333333333,0.0,0.0
follower,right okay,['q7nc5.f.move.105'],['acknowledge'],0.35,0.022222222222222223,0.0,0.0,0.0,0.0
giver,right now stop there,"['q7nc5.g.move.106', 'q7nc5.g.move.107']","['ready', 'instruct']",0.4666666666666667,0.21739130434782608,0.18181818181818182,0.2,0.0,0.0
follower,stop,"['q7nc5.f.move.108', 'q7nc5.f.move.110.5']",['acknowledge'],0.3333333333333333,0.15789473684210525,0.1111111111111111,0.25,0.0,0.0
follower,yeah,"['q7nc5.f.move.111', 'q7nc5.f.move.112.5']",['acknowledge'],0.0,0.0,0.0,0.0,0.0,0.0
giver,on the left-hand side,['q7nc5.g.move.112'],['explain'],0.21428571428571427,0.0,0.0,0.0,0.0,0.0
follower,mmhmm,['q7nc5.f.move.113'],['acknowledge'],0.07142857142857142,0.0,0.0,0.0,0.0,0.0
giver,right and,"['q7nc5.g.move.114', 'q7nc5.g.move.117.5']",['ready'],0.1,0.0,0.0,0.0,0.0,0.0
follower,n-- no the train crossing's quite a bit above the waterfall,"['q7nc5.f.move.116', 'q7nc5.f.move.117']","['reply_n', 'reply_w']",0.36363636363636365,0.03773584905660377,0.01694915254237288,0.0,0.0,0.0
giver,right,"['q7nc5.g.move.118', 'q7nc5.g.move.119.5']",['acknowledge'],0.23809523809523808,0.0,0.0,0.0,0.0,0.0
giver,i've got that one as well but there's ac-- also one below the waterfall,['q7nc5.g.move.120'],['explain'],0.25,0.0,0.0,0.0,0.0,0.0
follower,all right,"['q7nc5.f.move.121', 'q7nc5.f.move.125.5']",['acknowledge'],0.4,0.057692307692307696,0.029850746268656716,0.0,0.0,0.0
follower,right the granite quarry,"['q7nc5.f.move.126', 'q7nc5.f.move.127.5']",['acknowledge'],0.5384615384615384,0.15384615384615385,0.11538461538461539,0.2,0.0,0.0
giver,go to the left and sort go under the waterfall about an inch below the waterfall,"['q7nc5.g.move.127', 'q7nc5.g.move.128.5']",['instruct'],0.5,0.12307692307692308,0.038461538461538464,0.06666666666666667,0.0,0.0
follower,in a curve or just straight,"['q7nc5.f.move.128', 'q7nc5.f.move.130.5']",['query_w'],0.65,0.11764705882352941,0.0,0.0,0.0,0.0
giver,sort in a slight curve,"['q7nc5.g.move.129', 'q7nc5.g.move.133.5']",['reply_w'],0.875,0.5,0.25,0.2857142857142857,0.0,0.0
follower,past oh right okay,"['q7nc5.f.move.131', 'q7nc5.f.move.134.5']",['acknowledge'],0.5,0.12903225806451613,0.09375,0.0,0.0,0.0
giver,and can you sort of stop just above the waterfall,"['q7nc5.g.move.134', 'q7nc5.g.move.135.5']",['instruct'],0.391304347826087,0.05454545454545454,0.03333333333333333,0.0,0.0,0.0
follower,yeah that's where i stopped so,['q7nc5.f.move.135'],['explain'],0.5454545454545454,0.22413793103448276,0.07142857142857142,0.0,0.0,0.0
giver,and right right,['q7nc5.g.move.136'],['acknowledge'],0.4375,0.027777777777777776,0.0,0.0,0.0,0.0
giver,just sort of alo-- skim along the top of the waterfall for an inch,"['q7nc5.g.move.137.5', 'q7nc5.g.move.140']",['instruct'],0.36363636363636365,0.03571428571428571,0.0,0.0,0.0,0.0
follower,right i've done that,['q7nc5.f.move.141'],['acknowledge'],0.4166666666666667,0.11666666666666667,0.0273972602739726,0.0,0.0,0.0
giver,and then up for an inch and a half,"['q7nc5.g.move.143', 'q7nc5.g.move.145.5']",['instruct'],0.5555555555555556,0.1,0.021739130434782608,0.0,0.0,0.0
follower,right,"['q7nc5.f.move.144', 'q7nc5.f.move.146.5']",['ready'],0.25,0.0,0.0,0.0,0.0,0.0
giver,oh my god what's the public footpath like is it,['q7nc5.g.move.146'],['query_w'],0.18181818181818182,0.0,0.0,0.0,0.0,0.0
follower,it just says public footpath and there's just like a little sign with a little man walking on it,['q7nc5.f.move.147'],['reply_w'],0.875,0.3972602739726027,0.23,0.2,0.041666666666666664,0.0
giver,right can you sort dodge,"['q7nc5.g.move.148', 'q7nc5.g.move.149']","['ready', 'instruct']",0.625,0.0625,0.010101010101010102,0.0,0.0,0.0
follower,it's just sort,"['q7nc5.f.move.150', 'q7nc5.f.move.151.5']",['explain'],0.4117647058823529,0.16666666666666666,0.0967741935483871,0.14285714285714285,0.0,0.0
follower,have you got the lion country,"['q7nc5.f.move.152', 'q7nc5.f.move.153.5']",['query_yn'],0.3333333333333333,0.02631578947368421,0.0,0.0,0.0,0.0
giver,no,['q7nc5.g.move.153'],['reply_n'],0.13333333333333333,0.0,0.0,0.0,0.0,0.0
follower,well,['q7nc5.f.move.154'],['ready'],0.0,0.0,0.0,0.0,0.0,0.0
giver,ah this is stu-- right,"['q7nc5.g.move.155', 'q7nc5.g.move.157.5']",['explain'],0.0,0.0,0.0,0.0,0.0,0.0
follower,right okay,"['q7nc5.f.move.156', 'q7nc5.f.move.159.5']",['ready'],0.5384615384615384,0.16666666666666666,0.125,0.16666666666666666,0.0,0.0
giver,right like you're supposed to go straight up for about an inch,"['q7nc5.g.move.158', 'q7nc5.g.move.161']","['ready', 'instruct']",0.47619047619047616,0.09259259259259259,0.06557377049180328,0.07142857142857142,0.0,0.0
follower,right right,"['q7nc5.f.move.160', 'q7nc5.f.move.162']","['reply_y', 'acknowledge']",0.2857142857142857,0.09803921568627451,0.06779661016949153,0.07692307692307693,0.0,0.0
follower,well i can do it i can go up to the side of the wa--,"['q7nc5.f.move.164', 'q7nc5.f.move.165']","['reply_y', 'reply_w']",0.2631578947368421,0.024390243902439025,0.0,0.0,0.0,0.0
giver,and right okay,"['q7nc5.g.move.166', 'q7nc5.g.move.168']","['ready', 'acknowledge']",0.42857142857142855,0.06521739130434782,0.0,0.0,0.0,0.0
follower,well i'm a few inches below it yeah,['q7nc5.f.move.170'],['reply_y'],0.38095238095238093,0.023809523809523808,0.0,0.0,0.0,0.0
giver,okay just,['q7nc5.g.move.171'],['acknowledge'],0.3,0.0,0.0,0.0,0.0,0.0
follower,do you want me to go right up to the cornfields here,"['q7nc5.f.move.172', 'q7nc5.f.move.174.5']",['check'],0.3181818181818182,0.0,0.0,0.0,0.0,0.0
giver,no no about an inch below the cornfields,"['q7nc5.g.move.173', 'q7nc5.g.move.174']","['reply_n', 'clarify']",0.7619047619047619,0.3050847457627119,0.18055555555555555,0.125,0.058823529411764705,0.0
follower,right okay,"['q7nc5.f.move.175', 'q7nc5.f.move.183.5']",['acknowledge'],0.35,0.023255813953488372,0.0,0.0,0.0,0.0
giver,stop now,"['q7nc5.g.move.176.5', 'q7nc5.g.move.178', 'q7nc5.g.move.179', 'q7nc5.g.move.184.5']","['instruct', 'ready']",0.21428571428571427,0.0,0.0,0.0,0.0,0.0
follower,the sorry what can i see,"['q7nc5.f.move.184', 'q7nc5.f.move.185.5']",['query_w'],0.42857142857142855,0.0,0.0,0.0,0.0,0.0
giver,the granite quarry,"['q7nc5.g.move.185', 'q7nc5.g.move.186.5']",['reply_w'],0.5625,0.1875,0.08571428571428572,0.14285714285714285,0.0,0.0
follower,away down the bottom again where we started u--,"['q7nc5.f.move.186', 'q7nc5.f.move.190.5']",['check'],0.5789473684210527,0.09615384615384616,0.03389830508474576,0.1,0.0,0.0
giver,don't don't don't move it can you just see it,"['q7nc5.g.move.187', 'q7nc5.g.move.190']","['instruct', 'align']",0.5454545454545454,0.09523809523809523,0.013333333333333334,0.0,0.0,0.0
follower,yeah,['q7nc5.f.move.191'],['reply_y'],0.17647058823529413,0.0,0.0,0.0,0.0,0.0
giver,to the right of that have you got a fall-- a fallen cairn,['q7nc5.g.move.192'],['query_yn'],0.23529411764705882,0.0,0.0,0.0,0.0,0.0
follower,fallen cairn yeah,['q7nc5.f.move.195'],['reply_y'],0.6470588235294118,0.2553191489361702,0.18518518518518517,0.16666666666666666,0.09090909090909091,0.0
giver,right,"['q7nc5.g.move.196', 'q7nc5.g.move.198.5']",['ready'],0.23076923076923078,0.0,0.0,0.0,0.0,0.0
follower,so i'm basically going from where i am underneath the fallen cairn like,['q7nc5.f.move.198'],['check'],0.22727272727272727,0.0,0.0,0.0,0.0,0.0
giver,the fallen cairn mmhmm,"['q7nc5.g.move.199', 'q7nc5.g.move.201']","['clarify', 'reply_y']",0.5454545454545454,0.2459016393442623,0.2054794520547945,0.25,0.18181818181818182,0.1
follower,sort right okay,['q7nc5.f.move.202'],['acknowledge'],0.35294117647058826,0.0,0.0,0.0,0.0,0.0
giver,and up towards the right-hand side of the fallen cairn,"['q7nc5.g.move.203', 'q7nc5.g.move.204.5']",['instruct'],0.42857142857142855,0.11764705882352941,0.07142857142857142,0.08333333333333333,0.0,0.0
follower,right,['q7nc5.f.move.204'],['acknowledge'],0.2631578947368421,0.09090909090909091,0.06382978723404255,0.1,0.0,0.0
giver,right,['q7nc5.g.move.205'],['acknowledge'],1.0,1.0,1.0,1.0,0.0,0.0
follower,far above it or what,"['q7nc5.f.move.206', 'q7nc5.f.move.207.5']",['query_w'],0.3076923076923077,0.0,0.0,0.0,0.0,0.0
giver,um go up about an inch above it,['q7nc5.g.move.207'],['reply_w'],0.5,0.2647058823529412,0.18421052631578946,0.18181818181818182,0.1,0.0
follower,right okay,['q7nc5.f.move.208'],['acknowledge'],0.3888888888888889,0.030303030303030304,0.0,0.0,0.0,0.0
giver,and sort start going to your left now above this fallen cairn you should have some limestone cliffs,"['q7nc5.g.move.209', 'q7nc5.g.move.210', 'q7nc5.g.move.211']","['instruct', 'ready', 'align']",0.4090909090909091,0.012345679012345678,0.0,0.0,0.0,0.0
follower,nope,['q7nc5.f.move.212'],['reply_n'],0.13636363636363635,0.013333333333333334,0.0,0.0,0.0,0.0
follower,i've got lion country,['q7nc5.f.move.213'],['explain'],0.2,0.0,0.0,0.0,0.0,0.0
giver,right oh nightmare,['q7nc5.g.move.214'],['acknowledge'],0.47058823529411764,0.030303030303030304,0.0,0.0,0.0,0.0
follower,how far above the fallen cairn is the limestone,['q7nc5.f.move.215'],['query_w'],0.5555555555555556,0.0196078431372549,0.0,0.0,0.0,0.0
giver,two two inches ten about ten centimetres two inches,['q7nc5.g.move.216'],['reply_w'],0.7777777777777778,0.24074074074074073,0.08823529411764706,0.0,0.0,0.0
follower,well that's practically where my lion country is,['q7nc5.f.move.217'],['explain'],0.7368421052631579,0.1774193548387097,0.01282051282051282,0.0,0.0,0.0
giver,right okay,"['q7nc5.g.move.218', 'q7nc5.g.move.219.5']",['acknowledge'],0.4,0.0,0.0,0.0,0.0,0.0
giver,can you skim along the left-hand side of the lion country then and just come up to the bottom of the east lake,"['q7nc5.g.move.220', 'q7nc5.g.move.221.5']",['instruct'],0.43478260869565216,0.02631578947368421,0.0,0.0,0.0,0.0
follower,along the left-hand side back out to left and then up to the lake yeah,"['q7nc5.f.move.221', 'q7nc5.f.move.226.5']",['check'],0.8695652173913043,0.5263157894736842,0.3333333333333333,0.43478260869565216,0.1935483870967742,0.125
giver,just,"['q7nc5.g.move.222', 'q7nc5.g.move.227.5']",['ready'],0.14285714285714285,0.0,0.0,0.0,0.0,0.0
follower,right okay,"['q7nc5.f.move.227', 'q7nc5.f.move.228.5']",['acknowledge'],0.07692307692307693,0.0,0.0,0.0,0.0,0.0
giver,straight up,"['q7nc5.g.move.228', 'q7nc5.g.move.230.1']",['clarify'],0.5384615384615384,0.26666666666666666,0.21428571428571427,0.0,0.0,0.0
follower,straight up to the lake,['q7nc5.f.move.229'],['acknowledge'],0.7142857142857143,0.47619047619047616,0.42857142857142855,0.4,0.25,0.0
giver,and then you haven't got a finish cross have you no alright then,"['q7nc5.g.move.230.2', 'q7nc5.g.move.230.9']","['ready', 'query_yn']",0.5714285714285714,0.15254237288135594,0.07246376811594203,0.0,0.0,0.0
follower,no i don't,['q7nc5.f.move.231'],['reply_n'],0.3684210526315789,0.07692307692307693,0.03389830508474576,0.09090909090909091,0.0,0.0
giver,skim along the bottom of the lake towards the left and,['q7nc5.g.move.232'],['instruct'],0.3157894736842105,0.02127659574468085,0.0,0.0,0.0,0.0
follower,towards sorry should i have gone from the fallen cairn to the right-hand side of the east lake,"['q7nc5.f.move.233', 'q7nc5.f.move.237.5']",['query_yn'],0.7391304347826086,0.2988505747126437,0.16071428571428573,0.19047619047619047,0.038461538461538464,0.0
giver,no no,"['q7nc5.g.move.234', 'q7nc5.g.move.238.5']",['reply_n'],0.13636363636363635,0.013157894736842105,0.0,0.0,0.0,0.0
follower,oh right okay,"['q7nc5.f.move.238', 'q7nc5.f.move.240.5']",['acknowledge'],0.18181818181818182,0.0,0.0,0.0,0.0,0.0
giver,at the bottom and then skim along to the left,"['q7nc5.g.move.239', 'q7nc5.g.move.240']","['explain', 'clarify']",0.4444444444444444,0.022727272727272728,0.0,0.0,0.0,0.0
follower,right,['q7nc5.f.move.241'],['acknowledge'],0.23529411764705882,0.0,0.0,0.0,0.0,0.0
giver,and,"['q7nc5.g.move.242', 'q7nc5.g.move.244.5']",['ready'],0.0,0.0,0.0,0.0,0.0,0.0
follower,i've got cornfields,"['q7nc5.f.move.244', 'q7nc5.f.move.245.5']",['explain'],0.125,0.0,0.0,0.0,0.0,0.0
giver,and in the cornfields and the east lake ehm can you put your cross that's the finish,"['q7nc5.g.move.245', 'q7nc5.g.move.246.5']",['instruct'],0.5909090909090909,0.1935483870967742,0.11688311688311688,0.0625,0.0,0.0
follower,in there,"['q7nc5.f.move.246', 'q7nc5.f.move.248.5']",['check'],0.35,0.08620689655172414,0.056338028169014086,0.06666666666666667,0.0,0.0
giver,right,"['q7nc5.g.move.247', 'q7nc5.g.move.249.5']",['reply_y'],0.5,0.0,0.0,0.0,0.0,0.0
follower,so that's it,['q7nc5.f.move.249'],['check'],0.3,0.0,0.0,0.0,0.0,0.0
giver,stop that's it,['q7nc5.g.move.250'],['reply_y'],0.8888888888888888,0.6,0.5714285714285714,0.5,0.3333333333333333,0.0
