speaker,sentence,move_id,label,jaccard_sim_char_1_1,jaccard_sim_char_2_2,jaccard_sim_char_3_3,jaccard_sim_word_1_1,jaccard_sim_word_2_2,jaccard_sim_word_3_3
giver,okay have you found can you go to the start c-- ehm position please,"['q7nc3.g.move.1', 'q7nc3.g.move.2']","['ready', 'instruct']",,,,,,
follower,mm,"['q7nc3.f.move.3', 'q7nc3.f.move.5.5']",['acknowledge'],0.045454545454545456,0.0,0.0,0.0,0.0,0.0
giver,there's a black cross,['q7nc3.g.move.5'],['explain'],0.0,0.0,0.0,0.0,0.0,0.0
follower,yeah,['q7nc3.f.move.6'],['acknowledge'],0.21428571428571427,0.0,0.0,0.0,0.0,0.0
giver,right just below the start position there should be the site of a forest fire,"['q7nc3.g.move.7', 'q7nc3.g.move.8.5']",['explain'],0.15,0.0,0.0,0.0,0.0,0.0
follower,mm,"['q7nc3.f.move.8', 'q7nc3.f.move.9.5']",['acknowledge'],0.0,0.0,0.0,0.0,0.0,0.0
giver,have you got that,['q7nc3.g.move.9'],['query_yn'],0.0,0.0,0.0,0.0,0.0,0.0
follower,yeah,['q7nc3.f.move.10'],['reply_y'],0.4,0.0,0.0,0.0,0.0,0.0
giver,if you could start from the black cross and go slightly to the left and then straight down ehm past the s-- to the side of the left-hand side of the forest fire the site of forest fire and keep going sort down very near to the edge of the page until you come to a picnic site,"['q7nc3.g.move.11', 'q7nc3.g.move.15.5']",['instruct'],0.16666666666666666,0.007936507936507936,0.0,0.0,0.0,0.0
follower,no i don't have that,"['q7nc3.f.move.13', 'q7nc3.f.move.16.5']",['reply_n'],0.4,0.06766917293233082,0.015873015873015872,0.0,0.0,0.0
giver,mm have you got an adventure playground,"['q7nc3.g.move.16', 'q7nc3.g.move.18.5']",['query_yn'],0.5,0.13043478260869565,0.0784313725490196,0.1,0.0,0.0
follower,yeah,"['q7nc3.f.move.17', 'q7nc3.f.move.20.5']",['reply_y'],0.25,0.0,0.0,0.0,0.0,0.0
giver,right okay,"['q7nc3.g.move.19', 'q7nc3.g.move.21.5']",['ready'],0.2727272727272727,0.0,0.0,0.0,0.0,0.0
follower,okay,"['q7nc3.f.move.21', 'q7nc3.f.move.22.5']",['acknowledge'],0.4,0.3333333333333333,0.25,0.5,0.0,0.0
giver,jus-- could you go down from maybe the bottom you're still on the very very left-hand side of the page could you go down from the the writing that says site of forest fire,"['q7nc3.g.move.22', 'q7nc3.g.move.23.5']",['instruct'],0.11538461538461539,0.010526315789473684,0.0,0.0,0.0,0.0
follower,yeah,"['q7nc3.f.move.23', 'q7nc3.f.move.24.5']",['acknowledge'],0.16,0.0,0.0,0.0,0.0,0.0
giver,down about four inches on the side of the page just continue your path,"['q7nc3.g.move.24', 'q7nc3.g.move.25.5']",['instruct'],0.2,0.0,0.0,0.0,0.0,0.0
follower,okay,['q7nc3.f.move.25'],['acknowledge'],0.14285714285714285,0.0,0.0,0.0,0.0,0.0
giver,okay,['q7nc3.g.move.26'],['align'],1.0,1.0,1.0,1.0,0.0,0.0
follower,okay,['q7nc3.f.move.29'],['acknowledge'],1.0,1.0,1.0,1.0,0.0,0.0
giver,and turn turn to the right hand side and go along maybe for about two inches just horizontally,['q7nc3.g.move.30'],['instruct'],0.13043478260869565,0.014925373134328358,0.0,0.0,0.0,0.0
follower,okay okay,"['q7nc3.f.move.31', 'q7nc3.f.move.33']",['acknowledge'],0.17391304347826086,0.014492753623188406,0.0,0.0,0.0,0.0
giver,and then i'd like you to turn upwards to the direction of the adventure playground,"['q7nc3.g.move.34', 'q7nc3.g.move.37.5']",['instruct'],0.22727272727272727,0.03278688524590164,0.0,0.0,0.0,0.0
follower,okay,"['q7nc3.f.move.35', 'q7nc3.f.move.38.5']",['acknowledge'],0.18181818181818182,0.016666666666666666,0.0,0.0,0.0,0.0
giver,okay put and then just sort skim along the edge of the adventure playground,"['q7nc3.g.move.38', 'q7nc3.g.move.39.5']",['instruct'],0.19047619047619047,0.05357142857142857,0.029850746268656716,0.07692307692307693,0.0,0.0
follower,okay,"['q7nc3.f.move.39', 'q7nc3.f.move.40.5']",['acknowledge'],0.19047619047619047,0.05357142857142857,0.029850746268656716,0.07692307692307693,0.0,0.0
giver,and you should see there's a sort climbing frame,"['q7nc3.g.move.40', 'q7nc3.g.move.41.5']",['explain'],0.14285714285714285,0.0,0.0,0.0,0.0,0.0
follower,mm,"['q7nc3.f.move.41', 'q7nc3.f.move.42.5']",['acknowledge'],0.05,0.0,0.0,0.0,0.0,0.0
giver,c-- come up to the top of the climbing frame and then turn right,"['q7nc3.g.move.42', 'q7nc3.g.move.45.5']",['instruct'],0.05263157894736842,0.0,0.0,0.0,0.0,0.0
follower,okay okay,"['q7nc3.f.move.43', 'q7nc3.f.move.45']",['acknowledge'],0.14285714285714285,0.02,0.0,0.0,0.0,0.0
giver,right okay,['q7nc3.g.move.46'],['acknowledge'],0.5,0.4,0.3,0.5,0.0,0.0
follower,okay,"['q7nc3.f.move.48', 'q7nc3.f.move.49.5']",['acknowledge'],0.4,0.3333333333333333,0.25,0.5,0.0,0.0
giver,you should have above you a granite quarry,"['q7nc3.g.move.49', 'q7nc3.g.move.50.5']",['explain'],0.15789473684210525,0.0,0.0,0.0,0.0,0.0
follower,okay w--,"['q7nc3.f.move.50', 'q7nc3.f.move.51.5']",['acknowledge'],0.19047619047619047,0.0,0.0,0.0,0.0,0.0
giver,have you got this granite quarry,"['q7nc3.g.move.51', 'q7nc3.g.move.53.5']",['query_yn'],0.2222222222222222,0.0,0.0,0.0,0.0,0.0
follower,yeah,"['q7nc3.f.move.52', 'q7nc3.f.move.54.5']",['reply_y'],0.26666666666666666,0.0,0.0,0.0,0.0,0.0
giver,yeah so that's okay it's supposed to be you're sort you're horizon-- you're level with the adventure playground but you have to right wait a minute go along about six inches from the adventure playground and then directly up,"['q7nc3.g.move.54', 'q7nc3.g.move.56', 'q7nc3.g.move.57.5']","['acknowledge', 'instruct']",0.14814814814814814,0.025210084033613446,0.011695906432748537,0.03125,0.0,0.0
follower,okay,"['q7nc3.f.move.55', 'q7nc3.f.move.58.5']",['acknowledge'],0.14814814814814814,0.025210084033613446,0.011695906432748537,0.03125,0.0,0.0
giver,towards towards the granite quarry,['q7nc3.g.move.58'],['instruct'],0.17647058823529413,0.0,0.0,0.0,0.0,0.0
follower,okay,['q7nc3.f.move.59'],['acknowledge'],0.17647058823529413,0.0,0.0,0.0,0.0,0.0
giver,and sort turn right wait a minute you just sort the right-hand side of the granite quarry can you go right up above the granite quarry,"['q7nc3.g.move.60', 'q7nc3.g.move.61.5']",['instruct'],0.12,0.0,0.0,0.0,0.0,0.0
follower,yeah,"['q7nc3.f.move.61', 'q7nc3.f.move.63.5']",['acknowledge'],0.16666666666666666,0.0,0.0,0.0,0.0,0.0
giver,and then back down again i don't have you got any obstacles in your way,"['q7nc3.g.move.62', 'q7nc3.g.move.63', 'q7nc3.g.move.64.5']","['instruct', 'query_yn']",0.19047619047619047,0.0,0.0,0.0,0.0,0.0
follower,ah right like directly diagonal from the adventure playground i've privately owned fields about four inches under the granite quarry,"['q7nc3.f.move.64', 'q7nc3.f.move.66.5']",['reply_w'],0.84,0.224,0.056179775280898875,0.0,0.0,0.0
giver,mmhmm mmhmm,"['q7nc3.g.move.65', 'q7nc3.g.move.67.5']",['acknowledge'],0.12,0.009900990099009901,0.0,0.0,0.0,0.0
follower,no,['q7nc3.f.move.67'],['reply_n'],0.0,0.0,0.0,0.0,0.0,0.0
giver,okay right so,"['q7nc3.g.move.68', 'q7nc3.g.move.69', 'q7nc3.g.move.71.5']","['acknowledge', 'ready']",0.08333333333333333,0.0,0.0,0.0,0.0,0.0
follower,okay,['q7nc3.f.move.71'],['acknowledge'],0.36363636363636365,0.25,0.18181818181818182,0.3333333333333333,0.0,0.0
giver,you should come to a train crossing,['q7nc3.g.move.72'],['explain'],0.16666666666666666,0.0,0.0,0.0,0.0,0.0
follower,ah yeah but it's up on the far left of my paper so,"['q7nc3.f.move.74', 'q7nc3.f.move.75']","['reply_y', 'explain']",0.6666666666666666,0.05714285714285714,0.0,0.0,0.0,0.0
giver,oh oh right,"['q7nc3.g.move.76', 'q7nc3.g.move.78']",['acknowledge'],0.3157894736842105,0.04,0.0,0.0,0.0,0.0
giver,there's t-- actually two on mine so if you uh you should have a granite quarry and then a waterfall well that's what i've got on my map,"['q7nc3.g.move.79', 'q7nc3.g.move.81.5']",['explain'],0.2916666666666667,0.02197802197802198,0.0,0.0,0.0,0.0
follower,yeah i have a waterfall to the left of the granite quarry,"['q7nc3.f.move.80', 'q7nc3.f.move.81']","['acknowledge', 'explain']",0.7083333333333334,0.4,0.24817518248175183,0.14285714285714285,0.03125,0.0
giver,yeah but on this map there's a train crossing,"['q7nc3.g.move.82', 'q7nc3.g.move.84']","['acknowledge', 'explain']",0.5217391304347826,0.1780821917808219,0.08045977011494253,0.0625,0.0,0.0
giver,so if you could come down you go up above the granite quarry and then back down again but not too far,"['q7nc3.g.move.85', 'q7nc3.g.move.87.5']",['instruct'],0.68,0.15053763440860216,0.056910569105691054,0.037037037037037035,0.0,0.0
follower,okay,['q7nc3.f.move.87'],['acknowledge'],0.16666666666666666,0.0,0.0,0.0,0.0,0.0
giver,so if you keep going along just about half an inch below the waterfall and right up to the left han-- no,"['q7nc3.g.move.88', 'q7nc3.g.move.90.5']",['instruct'],0.17391304347826086,0.0,0.0,0.0,0.0,0.0
follower,right what i did at the top of the granite quarry was i made a right,"['q7nc3.f.move.89', 'q7nc3.f.move.90', 'q7nc3.f.move.93.5']","['ready', 'explain']",0.68,0.22330097087378642,0.06993006993006994,0.06666666666666667,0.0,0.0
giver,mmhmm,"['q7nc3.g.move.91', 'q7nc3.g.move.95.5']",['acknowledge'],0.10526315789473684,0.0,0.0,0.0,0.0,0.0
follower,for around two inches,"['q7nc3.f.move.94', 'q7nc3.f.move.96.5']",['explain'],0.0625,0.0,0.0,0.0,0.0,0.0
giver,you should have gone to the left,"['q7nc3.g.move.96', 'q7nc3.g.move.97.5']",['reply_w'],0.5789473684210527,0.11904761904761904,0.0,0.0,0.0,0.0
follower,okay,"['q7nc3.f.move.97', 'q7nc3.f.move.98.5']",['acknowledge'],0.1875,0.0,0.0,0.0,0.0,0.0
giver,sorry towards the waterfall sorry,"['q7nc3.g.move.98', 'q7nc3.g.move.101.5']",['reply_w'],0.21428571428571427,0.0,0.0,0.0,0.0,0.0
follower,that's okay,"['q7nc3.f.move.99', 'q7nc3.f.move.102.5']",['acknowledge'],0.4666666666666667,0.09090909090909091,0.0,0.0,0.0,0.0
giver,about couple of about half a centimetre,"['q7nc3.g.move.102', 'q7nc3.g.move.103.5']",['reply_w'],0.25,0.05405405405405406,0.0,0.0,0.0,0.0
follower,and then go left,"['q7nc3.f.move.103', 'q7nc3.f.move.106.5']",['check'],0.5,0.047619047619047616,0.0,0.0,0.0,0.0
giver,yeah,"['q7nc3.g.move.104', 'q7nc3.g.move.107.5']",['reply_y'],0.25,0.0,0.0,0.0,0.0,0.0
follower,do you okay keep below it,"['q7nc3.f.move.107', 'q7nc3.f.move.109.5']",['check'],0.2,0.0,0.0,0.0,0.0,0.0
giver,mmhmm,"['q7nc3.g.move.108', 'q7nc3.g.move.110.5']",['reply_y'],0.0,0.0,0.0,0.0,0.0,0.0
follower,okay,['q7nc3.f.move.110'],['acknowledge'],0.0,0.0,0.0,0.0,0.0,0.0
giver,"and then if you go up to the ""w"" of the waterfall and then straight up just about couple of centime-- no a centimetre a-- away f-- to the left of wa-- the ""w"" of waterfall straight up to the top of the waterfall","['q7nc3.g.move.111', 'q7nc3.g.move.112.5']",['instruct'],0.12,0.011904761904761904,0.0,0.0,0.0,0.0
follower,okay i see,['q7nc3.f.move.112'],['acknowledge'],0.28,0.04597701149425287,0.007936507936507936,0.0,0.0,0.0
giver,and when you get to the top of the waterfall oh you should just go up above the waterfall about five centimetres two inches,"['q7nc3.g.move.113', 'q7nc3.g.move.114.5']",['instruct'],0.2916666666666667,0.024691358024691357,0.0,0.0,0.0,0.0
follower,okay,"['q7nc3.f.move.114', 'q7nc3.f.move.115.5']",['acknowledge'],0.125,0.0,0.0,0.0,0.0,0.0
giver,and you should be n-- n-- you should be near to the train crossing in,"['q7nc3.g.move.115', 'q7nc3.g.move.116.5']",['explain'],0.15789473684210525,0.0,0.0,0.0,0.0,0.0
follower,mm,"['q7nc3.f.move.116', 'q7nc3.f.move.117.5']",['acknowledge'],0.0,0.0,0.0,0.0,0.0,0.0
giver,and cornfields,"['q7nc3.g.move.117', 'q7nc3.g.move.118.5']",['explain'],0.0,0.0,0.0,0.0,0.0,0.0
follower,yeah,['q7nc3.f.move.118'],['acknowledge'],0.14285714285714285,0.0,0.0,0.0,0.0,0.0
giver,but don't just stay where you are just now now if you go to the,"['q7nc3.g.move.119', 'q7nc3.g.move.120', 'q7nc3.g.move.122.5']",['instruct'],0.21052631578947367,0.0,0.0,0.0,0.0,0.0
follower,yeah,"['q7nc3.f.move.122', 'q7nc3.f.move.123.5']",['acknowledge'],0.21052631578947367,0.0,0.0,0.0,0.0,0.0
giver,i want you to go wh-- from where you are to just below the fallen cairn t--,"['q7nc3.g.move.123', 'q7nc3.g.move.124.5']",['instruct'],0.19047619047619047,0.0,0.0,0.0,0.0,0.0
follower,okay,"['q7nc3.f.move.124', 'q7nc3.f.move.125.5']",['acknowledge'],0.13636363636363635,0.0,0.0,0.0,0.0,0.0
giver,just go past underneath it though,['q7nc3.g.move.125'],['instruct'],0.11764705882352941,0.0,0.0,0.0,0.0,0.0
follower,okay,['q7nc3.f.move.126'],['acknowledge'],0.11764705882352941,0.0,0.0,0.0,0.0,0.0
giver,and then once you-- once you're past it can you turn back up to the left past and go up up the way towards the limestone cliffs keeping on the left-hand side of the limestone cliffs,"['q7nc3.g.move.127', 'q7nc3.g.move.130.5']",['instruct'],0.16666666666666666,0.011235955056179775,0.0,0.0,0.0,0.0
follower,should i after the fallen cairns,['q7nc3.f.move.128'],['check'],0.625,0.14563106796116504,0.034482758620689655,0.03571428571428571,0.0,0.0
giver,uh-huh,"['q7nc3.g.move.131', 'q7nc3.g.move.132.5']",['acknowledge'],0.125,0.0,0.0,0.0,0.0,0.0
follower,should i just be going up straight,"['q7nc3.f.move.132', 'q7nc3.f.move.133.5']",['check'],0.1111111111111111,0.0,0.0,0.0,0.0,0.0
giver,erm sort veer veer a bit to the left,"['q7nc3.g.move.133', 'q7nc3.g.move.135.5']",['clarify'],0.55,0.07272727272727272,0.0,0.0,0.0,0.0
follower,okay,"['q7nc3.f.move.134', 'q7nc3.f.move.136.5']",['acknowledge'],0.125,0.0,0.0,0.0,0.0,0.0
giver,k--,"['q7nc3.g.move.136', 'q7nc3.g.move.137.5']",['uncodable'],0.2,0.0,0.0,0.0,0.0,0.0
follower,okay,"['q7nc3.f.move.137', 'q7nc3.f.move.138.5']",['acknowledge'],0.2,0.0,0.0,0.0,0.0,0.0
giver,and have you got limestone cliffs,"['q7nc3.g.move.138', 'q7nc3.g.move.141.5']",['query_yn'],0.15789473684210525,0.0,0.0,0.0,0.0,0.0
follower,no,"['q7nc3.f.move.139', 'q7nc3.f.move.142.5']",['reply_n'],0.1111111111111111,0.0,0.0,0.0,0.0,0.0
giver,no i don't have lion c--,"['q7nc3.g.move.142', 'q7nc3.g.move.145.5']",['reply_n'],0.14285714285714285,0.045454545454545456,0.0,0.25,0.0,0.0
follower,i think that's i-- it's tha-- is where,"['q7nc3.f.move.143', 'q7nc3.f.move.148.5']",['explain'],0.5,0.09523809523809523,0.0,0.0,0.0,0.0
giver,okay well sort keep to the left of the lion country and keep going up the way for about from the fallen cairn oh no about five centimetres just keep going up past the lion country,"['q7nc3.g.move.146', 'q7nc3.g.move.148']","['acknowledge', 'instruct']",0.4230769230769231,0.0625,0.006578947368421052,0.0,0.0,0.0
follower,okay,['q7nc3.f.move.149'],['acknowledge'],0.16666666666666666,0.031578947368421054,0.016129032258064516,0.04,0.0,0.0
giver,and you should come to an east lake,['q7nc3.g.move.150'],['explain'],0.26666666666666666,0.0,0.0,0.0,0.0,0.0
follower,okay,['q7nc3.f.move.151'],['acknowledge'],0.26666666666666666,0.0,0.0,0.0,0.0,0.0
giver,just go along skim along the bottom of the east lake to the finish and that's you,"['q7nc3.g.move.152', 'q7nc3.g.move.153.5']",['instruct'],0.2,0.0,0.0,0.0,0.0,0.0
follower,to the finish where's the finish,"['q7nc3.f.move.153', 'q7nc3.f.move.154.5']",['query_w'],0.45454545454545453,0.2459016393442623,0.17567567567567569,0.2,0.1111111111111111,0.05555555555555555
giver,oh no between the cornfields and the east lake,"['q7nc3.g.move.154', 'q7nc3.g.move.155.5']",['reply_w'],0.6111111111111112,0.1509433962264151,0.05084745762711865,0.09090909090909091,0.0,0.0
follower,oh okay,"['q7nc3.f.move.155', 'q7nc3.f.move.158.5']",['acknowledge'],0.2777777777777778,0.044444444444444446,0.022222222222222223,0.1111111111111111,0.0,0.0
giver,about just directly in the middle and that's you,"['q7nc3.g.move.156', 'q7nc3.g.move.159.5']",['reply_w'],0.25,0.0,0.0,0.0,0.0,0.0
follower,okay,['q7nc3.f.move.159'],['acknowledge'],0.15,0.0,0.0,0.0,0.0,0.0
giver,okay,['q7nc3.g.move.160'],['acknowledge'],1.0,1.0,1.0,1.0,0.0,0.0
