speaker,sentence,move_id,label,jaccard_sim_char_1_1,jaccard_sim_char_2_2,jaccard_sim_char_3_3,jaccard_sim_word_1_1,jaccard_sim_word_2_2,jaccard_sim_word_3_3
giver,okay,"['q8nc2.g.move.1', 'q8nc2.g.move.4.5']",['ready'],,,,,,
follower,right okay,"['q8nc2.f.move.4', 'q8nc2.f.move.5.5']",['acknowledge'],0.4,0.3333333333333333,0.25,0.5,0.0,0.0
giver,about ten ten centimetres along past the springboks,['q8nc2.g.move.5'],['clarify'],0.47368421052631576,0.06382978723404255,0.0,0.0,0.0,0.0
follower,okay mm,"['q8nc2.f.move.6', 'q8nc2.f.move.6.9']",['acknowledge'],0.2631578947368421,0.021739130434782608,0.0,0.0,0.0,0.0
giver,and go around the springboks to the northwest,"['q8nc2.g.move.7', 'q8nc2.g.move.8.5']",['instruct'],0.21052631578947367,0.025,0.0,0.0,0.0,0.0
follower,springbok,"['q8nc2.f.move.8', 'q8nc2.f.move.9.5']",['check'],0.5294117647058824,0.22857142857142856,0.1794871794871795,0.0,0.0,0.0
giver,about three centimetres,['q8nc2.g.move.9'],['instruct'],0.35294117647058826,0.03571428571428571,0.0,0.0,0.0,0.0
follower,northwest three,['q8nc2.f.move.10'],['acknowledge'],0.5333333333333333,0.25925925925925924,0.1724137931034483,0.25,0.0,0.0
giver,then move around past the highest viewpoint just go up right up around it and then down about eight centimetres,"['q8nc2.g.move.11', 'q8nc2.g.move.11.9']",['instruct'],0.45,0.08,0.04081632653061224,0.0,0.0,0.0
follower,mmhmm,['q8nc2.f.move.12'],['acknowledge'],0.1,0.0,0.0,0.0,0.0,0.0
giver,and to the southwest past the safari's truck truck about six or seven centimetres and along by the field station to the west around ten centimetres got that,"['q8nc2.g.move.13', 'q8nc2.g.move.14', 'q8nc2.g.move.15', 'q8nc2.g.move.16']","['instruct', 'align']",0.08,0.0,0.0,0.0,0.0,0.0
follower,mm so so,['q8nc2.f.move.17'],['reply_y'],0.16,0.036585365853658534,0.008620689655172414,0.0,0.0,0.0
follower,what wh-- how far would that be,"['q8nc2.f.move.19', 'q8nc2.f.move.20.5']",['query_w'],0.125,0.0,0.0,0.0,0.0,0.0
giver,ehm about f-- three centimetres,['q8nc2.g.move.20'],['reply_w'],0.5789473684210527,0.14893617021276595,0.037037037037037035,0.0,0.0,0.0
follower,mmhmm,['q8nc2.f.move.21'],['acknowledge'],0.125,0.03225806451612903,0.0,0.0,0.0,0.0
giver,and then up to the rope bridge,"['q8nc2.g.move.22', 'q8nc2.g.move.23.5']",['instruct'],0.06666666666666667,0.0,0.0,0.0,0.0,0.0
follower,mmhmm,['q8nc2.f.move.23'],['acknowledge'],0.06666666666666667,0.0,0.0,0.0,0.0,0.0
giver,and cross the rope bridge and then move round down south about to the giraffes,"['q8nc2.g.move.24', 'q8nc2.g.move.25', 'q8nc2.g.move.26.5']",['instruct'],0.1,0.0,0.0,0.0,0.0,0.0
follower,okay,"['q8nc2.f.move.26', 'q8nc2.f.move.28.5']",['acknowledge'],0.09090909090909091,0.0,0.0,0.0,0.0,0.0
giver,and around to around the giraffes' feet if you see what i mean,"['q8nc2.g.move.27', 'q8nc2.g.move.28']","['instruct', 'align']",0.15789473684210525,0.0,0.0,0.0,0.0,0.0
follower,mmhmm,['q8nc2.f.move.29'],['reply_y'],0.1111111111111111,0.0,0.0,0.0,0.0,0.0
giver,and along to the west for about six no 'bout eight centimetres,['q8nc2.g.move.30'],['instruct'],0.09523809523809523,0.0,0.0,0.0,0.0,0.0
follower,mmhmm right,['q8nc2.f.move.31'],['acknowledge'],0.3333333333333333,0.05263157894736842,0.03125,0.0,0.0,0.0
giver,and then down to the southwest about three centimetres,['q8nc2.g.move.32'],['instruct'],0.35294117647058826,0.0,0.0,0.0,0.0,0.0
follower,mmhmm,['q8nc2.f.move.33'],['acknowledge'],0.125,0.0,0.0,0.0,0.0,0.0
giver,and then to the west about eight centimetres 'til the edge of the great lake the furthest west point of the great lake,['q8nc2.g.move.34'],['instruct'],0.09090909090909091,0.0,0.0,0.0,0.0,0.0
follower,okay,['q8nc2.f.move.35'],['acknowledge'],0.13043478260869565,0.0,0.0,0.0,0.0,0.0
giver,and then just go round up to the finish,"['q8nc2.g.move.36', 'q8nc2.g.move.37.5']",['instruct'],0.1111111111111111,0.0,0.0,0.0,0.0,0.0
follower,what finish,"['q8nc2.f.move.37', 'q8nc2.f.move.38.5']",['query_w'],0.47058823529411764,0.20588235294117646,0.13157894736842105,0.1,0.0,0.0
giver,oh sorry ehm up to about up to the northwest about four five centimetres that's it,"['q8nc2.g.move.38', 'q8nc2.g.move.40']",['reply_w'],0.45,0.07936507936507936,0.04,0.0,0.0,0.0
follower,mmhmm,['q8nc2.f.move.39'],['acknowledge'],0.1,0.016666666666666666,0.0,0.0,0.0,0.0
