speaker,sentence,move_id,label
giver,right starts above the stony desert,"['q1ec8.g.move.1', 'q1ec8.g.move.2.5']",['instruct']
follower,alright okay,['q1ec8.f.move.2'],['acknowledge']
giver,right,['q1ec8.g.move.3'],['align']
follower,,['q1ec8.f.move.5.5'],[]
giver,,"['q1ec8.g.move.3.5', 'q1ec8.g.move.6.5']",[]
follower,mmhmm,"['q1ec8.f.move.6', 'q1ec8.f.move.7.5']",['acknowledge']
giver,er go forward and then kind down south,"['q1ec8.g.move.7', 'q1ec8.g.move.8.5']",['instruct']
follower,west and then down south,"['q1ec8.f.move.8', 'q1ec8.f.move.10.5']",['check']
giver,mmhmm,"['q1ec8.g.move.9', 'q1ec8.g.move.13.5']",['reply_y']
follower,the map all right,"['q1ec8.f.move.11', 'q1ec8.f.move.13']",['acknowledge']
giver,right,['q1ec8.g.move.14'],['align']
follower,,['q1ec8.f.move.15.5'],[]
giver,then travel west again,"['q1ec8.g.move.15', 'q1ec8.g.move.16.5']",['instruct']
follower,mmhmm,"['q1ec8.f.move.16', 'q1ec8.f.move.17.5']",['acknowledge']
giver,right to the very end of paper,"['q1ec8.g.move.17', 'q1ec8.g.move.18.5']",['instruct']
follower,the very end of the map,"['q1ec8.f.move.18', 'q1ec8.f.move.19.5']",['check']
giver,map right,['q1ec8.g.move.19'],['reply_y']
follower,mmhmm,['q1ec8.f.move.20'],['acknowledge']
giver,and then up north,"['q1ec8.g.move.21', 'q1ec8.g.move.22.5']",['instruct']
follower,mmhmm,"['q1ec8.f.move.22', 'q1ec8.f.move.24.5']",['acknowledge']
giver,now,"['q1ec8.g.move.23', 'q1ec8.g.move.25.5']",['ready']
follower,not in that corner,"['q1ec8.f.move.25', 'q1ec8.f.move.27.5']",['reply_n']
giver,no well,"['q1ec8.g.move.26', 'q1ec8.g.move.28.5']",['ready']
follower,fssss over a bit,"['q1ec8.f.move.28', 'q1ec8.f.move.30.5']",['reply_w']
giver,right,"['q1ec8.g.move.29', 'q1ec8.g.move.31.5']",['ready']
follower,mmhmm,"['q1ec8.f.move.31', 'q1ec8.f.move.32.5']",['acknowledge']
giver,until you get to a kind level above the shelter,['q1ec8.g.move.32'],['instruct']
follower,alright,['q1ec8.f.move.33'],['acknowledge']
giver,and turn east to r-- and travel right along,"['q1ec8.g.move.34', 'q1ec8.g.move.35.5']",['instruct']
follower,alright,"['q1ec8.f.move.35', 'q1ec8.f.move.36.5']",['acknowledge']
giver,past the shel-- the shelter that's over the top,['q1ec8.g.move.36'],['instruct']
follower,uh-huh,['q1ec8.f.move.37'],['acknowledge']
giver,,['q1ec8.g.move.37.5'],[]
follower,,['q1ec8.f.move.39.5'],[]
giver,right then south,"['q1ec8.g.move.38', 'q1ec8.g.move.39', 'q1ec8.g.move.40.5']","['ready', 'instruct']"
follower,then south,"['q1ec8.f.move.40', 'q1ec8.f.move.41.5']",['acknowledge']
giver,just to below the shelter below the level of the shelter,['q1ec8.g.move.41'],['instruct']
follower,right,['q1ec8.f.move.42'],['acknowledge']
giver,in a kind east,"['q1ec8.g.move.43', 'q1ec8.g.move.45.5']",['instruct']
follower,mmhmm,"['q1ec8.f.move.45', 'q1ec8.f.move.48.5']",['reply_y']
giver,there's a savannah you want to travel east until you get to before the savannah,"['q1ec8.g.move.46', 'q1ec8.g.move.48']","['query_yn', 'instruct']"
follower,mmhmm,['q1ec8.f.move.49'],['acknowledge']
giver,then tau-- turn north up,"['q1ec8.g.move.50', 'q1ec8.g.move.51.5']",['instruct']
follower,mmhmm,"['q1ec8.f.move.51', 'q1ec8.f.move.52.5']",['acknowledge']
giver,don't go round about it just go up before it,['q1ec8.g.move.52'],['instruct']
follower,mmhmm,['q1ec8.f.move.53'],['acknowledge']
giver,,['q1ec8.g.move.53.5'],[]
follower,,['q1ec8.f.move.56.5'],[]
giver,right you're traveling north,"['q1ec8.g.move.54', 'q1ec8.g.move.56']","['ready', 'align']"
follower,i'm going north,['q1ec8.f.move.57'],['reply_y']
giver,,['q1ec8.g.move.57.5'],[]
follower,,['q1ec8.f.move.59.5'],[]
giver,right now,"['q1ec8.g.move.58', 'q1ec8.g.move.60.5']",['ready']
follower,they're over a bit,"['q1ec8.f.move.60', 'q1ec8.f.move.61.5']",['reply_w']
giver,or hot springs,['q1ec8.g.move.61'],['query_yn']
follower,they're over to the west a bit,['q1ec8.f.move.62'],['reply_w']
giver,,['q1ec8.g.move.62.5'],[]
follower,,['q1ec8.f.move.64.5'],[]
giver,right travel straight up north 'til you get just above the hot wells make sure you've cleared the the height of it,"['q1ec8.g.move.63', 'q1ec8.g.move.64']","['ready', 'instruct']"
follower,right,['q1ec8.f.move.65'],['acknowledge']
giver,and turn to your the west,"['q1ec8.g.move.66', 'q1ec8.g.move.68.5']",['instruct']
follower,right,"['q1ec8.f.move.67', 'q1ec8.f.move.71.5']",['ready']
giver,until you get to the hot wells,"['q1ec8.g.move.69', 'q1ec8.g.move.70.5']",['instruct']
follower,right,"['q1ec8.f.move.72', 'q1ec8.f.move.73.5']",['acknowledge']
giver,no don't go over the top of them,['q1ec8.g.move.73'],['reply_n']
follower,right i'll go up to them,['q1ec8.f.move.74'],['acknowledge']
giver,alright now,"['q1ec8.g.move.75', 'q1ec8.g.move.77.5']",['ready']
follower,underneath them,['q1ec8.f.move.77'],['check']
giver,mmhmm until you just get past them then come down to them south,"['q1ec8.g.move.78', 'q1ec8.g.move.79', 'q1ec8.g.move.80', 'q1ec8.g.move.81.5']","['reply_y', 'instruct']"
follower,south,['q1ec8.f.move.81'],['acknowledge']
giver,just a a couple of inches and then west,"['q1ec8.g.move.82', 'q1ec8.g.move.83', 'q1ec8.g.move.85.5']",['instruct']
follower,mmhmm underneath the elephants,"['q1ec8.f.move.84', 'q1ec8.f.move.85']","['acknowledge', 'query_yn']"
giver,mmhmm and then north,"['q1ec8.g.move.86', 'q1ec8.g.move.87', 'q1ec8.g.move.91.5']","['reply_y', 'instruct']"
follower,mmhmm,"['q1ec8.f.move.90', 'q1ec8.f.move.93.5']",['reply_y']
giver,right,"['q1ec8.g.move.92', 'q1ec8.g.move.94.5']",['ready']
follower,mmhmm,"['q1ec8.f.move.94', 'q1ec8.f.move.95.5']",['acknowledge']
giver,past it,"['q1ec8.g.move.95', 'q1ec8.g.move.96.5']",['instruct']
follower,past the top of it,"['q1ec8.f.move.96', 'q1ec8.f.move.97.5']",['query_yn']
giver,right up above it,['q1ec8.g.move.97'],['reply_w']
follower,right,['q1ec8.f.move.98'],['acknowledge']
giver,,['q1ec8.g.move.98.5'],[]
follower,,['q1ec8.f.move.100.5'],[]
giver,right,"['q1ec8.g.move.99', 'q1ec8.g.move.101.5']",['ready']
follower,no,"['q1ec8.f.move.101', 'q1ec8.f.move.102.5']",['reply_n']
giver,mm-mm,['q1ec8.g.move.102'],['check']
follower,to the f-- no,['q1ec8.f.move.103'],['reply_n']
giver,,['q1ec8.g.move.103.5'],[]
follower,,['q1ec8.f.move.104.5'],[]
giver,the roman baths,['q1ec8.g.move.104'],['query_yn']
follower,no,['q1ec8.f.move.105'],['reply_n']
giver,,['q1ec8.g.move.105.5'],[]
follower,,['q1ec8.f.move.106.5'],[]
giver,hmm antelopes,['q1ec8.g.move.106'],['query_yn']
follower,mm they're over to the east of the mountain,['q1ec8.f.move.107'],['reply_w']
giver,,['q1ec8.g.move.107.5'],[]
follower,,['q1ec8.f.move.110.5'],[]
giver,right sure you don't have a lake,"['q1ec8.g.move.108', 'q1ec8.g.move.110']","['ready', 'check']"
follower,no beside this no,['q1ec8.f.move.111'],['reply_n']
giver,,['q1ec8.g.move.111.5'],[]
follower,,['q1ec8.f.move.112.5'],[]
giver,no but right the way over,"['q1ec8.g.move.112', 'q1ec8.g.move.113.5']",['query_yn']
follower,right over to the east again,['q1ec8.f.move.113'],['reply_w']
giver,aye right,"['q1ec8.g.move.114', 'q1ec8.g.move.115.5']",['acknowledge']
follower,,['q1ec8.f.move.116.5'],[]
giver,go up to about the level with the bottom of the lake,"['q1ec8.g.move.116', 'q1ec8.g.move.117.5']",['instruct']
follower,level with the bottom of the lake,"['q1ec8.f.move.117', 'q1ec8.f.move.120.5']",['acknowledge']
giver,straight north to up to the l-- level with the bottom of the lake,['q1ec8.g.move.120'],['instruct']
follower,alright,['q1ec8.f.move.121'],['acknowledge']
giver,and then east 'til you get to the front of the lake,"['q1ec8.g.move.122', 'q1ec8.g.move.125.5']",['instruct']
follower,i'm go-- i'm going to hit the round rocks,"['q1ec8.f.move.123', 'q1ec8.f.move.127.5']",['query_yn']
giver,no,['q1ec8.g.move.126'],['reply_n']
follower,right,['q1ec8.f.move.128'],['acknowledge']
giver,and you want to go right round about the lake,"['q1ec8.g.move.129', 'q1ec8.g.move.130.5']",['instruct']
follower,up above it,"['q1ec8.f.move.130', 'q1ec8.f.move.132.5']",['query_yn']
giver,mmhmm,"['q1ec8.g.move.131', 'q1ec8.g.move.133.5']",['reply_y']
follower,something like circle right round it,"['q1ec8.f.move.133', 'q1ec8.f.move.135.5']",['check']
giver,mmhmm right,"['q1ec8.g.move.134', 'q1ec8.g.move.136.5']",['reply_y']
follower,uh-huh,"['q1ec8.f.move.136', 'q1ec8.f.move.138.5']",['reply_y']
giver,right,"['q1ec8.g.move.137', 'q1ec8.g.move.140.5']",['ready']
follower,right,"['q1ec8.f.move.139', 'q1ec8.f.move.142.5']",['ready']
giver,no the height above them but just below the lake but above the antelope,"['q1ec8.g.move.141', 'q1ec8.g.move.142']","['reply_n', 'clarify']"
follower,right,['q1ec8.f.move.143'],['acknowledge']
giver,,['q1ec8.g.move.143.5'],[]
follower,,['q1ec8.f.move.145.5'],[]
giver,right should be a roman baths below the lake,"['q1ec8.g.move.144', 'q1ec8.g.move.145']","['ready', 'align']"
follower,well i havenae,['q1ec8.f.move.146'],['reply_n']
giver,,['q1ec8.g.move.146.5'],[]
follower,,['q1ec8.f.move.149.5'],[]
giver,well and you come between the lake and the roman baths so you'll have to avoid them,"['q1ec8.g.move.147', 'q1ec8.g.move.149']","['ready', 'instruct']"
follower,right okay,['q1ec8.f.move.150'],['acknowledge']
giver,and you want to come south and round the antelopes,"['q1ec8.g.move.151', 'q1ec8.g.move.152.5']",['instruct']
follower,to the east or the west,"['q1ec8.f.move.152', 'q1ec8.f.move.153.5']",['query_w']
giver,to the west of the antelopes,['q1ec8.g.move.153'],['reply_w']
follower,right,['q1ec8.f.move.154'],['acknowledge']
giver,,['q1ec8.g.move.154.5'],[]
follower,,['q1ec8.f.move.155.5'],[]
giver,ehm and go right underneath them,['q1ec8.g.move.155'],['instruct']
follower,mmhmm,['q1ec8.f.move.156'],['acknowledge']
giver,then travel to the east just past the antelopes,['q1ec8.g.move.157'],['instruct']
follower,mmhmm,['q1ec8.f.move.158'],['acknowledge']
giver,,['q1ec8.g.move.158.5'],[]
follower,,['q1ec8.f.move.159.5'],[]
giver,that's it finished,"['q1ec8.g.move.159', 'q1ec8.g.move.160.5']",['instruct']
follower,just past the antelopes it's finished,"['q1ec8.f.move.160', 'q1ec8.f.move.161.5']",['check']
giver,mmhmm,"['q1ec8.g.move.161', 'q1ec8.g.move.162.5']",['reply_y']
follower,okay,['q1ec8.f.move.162'],['acknowledge']
giver,that's it,['q1ec8.g.move.163'],['reply_y']
