speaker,sentence,move_id,label
giver,okay phil,['q2nc2.g.move.1'],['align']
follower,right,['q2nc2.f.move.2'],['reply_y']
giver,,['q2nc2.g.move.2.5'],[]
follower,,['q2nc2.f.move.3.5'],[]
giver,on my map i have a telephone kiosk in the bottom left-hand corner,"['q2nc2.g.move.3', 'q2nc2.g.move.4.5']",['explain']
follower,uh-huh,"['q2nc2.f.move.4', 'q2nc2.f.move.5.5']",['acknowledge']
giver,okay the route starts above it,"['q2nc2.g.move.5', 'q2nc2.g.move.6.5']",['explain']
follower,mmhmm,"['q2nc2.f.move.6', 'q2nc2.f.move.7.5']",['acknowledge']
giver,directly above it about on my map about half an inch from the top of the telephone kiosk,['q2nc2.g.move.7'],['explain']
follower,yeah got you,['q2nc2.f.move.8'],['acknowledge']
giver,,['q2nc2.g.move.8.5'],[]
follower,,['q2nc2.f.move.10.5'],[]
giver,okay,"['q2nc2.g.move.9', 'q2nc2.g.move.11.5']",['ready']
follower,mmhmm,"['q2nc2.f.move.11', 'q2nc2.f.move.12.5']",['acknowledge']
giver,passing around the left-hand side of the stone circle,"['q2nc2.g.move.12', 'q2nc2.g.move.13.5']",['instruct']
follower,stone circle,"['q2nc2.f.move.13', 'q2nc2.f.move.14.5']",['check']
giver,yeah,"['q2nc2.g.move.14', 'q2nc2.g.move.15.5']",['reply_y']
follower,how don't think i've got that on my map i have a telephone kiosk and a the nearest thing is a broken gate to the bottom right-hand,"['q2nc2.f.move.15', 'q2nc2.f.move.17.5']",['explain']
giver,yeah,"['q2nc2.g.move.16', 'q2nc2.g.move.18.5']",['acknowledge']
follower,mmhmm,"['q2nc2.f.move.18', 'q2nc2.f.move.19.5']",['acknowledge']
giver,at the right on the bottom left-hand corner of the page i have a stone circle,"['q2nc2.g.move.19', 'q2nc2.g.move.22.5']",['explain']
follower,yeah,"['q2nc2.f.move.20', 'q2nc2.f.move.23.5']",['acknowledge']
giver,so if you could take your route straight down 'til about an inch above the bottom of the page,"['q2nc2.g.move.23', 'q2nc2.g.move.24.5']",['instruct']
follower,uh-huh,"['q2nc2.f.move.24', 'q2nc2.f.move.25.5']",['acknowledge']
giver,okay,['q2nc2.g.move.25'],['align']
follower,right,['q2nc2.f.move.26'],['reply_y']
giver,then go straight straight on,"['q2nc2.g.move.27', 'q2nc2.g.move.27.4']",['instruct']
follower,to the r--,"['q2nc2.f.move.28', 'q2nc2.f.move.29.5']",['check']
giver,horizontally about and for about another inch,"['q2nc2.g.move.27.9', 'q2nc2.g.move.30.5']",['instruct']
follower,to the right,"['q2nc2.f.move.30', 'q2nc2.f.move.31.5']",['check']
giver,yeah to the right,"['q2nc2.g.move.31', 'q2nc2.g.move.32.5']",['reply_y']
follower,right,"['q2nc2.f.move.32', 'q2nc2.f.move.33.5']",['acknowledge']
giver,okay,['q2nc2.g.move.33'],['align']
follower,okay,['q2nc2.f.move.34'],['reply_y']
giver,now if you move straight up you're going to be on the left-hand side of that farmer's gate,"['q2nc2.g.move.35', 'q2nc2.g.move.36.5']",['align']
follower,right,"['q2nc2.f.move.36', 'q2nc2.f.move.37.5']",['reply_y']
giver,that correct,"['q2nc2.g.move.37', 'q2nc2.g.move.38.5']",['align']
follower,yeah,['q2nc2.f.move.38'],['reply_y']
giver,okay,['q2nc2.g.move.39'],['acknowledge']
follower,,['q2nc2.f.move.40.5'],[]
giver,if you move straight up until you're at the top left-hand corner of the broken gate,"['q2nc2.g.move.40', 'q2nc2.g.move.43.5']",['instruct']
follower,mmhmm right,"['q2nc2.f.move.41', 'q2nc2.f.move.43']","['acknowledge', 'reply_y']"
giver,okay,['q2nc2.g.move.44'],['ready']
follower,,['q2nc2.f.move.45.5'],[]
giver,now we're going to move do you have a meadow in the bottom right-hand corner,"['q2nc2.g.move.44.5', 'q2nc2.g.move.45']",['query_yn']
follower,meadow yeah uh-huh,['q2nc2.f.move.46'],['acknowledge']
giver,,['q2nc2.g.move.47.5'],[]
follower,,['q2nc2.f.move.50.5'],[]
giver,okay,"['q2nc2.g.move.48', 'q2nc2.g.move.51.5']",['ready']
follower,no not at all,"['q2nc2.f.move.51', 'q2nc2.f.move.53.5']",['reply_n']
giver,little birds,"['q2nc2.g.move.52', 'q2nc2.g.move.54.5']",['query_yn']
follower,oh yeah sorry i do yeah,"['q2nc2.f.move.54', 'q2nc2.f.move.55.5']",['reply_y']
giver,no you do,"['q2nc2.g.move.55', 'q2nc2.g.move.56.5']",['check']
follower,uh-huh,"['q2nc2.f.move.56', 'q2nc2.f.move.57.5']",['reply_y']
giver,well i've got five little birds on mine,"['q2nc2.g.move.57', 'q2nc2.g.move.58.5']",['explain']
follower,yeah just above the meadow,"['q2nc2.f.move.58', 'q2nc2.f.move.59.5']",['reply_y']
giver,okay,"['q2nc2.g.move.59', 'q2nc2.g.move.60.5']",['acknowledge']
follower,right,"['q2nc2.f.move.60', 'q2nc2.f.move.61.5']",['acknowledge']
giver,so if you take the middle bird,"['q2nc2.g.move.61', 'q2nc2.g.move.62.5']",['instruct']
follower,uh-huh,"['q2nc2.f.move.62', 'q2nc2.f.move.63.5']",['acknowledge']
giver,and you move up the page until you're probably about to a point that's about half an inch horizontally higher than the point you're at at the farmer's gate,"['q2nc2.g.move.63', 'q2nc2.g.move.64.5']",['instruct']
follower,right,"['q2nc2.f.move.64', 'q2nc2.f.move.65.5']",['acknowledge']
giver,okay,"['q2nc2.g.move.65', 'q2nc2.g.move.66.5']",['align']
follower,mmhmm,['q2nc2.f.move.66'],['reply_y']
giver,now if you take your route from where you are now to that point,"['q2nc2.g.move.67', 'q2nc2.g.move.68.5']",['instruct']
follower,right,"['q2nc2.f.move.68', 'q2nc2.f.move.69.5']",['acknowledge']
giver,diagonally upwards,['q2nc2.g.move.69'],['instruct']
follower,right,['q2nc2.f.move.70'],['acknowledge']
giver,,['q2nc2.g.move.70.5'],[]
follower,,['q2nc2.f.move.71.5'],[]
giver,okay we're going to move up from there to the ruined monastery,"['q2nc2.g.move.71', 'q2nc2.g.move.72.5']",['instruct']
follower,right,"['q2nc2.f.move.72', 'q2nc2.f.move.73.5']",['acknowledge']
giver,and your route's,"['q2nc2.g.move.73', 'q2nc2.g.move.75.5']",['instruct']
follower,h-- have you got overnight accommodation on yours,"['q2nc2.f.move.74', 'q2nc2.f.move.76.5']",['query_yn']
giver,no i don't,"['q2nc2.g.move.76', 'q2nc2.g.move.77.5']",['reply_n']
follower,well i've got overnight accommodation in a diagonal line between the ruined monastery and the point i'm at just now,"['q2nc2.f.move.77', 'q2nc2.f.move.78.5']",['explain']
giver,in a diagonal line,"['q2nc2.g.move.78', 'q2nc2.g.move.80.5']",['check']
follower,yeah,"['q2nc2.f.move.79', 'q2nc2.f.move.82.5']",['reply_y']
giver,yeah oh that sounds that sounds like the same route that i have here,"['q2nc2.g.move.81', 'q2nc2.g.move.83.5']",['acknowledge']
follower,erm well,['q2nc2.f.move.83'],['ready']
giver,by that pa--,"['q2nc2.g.move.84', 'q2nc2.g.move.85.5']",['query_yn']
follower,if i was goi-- to go up in a straight line just now i'd end up slightly to the right of the ruined monastery,"['q2nc2.f.move.85', 'q2nc2.f.move.87.5']",['reply_w']
giver,okay,"['q2nc2.g.move.86', 'q2nc2.g.move.88.5']",['acknowledge']
follower,yeah well that's through the overnight accommodation then,"['q2nc2.f.move.88', 'q2nc2.f.move.89.5']",['explain']
giver,well that's that'd be good,"['q2nc2.g.move.89', 'q2nc2.g.move.91.5']",['acknowledge']
follower,i don't suppose that's an obstacle really,"['q2nc2.f.move.90', 'q2nc2.f.move.93.5']",['explain']
giver,no,"['q2nc2.g.move.92', 'q2nc2.g.move.94.5']",['reply_y']
follower,right go straight through it then,"['q2nc2.f.move.94', 'q2nc2.f.move.96.5']",['check']
giver,yeah,"['q2nc2.g.move.95', 'q2nc2.g.move.97.5']",['reply_y']
follower,curving round the top the right-hand side or the left-hand side,"['q2nc2.f.move.97', 'q2nc2.f.move.98.5']",['query_w']
giver,oh we're coming up you're coming up on the right-hand side,"['q2nc2.g.move.98', 'q2nc2.g.move.99.5']",['clarify']
follower,mmhmm,"['q2nc2.f.move.99', 'q2nc2.f.move.100.5']",['acknowledge']
giver,and you're going over to the left-hand side and down,"['q2nc2.g.move.100', 'q2nc2.g.move.101.5']",['clarify']
follower,right,"['q2nc2.f.move.101', 'q2nc2.f.move.102.5']",['acknowledge']
giver,so it's curved down towards the west lake,['q2nc2.g.move.102'],['clarify']
follower,sorry where am i going from the point just now just up northwest,"['q2nc2.f.move.103', 'q2nc2.f.move.104.5']",['check']
giver,up northwest,"['q2nc2.g.move.104', 'q2nc2.g.move.105.5']",['reply_y']
follower,uh-huh,"['q2nc2.f.move.105', 'q2nc2.f.move.106.5']",['acknowledge']
giver,say to the top right-hand corner of the ruined monastery,"['q2nc2.g.move.106', 'q2nc2.g.move.107.5']",['clarify']
follower,uh-huh,"['q2nc2.f.move.107', 'q2nc2.f.move.108.5']",['acknowledge']
giver,okay and you're going to draw like a small arch just skimming round the outside of it,"['q2nc2.g.move.108', 'q2nc2.g.move.112.5']",['clarify']
follower,right,"['q2nc2.f.move.109', 'q2nc2.f.move.115.5']",['acknowledge']
giver,an arch,"['q2nc2.g.move.113', 'q2nc2.g.move.116.5']",['clarify']
follower,yeah,"['q2nc2.f.move.116', 'q2nc2.f.move.117.5']",['acknowledge']
giver,okay,['q2nc2.g.move.117'],['align']
follower,mmhmm,['q2nc2.f.move.118'],['reply_y']
giver,,['q2nc2.g.move.118.5'],[]
follower,,['q2nc2.f.move.119.5'],[]
giver,now you're going to keep moving downwards like in an arc,"['q2nc2.g.move.119', 'q2nc2.g.move.120.5']",['instruct']
follower,yeah,"['q2nc2.f.move.120', 'q2nc2.f.move.122.5']",['acknowledge']
giver,around the edge of the west lake,"['q2nc2.g.move.121', 'q2nc2.g.move.123.5']",['instruct']
follower,nope not at all no,"['q2nc2.f.move.123', 'q2nc2.f.move.126.5']",['reply_n']
giver,okay,"['q2nc2.g.move.124', 'q2nc2.g.move.127.5']",['acknowledge']
follower,yeah,"['q2nc2.f.move.127', 'q2nc2.f.move.128.5']",['reply_y']
giver,come down about an inch keep the keep the arc coming down for about an inch,"['q2nc2.g.move.128', 'q2nc2.g.move.128.1']",['instruct']
follower,mmhmm,"['q2nc2.f.move.129', 'q2nc2.f.move.132.5']",['acknowledge']
giver,past the bottom of the ruined monastery,"['q2nc2.g.move.132', 'q2nc2.g.move.133.5']",['instruct']
follower,right,['q2nc2.f.move.133'],['acknowledge']
giver,okay now you're going to curve it back,"['q2nc2.g.move.134', 'q2nc2.g.move.137.5']",['instruct']
follower,eh yeah uh-huh,"['q2nc2.f.move.136', 'q2nc2.f.move.139.5']",['reply_y']
giver,yeah,"['q2nc2.g.move.138', 'q2nc2.g.move.140.5']",['check']
follower,yeah,"['q2nc2.f.move.140', 'q2nc2.f.move.141.5']",['reply_y']
giver,well if you can curve it round until a point that's directly below the left-hand corner of the stile,"['q2nc2.g.move.141', 'q2nc2.g.move.142.5']",['instruct']
follower,mmhmm,"['q2nc2.f.move.142', 'q2nc2.f.move.143.5']",['acknowledge']
giver,and then move straight upwards towards the left-hand side skim round the left-hand side of the stile,"['q2nc2.g.move.143', 'q2nc2.g.move.144.5']",['instruct']
follower,right uh-huh mmhmm yeah got you mmhmm stone circle how don't think i've got that on my map i have a telephone kiosk and a the nearest thing is a broken gate to the bottom right-hand mmhmm yeah right uh-huh right to the r-- to the right right okay right yeah mmhmm right meadow yeah uh-huh no not at all oh yeah sorry i do yeah uh-huh yeah just above the meadow right uh-huh right mmhmm right right right h-- have you got overnight accommodation on yours well i've got overnight accommodation in a diagonal line between the ruined monastery and the point i'm at just now yeah it's about if upwards was north it would be northwest of where i am just now erm well if i was goi-- to go up in a straight line just now i'd end up slightly to the right of the ruined monastery yeah well that's through the overnight accommodation then i don't suppose that's an obstacle really right go straight through it then curving round the top the right-hand side or the left-hand side mmhmm right sorry where am i going from the point just now just up northwest uh-huh uh-huh right right to the left yeah mmhmm yeah nope not at all no yeah mmhmm right right eh yeah uh-huh yeah mmhmm i doing an arc eh that's curving up and over to the left,"['q2nc2.f.move.144', 'q2nc2.f.move.146.5']",['check']
giver,yeah,"['q2nc2.g.move.145', 'q2nc2.g.move.147.5']",['reply_y']
follower,uh-huh,"['q2nc2.f.move.147', 'q2nc2.f.move.148.5']",['acknowledge']
giver,from the ruined monastery and you're curving back up now towards the stile,"['q2nc2.g.move.148', 'q2nc2.g.move.149.5']",['clarify']
follower,right,"['q2nc2.f.move.149', 'q2nc2.f.move.150.5']",['acknowledge']
giver,on the left-hand side of it,['q2nc2.g.move.150'],['clarify']
follower,yeah right i'm there,"['q2nc2.f.move.151', 'q2nc2.f.move.152']","['acknowledge', 'explain']"
giver,okay come over the top,"['q2nc2.g.move.153', 'q2nc2.g.move.154.5']",['instruct']
follower,mmhmm,"['q2nc2.f.move.154', 'q2nc2.f.move.155.5']",['acknowledge']
giver,and then once you're past the stile go straight up about two inches,"['q2nc2.g.move.155', 'q2nc2.g.move.156.5']",['instruct']
follower,uh-huh,"['q2nc2.f.move.156', 'q2nc2.f.move.157.5']",['acknowledge']
giver,okay,"['q2nc2.g.move.157', 'q2nc2.g.move.158.5']",['ready']
follower,yeah,['q2nc2.f.move.158'],['acknowledge']
giver,right at this point across t-- and down to the right-hand side of your page do you have a dead tree,"['q2nc2.g.move.159', 'q2nc2.g.move.161.5']",['query_yn']
follower,eh no,"['q2nc2.f.move.160', 'q2nc2.f.move.162.5']",['reply_n']
giver,well that's,"['q2nc2.g.move.162', 'q2nc2.g.move.163.5']",['explain']
follower,is that the dead tree,"['q2nc2.f.move.163', 'q2nc2.f.move.167.5']",['check']
giver,possibly,"['q2nc2.g.move.164', 'q2nc2.g.move.168.5']",['explain']
follower,well it's on the very far right-hand side of the page though,"['q2nc2.f.move.168', 'q2nc2.f.move.172.5']",['explain']
giver,right,"['q2nc2.g.move.169', 'q2nc2.g.move.173.5']",['ready']
follower,eh it's directly above where i am just now directly above the stile about four inches,"['q2nc2.f.move.173', 'q2nc2.f.move.175.5']",['reply_w']
giver,yeah i've got that,"['q2nc2.g.move.174', 'q2nc2.g.move.176.5']",['acknowledge']
follower,no i haven't got that one,"['q2nc2.f.move.176', 'q2nc2.f.move.178.5']",['reply_n']
giver,okay,"['q2nc2.g.move.177', 'q2nc2.g.move.181.5']",['acknowledge']
follower,uh-huh,"['q2nc2.f.move.179', 'q2nc2.f.move.182.5']",['reply_y']
giver,where you are just now should be horizontally across from say just below the bottom right-hand tip of it that's how high you should be on the map,"['q2nc2.g.move.182', 'q2nc2.g.move.183.5']",['align']
follower,the great viewpoint,"['q2nc2.f.move.183', 'q2nc2.f.move.185.5']",['check']
giver,no,"['q2nc2.g.move.184', 'q2nc2.g.move.186.5']",['reply_n']
follower,bottom right-hand corner uh-huh,"['q2nc2.f.move.186', 'q2nc2.f.move.187.5']",['acknowledge']
giver,okay,"['q2nc2.g.move.187', 'q2nc2.g.move.188.5']",['align']
follower,uh-huh,"['q2nc2.f.move.188', 'q2nc2.f.move.189.5']",['reply_y']
giver,now you should be say about a half an inch below that only across the other side of the page,"['q2nc2.g.move.189', 'q2nc2.g.move.190.5']",['align']
follower,yeah got that exactly yeah,"['q2nc2.f.move.190', 'q2nc2.f.move.192.5']",['reply_y']
giver,excellent,"['q2nc2.g.move.191', 'q2nc2.g.move.193.5']",['acknowledge']
follower,yeah uh-huh,"['q2nc2.f.move.193', 'q2nc2.f.move.194.5']",['reply_y']
giver,back to the ruined monastery again,"['q2nc2.g.move.194', 'q2nc2.g.move.195.5']",['instruct']
follower,straight line up,"['q2nc2.f.move.195', 'q2nc2.f.move.197.5']",['check']
giver,and you've got you've got an elm tree sort just off to the right of that,"['q2nc2.g.move.196', 'q2nc2.g.move.199.5']",['check']
follower,oh right,"['q2nc2.f.move.198', 'q2nc2.f.move.201.5']",['acknowledge']
giver,okay,"['q2nc2.g.move.200', 'q2nc2.g.move.202.5']",['acknowledge']
follower,mmhmm,"['q2nc2.f.move.202', 'q2nc2.f.move.203.5']",['acknowledge']
giver,down to a point that goes around the outside of the elm tree,"['q2nc2.g.move.203', 'q2nc2.g.move.205.5']",['instruct']
follower,right,"['q2nc2.f.move.204', 'q2nc2.f.move.206.5']",['ready']
giver,do you,"['q2nc2.g.move.206', 'q2nc2.g.move.208.5']",['acknowledge']
follower,yeah,"['q2nc2.f.move.207', 'q2nc2.f.move.209.5']",['reply_y']
giver,yeah go straight through it,"['q2nc2.g.move.209', 'q2nc2.g.move.210.5']",['reply_y']
follower,towards the dutch elm,"['q2nc2.f.move.210', 'q2nc2.f.move.211.5']",['check']
giver,yeah,"['q2nc2.g.move.211', 'q2nc2.g.move.212.5']",['reply_y']
follower,and which side of the dutch elm should i end up on,"['q2nc2.f.move.212', 'q2nc2.f.move.213.5']",['check']
giver,okay phil on my map i have a telephone kiosk in the bottom left-hand corner okay the route starts above it directly above it about on my map about half an inch from the top of the telephone kiosk okay it's a dotted line that moves around to the left of the k-- telephone kiosk down passing around the left-hand side of the stone circle yeah yeah well under on on my map directly under the telephone kiosk at the right on the bottom left-hand corner of the page i have a stone circle so if you could take your route straight down 'til about an inch above the bottom of the page okay then go straight straight on horizontally about and for about another inch yeah to the right okay now if you move straight up you're going to be on the left-hand side of that farmer's gate that correct okay if you move straight up until you're at the top left-hand corner of the broken gate okay now we're going to move do you have a meadow in the bottom right-hand corner okay now you're going to move in a diagonal line do you have little seagulls drawn on it little birds okay no you do well i've got five little birds on mine okay so if you take the middle bird and you move up the page until you're probably about to a point that's about half an inch horizontally higher than the point you're at at the farmer's gate okay now if you take your route from where you are now to that point diagonally upwards okay we're going to move up from there to the ruined monastery and your route's no i don't in a diagonal line yeah oh that sounds that sounds like the same route that i have here does that take you up to the top right-hand corner say of the the ruined monastery you know just off the ruined monastery by that pa-- okay well it's slightly diagonally northwest as you said well that's that'd be good no that'd be quite good actually yeah we're going right up there and around the top of the ruined monastery curving round the top oh we're coming up you're coming up on the right-hand side and you're going over to the left-hand side and down so it's curved down towards the west lake up northwest say to the top right-hand corner of the ruined monastery okay and you're going to draw like a small arch just skimming round the outside of it an arch down to the left yes okay now you're going to keep moving downwards like in an arc around the edge of the west lake do you have the west lake on yours okay let me see now you've skimmed an arch around the top of the ruined monastery come down about an inch keep the keep the arc coming down for about an inch past the bottom of the ruined monastery okay now you're going to curve it back do you have a stile up to yeah well if you can curve it round until a point that's directly below the left-hand corner of the stile and then move straight upwards towards the left-hand side skim round the left-hand side of the stile yeah you've just done one that's curved down from the ruined monastery and you're curving back up now towards the stile on the left-hand side of it okay come over the top and then once you're past the stile go straight up about two inches okay right at this point across t-- and down to the right-hand side of your page do you have a dead tree well that's possibly yeah above right yeah on the ri-- dilect directly right across from where you are do you have a great viewpoint a drawing of a telescope i have here yeah i've got that i've got another one across to the right okay and do you have the east lake up in the top right-hand corner where you are just now should be horizontally across from say just below the bottom right-hand tip of it that's how high you should be on the map no no from the ea-- the bottom right-hand corner of the east lake okay now you should be say about a half an inch below that only across the other side of the page excellent now you see where the ruined monastery is back to the ruined monastery again and you've got you've got an elm tree sort just off to the right of that okay what we're going to do then is draw a diagonal line from where you are now down to a point that goes around the outside of the elm tree do you yeah go straight through it yeah you're going to draw a line around the outside of it so you should be underneath the dutch elm,"['q2nc2.g.move.213', 'q2nc2.g.move.215.5']",['clarify']
follower,right,"['q2nc2.f.move.214', 'q2nc2.f.move.216.5']",['acknowledge']
giver,yeah that's right,['q2nc2.g.move.216'],['reply_y']
follower,right right,"['q2nc2.f.move.217', 'q2nc2.f.move.218']",['acknowledge']
giver,,['q2nc2.g.move.218.5'],[]
follower,,['q2nc2.f.move.219.5'],[]
giver,we're going to curve around the outside of the elm,"['q2nc2.g.move.219', 'q2nc2.g.move.220.5']",['instruct']
follower,mmhmm,"['q2nc2.f.move.220', 'q2nc2.f.move.221.5']",['acknowledge']
giver,okay,"['q2nc2.g.move.221', 'q2nc2.g.move.222.5']",['align']
follower,i've done that yeah,['q2nc2.f.move.222'],['reply_y']
giver,now,"['q2nc2.g.move.223', 'q2nc2.g.move.225.5']",['ready']
follower,uh-huh,"['q2nc2.f.move.225', 'q2nc2.f.move.226.5']",['acknowledge']
giver,is it beneath the stile or,"['q2nc2.g.move.226', 'q2nc2.g.move.227.5']",['query_w']
follower,slightly beneath it the base of the dutch elm is about maybe half an inch below the bottom of the stile,"['q2nc2.f.move.227', 'q2nc2.f.move.229.5']",['reply_w']
giver,uh-huh,"['q2nc2.g.move.228', 'q2nc2.g.move.230.5']",['acknowledge']
follower,yeah uh-huh,"['q2nc2.f.move.230', 'q2nc2.f.move.231.5']",['reply_y']
giver,oh must be the same tree i would think anyway,"['q2nc2.g.move.231', 'q2nc2.g.move.232.5']",['explain']
follower,mmhmm,"['q2nc2.f.move.232', 'q2nc2.f.move.234.5']",['reply_y']
giver,sounds similar,"['q2nc2.g.move.233', 'q2nc2.g.move.235.5']",['explain']
follower,yeah,"['q2nc2.f.move.235', 'q2nc2.f.move.236.5']",['acknowledge']
giver,you'll be about an inch away from the right-hand s-- edge of the page,"['q2nc2.g.move.236', 'q2nc2.g.move.237.5']",['instruct']
follower,right,"['q2nc2.f.move.237', 'q2nc2.f.move.238.5']",['acknowledge']
giver,okay,"['q2nc2.g.move.238', 'q2nc2.g.move.239.5']",['align']
follower,mmhmm,"['q2nc2.f.move.239', 'q2nc2.f.move.240.5']",['reply_y']
giver,and you're going to come back in as if you'd drawn about two thirds of a circle around the tree just about,"['q2nc2.g.move.240', 'q2nc2.g.move.241.5']",['instruct']
follower,right got you,"['q2nc2.f.move.241', 'q2nc2.f.move.242.5']",['acknowledge']
giver,okay,['q2nc2.g.move.242'],['align']
follower,yeah,['q2nc2.f.move.243'],['reply_y']
giver,now,"['q2nc2.g.move.244', 'q2nc2.g.move.246.5']",['ready']
follower,no,"['q2nc2.f.move.246', 'q2nc2.f.move.248.5']",['reply_n']
giver,a great viewpoint,"['q2nc2.g.move.247', 'q2nc2.g.move.251.5']",['check']
follower,i've,"['q2nc2.f.move.249', 'q2nc2.f.move.252.5']",['explain']
giver,a rocket launch pad,"['q2nc2.g.move.252', 'q2nc2.g.move.253.5']",['acknowledge']
follower,yeah,['q2nc2.f.move.253'],['reply_y']
giver,excellent,['q2nc2.g.move.254'],['acknowledge']
follower,,['q2nc2.f.move.256.5'],[]
giver,,"['q2nc2.g.move.254.5', 'q2nc2.g.move.257.5']",[]
follower,no,"['q2nc2.f.move.257', 'q2nc2.f.move.260.5']",['acknowledge']
giver,right,"['q2nc2.g.move.258', 'q2nc2.g.move.261.5']",['acknowledge']
follower,uh-huh yeah,"['q2nc2.f.move.261', 'q2nc2.f.move.264.5']",['reply_y']
giver,yeah,"['q2nc2.g.move.262', 'q2nc2.g.move.265.5']",['check']
follower,uh-huh,"['q2nc2.f.move.265', 'q2nc2.f.move.266.5']",['reply_y']
giver,"erm if you draw a line if you are just about directly beneath that ""e""","['q2nc2.g.move.266', 'q2nc2.g.move.267.5']",['instruct']
follower,mmhmm,"['q2nc2.f.move.267', 'q2nc2.f.move.268.5']",['acknowledge']
giver,"okay draw a line up to the water's edge maybe just to the right of that ""e""","['q2nc2.g.move.268', 'q2nc2.g.move.269.5']",['instruct']
follower,s-- straight up,"['q2nc2.f.move.269', 'q2nc2.f.move.270.5']",['check']
giver,straight up yeah,"['q2nc2.g.move.270', 'q2nc2.g.move.271.5']",['reply_y']
follower,"just slightly to the right of the ""e""","['q2nc2.f.move.271', 'q2nc2.f.move.273.5']",['check']
giver,mmhmm,"['q2nc2.g.move.272', 'q2nc2.g.move.274.5']",['reply_y']
follower,mmhmm,"['q2nc2.f.move.274', 'q2nc2.f.move.275.5']",['acknowledge']
giver,okay,"['q2nc2.g.move.275', 'q2nc2.g.move.276.5']",['align']
follower,right,['q2nc2.f.move.276'],['reply_y']
giver,now mark your route along the water's edge to a point that's just past the sort bottom left-hand edge of it,"['q2nc2.g.move.277', 'q2nc2.g.move.278.5']",['instruct']
follower,uh-huh,"['q2nc2.f.move.278', 'q2nc2.f.move.280.5']",['acknowledge']
giver,okay,"['q2nc2.g.move.279', 'q2nc2.g.move.282.5']",['align']
follower,bottom left-hand edge,"['q2nc2.f.move.281', 'q2nc2.f.move.284.5']",['check']
giver,yeah,"['q2nc2.g.move.283', 'q2nc2.g.move.285.5']",['reply_y']
follower,uh-huh,"['q2nc2.f.move.285', 'q2nc2.f.move.286.5']",['acknowledge']
giver,and you're still underneath the east lake then that's you,"['q2nc2.g.move.286', 'q2nc2.g.move.289.5']",['explain']
follower,right right got you,"['q2nc2.f.move.287', 'q2nc2.f.move.289']",['acknowledge']
giver,"""x"" marks the spot and we're finished",['q2nc2.g.move.290'],['explain']
follower,,['q2nc2.f.move.290.5'],[]
giver,,['q2nc2.g.move.291.5'],[]
follower,so where am i going now to the great viewpoint,['q2nc2.f.move.291'],['check']
giver,that's you no that's you,"['q2nc2.g.move.292', 'q2nc2.g.move.294']",['explain']
