speaker,sentence,move_id,label
giver,okay the start's above the crest,"['q3nc4.g.move.1', 'q3nc4.g.move.2']","['ready', 'explain']"
follower,right,['q3nc4.f.move.3'],['acknowledge']
giver,,['q3nc4.g.move.3.5'],[]
follower,,['q3nc4.f.move.4.5'],[]
giver,you start there and go to the left,"['q3nc4.g.move.4', 'q3nc4.g.move.5.5']",['instruct']
follower,mmhmm,['q3nc4.f.move.5'],['acknowledge']
giver,a bit and then down by the side of the crest and then along roughly horizontally to about an inch from the left-hand side of the page then go up,"['q3nc4.g.move.6', 'q3nc4.g.move.7', 'q3nc4.g.move.8.5']",['instruct']
follower,an inch from the left-hand side of the page,"['q3nc4.f.move.8', 'q3nc4.f.move.9.5']",['check']
giver,yeah,"['q3nc4.g.move.9', 'q3nc4.g.move.10.5']",['reply_y']
follower,past the banana tree,"['q3nc4.f.move.10', 'q3nc4.f.move.11.5']",['check']
giver,well i've not got a banana tree on mine,['q3nc4.g.move.11'],['explain']
follower,okay and then to where,"['q3nc4.f.move.12', 'q3nc4.f.move.13', 'q3nc4.f.move.14.5']","['ready', 'query_w']"
giver,and then go up the way by about four inches three inches,['q3nc4.g.move.14'],['reply_w']
follower,three inches okay,['q3nc4.f.move.15'],['acknowledge']
giver,,['q3nc4.g.move.15.5'],[]
follower,,['q3nc4.f.move.16.5'],[]
giver,have you got baboons marked on yours,"['q3nc4.g.move.16', 'q3nc4.g.move.17.5']",['query_yn']
follower,no,['q3nc4.f.move.17'],['reply_n']
giver,no right have you got a footbridge marked,"['q3nc4.g.move.18', 'q3nc4.g.move.19', 'q3nc4.g.move.20.5']","['acknowledge', 'query_yn']"
follower,i have,['q3nc4.f.move.20'],['reply_y']
giver,okay,['q3nc4.g.move.21'],['acknowledge']
follower,,['q3nc4.f.move.22.5'],[]
giver,well turn right so that you go across the footbridge,"['q3nc4.g.move.22', 'q3nc4.g.move.23.5']",['instruct']
follower,turn right so i go across the footbridge right,['q3nc4.f.move.23'],['acknowledge']
giver,and watch out beyond it,['q3nc4.g.move.24'],['instruct']
follower,,['q3nc4.f.move.25.5'],[]
giver,have you got a poisoned stream marked,"['q3nc4.g.move.25', 'q3nc4.g.move.26.5']",['query_yn']
follower,no,['q3nc4.f.move.26'],['reply_n']
giver,no right,['q3nc4.g.move.27'],['acknowledge']
follower,,['q3nc4.f.move.28.5'],[]
giver,well just beyond the footbridge is a poisoned stream,['q3nc4.g.move.28'],['explain']
follower,right,['q3nc4.f.move.29'],['acknowledge']
giver,,['q3nc4.g.move.29.5'],[]
follower,,['q3nc4.f.move.30.5'],[]
giver,so and are you on the footbridge footbridge,"['q3nc4.g.move.30', 'q3nc4.g.move.31.5']",['align']
follower,mmhmm,['q3nc4.f.move.31'],['reply_y']
giver,okay,['q3nc4.g.move.32'],['acknowledge']
follower,,['q3nc4.f.move.33.5'],[]
giver,well go to the end of the footbridge,['q3nc4.g.move.33'],['instruct']
follower,right,['q3nc4.f.move.34'],['acknowledge']
giver,and then down,"['q3nc4.g.move.35', 'q3nc4.g.move.36.5']",['instruct']
follower,straight down,"['q3nc4.f.move.36', 'q3nc4.f.move.37.5']",['check']
giver,straight down by about an inch,"['q3nc4.g.move.37', 'q3nc4.g.move.38.5']",['clarify']
follower,okay,"['q3nc4.f.move.38', 'q3nc4.f.move.39.5']",['acknowledge']
giver,bit more than an inch,['q3nc4.g.move.39'],['instruct']
follower,right,['q3nc4.f.move.40'],['acknowledge']
giver,eh now go horizontally along towards your right,"['q3nc4.g.move.41', 'q3nc4.g.move.42.5']",['instruct']
follower,for how long,['q3nc4.f.move.42'],['query_w']
giver,about three inches have you got an old temple marked,"['q3nc4.g.move.43', 'q3nc4.g.move.44', 'q3nc4.g.move.45.5']","['clarify', 'query_yn']"
follower,i do,['q3nc4.f.move.45'],['reply_y']
giver,right okay,['q3nc4.g.move.46'],['acknowledge']
follower,,['q3nc4.f.move.47.5'],[]
giver,well you go up the left-hand side of the old temple as you see it,"['q3nc4.g.move.47', 'q3nc4.g.move.48.5']",['instruct']
follower,straight up or,"['q3nc4.f.move.48', 'q3nc4.f.move.49.5']",['query_yn']
giver,straight up yeah,"['q3nc4.g.move.49', 'q3nc4.g.move.52.5']",['reply_y']
follower,curve round okay,"['q3nc4.f.move.50', 'q3nc4.f.move.52']","['query_yn', 'ready']"
giver,okay eh now have you got something marked eh just above the old temple or to the left of the old temple,"['q3nc4.g.move.53', 'q3nc4.g.move.54', 'q3nc4.g.move.55.5']","['acknowledge', 'query_w']"
follower,i've got slate mountain,['q3nc4.f.move.55'],['reply_w']
giver,slate mountain okay,['q3nc4.g.move.56'],['acknowledge']
follower,,['q3nc4.f.move.57.5'],[]
giver,,"['q3nc4.g.move.56.5', 'q3nc4.g.move.58.5']",[]
follower,straight up,"['q3nc4.f.move.58', 'q3nc4.f.move.59.5']",['check']
giver,still going to your left,"['q3nc4.g.move.59', 'q3nc4.g.move.60.5']",['instruct']
follower,still going to my left,"['q3nc4.f.move.60', 'q3nc4.f.move.61.5']",['check']
giver,y-- well y-- you're straight up just beyond the old temple,"['q3nc4.g.move.61', 'q3nc4.g.move.62.5']",['align']
follower,uh-huh,['q3nc4.f.move.62'],['reply_y']
giver,okay now g-- you're wanting to go left have you got an abandoned truck marked,"['q3nc4.g.move.63', 'q3nc4.g.move.64', 'q3nc4.g.move.65', 'q3nc4.g.move.66.5']","['acknowledge', 'clarify', 'query_yn']"
follower,uh-huh,['q3nc4.f.move.66'],['reply_y']
giver,right,['q3nc4.g.move.67'],['acknowledge']
follower,,['q3nc4.f.move.68.5'],[]
giver,well you're wanting to go just below that but missing out any obstacles,['q3nc4.g.move.68'],['instruct']
follower,right so i'm going underneath this mountain and along to the abandoned truck not underneath the mountain above the mountain,"['q3nc4.f.move.69', 'q3nc4.f.move.72.5']",['check']
giver,that there are,"['q3nc4.g.move.70', 'q3nc4.g.move.73.5']",['instruct']
follower,so it's to the right of the mountain that i'm going,"['q3nc4.f.move.73', 'q3nc4.f.move.75.5']",['check']
giver,no it's to the,"['q3nc4.g.move.74', 'q3nc4.g.move.77.5']",['reply_n']
follower,yes,"['q3nc4.f.move.76', 'q3nc4.f.move.79.5']",['acknowledge']
giver,right okay,"['q3nc4.g.move.78', 'q3nc4.g.move.80.5']",['acknowledge']
follower,more yes,"['q3nc4.f.move.80', 'q3nc4.f.move.83.5']",['reply_y']
giver,more okay,"['q3nc4.g.move.81', 'q3nc4.g.move.84.5']",['acknowledge']
follower,right,"['q3nc4.f.move.84', 'q3nc4.f.move.85.5']",['acknowledge']
giver,and then dip down under the abandoned truck,"['q3nc4.g.move.85', 'q3nc4.g.move.86.5']",['instruct']
follower,okay,['q3nc4.f.move.86'],['acknowledge']
giver,so you're under the abandoned truck,['q3nc4.g.move.87'],['align']
follower,i'm under the abandoned truck,['q3nc4.f.move.88'],['reply_y']
giver,,['q3nc4.g.move.88.5'],[]
follower,,['q3nc4.f.move.89.5'],[]
giver,go along to the left-hand edge of the abandoned truck,['q3nc4.g.move.89'],['instruct']
follower,right,['q3nc4.f.move.90'],['acknowledge']
giver,and then down by,"['q3nc4.g.move.91', 'q3nc4.g.move.93.5']",['instruct']
follower,no,"['q3nc4.f.move.93', 'q3nc4.f.move.95.5']",['reply_n']
giver,no okay,['q3nc4.g.move.94'],['acknowledge']
follower,right,"['q3nc4.f.move.96', 'q3nc4.f.move.97.5']",['acknowledge']
giver,go eh about an inch down after the abandoned truck inch and a half say,"['q3nc4.g.move.95', 'q3nc4.g.move.97']",['instruct']
follower,okay,['q3nc4.f.move.98'],['ready']
giver,eh and then horizontally along 'til about half an inch from the left-hand side of the page,"['q3nc4.g.move.99', 'q3nc4.g.move.100.5']",['instruct']
follower,okey-doke,['q3nc4.f.move.100'],['ready']
giver,okay,['q3nc4.g.move.101'],['acknowledge']
follower,,['q3nc4.f.move.103.5'],[]
giver,now go vertically up,"['q3nc4.g.move.102', 'q3nc4.g.move.104.5']",['instruct']
follower,i do,"['q3nc4.f.move.104', 'q3nc4.f.move.106.5']",['reply_y']
giver,you do okay,"['q3nc4.g.move.105', 'q3nc4.g.move.107.5']",['acknowledge']
follower,do you want me to come in the page at all,['q3nc4.f.move.107'],['query_yn']
giver,yes just a wee bit so that you are not far from white mountain when you go past it then go up beyond white mountain,"['q3nc4.g.move.108', 'q3nc4.g.move.109', 'q3nc4.g.move.110', 'q3nc4.g.move.111.5']","['reply_y', 'reply_w', 'instruct']"
follower,on its left-hand side,"['q3nc4.f.move.111', 'q3nc4.f.move.112.5']",['check']
giver,eh yeah it's on its left-hand side,"['q3nc4.g.move.112', 'q3nc4.g.move.113.5']",['reply_y']
follower,right,"['q3nc4.f.move.113', 'q3nc4.f.move.114.5']",['acknowledge']
giver,'til you're about eh two and a half inches from the top of the page and just about above white mountain,"['q3nc4.g.move.114', 'q3nc4.g.move.115.5']",['instruct']
follower,ehm have you got a lemon grove marked,"['q3nc4.f.move.115', 'q3nc4.f.move.116.5']",['query_yn']
giver,no,"['q3nc4.g.move.116', 'q3nc4.g.move.118.5']",['reply_n']
follower,right,"['q3nc4.f.move.117', 'q3nc4.f.move.119.5']",['acknowledge']
giver,yeah roughly,['q3nc4.g.move.119'],['reply_y']
follower,and above white mountain ehm,"['q3nc4.f.move.120', 'q3nc4.f.move.120.4', 'q3nc4.f.move.120.9']","['check', 'uncodable']"
giver,have you got a pyramid marked,"['q3nc4.g.move.121', 'q3nc4.g.move.122.5']",['query_yn']
follower,uh-huh,['q3nc4.f.move.122'],['reply_y']
giver,right okay,['q3nc4.g.move.123'],['acknowledge']
follower,,['q3nc4.f.move.125.5'],[]
giver,well go horizontally along and over the top of the pyramid and down the s-- other side of the pyramid have you got cobbled street marked,"['q3nc4.g.move.124', 'q3nc4.g.move.125', 'q3nc4.g.move.126.5']","['instruct', 'query_yn']"
follower,no,['q3nc4.f.move.126'],['reply_n']
giver,no okay,['q3nc4.g.move.127'],['acknowledge']
follower,,['q3nc4.f.move.128.5'],[]
giver,well go underneath the pyramid,"['q3nc4.g.move.128', 'q3nc4.g.move.129.5']",['instruct']
follower,horizontally,"['q3nc4.f.move.129', 'q3nc4.f.move.131.5']",['check']
giver,yes that's so so that'll be you moving to your left,"['q3nc4.g.move.130', 'q3nc4.g.move.131']","['reply_y', 'clarify']"
follower,right,['q3nc4.f.move.132'],['acknowledge']
giver,,['q3nc4.g.move.132.5'],[]
follower,,['q3nc4.f.move.133.5'],[]
giver,and then to the edge of the pyramid,"['q3nc4.g.move.133', 'q3nc4.g.move.134.5']",['instruct']
follower,okay,"['q3nc4.f.move.134', 'q3nc4.f.move.136.5']",['acknowledge']
giver,the left-hand edge and then go down at a bit of an angle,"['q3nc4.g.move.135', 'q3nc4.g.move.136', 'q3nc4.g.move.137.5']",['instruct']
follower,which way,"['q3nc4.f.move.137', 'q3nc4.f.move.139.4']",['query_w']
giver,slightly acute angle,"['q3nc4.g.move.138', 'q3nc4.g.move.139.5']",['clarify']
follower,southwest,"['q3nc4.f.move.139.9', 'q3nc4.f.move.140.5']",['check']
giver,yes that way yeah,"['q3nc4.g.move.140', 'q3nc4.g.move.142.5']",['reply_y']
follower,okay,"['q3nc4.f.move.141', 'q3nc4.f.move.143.5']",['acknowledge']
giver,for just a wee bit just maybe a couple of inches,['q3nc4.g.move.143'],['clarify']
follower,right,['q3nc4.f.move.144'],['acknowledge']
giver,and then go down,"['q3nc4.g.move.145', 'q3nc4.g.move.147.5']",['instruct']
follower,uh-huh,"['q3nc4.f.move.147', 'q3nc4.f.move.149.5']",['reply_y']
giver,right okay,"['q3nc4.g.move.148', 'q3nc4.g.move.150.5']",['acknowledge']
follower,okay,['q3nc4.f.move.150'],['acknowledge']
giver,and then underneath remote village,"['q3nc4.g.move.151', 'q3nc4.g.move.152.5']",['instruct']
follower,right that doesn't have to be in a straight line or anything,['q3nc4.f.move.152'],['query_yn']
giver,eh aye fairly horizontal and the finish is just southeast of remote village,"['q3nc4.g.move.153', 'q3nc4.g.move.154', 'q3nc4.g.move.155']","['reply_y', 'clarify', 'explain']"
follower,oh i do have a poisoned stream marked,"['q3nc4.f.move.156', 'q3nc4.f.move.159.5']",['explain']
giver,well there's two poisoned streams marked,"['q3nc4.g.move.159', 'q3nc4.g.move.160.5']",['explain']
follower,uh-huh,"['q3nc4.f.move.160', 'q3nc4.f.move.161.5']",['acknowledge']
giver,yeah,['q3nc4.g.move.161'],['acknowledge']
follower,so the finish is where,"['q3nc4.f.move.162', 'q3nc4.f.move.163.5']",['query_w']
giver,it's just southeast of the remo-- remote village,['q3nc4.g.move.163'],['clarify']
follower,southeast of the remote village so it's there okay,"['q3nc4.f.move.164', 'q3nc4.f.move.165']","['acknowledge', 'ready']"
giver,,['q3nc4.g.move.165.5'],[]
follower,,['q3nc4.f.move.165.6'],[]
giver,okay that's you finished,['q3nc4.g.move.166'],['explain']
