speaker,sentence,move_id,label
giver,right then eh go right until you're between springbok --boks and highest viewpoint,"['q4ec2.g.move.1', 'q4ec2.g.move.1.5', 'q4ec2.g.move.2', 'q4ec2.g.move.3.5']","['ready', 'instruct']"
follower,where,"['q4ec2.f.move.3', 'q4ec2.f.move.5.5']",['query_w']
giver,right,"['q4ec2.g.move.4', 'q4ec2.g.move.7.5']",['acknowledge']
follower,don't think i've got that on mine,"['q4ec2.f.move.6', 'q4ec2.f.move.8.5']",['explain']
giver,ah right,"['q4ec2.g.move.8', 'q4ec2.g.move.9.5']",['acknowledge']
follower,right directly to your right,"['q4ec2.f.move.9', 'q4ec2.f.move.10.5']",['check']
giver,right to your right where what is the next obstacle,"['q4ec2.g.move.10', 'q4ec2.g.move.11.5']",['query_w']
follower,ehm quite far over is overgrown gully,"['q4ec2.f.move.11', 'q4ec2.f.move.12.5']",['reply_w']
giver,overgrown what,"['q4ec2.g.move.12', 'q4ec2.g.move.13.5']",['query_w']
follower,right so where you've got highest viewpoint is there anything below that,"['q4ec2.f.move.13', 'q4ec2.f.move.14.5']",['query_yn']
giver,ehm no,"['q4ec2.g.move.14', 'q4ec2.g.move.15.5']",['reply_n']
follower,well i've got overgrown gully,"['q4ec2.f.move.15', 'q4ec2.f.move.18.5']",['explain']
giver,ah right overgrown gully,"['q4ec2.g.move.16', 'q4ec2.g.move.20.5']",['acknowledge']
follower,no,"['q4ec2.f.move.19', 'q4ec2.f.move.21.5']",['reply_n']
giver,it's right next to it virtually,"['q4ec2.g.move.21', 'q4ec2.g.move.22.5']",['reply_w']
follower,to its right or left,"['q4ec2.f.move.22', 'q4ec2.f.move.23.5']",['query_w']
giver,to its left,"['q4ec2.g.move.23', 'q4ec2.g.move.24.5']",['reply_w']
follower,on the same level as highest viewpoint yeah,"['q4ec2.f.move.24', 'q4ec2.f.move.25.5']",['check']
giver,just slightly below it,"['q4ec2.g.move.25', 'q4ec2.g.move.26.5']",['reply_w']
follower,okay right,"['q4ec2.f.move.26', 'q4ec2.f.move.28.5']",['acknowledge']
giver,right n--,"['q4ec2.g.move.27', 'q4ec2.g.move.29.5']",['ready']
follower,uh-huh,['q4ec2.f.move.29'],['acknowledge']
giver,and then go up between the the two words springboks and highest viewpoint,"['q4ec2.g.move.30', 'q4ec2.g.move.31.5']",['instruct']
follower,uh-huh,['q4ec2.f.move.31'],['acknowledge']
giver,and then ehm once you then go round the top eh go to your right eh horizontally go,"['q4ec2.g.move.32', 'q4ec2.g.move.35.5']",['instruct']
follower,well where i think that is,"['q4ec2.f.move.34', 'q4ec2.f.move.37.5']",['reply_y']
giver,right okay right go vertically up then between the the springboks and highest viewpoint,"['q4ec2.g.move.36', 'q4ec2.g.move.37', 'q4ec2.g.move.38.5']","['acknowledge', 'instruct']"
follower,okay am i meant to be trying to go under highest viewpoint like under,"['q4ec2.f.move.38', 'q4ec2.f.move.40.5']",['check']
giver,no no,"['q4ec2.g.move.39', 'q4ec2.g.move.41.5']",['reply_n']
follower,okay,['q4ec2.f.move.41'],['acknowledge']
giver,and once you get to above highest viewpoint eh you go horizontally,"['q4ec2.g.move.42', 'q4ec2.g.move.43.5']",['instruct']
follower,above highest viewpoint,"['q4ec2.f.move.43', 'q4ec2.f.move.44.5']",['check']
giver,yes,"['q4ec2.g.move.44', 'q4ec2.g.move.46.5']",['reply_y']
follower,uh-huh,['q4ec2.f.move.45'],['acknowledge']
giver,right then go eh uh to your right horizontally,['q4ec2.g.move.47'],['instruct']
follower,,['q4ec2.f.move.49.5'],[]
giver,,"['q4ec2.g.move.47.5', 'q4ec2.g.move.51.5']",[]
follower,uh-huh,['q4ec2.f.move.50'],['reply_y']
giver,right go vertically down to just above s-- eh safari truck,['q4ec2.g.move.52'],['instruct']
follower,uh-huh,['q4ec2.f.move.53'],['acknowledge']
giver,right now what you want to do is diagonally eh from eh right to left go eh in front of safari truck,"['q4ec2.g.move.54', 'q4ec2.g.move.55.5']",['instruct']
follower,like coming underneath it,"['q4ec2.f.move.55', 'q4ec2.f.move.57.5']",['check']
giver,ehm you go up safari no no i don't mean go underneath it,"['q4ec2.g.move.56', 'q4ec2.g.move.58.5']",['reply_n']
follower,uh-huh,"['q4ec2.f.move.58', 'q4ec2.f.move.59.5']",['acknowledge']
giver,eh right so you're actually going from going diagonally eh from right to left above safari tr-- truck,"['q4ec2.g.move.59', 'q4ec2.g.move.60.5']",['clarify']
follower,oh okay,['q4ec2.f.move.60'],['acknowledge']
giver,right,['q4ec2.g.move.61'],['align']
follower,,['q4ec2.f.move.61.5'],[]
giver,,['q4ec2.g.move.62.5'],[]
follower,to where,"['q4ec2.f.move.62', 'q4ec2.f.move.63.5']",['query_w']
giver,to just ehm below the level of field station,"['q4ec2.g.move.63', 'q4ec2.g.move.65.5']",['reply_w']
follower,not got that,"['q4ec2.f.move.64', 'q4ec2.f.move.67.5']",['explain']
giver,aye the banana tree bu--,"['q4ec2.g.move.66', 'q4ec2.g.move.69.5']",['reply_y']
follower,no nothing there,"['q4ec2.f.move.68', 'q4ec2.f.move.70.5']",['reply_n']
giver,yeah right,"['q4ec2.g.move.70', 'q4ec2.g.move.71.5']",['acknowledge']
follower,so i'm going towards field station,"['q4ec2.f.move.71', 'q4ec2.f.move.73.5']",['check']
giver,yeah go towards field station right,"['q4ec2.g.move.72', 'q4ec2.g.move.73']","['reply_y', 'instruct']"
follower,okay,['q4ec2.f.move.74'],['acknowledge']
giver,,['q4ec2.g.move.74.5'],[]
follower,,['q4ec2.f.move.75.5'],[]
giver,until you're eh u-- just underneath the level of the words field station,['q4ec2.g.move.75'],['instruct']
follower,okay,['q4ec2.f.move.76'],['acknowledge']
giver,these are identical maps i hope right eh right,"['q4ec2.g.move.77', 'q4ec2.g.move.79', 'q4ec2.g.move.81.5']","['explain', 'ready']"
follower,i just double back the way,"['q4ec2.f.move.81', 'q4ec2.f.move.83.5']",['check']
giver,yes,"['q4ec2.g.move.82', 'q4ec2.g.move.85.5']",['reply_y']
follower,okay,"['q4ec2.f.move.84', 'q4ec2.f.move.86.5']",['acknowledge']
giver,right just p-- until you're past banana tree,['q4ec2.g.move.86'],['clarify']
follower,okay,['q4ec2.f.move.87'],['acknowledge']
giver,,"['q4ec2.g.move.88', 'q4ec2.g.move.89.5']",['instruct']
follower,,"['q4ec2.f.move.89', 'q4ec2.f.move.90.5']",['explain']
giver,you don't have a gold,"['q4ec2.g.move.90', 'q4ec2.g.move.91.5']",['check']
follower,no,"['q4ec2.f.move.91', 'q4ec2.f.move.92.5']",['reply_n']
giver,you must have a gold somewhere yeah,"['q4ec2.g.move.92', 'q4ec2.g.move.93.5']",['explain']
follower,i don't i didn't have that,"['q4ec2.f.move.93', 'q4ec2.f.move.94.5']",['explain']
giver,is it is it below banana tree,"['q4ec2.g.move.94', 'q4ec2.g.move.95.5']",['query_yn']
follower,no,"['q4ec2.f.move.95', 'q4ec2.f.move.96.5']",['reply_n']
giver,no,"['q4ec2.g.move.96', 'q4ec2.g.move.97.5']",['acknowledge']
follower,rock fall i've got,"['q4ec2.f.move.97', 'q4ec2.f.move.99.5']",['explain']
giver,rock fall,"['q4ec2.g.move.98', 'q4ec2.g.move.100.5']",['acknowledge']
follower,no,"['q4ec2.f.move.100', 'q4ec2.f.move.101.5']",['reply_n']
giver,is it is it anywhere at all near,"['q4ec2.g.move.101', 'q4ec2.g.move.102.5']",['query_yn']
follower,i've got to the right of banana tree and down there's rope bridge,"['q4ec2.f.move.102', 'q4ec2.f.move.103.5']",['reply_w']
giver,eh say that again to the,"['q4ec2.g.move.103', 'q4ec2.g.move.104.5']",['check']
follower,to the right of banana tree there's a rope bridge,"['q4ec2.f.move.104', 'q4ec2.f.move.106.5']",['clarify']
giver,right,"['q4ec2.g.move.105', 'q4ec2.g.move.107.5']",['acknowledge']
follower,yeah uh-huh,"['q4ec2.f.move.107', 'q4ec2.f.move.108.5']",['reply_y']
giver,and eh rock fall is like eh it forms a triangle,"['q4ec2.g.move.108', 'q4ec2.g.move.109.5']",['query_yn']
follower,yeah that's right aye,"['q4ec2.f.move.109', 'q4ec2.f.move.112.5']",['reply_y']
giver,right,"['q4ec2.g.move.110', 'q4ec2.g.move.113.5']",['acknowledge']
follower,,"['q4ec2.f.move.113', 'q4ec2.f.move.114.5']",['query_w']
giver,well my gold is uh the eh the mid point of the banana tree and rock fall line,"['q4ec2.g.move.114', 'q4ec2.g.move.116.5']",['reply_w']
follower,right,"['q4ec2.f.move.115', 'q4ec2.f.move.119.5']",['acknowledge']
giver,so you don't have that ehm right,"['q4ec2.g.move.117', 'q4ec2.g.move.122.5']",['acknowledge']
follower,i'm above banana tree,"['q4ec2.f.move.120', 'q4ec2.f.move.123.5']",['reply_w']
giver,you're certainly above it right,"['q4ec2.g.move.123', 'q4ec2.g.move.124.5']",['acknowledge']
follower,uh-huh,['q4ec2.f.move.124'],['reply_y']
giver,okay right come eh vertically down to just below the word banana tree,['q4ec2.g.move.125'],['instruct']
follower,okay,['q4ec2.f.move.126'],['acknowledge']
giver,now ehm since this obstacle is missing eh we can either go down and follow the exact same path as they've gone or we can go across to the rope bridge and down there ehm,"['q4ec2.g.move.126.6', 'q4ec2.g.move.128.5']",['instruct']
follower,from banana tree over to rope bridge,"['q4ec2.f.move.128', 'q4ec2.f.move.133.5']",['check']
giver,yeah,"['q4ec2.g.move.129', 'q4ec2.g.move.134.5']",['reply_y']
follower,okay,"['q4ec2.f.move.134', 'q4ec2.f.move.135.5']",['acknowledge']
giver,right and then eh and it's about ehm it's near the midpoint of eh banana tree rock fall line,"['q4ec2.g.move.135', 'q4ec2.g.move.136.5']",['instruct']
follower,mmhmm,['q4ec2.f.move.136'],['acknowledge']
giver,it's just slightly below that ehm then you want to go eh right ehm from left to right want to draw horizontal line ehm to about the middle of the page if there's if there's no obstacle there,"['q4ec2.g.move.137', 'q4ec2.g.move.138']",['instruct']
follower,sorry say that again,"['q4ec2.f.move.139', 'q4ec2.f.move.140.5']",['check']
giver,right,"['q4ec2.g.move.140', 'q4ec2.g.move.141.5']",['ready']
follower,right i'm i'm beside rope bridge just now,"['q4ec2.f.move.141', 'q4ec2.f.move.142.5']",['explain']
giver,you're bes-- beside rope bridge,"['q4ec2.g.move.142', 'q4ec2.g.move.143.5']",['check']
follower,did you mean just go straight keep going down but not go to,['q4ec2.f.move.143'],['check']
giver,yes,"['q4ec2.g.move.144', 'q4ec2.g.move.149.4']",['reply_y']
follower,right okay,"['q4ec2.f.move.147', 'q4ec2.f.move.149.5']",['acknowledge']
giver,right,"['q4ec2.g.move.149.9', 'q4ec2.g.move.150.5']",['acknowledge']
follower,uh-huh,"['q4ec2.f.move.150', 'q4ec2.f.move.153.5']",['acknowledge']
giver,right so you've just drawn a a vertical line from banana tree down right now you want to go eh from left to right ehm about to the middle of the page roughly,"['q4ec2.g.move.151', 'q4ec2.g.move.152', 'q4ec2.g.move.153', 'q4ec2.g.move.154.5']","['ready', 'align', 'instruct']"
follower,okay,['q4ec2.f.move.154'],['acknowledge']
giver,right then you want to draw a a vertical line from there up the way eh to the same level as the rope bridge,"['q4ec2.g.move.155', 'q4ec2.g.move.156', 'q4ec2.g.move.157.5']","['acknowledge', 'instruct']"
follower,mmhmm,"['q4ec2.f.move.157', 'q4ec2.f.move.158.5']",['acknowledge']
giver,not the rope bridge word but the actual rope bridge itself,"['q4ec2.g.move.158', 'q4ec2.g.move.160.5']",['instruct']
follower,mmhmm,"['q4ec2.f.move.159', 'q4ec2.f.move.161.5']",['acknowledge']
giver,it's more yes in the centre of the page,['q4ec2.g.move.161'],['reply_y']
follower,roughly okay,"['q4ec2.f.move.162', 'q4ec2.f.move.164.5']",['acknowledge']
giver,,"['q4ec2.g.move.162.5', 'q4ec2.g.move.165.5']",[]
follower,mmhmm,['q4ec2.f.move.165'],['acknowledge']
giver,right n-- from there you want to eh go from left to right across the rope bridge and it's actually ehm if if you think of a d-- it was it's not on the rope bridge the word but the rope bridge itself you want the the the line to pass through the diagram,"['q4ec2.g.move.166', 'q4ec2.g.move.167.5']",['instruct']
follower,uh-huh right,"['q4ec2.f.move.167', 'q4ec2.f.move.168.5']",['acknowledge']
giver,right,['q4ec2.g.move.168'],['align']
follower,okay,['q4ec2.f.move.169'],['acknowledge']
giver,right,"['q4ec2.g.move.170', 'q4ec2.g.move.172.5']",['ready']
follower,uh-huh,['q4ec2.f.move.172'],['reply_y']
giver,right,['q4ec2.g.move.173'],['acknowledge']
follower,,['q4ec2.f.move.174.5'],[]
giver,,"['q4ec2.g.move.173.5', 'q4ec2.g.move.175.5']",[]
follower,do do you have crocodiles underneath the rope bridge,"['q4ec2.f.move.175', 'q4ec2.f.move.179.5']",['query_yn']
giver,no,"['q4ec2.g.move.176', 'q4ec2.g.move.180.5']",['reply_n']
follower,directly underneath the right-hand side of the rope bridge,"['q4ec2.f.move.180', 'q4ec2.f.move.181.5']",['reply_w']
giver,right i see right,"['q4ec2.g.move.181', 'q4ec2.g.move.182.5']",['acknowledge']
follower,so if there's no obstruction beneath the rope bridge on the other side before you cross it do you think i could go from directly from there to the giraffes,"['q4ec2.f.move.182', 'q4ec2.f.move.184.5']",['query_yn']
giver,yeah i suppose if,"['q4ec2.g.move.183', 'q4ec2.g.move.185.5']",['reply_y']
follower,no that that won't that won't affect it,"['q4ec2.f.move.185', 'q4ec2.f.move.187.5']",['explain']
giver,right okay,"['q4ec2.g.move.186', 'q4ec2.g.move.189.5']",['ready']
follower,from before crossing the rope bridge,"['q4ec2.f.move.188', 'q4ec2.f.move.190.5']",['check']
giver,well no i'm i want you to cross the rope bridge right,"['q4ec2.g.move.190', 'q4ec2.g.move.191.5']",['clarify']
follower,but then i can't actually get from the other end of the rope bridge to the giraffes,"['q4ec2.f.move.191', 'q4ec2.f.move.193.5']",['explain']
giver,oh right,"['q4ec2.g.move.192', 'q4ec2.g.move.197.5']",['acknowledge']
follower,without the crocodiles,"['q4ec2.f.move.194', 'q4ec2.f.move.198.5']",['explain']
giver,eh can you dr-- actually draw round them,"['q4ec2.g.move.198', 'q4ec2.g.move.199.5']",['query_yn']
follower,well yeah i suppose,"['q4ec2.f.move.199', 'q4ec2.f.move.200.5']",['reply_y']
giver,well if you could draw round them then,"['q4ec2.g.move.200', 'q4ec2.g.move.201.5']",['instruct']
follower,straight down to the giraffes,"['q4ec2.f.move.201', 'q4ec2.f.move.203.5']",['check']
giver,yeah just to the left eh t-- sorry to the right of the giraffes in the the edge of the page and the giraffes,"['q4ec2.g.move.202', 'q4ec2.g.move.203']","['reply_y', 'clarify']"
follower,okay,['q4ec2.f.move.204'],['acknowledge']
giver,right,"['q4ec2.g.move.204.6', 'q4ec2.g.move.208.5']",['ready']
follower,there's the disused warehouse you got that,"['q4ec2.f.move.207', 'q4ec2.f.move.208']","['reply_w', 'query_yn']"
giver,disthouse u-- no i don't have that ehm if you can just go round eh above the eh disused warehouse and then you want to go eh under the great lake and to the finish,"['q4ec2.g.move.210', 'q4ec2.g.move.212', 'q4ec2.g.move.214', 'q4ec2.g.move.215.5']","['reply_n', 'instruct']"
follower,under the great lake,"['q4ec2.f.move.215', 'q4ec2.f.move.216.5']",['check']
giver,yeah,"['q4ec2.g.move.216', 'q4ec2.g.move.217.5']",['reply_y']
follower,where's the finish just there,"['q4ec2.f.move.217', 'q4ec2.f.move.218.5']",['query_w']
giver,well the finish is just between rock fall and great lake it's it's not directly between them but it's on the same level as that,"['q4ec2.g.move.218', 'q4ec2.g.move.219.5']",['reply_w']
follower,okay,['q4ec2.f.move.219'],['acknowledge']
giver,so that's it finished then,['q4ec2.g.move.220'],['explain']
