speaker,sentence,move_id,label
giver,okay,"['q5nc4.g.move.1', 'q5nc4.g.move.3.5']",['ready']
follower,mm,"['q5nc4.f.move.2', 'q5nc4.f.move.4.5']",['acknowledge']
giver,okay,"['q5nc4.g.move.4', 'q5nc4.g.move.6.5']",['align']
follower,now,"['q5nc4.f.move.5', 'q5nc4.f.move.9.5']",['ready']
giver,right,"['q5nc4.g.move.7', 'q5nc4.g.move.10.5']",['ready']
follower,uh-huh,"['q5nc4.f.move.10', 'q5nc4.f.move.11.5']",['reply_y']
giver,but just slightly down and slightly to the right,"['q5nc4.g.move.11', 'q5nc4.g.move.13.5']",['clarify']
follower,uh-huh,"['q5nc4.f.move.12', 'q5nc4.f.move.16.5']",['acknowledge']
giver,so you're get going to get a curve shape,"['q5nc4.g.move.14', 'q5nc4.g.move.17.5']",['clarify']
follower,uh-huh,"['q5nc4.f.move.17', 'q5nc4.f.move.18.5']",['acknowledge']
giver,curve at the cliffs,"['q5nc4.g.move.18', 'q5nc4.g.move.19.5']",['clarify']
follower,yeah,"['q5nc4.f.move.19', 'q5nc4.f.move.20.5']",['acknowledge']
giver,right,['q5nc4.g.move.20'],['align']
follower,right,['q5nc4.f.move.21'],['reply_y']
giver,have you got a forge,"['q5nc4.g.move.22', 'q5nc4.g.move.23.5']",['query_yn']
follower,ehm no,"['q5nc4.f.move.23', 'q5nc4.f.move.26.5']",['reply_n']
giver,no,['q5nc4.g.move.24'],['acknowledge']
follower,no,['q5nc4.f.move.27'],['reply_n']
giver,,['q5nc4.g.move.24.5'],[]
follower,,['q5nc4.f.move.27.4'],[]
giver,right,"['q5nc4.g.move.25', 'q5nc4.g.move.28.5']",['ready']
follower,right,"['q5nc4.f.move.27.9', 'q5nc4.f.move.29.5']",['ready']
giver,no don't go underneath the cliffs,"['q5nc4.g.move.29', 'q5nc4.g.move.31.5']",['reply_n']
follower,no,['q5nc4.f.move.30'],['check']
giver,no no no,"['q5nc4.g.move.32', 'q5nc4.g.move.33.5']",['reply_n']
follower,no,"['q5nc4.f.move.31', 'q5nc4.f.move.34.5']",['acknowledge']
giver,"it's like a backward ""s"" shape you're forming","['q5nc4.g.move.34', 'q5nc4.g.move.35.5']",['instruct']
follower,mm yeah think i know,"['q5nc4.f.move.35', 'q5nc4.f.move.36.5']",['acknowledge']
giver,right,"['q5nc4.g.move.36', 'q5nc4.g.move.37.5']",['align']
follower,yeah okay,"['q5nc4.f.move.37', 'q5nc4.f.move.40.5']",['reply_y']
giver,so have you got that far,"['q5nc4.g.move.38', 'q5nc4.g.move.40']","['ready', 'align']"
follower,i don't know,['q5nc4.f.move.41'],['reply_w']
giver,right okay right,"['q5nc4.g.move.42', 'q5nc4.g.move.44.5']",['ready']
follower,to the right to the right okay,"['q5nc4.f.move.44', 'q5nc4.f.move.45.5']",['acknowledge']
giver,okay,['q5nc4.g.move.45'],['align']
follower,thanks,['q5nc4.f.move.46'],['reply_y']
giver,and then,"['q5nc4.g.move.47', 'q5nc4.g.move.49.5']",['ready']
follower,mm,"['q5nc4.f.move.49', 'q5nc4.f.move.50.5']",['acknowledge']
giver,further to the left,['q5nc4.g.move.50'],['instruct']
follower,yeah,['q5nc4.f.move.51'],['acknowledge']
giver,,['q5nc4.g.move.54.5'],[]
follower,i've got an old pine here,"['q5nc4.f.move.51.5', 'q5nc4.f.move.53']",['explain']
giver,come back an old pine an old pine,['q5nc4.g.move.55'],['acknowledge']
follower,what do i do in relation to it,"['q5nc4.f.move.54', 'q5nc4.f.move.55.5']",['query_w']
giver,,['q5nc4.g.move.56.5'],[]
follower,oh and you don't have it,"['q5nc4.f.move.56', 'q5nc4.f.move.58.5']",['check']
giver,right ehm,"['q5nc4.g.move.57', 'q5nc4.g.move.59.5']",['ready']
follower,the old pine is ehm underneath and,"['q5nc4.f.move.59', 'q5nc4.f.move.60.5']",['reply_w']
giver,underneath the curve,"['q5nc4.g.move.60', 'q5nc4.g.move.61.5']",['reply_w']
follower,to the to the right of the cliffs,['q5nc4.f.move.61'],['reply_w']
giver,really ehm,['q5nc4.g.move.62'],['acknowledge']
follower,,['q5nc4.f.move.62.5'],[]
giver,,['q5nc4.g.move.63.5'],[]
follower,right okay forget the old pine,"['q5nc4.f.move.63', 'q5nc4.f.move.65']","['ready', 'instruct']"
giver,okay well you're going to go round the old pine,"['q5nc4.g.move.64', 'q5nc4.g.move.68']","['acknowledge', 'instruct']"
follower,right,"['q5nc4.f.move.67', 'q5nc4.f.move.69.5']",['acknowledge']
giver,right,"['q5nc4.g.move.69', 'q5nc4.g.move.71.5']",['align']
follower,am i,"['q5nc4.f.move.70', 'q5nc4.f.move.72.5']",['check']
giver,but,"['q5nc4.g.move.72', 'q5nc4.g.move.72.4']",['ready']
follower,ah,"['q5nc4.f.move.73', 'q5nc4.f.move.73.4']",['acknowledge']
giver,go round the old pine,"['q5nc4.g.move.72.9', 'q5nc4.g.move.76.5']",['instruct']
follower,mmhmm,"['q5nc4.f.move.73.9', 'q5nc4.f.move.79.5']",['acknowledge']
giver,above it,"['q5nc4.g.move.77', 'q5nc4.g.move.80.5']",['reply_w']
follower,right,"['q5nc4.f.move.80', 'q5nc4.f.move.81.5']",['acknowledge']
giver,straight above it right,['q5nc4.g.move.81'],['reply_w']
follower,okay,['q5nc4.f.move.82'],['acknowledge']
giver,go slightly,"['q5nc4.g.move.82.6', 'q5nc4.g.move.84.5']",['instruct']
follower,now where am i now,"['q5nc4.f.move.84', 'q5nc4.f.move.85.5']",['query_w']
giver,right,"['q5nc4.g.move.85', 'q5nc4.g.move.86.5']",['align']
follower,don't know where i am,['q5nc4.f.move.86'],['explain']
giver,go five centimetres,['q5nc4.g.move.87'],['instruct']
follower,,['q5nc4.f.move.88.5'],[]
giver,are you near a pine forest,"['q5nc4.g.move.88', 'q5nc4.g.move.89.5']",['query_yn']
follower,eh yeah i can see the pine forest,"['q5nc4.f.move.89', 'q5nc4.f.move.91']","['reply_y', 'acknowledge']"
giver,right,"['q5nc4.g.move.90', 'q5nc4.g.move.91.5']",['acknowledge']
follower,,['q5nc4.f.move.93.5'],[]
giver,right,"['q5nc4.g.move.92', 'q5nc4.g.move.95.5']",['ready']
follower,mm so i go over to the pine forest and then go down,"['q5nc4.f.move.94', 'q5nc4.f.move.95', 'q5nc4.f.move.96.5']","['acknowledge', 'check']"
giver,no no no right,['q5nc4.g.move.96'],['reply_n']
follower,no,"['q5nc4.f.move.97', 'q5nc4.f.move.100.5']",['acknowledge']
giver,,"['q5nc4.g.move.97.5', 'q5nc4.g.move.101.5']",[]
follower,uh-huh,"['q5nc4.f.move.101', 'q5nc4.f.move.102.5']",['reply_y']
giver,the top of it right,"['q5nc4.g.move.102', 'q5nc4.g.move.103.5']",['align']
follower,yeah,"['q5nc4.f.move.103', 'q5nc4.f.move.104.5']",['reply_y']
giver,you're going to go to the left right you should be at the left of it right and paralle-- parallel to it,"['q5nc4.g.move.104', 'q5nc4.g.move.105.5']",['instruct']
follower,mmhmm,"['q5nc4.f.move.105', 'q5nc4.f.move.106.5']",['acknowledge']
giver,right,"['q5nc4.g.move.106', 'q5nc4.g.move.107.5']",['ready']
follower,yeah,"['q5nc4.f.move.107', 'q5nc4.f.move.108.5']",['acknowledge']
giver,are you there,"['q5nc4.g.move.108', 'q5nc4.g.move.109.5']",['align']
follower,ehm think so,"['q5nc4.f.move.109', 'q5nc4.f.move.110.5']",['reply_y']
giver,okay,"['q5nc4.g.move.110', 'q5nc4.g.move.111.5']",['acknowledge']
follower,right,"['q5nc4.f.move.111', 'q5nc4.f.move.112.5']",['acknowledge']
giver,ehm,['q5nc4.g.move.112'],['uncodable']
follower,oh dear,['q5nc4.f.move.113'],['acknowledge']
giver,right,"['q5nc4.g.move.114', 'q5nc4.g.move.117.5']",['ready']
follower,mmhmm,"['q5nc4.f.move.117', 'q5nc4.f.move.119.5']",['reply_y']
giver,right,"['q5nc4.g.move.118', 'q5nc4.g.move.121.5']",['ready']
follower,right,"['q5nc4.f.move.120', 'q5nc4.f.move.122.5']",['acknowledge']
giver,right,"['q5nc4.g.move.122', 'q5nc4.g.move.123.5']",['align']
follower,uh-huh yeah,['q5nc4.f.move.123'],['reply_y']
giver,right now,['q5nc4.g.move.124'],['ready']
follower,okay,['q5nc4.f.move.125'],['acknowledge']
giver,,['q5nc4.g.move.125.5'],[]
follower,,['q5nc4.f.move.126.5'],[]
giver,you're going to form another outward curve like half a circle,"['q5nc4.g.move.126', 'q5nc4.g.move.127.5']",['instruct']
follower,mmhmm,"['q5nc4.f.move.127', 'q5nc4.f.move.128.5']",['acknowledge']
giver,just do sort like a small half circle to your sort like ehm a quarter down the page,['q5nc4.g.move.128'],['instruct']
follower,mmhmm,['q5nc4.f.move.129'],['acknowledge']
giver,right are you ne-- a--,"['q5nc4.g.move.130', 'q5nc4.g.move.131.5']",['query_yn']
follower,so where am i heading,"['q5nc4.f.move.131', 'q5nc4.f.move.133.5']",['query_w']
giver,right are y-- you near a bakery,"['q5nc4.g.move.132', 'q5nc4.g.move.133']","['ready', 'query_yn']"
follower,eh yeah,['q5nc4.f.move.134'],['reply_y']
giver,,['q5nc4.g.move.134.5'],[]
follower,,['q5nc4.f.move.136.5'],[]
giver,right,"['q5nc4.g.move.135', 'q5nc4.g.move.137.5']",['ready']
follower,round the bakery mm,"['q5nc4.f.move.137', 'q5nc4.f.move.138.5']",['check']
giver,round the bakery,"['q5nc4.g.move.138', 'q5nc4.g.move.140.5']",['reply_y']
follower,god,['q5nc4.f.move.139'],['acknowledge']
giver,ehm go out out out the way,"['q5nc4.g.move.141', 'q5nc4.g.move.142.5']",['reply_w']
follower,what way,"['q5nc4.f.move.140', 'q5nc4.f.move.143.5']",['query_w']
giver,towards the towards the th-- ehm the edge of the page,"['q5nc4.g.move.143', 'q5nc4.g.move.146.5']",['reply_w']
follower,mm oh dear right have you got a forest stream,"['q5nc4.f.move.144', 'q5nc4.f.move.145', 'q5nc4.f.move.146', 'q5nc4.f.move.147.5']","['acknowledge', 'ready', 'query_yn']"
giver,no,"['q5nc4.g.move.147', 'q5nc4.g.move.148.5']",['reply_n']
follower,no,"['q5nc4.f.move.148', 'q5nc4.f.move.149.5']",['acknowledge']
giver,right,"['q5nc4.g.move.149', 'q5nc4.g.move.153.5']",['ready']
follower,right,"['q5nc4.f.move.150', 'q5nc4.f.move.152.5']",['ready']
giver,i have wheatfields right,"['q5nc4.g.move.154', 'q5nc4.g.move.156.5']",['reply_y']
follower,right the way over,"['q5nc4.f.move.153', 'q5nc4.f.move.157.5']",['query_yn']
giver,should be nowhere near them,"['q5nc4.g.move.157', 'q5nc4.g.move.159.5']",['reply_w']
follower,yeah,"['q5nc4.f.move.158', 'q5nc4.f.move.162.5']",['ready']
giver,have you,"['q5nc4.g.move.160', 'q5nc4.g.move.163.5']",['query_yn']
follower,no,"['q5nc4.f.move.163', 'q5nc4.f.move.167.5']",['reply_n']
giver,now right,"['q5nc4.g.move.164', 'q5nc4.g.move.169.5']",['ready']
follower,no,"['q5nc4.f.move.168', 'q5nc4.f.move.171.5']",['reply_n']
giver,so,"['q5nc4.g.move.170', 'q5nc4.g.move.172.5']",['ready']
follower,ehm i'll make my way round the stream here oh dear,"['q5nc4.f.move.172', 'q5nc4.f.move.173.5']",['explain']
giver,right,"['q5nc4.g.move.173', 'q5nc4.g.move.174.5']",['align']
follower,right i think so,"['q5nc4.f.move.174', 'q5nc4.f.move.175.5']",['reply_y']
giver,go round the bakery,"['q5nc4.g.move.175', 'q5nc4.g.move.176.5']",['instruct']
follower,mm,['q5nc4.f.move.176'],['acknowledge']
giver,right round it and just pass i-- pass it erm a small fraction,"['q5nc4.g.move.177', 'q5nc4.g.move.178.5']",['instruct']
follower,mmhmm,"['q5nc4.f.move.178', 'q5nc4.f.move.179.5']",['acknowledge']
giver,as well,['q5nc4.g.move.179'],['instruct']
follower,right,['q5nc4.f.move.180'],['acknowledge']
giver,right,"['q5nc4.g.move.181', 'q5nc4.g.move.183.5']",['ready']
follower,mmhmm,"['q5nc4.f.move.183', 'q5nc4.f.move.184.5']",['acknowledge']
giver,right,['q5nc4.g.move.184'],['align']
follower,yeah,['q5nc4.f.move.185'],['reply_y']
giver,you're going to form another slight curve ehm another circle but you're going to do it ehm ehm convex towards the page like outward an outward you're forming the outward ehm form of a circle here a minute,"['q5nc4.g.move.186', 'q5nc4.g.move.192.5']",['instruct']
follower,i'm going to go off the edge of the page here,['q5nc4.f.move.191'],['explain']
giver,right are you near wheatfields,['q5nc4.g.move.193'],['query_yn']
follower,no,['q5nc4.f.move.194'],['reply_n']
giver,,['q5nc4.g.move.194.5'],[]
follower,,['q5nc4.f.move.196.5'],[]
giver,no right,"['q5nc4.g.move.195', 'q5nc4.g.move.197.5']",['ready']
follower,right mm,"['q5nc4.f.move.197', 'q5nc4.f.move.199.5']",['acknowledge']
giver,but down slightly but you're sort of still in the middle of the page,"['q5nc4.g.move.198', 'q5nc4.g.move.200.5']",['instruct']
follower,mm yeah,['q5nc4.f.move.200'],['reply_y']
giver,right,['q5nc4.g.move.201'],['acknowledge']
follower,,['q5nc4.f.move.201.5'],[]
giver,,['q5nc4.g.move.203.5'],[]
follower,right,"['q5nc4.f.move.202', 'q5nc4.f.move.205.5']",['ready']
giver,right see the second peak of crane bay,"['q5nc4.g.move.204', 'q5nc4.g.move.205']","['ready', 'align']"
follower,uh-huh,['q5nc4.f.move.206'],['reply_y']
giver,,['q5nc4.g.move.206.5'],[]
follower,,['q5nc4.f.move.207.5'],[]
giver,that's where you should be,['q5nc4.g.move.207'],['instruct']
follower,no i'm not there,"['q5nc4.f.move.208', 'q5nc4.f.move.209']","['reply_n', 'explain']"
giver,right retrace all your steps go go to there,"['q5nc4.g.move.210', 'q5nc4.g.move.211']","['ready', 'instruct']"
follower,right,"['q5nc4.f.move.212', 'q5nc4.f.move.217.5']",['acknowledge']
giver,,"['q5nc4.g.move.215.5', 'q5nc4.g.move.219.5']",[]
follower,er right wait a minute,"['q5nc4.f.move.218', 'q5nc4.f.move.220.5']",['ready']
giver,uh-huh,['q5nc4.g.move.220'],['reply_y']
follower,uh-huh,['q5nc4.f.move.221'],['acknowledge']
giver,,['q5nc4.g.move.221.5'],[]
follower,,['q5nc4.f.move.223.5'],[]
giver,shi-- right sort of trace that sort ehm bevelled shape in crane crane bay and you want to get to the second peak of crane bay,"['q5nc4.g.move.222', 'q5nc4.g.move.224.5']",['instruct']
follower,eh yeah i think so i'm getting there,"['q5nc4.f.move.224', 'q5nc4.f.move.225.5']",['reply_y']
giver,the one that's towards the right,"['q5nc4.g.move.225', 'q5nc4.g.move.226.5']",['instruct']
follower,yeah,['q5nc4.f.move.226'],['acknowledge']
giver,okay right follow that curve of crane bay down for about three centimetres,"['q5nc4.g.move.227', 'q5nc4.g.move.228', 'q5nc4.g.move.229']","['align', 'ready', 'instruct']"
follower,mmhmm,['q5nc4.f.move.230'],['acknowledge']
giver,,['q5nc4.g.move.230.5'],[]
follower,,['q5nc4.f.move.231.5'],[]
giver,are you near wheatfields,"['q5nc4.g.move.231', 'q5nc4.g.move.232.5']",['query_yn']
follower,no my wheatfields are on the middle of the page,"['q5nc4.f.move.232', 'q5nc4.f.move.234']","['reply_n', 'explain']"
giver,no that's that's okay that's okay right go go along for another three centimetres,"['q5nc4.g.move.233', 'q5nc4.g.move.235', 'q5nc4.g.move.236', 'q5nc4.g.move.237.5']","['acknowledge', 'instruct']"
follower,have you got a rocket warehouse,"['q5nc4.f.move.237', 'q5nc4.f.move.238.5']",['query_yn']
giver,uh-huh,"['q5nc4.g.move.238', 'q5nc4.g.move.240.5']",['reply_y']
follower,now,"['q5nc4.f.move.239', 'q5nc4.f.move.242.5']",['ready']
giver,right,"['q5nc4.g.move.241', 'q5nc4.g.move.243.5']",['ready']
follower,just above it,"['q5nc4.f.move.243', 'q5nc4.f.move.244.5']",['acknowledge']
giver,right,['q5nc4.g.move.244'],['align']
follower,right,"['q5nc4.f.move.245', 'q5nc4.f.move.247.5']",['ready']
giver,uh-huh,"['q5nc4.g.move.247', 'q5nc4.g.move.250.5']",['reply_y']
follower,and then across,"['q5nc4.f.move.248', 'q5nc4.f.move.251.5']",['check']
giver,just you should be just above rocket warehouse,"['q5nc4.g.move.251', 'q5nc4.g.move.252.5']",['clarify']
follower,yeah,"['q5nc4.f.move.252', 'q5nc4.f.move.253.5']",['acknowledge']
giver,right,['q5nc4.g.move.253'],['align']
follower,uh-huh think so,['q5nc4.f.move.254'],['reply_y']
giver,right,"['q5nc4.g.move.255', 'q5nc4.g.move.257.5']",['ready']
follower,mmhmm,"['q5nc4.f.move.257', 'q5nc4.f.move.258.5']",['acknowledge']
giver,right,"['q5nc4.g.move.258', 'q5nc4.g.move.259.5']",['align']
follower,yeah,"['q5nc4.f.move.259', 'q5nc4.f.move.261.5']",['reply_y']
giver,and then,"['q5nc4.g.move.260', 'q5nc4.g.move.262.5']",['ready']
follower,erm oh dear oh dear,"['q5nc4.f.move.262', 'q5nc4.f.move.263.5']",['uncodable']
giver,you're about an in--,"['q5nc4.g.move.263', 'q5nc4.g.move.264.5']",['instruct']
follower,i'm still at the left of the rocket warehouse,['q5nc4.f.move.264'],['explain']
giver,right,"['q5nc4.g.move.265', 'q5nc4.g.move.269.5']",['ready']
follower,uh-huh,"['q5nc4.f.move.267', 'q5nc4.f.move.270.5']",['reply_y']
giver,above,"['q5nc4.g.move.270', 'q5nc4.g.move.271.5']",['acknowledge']
follower,and at the left of the rocket warehouse,"['q5nc4.f.move.271', 'q5nc4.f.move.275.5']",['explain']
giver,above,"['q5nc4.g.move.272', 'q5nc4.g.move.276.5']",['acknowledge']
follower,mm right okay,"['q5nc4.f.move.276', 'q5nc4.f.move.277.5']",['acknowledge']
giver,okay,['q5nc4.g.move.277'],['align']
follower,hope so,['q5nc4.f.move.278'],['reply_w']
giver,go down by another three centimetres,"['q5nc4.g.move.279', 'q5nc4.g.move.280.5']",['instruct']
follower,oh,['q5nc4.f.move.280'],['acknowledge']
giver,and then trying to think,"['q5nc4.g.move.280.6', 'q5nc4.g.move.283']","['ready', 'explain']"
follower,,['q5nc4.f.move.281.5'],[]
giver,,['q5nc4.g.move.283.4'],[]
follower,have you got an old lighthouse,['q5nc4.f.move.282'],['query_yn']
giver,yeah,"['q5nc4.g.move.283.9', 'q5nc4.g.move.285.5']",['reply_y']
follower,and a cave,['q5nc4.f.move.284'],['query_yn']
giver,well,['q5nc4.g.move.286'],['ready']
follower,right,"['q5nc4.f.move.285', 'q5nc4.f.move.287.5']",['acknowledge']
giver,you're heading towards the old lighthouse that's where you should be now,['q5nc4.g.move.287'],['instruct']
follower,ehm yeah that's where i'm going,['q5nc4.f.move.288'],['acknowledge']
giver,,['q5nc4.g.move.289.5'],[]
follower,,"['q5nc4.f.move.288.5', 'q5nc4.f.move.290.5']",[]
giver,that's it that's it,"['q5nc4.g.move.290', 'q5nc4.g.move.293.5']",['reply_w']
follower,that's it,"['q5nc4.f.move.291', 'q5nc4.f.move.294.5']",['check']
giver,yep,['q5nc4.g.move.294'],['reply_y']
follower,right,['q5nc4.f.move.295'],['acknowledge']
