speaker,sentence,move_id,label
giver,have you got the missionary camp at the right-hand side,['q6nc5.g.move.1'],['query_yn']
follower,yeah uh-huh,['q6nc5.f.move.2'],['reply_y']
giver,,['q6nc5.g.move.2.5'],[]
follower,,['q6nc5.f.move.4.5'],[]
giver,okay have you got the start,"['q6nc5.g.move.3', 'q6nc5.g.move.4']","['ready', 'query_yn']"
follower,yeah got the start,['q6nc5.f.move.5'],['reply_y']
giver,,['q6nc5.g.move.5.5'],[]
follower,,['q6nc5.f.move.6.5'],[]
giver,is it at the top of it,['q6nc5.g.move.6'],['query_yn']
follower,uh-huh,['q6nc5.f.move.7'],['reply_y']
giver,,['q6nc5.g.move.7.5'],[]
follower,,['q6nc5.f.move.9.5'],[]
giver,right okay go to the right i think it is yeah right go to the right about two centi-- about two three centimetres,"['q6nc5.g.move.8', 'q6nc5.g.move.9']","['ready', 'instruct']"
follower,right,['q6nc5.f.move.10'],['acknowledge']
giver,go down two three centimetres,"['q6nc5.g.move.11', 'q6nc5.g.move.12.5']",['instruct']
follower,down,"['q6nc5.f.move.12', 'q6nc5.f.move.15.5']",['check']
giver,uh-huh,"['q6nc5.g.move.13', 'q6nc5.g.move.16.5']",['reply_y']
follower,uh-huh,['q6nc5.f.move.16'],['reply_y']
giver,go right about two go right three centimetres yeah,"['q6nc5.g.move.17', 'q6nc5.g.move.19.5']",['align']
follower,uh-huh,"['q6nc5.f.move.18', 'q6nc5.f.move.21.5']",['reply_y']
giver,past missionary camp go down about two three centimetres,"['q6nc5.g.move.20', 'q6nc5.g.move.21', 'q6nc5.g.move.22.5']","['reply_y', 'clarify']"
follower,right,['q6nc5.f.move.22'],['acknowledge']
giver,right,['q6nc5.g.move.23'],['acknowledge']
follower,,['q6nc5.f.move.24.5'],[]
giver,see your left-hand side have you got gorillas and trees and stuff,"['q6nc5.g.move.23.5', 'q6nc5.g.move.24']",['query_yn']
follower,i've got a banana tree,['q6nc5.f.move.25'],['reply_w']
giver,,['q6nc5.g.move.25.5'],[]
follower,,['q6nc5.f.move.27.5'],[]
giver,right well,"['q6nc5.g.move.26', 'q6nc5.g.move.30.5']",['ready']
follower,right,"['q6nc5.f.move.28', 'q6nc5.f.move.32.5']",['acknowledge']
giver,yeah down past the centre,"['q6nc5.g.move.31', 'q6nc5.g.move.33.5']",['reply_y']
follower,right along to the banana tree,"['q6nc5.f.move.33', 'q6nc5.f.move.34.5']",['check']
giver,yeah,"['q6nc5.g.move.34', 'q6nc5.g.move.35.5']",['reply_y']
follower,to the bottom of it,"['q6nc5.f.move.35', 'q6nc5.f.move.36.5']",['check']
giver,yeah the bottom of it,['q6nc5.g.move.36'],['reply_y']
follower,right,['q6nc5.f.move.37'],['acknowledge']
giver,then go round it to the top just go round it you know right to the end and then just go to the top,"['q6nc5.g.move.38', 'q6nc5.g.move.39.5']",['instruct']
follower,uh-huh,"['q6nc5.f.move.39', 'q6nc5.f.move.40.5']",['acknowledge']
giver,have you done that,['q6nc5.g.move.40'],['align']
follower,yeah there's a straight river,"['q6nc5.f.move.41', 'q6nc5.f.move.42']","['reply_y', 'explain']"
giver,uh-huh,['q6nc5.g.move.43'],['acknowledge']
follower,,['q6nc5.f.move.44.5'],[]
giver,a rope bridge,['q6nc5.g.move.44'],['query_yn']
follower,uh-huh,['q6nc5.f.move.45'],['reply_y']
giver,,['q6nc5.g.move.45.5'],[]
follower,,['q6nc5.f.move.47.5'],[]
giver,right,"['q6nc5.g.move.46', 'q6nc5.g.move.48.5']",['ready']
follower,cross the rope bridge,"['q6nc5.f.move.48', 'q6nc5.f.move.49.5']",['check']
giver,yeah,"['q6nc5.g.move.49', 'q6nc5.g.move.50.5']",['reply_y']
follower,so i need to go along toward,"['q6nc5.f.move.50', 'q6nc5.f.move.51.5']",['check']
giver,along ri-- left,"['q6nc5.g.move.51', 'q6nc5.g.move.53.5']",['reply_w']
follower,no right the rope bi-- ri-- i've come to the bottom of the banana tree,"['q6nc5.f.move.52', 'q6nc5.f.move.53', 'q6nc5.f.move.54.5']","['reply_n', 'explain']"
giver,right,"['q6nc5.g.move.54', 'q6nc5.g.move.55.5']",['acknowledge']
follower,right,"['q6nc5.f.move.55', 'q6nc5.f.move.56.5']",['align']
giver,uh-huh,['q6nc5.g.move.56'],['reply_y']
follower,then i came up beh-- towards the left of it,"['q6nc5.f.move.57', 'q6nc5.f.move.59.5']",['explain']
giver,mmhmm,['q6nc5.g.move.59'],['reply_y']
follower,and now i'll need to go to the right to get to the rope bridge,"['q6nc5.f.move.60', 'q6nc5.f.move.61.5']",['explain']
giver,right to the rope bridge,"['q6nc5.g.move.61', 'q6nc5.g.move.62.5']",['check']
follower,mmhmm,"['q6nc5.f.move.62', 'q6nc5.f.move.66.5']",['reply_y']
giver,you have to go r-- just go that way okay have you got a waterfall,"['q6nc5.g.move.63', 'q6nc5.g.move.65', 'q6nc5.g.move.66', 'q6nc5.g.move.69.5']","['check', 'instruct', 'query_yn']"
follower,a waterf--,"['q6nc5.f.move.67', 'q6nc5.f.move.70.5']",['acknowledge']
giver,it's on the right-hand side,"['q6nc5.g.move.70', 'q6nc5.g.move.71.5']",['check']
follower,uh-huh,"['q6nc5.f.move.71', 'q6nc5.f.move.73.5']",['reply_y']
giver,well okay cross the bridge right and go to it just go right beside it,"['q6nc5.g.move.72', 'q6nc5.g.move.73']","['ready', 'instruct']"
follower,right,"['q6nc5.f.move.74', 'q6nc5.f.move.76.5']",['acknowledge']
giver,uh-huh,"['q6nc5.g.move.76', 'q6nc5.g.move.77.5']",['reply_y']
follower,and go to the waterfall,"['q6nc5.f.move.77', 'q6nc5.f.move.78.5']",['check']
giver,yeah,"['q6nc5.g.move.78', 'q6nc5.g.move.79.5']",['reply_y']
follower,right,"['q6nc5.f.move.79', 'q6nc5.f.move.80.5']",['acknowledge']
giver,not to it but you know just beside it,['q6nc5.g.move.80'],['clarify']
follower,uh-huh yeah,['q6nc5.f.move.81'],['acknowledge']
giver,have you got lost steps,['q6nc5.g.move.83'],['query_yn']
follower,yeah,['q6nc5.f.move.84'],['reply_y']
giver,,['q6nc5.g.move.84.5'],[]
follower,,['q6nc5.f.move.85.5'],[]
giver,right well go right up to them right to the top of them but not you know to the right-hand side of them not,"['q6nc5.g.move.85', 'q6nc5.g.move.87.5']",['instruct']
follower,to the right-hand side of them,"['q6nc5.f.move.86', 'q6nc5.f.move.89.5']",['check']
giver,yeah,"['q6nc5.g.move.88', 'q6nc5.g.move.91.5']",['reply_y']
follower,so i need to curve up and go in a,"['q6nc5.f.move.90', 'q6nc5.f.move.92.5']",['check']
giver,uh-huh,"['q6nc5.g.move.92', 'q6nc5.g.move.93.5']",['reply_y']
follower,right,['q6nc5.f.move.93'],['acknowledge']
giver,have you got the missionary camp at the right-hand side okay have you got the start is it at the top of it right okay go to the right i think it is yeah right go to the right about two centi-- about two three centimetres go down two three centimetres uh-huh you're at the top and that go right about two go right three centimetres yeah past missionary camp go down about two three centimetres right see your left-hand side have you got gorillas and trees and stuff right well go right along to it to the bottom of it right along to the bottom yeah down past the centre right along to the yeah yeah the bottom of it then go round it to the top just go round it you know right to the end and then just go to the top have you done that uh-huh a rope bridge right well you're supposed to cross it yeah along ri-- left right uh-huh mmhmm right to the rope bridge you have to go r-- okay right just go that way okay have you got a waterfall it's on the right-hand side well okay cross the bridge right and go to it just go right beside it uh-huh yeah not to it but you know just beside it have you got lost steps right well go right up to them right to the top of them but not you know to the right-hand side of them not the yeah just right to the top to the righthand side uh-huh g-- right go over the top have you got fallen pillars,"['q6nc5.g.move.94', 'q6nc5.g.move.95', 'q6nc5.g.move.96', 'q6nc5.g.move.100.5']","['ready', 'instruct', 'query_yn']"
follower,uh i've got right,"['q6nc5.f.move.97', 'q6nc5.f.move.103.5']",['ready']
giver,have you,"['q6nc5.g.move.101', 'q6nc5.g.move.105.5']",['query_yn']
follower,well first i've got gazelles and then i've got fallen pillars,"['q6nc5.f.move.104', 'q6nc5.f.move.105']","['ready', 'reply_w']"
giver,i see,['q6nc5.g.move.106'],['acknowledge']
follower,,['q6nc5.f.move.107.5'],[]
giver,gazelles are on top of the lost steps,"['q6nc5.g.move.107', 'q6nc5.g.move.109.5']",['check']
follower,no,"['q6nc5.f.move.108', 'q6nc5.f.move.110.5']",['reply_n']
giver,the middle of the map,['q6nc5.g.move.110'],['check']
follower,uh-huh,['q6nc5.f.move.111'],['reply_y']
giver,,['q6nc5.g.move.111.5'],[]
follower,,['q6nc5.f.move.114.5'],[]
giver,well have you got to the lost steps,"['q6nc5.g.move.112', 'q6nc5.g.move.114']","['ready', 'align']"
follower,yeah i'm at the lost steps just now,['q6nc5.f.move.115'],['reply_y']
giver,,['q6nc5.g.move.115.5'],[]
follower,,['q6nc5.f.move.115.4'],[]
giver,well,"['q6nc5.g.move.116', 'q6nc5.g.move.117.4']",['ready']
follower,mm,"['q6nc5.f.move.115.9', 'q6nc5.f.move.119.5']",['acknowledge']
giver,to the fallen pillars that's to the left,"['q6nc5.g.move.117.9', 'q6nc5.g.move.120.5']",['instruct']
follower,to the fallen pillars,"['q6nc5.f.move.120', 'q6nc5.f.move.121.5']",['check']
giver,mmhmm,"['q6nc5.g.move.121', 'q6nc5.g.move.122.5']",['reply_y']
follower,at the bottom of the fallen pillars,"['q6nc5.f.move.122', 'q6nc5.f.move.124.5']",['check']
giver,yeah,"['q6nc5.g.move.123', 'q6nc5.g.move.125.5']",['reply_y']
follower,right,"['q6nc5.f.move.125', 'q6nc5.f.move.127.5']",['acknowledge']
giver,sto-- right if you go right to the bottom okay,"['q6nc5.g.move.126', 'q6nc5.g.move.127']","['ready', 'align']"
follower,uh-huh,['q6nc5.f.move.128'],['reply_y']
giver,ehm go two three centi-- three centimetres down,"['q6nc5.g.move.129', 'q6nc5.g.move.130.5']",['instruct']
follower,down,"['q6nc5.f.move.130', 'q6nc5.f.move.131.5']",['check']
giver,mmhmm,"['q6nc5.g.move.131', 'q6nc5.g.move.132.5']",['reply_y']
follower,right,['q6nc5.f.move.132'],['acknowledge']
giver,then are you going down right,"['q6nc5.g.move.133', 'q6nc5.g.move.135']","['ready', 'align']"
follower,mmhmm,['q6nc5.f.move.136'],['reply_y']
giver,,['q6nc5.g.move.136.5'],[]
follower,,['q6nc5.f.move.139.5'],[]
giver,then sort go back up in a circle sort thing you know just curve round to the a--,['q6nc5.g.move.137'],['instruct']
follower,curve round curve round the fallen pillars,['q6nc5.f.move.140'],['check']
giver,have you got no not curve round,"['q6nc5.g.move.139', 'q6nc5.g.move.141']","['query_yn', 'reply_n']"
follower,,['q6nc5.f.move.142.5'],[]
giver,you're just at the bottom aren't you,['q6nc5.g.move.142'],['align']
follower,uh-huh,['q6nc5.f.move.143'],['reply_y']
giver,,['q6nc5.g.move.143.5'],[]
follower,,['q6nc5.f.move.144.5'],[]
giver,and you've gone down a bit,['q6nc5.g.move.144'],['align']
follower,uh-huh,['q6nc5.f.move.145'],['reply_y']
giver,then go right to the top not to the fallen pillars to the ancient ancient ruins,"['q6nc5.g.move.146', 'q6nc5.g.move.148.5']",['instruct']
follower,i've got a ruined city,"['q6nc5.f.move.148', 'q6nc5.f.move.151.5']",['reply_w']
giver,yeah,"['q6nc5.g.move.149', 'q6nc5.g.move.153.5']",['acknowledge']
follower,right,"['q6nc5.f.move.152', 'q6nc5.f.move.154.5']",['ready']
giver,right uh-huh left,"['q6nc5.g.move.154', 'q6nc5.g.move.156.5']",['reply_y']
follower,right and go up to the ruined city,"['q6nc5.f.move.155', 'q6nc5.f.move.156']","['acknowledge', 'check']"
giver,yeah,"['q6nc5.g.move.157', 'q6nc5.g.move.158.5']",['reply_y']
follower,whereabouts in the ruined city to the left of it or to the right of it,"['q6nc5.f.move.158', 'q6nc5.f.move.160.5']",['query_w']
giver,have you got the missionary camp at the right-hand side okay have you got the start is it at the top of it right okay go to the right i think it is yeah right go to the right about two centi-- about two three centimetres go down two three centimetres uh-huh you're at the top and that go right about two go right three centimetres yeah past missionary camp go down about two three centimetres right see your left-hand side have you got gorillas and trees and stuff right well go right along to it to the bottom of it right along to the bottom yeah down past the centre right along to the yeah yeah the bottom of it then go round it to the top just go round it you know right to the end and then just go to the top have you done that uh-huh a rope bridge right well you're supposed to cross it yeah along ri-- left right uh-huh mmhmm right to the rope bridge you have to go r-- okay right just go that way okay have you got a waterfall it's on the right-hand side well okay cross the bridge right and go to it just go right beside it uh-huh yeah not to it but you know just beside it have you got lost steps right well go right up to them right to the top of them but not you know to the right-hand side of them not the yeah just right to the top to the righthand side uh-huh g-- right go over the top have you got fallen pillars have you uh-huh have you got well right next well it's sort the left-hand side to lost steps the fallen pillars i see gazelles are on top of the lost steps the middle of the map well never mind them right have you got to the lost steps well go go over go right around them to the fallen pillars that's to the left mmhmm yeah sto-- right if you go right to the bottom okay ehm go two three centi-- three centimetres down mmhmm then this is so bad okay are you going down right then sort go back up in a circle sort thing you know just curve round to the a-- have you got no not curve round you're just at the bottom aren't you and you've gone down a bit then go right to the top not to the fallen pillars to the ancient ancient ruins have you got ancient ruins yeah well just go right right up there up to that right uh-huh left yeah left of it,['q6nc5.g.move.159'],['reply_w']
follower,left of it right,['q6nc5.f.move.161'],['acknowledge']
giver,have you got stones,"['q6nc5.g.move.162', 'q6nc5.g.move.163.5']",['query_yn']
follower,i've got rock fall just above the ruined city to the right,['q6nc5.f.move.163'],['reply_w']
giver,to the le--,"['q6nc5.g.move.164', 'q6nc5.g.move.165.5']",['query_yn']
follower,,['q6nc5.f.move.167.5'],[]
giver,ah just go up to that,"['q6nc5.g.move.166', 'q6nc5.g.move.169.5']",['instruct']
follower,right,"['q6nc5.f.move.168', 'q6nc5.f.move.168.5']",['acknowledge']
giver,okay,"['q6nc5.g.move.170', 'q6nc5.g.move.171.5']",['align']
follower,to the bottom of the rock fall or the top,"['q6nc5.f.move.169', 'q6nc5.f.move.173.5']",['query_w']
giver,yeah the bottom of the rock fall,"['q6nc5.g.move.172', 'q6nc5.g.move.173']","['reply_y', 'reply_w']"
follower,right,['q6nc5.f.move.174'],['acknowledge']
giver,then,"['q6nc5.g.move.175', 'q6nc5.g.move.178.5']",['ready']
follower,yeah,"['q6nc5.f.move.178', 'q6nc5.f.move.180.5']",['reply_y']
giver,well,"['q6nc5.g.move.179', 'q6nc5.g.move.182.5']",['ready']
follower,right,"['q6nc5.f.move.181', 'q6nc5.f.move.184.5']",['acknowledge']
giver,uh-huh go round it to the bottom,"['q6nc5.g.move.183', 'q6nc5.g.move.184']","['reply_y', 'instruct']"
follower,right,['q6nc5.f.move.185'],['acknowledge']
giver,,['q6nc5.g.move.185.5'],[]
follower,,['q6nc5.f.move.187.5'],[]
giver,and keep on going eh have you got eh soft furnishing store,"['q6nc5.g.move.186', 'q6nc5.g.move.187', 'q6nc5.g.move.188.5']","['instruct', 'query_yn']"
follower,soft furnishing store,"['q6nc5.f.move.188', 'q6nc5.f.move.190.5']",['check']
giver,yeah right to the bottom of the white mountain,"['q6nc5.g.move.189', 'q6nc5.g.move.190']","['reply_y', 'explain']"
follower,no,['q6nc5.f.move.191'],['reply_n']
giver,,['q6nc5.g.move.191.5'],[]
follower,,['q6nc5.f.move.192.5'],[]
giver,what have you got,"['q6nc5.g.move.192', 'q6nc5.g.move.193.5']",['query_w']
follower,white lost steps,"['q6nc5.f.move.193', 'q6nc5.f.move.194.5']",['reply_w']
giver,what,"['q6nc5.g.move.194', 'q6nc5.g.move.195.5']",['query_w']
follower,there's a white mountain at the top of the map,"['q6nc5.f.move.195', 'q6nc5.f.move.197.5']",['reply_w']
giver,uh-huh,['q6nc5.g.move.196'],['acknowledge']
follower,to at the right of the white mountain on my map the only thing i've got is lost steps,['q6nc5.f.move.198'],['reply_w']
giver,,['q6nc5.g.move.198.5'],[]
follower,,['q6nc5.f.move.200.5'],[]
giver,no you don't go to that right have you gone to the white mountain,"['q6nc5.g.move.199', 'q6nc5.g.move.200']","['instruct', 'align']"
follower,uh-huh,['q6nc5.f.move.201'],['reply_y']
giver,,['q6nc5.g.move.201.5'],[]
follower,,['q6nc5.f.move.202.5'],[]
giver,go right round it,"['q6nc5.g.move.202', 'q6nc5.g.move.203.5']",['instruct']
follower,uh-huh i've gone right round it,['q6nc5.f.move.203'],['acknowledge']
giver,have you gone right round the bottom of it,"['q6nc5.g.move.204', 'q6nc5.g.move.208.5']",['align']
follower,i'm at the uh-huh,"['q6nc5.f.move.206', 'q6nc5.f.move.208']","['explain', 'reply_y']"
giver,have you got the missionary camp at the right-hand side okay have you got the start is it at the top of it right okay go to the right i think it is yeah right go to the right about two centi-- about two three centimetres go down two three centimetres uh-huh you're at the top and that go right about two go right three centimetres yeah past missionary camp go down about two three centimetres right see your left-hand side have you got gorillas and trees and stuff right well go right along to it to the bottom of it right along to the bottom yeah down past the centre right along to the yeah yeah the bottom of it then go round it to the top just go round it you know right to the end and then just go to the top have you done that uh-huh a rope bridge right well you're supposed to cross it yeah along ri-- left right uh-huh mmhmm right to the rope bridge you have to go r-- okay right just go that way okay have you got a waterfall it's on the right-hand side well okay cross the bridge right and go to it just go right beside it uh-huh yeah not to it but you know just beside it have you got lost steps right well go right up to them right to the top of them but not you know to the right-hand side of them not the yeah just right to the top to the righthand side uh-huh g-- right go over the top have you got fallen pillars have you uh-huh have you got well right next well it's sort the left-hand side to lost steps the fallen pillars i see gazelles are on top of the lost steps the middle of the map well never mind them right have you got to the lost steps well go go over go right around them to the fallen pillars that's to the left mmhmm yeah sto-- right if you go right to the bottom okay ehm go two three centi-- three centimetres down mmhmm then this is so bad okay are you going down right then sort go back up in a circle sort thing you know just curve round to the a-- have you got no not curve round you're just at the bottom aren't you and you've gone down a bit then go right to the top not to the fallen pillars to the ancient ancient ruins have you got ancient ruins yeah well just go right right up there up to that right uh-huh left yeah left of it have you got stones to the le-- ah just go up to that okay yeah the bottom of the rock fall then turn left have you got a white mountain well turn left and go right over around it from the top uh-huh go round it to the bottom and keep on going eh have you got eh soft furnishing store yeah right to the bottom of the white mountain what have you got what uh-huh no you don't go to that right have you gone to the white mountain go right round it have you gone right round the bottom of it right round the bottom of it then go straight down to where,"['q6nc5.g.move.209', 'q6nc5.g.move.210', 'q6nc5.g.move.212.5']","['clarify', 'instruct']"
follower,uh-huh,"['q6nc5.f.move.212', 'q6nc5.f.move.213.5']",['reply_y']
giver,go right down to the left of them,"['q6nc5.g.move.213', 'q6nc5.g.move.214.5']",['instruct']
follower,right,['q6nc5.f.move.214'],['acknowledge']
giver,okay then turn left about th-- three four centimetres,"['q6nc5.g.move.215', 'q6nc5.g.move.216', 'q6nc5.g.move.217.5']","['align', 'instruct']"
follower,right,"['q6nc5.f.move.217', 'q6nc5.f.move.218.5']",['acknowledge']
giver,and that's you finished,['q6nc5.g.move.218'],['instruct']
follower,oh,['q6nc5.f.move.219'],['acknowledge']
