speaker,sentence,move_id,label
giver,right greg,"['q7ec2.g.move.1', 'q7ec2.g.move.3.5']",['ready']
follower,top left-hand corner,"['q7ec2.f.move.3', 'q7ec2.f.move.4.5']",['check']
giver,yeah,['q7ec2.g.move.4'],['reply_y']
follower,yes,['q7ec2.f.move.5'],['reply_y']
giver,,['q7ec2.g.move.5.5'],[]
follower,,['q7ec2.f.move.6.5'],[]
giver,you want to come down to about a centimetre left to the left of the haystack uh in a southwesterly direction,"['q7ec2.g.move.6', 'q7ec2.g.move.7.5']",['instruct']
follower,southeasterly,"['q7ec2.f.move.7', 'q7ec2.f.move.8.5']",['explain']
giver,southeasterly direction yeah,['q7ec2.g.move.8'],['acknowledge']
follower,right,['q7ec2.f.move.9'],['acknowledge']
giver,now eh,"['q7ec2.g.move.10', 'q7ec2.g.move.12.5']",['ready']
follower,where it says carpenter,"['q7ec2.f.move.12', 'q7ec2.f.move.13.5']",['check']
giver,well across from that directly below the start,"['q7ec2.g.move.13', 'q7ec2.g.move.15.5']",['reply_w']
follower,mmhmm,"['q7ec2.f.move.14', 'q7ec2.f.move.16.5']",['acknowledge']
giver,so it's going to be in a southwesterly direction,"['q7ec2.g.move.16', 'q7ec2.g.move.17.5']",['clarify']
follower,avoiding the blacksmith,"['q7ec2.f.move.17', 'q7ec2.f.move.18.5']",['query_yn']
giver,what blacksmith,"['q7ec2.g.move.18', 'q7ec2.g.move.20.5']",['query_w']
follower,right there's a blacksmith next to the carpenter on the left-hand side of it,"['q7ec2.f.move.19', 'q7ec2.f.move.20']","['ready', 'reply_w']"
giver,right i see right eh take the line towards well along horizontally to eh,"['q7ec2.g.move.21', 'q7ec2.g.move.23', 'q7ec2.g.move.24', 'q7ec2.g.move.26.5']","['ready', 'acknowledge', 'instruct']"
follower,yes,"['q7ec2.f.move.26', 'q7ec2.f.move.28.5']",['acknowledge']
giver,and dykes,"['q7ec2.g.move.27', 'q7ec2.g.move.30.5']",['explain']
follower,an inch,"['q7ec2.f.move.29', 'q7ec2.f.move.32.5']",['check']
giver,no not even an inch about half an inch,"['q7ec2.g.move.31', 'q7ec2.g.move.33.5']",['reply_n']
follower,at the stiles just at the stiles,"['q7ec2.f.move.33', 'q7ec2.f.move.35.5']",['check']
giver,just below the stiles below,"['q7ec2.g.move.34', 'q7ec2.g.move.36.5']",['reply_w']
follower,okay,"['q7ec2.f.move.36', 'q7ec2.f.move.37.5']",['acknowledge']
giver,right and that have you got that,"['q7ec2.g.move.37', 'q7ec2.g.move.37.9']","['ready', 'align']"
follower,yes,['q7ec2.f.move.38'],['reply_y']
giver,right eh no no green bay,"['q7ec2.g.move.39', 'q7ec2.g.move.40.9']","['ready', 'query_yn']"
follower,no green bay,['q7ec2.f.move.41'],['reply_n']
giver,,['q7ec2.g.move.41.5'],[]
follower,,['q7ec2.f.move.42.5'],[]
giver,well eh,"['q7ec2.g.move.42', 'q7ec2.g.move.43.5']",['ready']
follower,for how many inches,['q7ec2.f.move.43'],['query_w']
giver,for about two and a half inches right eh,"['q7ec2.g.move.44', 'q7ec2.g.move.45', 'q7ec2.g.move.47.5']","['reply_w', 'ready']"
follower,over towards the the seven beeches,"['q7ec2.f.move.47', 'q7ec2.f.move.49.5']",['check']
giver,over towards the seven beeches,"['q7ec2.g.move.48', 'q7ec2.g.move.50.5']",['reply_y']
follower,okay,['q7ec2.f.move.50'],['acknowledge']
giver,eh,['q7ec2.g.move.51'],['uncodable']
follower,,['q7ec2.f.move.53.5'],[]
giver,,"['q7ec2.g.move.51.4', 'q7ec2.g.move.54.5']",[]
follower,no,"['q7ec2.f.move.54', 'q7ec2.f.move.56.5']",['reply_n']
giver,you've not got a chapel,"['q7ec2.g.move.55', 'q7ec2.g.move.57.5']",['acknowledge']
follower,right mmhmm,"['q7ec2.f.move.57', 'q7ec2.f.move.58.5']",['acknowledge']
giver,to,"['q7ec2.g.move.58', 'q7ec2.g.move.59.5']",['instruct']
follower,so slightly southeast,"['q7ec2.f.move.59', 'q7ec2.f.move.61.5']",['check']
giver,slightly southeast,"['q7ec2.g.move.60', 'q7ec2.g.move.62.5']",['reply_y']
follower,mmhmm,"['q7ec2.f.move.62', 'q7ec2.f.move.63.5']",['acknowledge']
giver,and you want to come across you want to come down about two inches again just below where it says eh seven beeches,"['q7ec2.g.move.63', 'q7ec2.g.move.64.5']",['instruct']
follower,right,"['q7ec2.f.move.64', 'q7ec2.f.move.65.5']",['acknowledge']
giver,well that'll be about a centimetre below the beech trees,"['q7ec2.g.move.65', 'q7ec2.g.move.67.5']",['explain']
follower,mmhmm,"['q7ec2.f.move.66', 'q7ec2.f.move.68.5']",['acknowledge']
giver,basically yes,['q7ec2.g.move.68'],['reply_y']
follower,okay,['q7ec2.f.move.69'],['acknowledge']
giver,"right on my drawing i've got a chapel that's about an inch long on the on the map it starts directly below the ""s"" and eh","['q7ec2.g.move.70', 'q7ec2.g.move.72.5']",['explain']
follower,curve that one,"['q7ec2.f.move.72', 'q7ec2.f.move.76.5']",['check']
giver,right curve it,"['q7ec2.g.move.73', 'q7ec2.g.move.77.5']",['reply_y']
follower,how about,"['q7ec2.f.move.77', 'q7ec2.f.move.78.5']",['query_w']
giver,but what point your initial point mark a point two inches south one inch east of the where you stopped the last time,"['q7ec2.g.move.78', 'q7ec2.g.move.79.5']",['instruct']
follower,uh-huh,"['q7ec2.f.move.79', 'q7ec2.f.move.80.5']",['acknowledge']
giver,okay have you done that yes,"['q7ec2.g.move.80', 'q7ec2.g.move.81.5']",['align']
follower,yes,"['q7ec2.f.move.81', 'q7ec2.f.move.82.5']",['reply_y']
giver,eh to get the curve i would go one inch down from where your your point is just now and,"['q7ec2.g.move.82', 'q7ec2.g.move.83.5']",['instruct']
follower,one inch south,"['q7ec2.f.move.83', 'q7ec2.f.move.85.5']",['check']
giver,one inch south,"['q7ec2.g.move.84', 'q7ec2.g.move.86.5']",['reply_y']
follower,then then straight down to the two inch mark,"['q7ec2.f.move.86', 'q7ec2.f.move.88.5']",['check']
giver,no,"['q7ec2.g.move.87', 'q7ec2.g.move.89.5']",['reply_n']
follower,going southwest,"['q7ec2.f.move.89', 'q7ec2.f.move.90.5']",['check']
giver,going southwest,"['q7ec2.g.move.90', 'q7ec2.g.move.91.5']",['reply_y']
follower,to finish under the second beech tree i would have to go southeast if i only moved over one inch to the east in the first movement because you said two inches,"['q7ec2.f.move.91', 'q7ec2.f.move.92.5']",['explain']
giver,t--,"['q7ec2.g.move.92', 'q7ec2.g.move.93.5']",['uncodable']
follower,what's one and a half,"['q7ec2.f.move.93', 'q7ec2.f.move.94.5']",['query_w']
giver,you what you want to do is you want to clear the eh first movement round the chapel will have to clear the beech trees and then come down again to under the first ts on the right-hand beech tree,"['q7ec2.g.move.94', 'q7ec2.g.move.96.5']",['clarify']
follower,right,"['q7ec2.f.move.95', 'q7ec2.f.move.97.5']",['ready']
giver,right,"['q7ec2.g.move.97', 'q7ec2.g.move.98.5']",['acknowledge']
follower,of seven i'll continue down but curving round to my right,"['q7ec2.f.move.98', 'q7ec2.f.move.99.5']",['explain']
giver,yeah,"['q7ec2.g.move.99', 'q7ec2.g.move.100.5']",['acknowledge']
follower,okay until i've done a quarter curve a quarter of a circle,"['q7ec2.f.move.100', 'q7ec2.f.move.102.5']",['explain']
giver,that's right yeah,"['q7ec2.g.move.101', 'q7ec2.g.move.103.5']",['acknowledge']
follower,ah in mine that's far more than an inch,"['q7ec2.f.move.103', 'q7ec2.f.move.104.5']",['explain']
giver,well i'll wait to do it until the end then,"['q7ec2.g.move.104', 'q7ec2.g.move.106.5']",['clarify']
follower,right that's okay right i know that n--,"['q7ec2.f.move.105', 'q7ec2.f.move.107.5']",['acknowledge']
giver,right,"['q7ec2.g.move.107', 'q7ec2.g.move.108.5']",['reply_y']
follower,s-- in a s-- southeasterly direction to,"['q7ec2.f.move.108', 'q7ec2.f.move.109.5']",['check']
giver,see southwesterly aye,"['q7ec2.g.move.109', 'q7ec2.g.move.110.5']",['reply_y']
follower,southwesterly to the point below this trunk of the second beech tree,"['q7ec2.f.move.110', 'q7ec2.f.move.111.5']",['check']
giver,oh that's right yeah,['q7ec2.g.move.111'],['reply_y']
follower,right i'll draw that then right,"['q7ec2.f.move.112', 'q7ec2.f.move.113']",['acknowledge']
giver,,['q7ec2.g.move.113.5'],[]
follower,,['q7ec2.f.move.114.5'],[]
giver,do you have reclaimed fields,['q7ec2.g.move.114'],['query_yn']
follower,yes,['q7ec2.f.move.115'],['reply_y']
giver,,['q7ec2.g.move.115.5'],[]
follower,,['q7ec2.f.move.117.5'],[]
giver,so eh,"['q7ec2.g.move.116', 'q7ec2.g.move.120.5']",['ready']
follower,it's about an inch and a half to two inches below where i am just now,"['q7ec2.f.move.118', 'q7ec2.f.move.122.5']",['explain']
giver,about an inch and a half to two inches below where you are the now,"['q7ec2.g.move.121', 'q7ec2.g.move.123.5']",['acknowledge']
follower,mmhmm,['q7ec2.f.move.123'],['reply_y']
giver,aye see er,['q7ec2.g.move.124'],['acknowledge']
follower,,['q7ec2.f.move.128.5'],[]
giver,,"['q7ec2.g.move.125.5', 'q7ec2.g.move.129.5']",[]
follower,will i go down continuing the same gradient i'm on will i go down 'til i'm just above the reclaimed fields,"['q7ec2.f.move.129', 'q7ec2.f.move.131.5']",['query_yn']
giver,well you've got,"['q7ec2.g.move.130', 'q7ec2.g.move.133.5']",['reply_w']
follower,eh there's nothing to the right-hand side,"['q7ec2.f.move.132', 'q7ec2.f.move.135.5']",['explain']
giver,whitewashed cot--,"['q7ec2.g.move.134', 'q7ec2.g.move.136.5']",['acknowledge']
follower,on the left-hand side,"['q7ec2.f.move.136', 'q7ec2.f.move.139.5']",['clarify']
giver,left-hand side whitewashed,"['q7ec2.g.move.137', 'q7ec2.g.move.140.5']",['acknowledge']
follower,right,['q7ec2.f.move.140'],['acknowledge']
giver,okay,"['q7ec2.g.move.141', 'q7ec2.g.move.144.5']",['align']
follower,yes,"['q7ec2.f.move.144', 'q7ec2.f.move.149.5']",['reply_y']
giver,well what my map does it does this test tube thing round the reclaimed fields then it heads south towards the,"['q7ec2.g.move.145', 'q7ec2.g.move.151.5']",['instruct']
follower,right okay so will i move down to nearer reclaimed fields,"['q7ec2.f.move.150', 'q7ec2.f.move.151', 'q7ec2.f.move.153.5']","['acknowledge', 'query_yn']"
giver,move down to nearer reclaimed fields,"['q7ec2.g.move.152', 'q7ec2.g.move.155.5']",['reply_y']
follower,right right d-- un--,"['q7ec2.f.move.154', 'q7ec2.f.move.156.5']",['acknowledge']
giver,"eh just past the ""r"" just past the the drawing of the reclaimed fields","['q7ec2.g.move.156', 'q7ec2.g.move.157.5']",['reply_w']
follower,that that would be me right over at the whitewashed cottage then next to that,"['q7ec2.f.move.157', 'q7ec2.f.move.160.5']",['explain']
giver,just to the left-hand side,"['q7ec2.g.move.158', 'q7ec2.g.move.162.5']",['reply_w']
follower,right,"['q7ec2.f.move.161', 'q7ec2.f.move.163.5']",['acknowledge']
giver,okay that'll f-- do fine yes,"['q7ec2.g.move.163', 'q7ec2.g.move.164.5']",['reply_y']
follower,right,"['q7ec2.f.move.164', 'q7ec2.f.move.165.5']",['acknowledge']
giver,have you got that,['q7ec2.g.move.165'],['align']
follower,uh-huh,['q7ec2.f.move.166'],['reply_y']
giver,"well just below that south of that there's a point just above the ""b"" of crane bay","['q7ec2.g.move.167', 'q7ec2.g.move.169.5']",['explain']
follower,mmhmm,"['q7ec2.f.move.168', 'q7ec2.f.move.172.5']",['acknowledge']
giver,a wee point there's a sm-- a smiley face and then there's a,"['q7ec2.g.move.170', 'q7ec2.g.move.172']","['clarify', 'explain']"
follower,there's no smiley face,['q7ec2.f.move.173'],['reply_n']
giver,,['q7ec2.g.move.173.5'],[]
follower,,['q7ec2.f.move.174.5'],[]
giver,see if you want to come due south to that point and then follow the coast a bit,"['q7ec2.g.move.174', 'q7ec2.g.move.175.5']",['instruct']
follower,follow the coast to where,"['q7ec2.f.move.175', 'q7ec2.f.move.178.5']",['query_w']
giver,follow the coast round eh,"['q7ec2.g.move.176', 'q7ec2.g.move.179.5']",['reply_w']
follower,mmhmm,"['q7ec2.f.move.179', 'q7ec2.f.move.180.5']",['reply_y']
giver,i've got a meadow to the left of that due south pee,"['q7ec2.g.move.180', 'q7ec2.g.move.182.4']",['explain']
follower,a vast meadow,"['q7ec2.f.move.181', 'q7ec2.f.move.182.5']",['query_yn']
giver,a vast meadow,"['q7ec2.g.move.182.9', 'q7ec2.g.move.183.5']",['reply_y']
follower,i've got a vast meadow up just below the blacksmiths and carpenters,"['q7ec2.f.move.183', 'q7ec2.f.move.184.5']",['explain']
giver,well is that huge big and there's nothing at all in that space,"['q7ec2.g.move.184', 'q7ec2.g.move.186.5']",['query_yn']
follower,uh-huh,"['q7ec2.f.move.185', 'q7ec2.f.move.188.5']",['reply_y']
giver,about halfway up the page,"['q7ec2.g.move.187', 'q7ec2.g.move.189.5']",['query_yn']
follower,about halfway up the page it's empty on mine,"['q7ec2.f.move.189', 'q7ec2.f.move.190.5']",['reply_w']
giver,well you want to well anyway follow crane bay round the curve,"['q7ec2.g.move.190', 'q7ec2.g.move.191.5']",['instruct']
follower,mmhmm,"['q7ec2.f.move.191', 'q7ec2.f.move.192.5']",['acknowledge']
giver,goes going going,['q7ec2.g.move.192'],['instruct']
follower,,['q7ec2.f.move.193'],['query_yn']
giver,going west following the contour until you meet just where you stop going west and we head south we head southwest there coming out you see it goes you go just about due south then it finishes it's about an inch and a half long,"['q7ec2.g.move.194', 'q7ec2.g.move.195', 'q7ec2.g.move.196', 'q7ec2.g.move.197.5']","['reply_y', 'clarify', 'instruct']"
follower,uh-huh,['q7ec2.f.move.197'],['acknowledge']
giver,and just where it finishes there come about you want to be about an inch to the west of that where you where you stop after going southwest,['q7ec2.g.move.198'],['instruct']
follower,so it's south on the actual crane bay then it's about an inch and a half going south,"['q7ec2.f.move.199', 'q7ec2.f.move.200.5']",['check']
giver,yeah,"['q7ec2.g.move.200', 'q7ec2.g.move.201.5']",['reply_y']
follower,and then about an inch going west,"['q7ec2.f.move.201', 'q7ec2.f.move.203.5']",['check']
giver,that's right,"['q7ec2.g.move.202', 'q7ec2.g.move.204.5']",['reply_y']
follower,the west tip,"['q7ec2.f.move.204', 'q7ec2.f.move.205.5']",['check']
giver,the west hand,"['q7ec2.g.move.205', 'q7ec2.g.move.209.5']",['explain']
follower,right,"['q7ec2.f.move.206', 'q7ec2.f.move.210.5']",['acknowledge']
giver,yes,"['q7ec2.g.move.210', 'q7ec2.g.move.211.5']",['reply_y']
follower,mmhmm,"['q7ec2.f.move.211', 'q7ec2.f.move.212.5']",['acknowledge']
giver,and you want to follow across the top of them west,"['q7ec2.g.move.212', 'q7ec2.g.move.213.5']",['instruct']
follower,across the top,"['q7ec2.f.move.213', 'q7ec2.f.move.214.5']",['query_yn']
giver,west,"['q7ec2.g.move.214', 'q7ec2.g.move.215.5']",['clarify']
follower,mmhmm,"['q7ec2.f.move.215', 'q7ec2.f.move.216.5']",['acknowledge']
giver,just below i've got a vast meadow there,"['q7ec2.g.move.216', 'q7ec2.g.move.218.5']",['explain']
follower,right,"['q7ec2.f.move.217', 'q7ec2.f.move.219.5']",['acknowledge']
giver,eh about a centimetre after attract-- attractive cliffs,['q7ec2.g.move.219'],['reply_w']
follower,right,['q7ec2.f.move.220'],['acknowledge']
giver,you want to go down about ten degrees off south southwest,"['q7ec2.g.move.221', 'q7ec2.g.move.222.5']",['instruct']
follower,mm about a hundred and ninety degrees,"['q7ec2.f.move.222', 'q7ec2.f.move.224.5']",['check']
giver,about eh aye,"['q7ec2.g.move.223', 'q7ec2.g.move.226.5']",['reply_y']
follower,okay,"['q7ec2.f.move.225', 'q7ec2.f.move.227.5']",['acknowledge']
giver,i've not got crashed spaceship er spaceship,"['q7ec2.g.move.227', 'q7ec2.g.move.229.4']",['explain']
follower,do you have the chestnut tree,"['q7ec2.f.move.228', 'q7ec2.f.move.231.5']",['query_yn']
giver,yeah i've got the chestnut tree,"['q7ec2.g.move.229.9', 'q7ec2.g.move.232.5']",['reply_y']
follower,eh well,"['q7ec2.f.move.231.6', 'q7ec2.f.move.233.5']",['ready']
giver,that's just about on the edge of the page,"['q7ec2.g.move.233', 'q7ec2.g.move.234.5']",['check']
follower,uh-huh,"['q7ec2.f.move.234', 'q7ec2.f.move.235.5']",['reply_y']
giver,yeah,"['q7ec2.g.move.235', 'q7ec2.g.move.237.5']",['acknowledge']
follower,there's a crashed spaceship,"['q7ec2.f.move.236', 'q7ec2.f.move.238.5']",['clarify']
giver,yes,"['q7ec2.g.move.238', 'q7ec2.g.move.241.5']",['reply_y']
follower,i would imagine right right so where will i go now,"['q7ec2.f.move.239', 'q7ec2.f.move.240', 'q7ec2.f.move.241', 'q7ec2.f.move.242.5']","['acknowledge', 'ready', 'query_w']"
giver,s-- so where are you bottom of the attractive cliffs,"['q7ec2.g.move.242', 'q7ec2.g.move.244.5']",['query_yn']
follower,no,"['q7ec2.f.move.243', 'q7ec2.f.move.246.5']",['reply_n']
giver,the top,"['q7ec2.g.move.245', 'q7ec2.g.move.248.5']",['acknowledge']
follower,right,"['q7ec2.f.move.247', 'q7ec2.f.move.249.5']",['acknowledge']
giver,to the bottom of the attractive cliffs just about ah about a centimetre below the attractive cliffs,['q7ec2.g.move.249'],['reply_w']
follower,right,['q7ec2.f.move.250'],['acknowledge']
giver,eh you've got a space craft about here,"['q7ec2.g.move.251', 'q7ec2.g.move.253.5']",['check']
follower,about a,"['q7ec2.f.move.252', 'q7ec2.f.move.254.5']",['explain']
giver,how far from the edge of the page,['q7ec2.g.move.254'],['query_w']
follower,well the s-- i just now i'm an inch to the an inch east ah no a centimetre east of the crashed spaceship and at the very top of it,['q7ec2.f.move.255'],['reply_w']
giver,,['q7ec2.g.move.255.5'],[]
follower,,['q7ec2.f.move.256.5'],[]
giver,well eh or can you go round the top,"['q7ec2.g.move.255.6', 'q7ec2.g.move.258']","['ready', 'query_w']"
follower,oh i can come straight down past the side of it i can come south just now if i want to,['q7ec2.f.move.257'],['reply_w']
giver,,['q7ec2.g.move.258.4'],[]
follower,,['q7ec2.f.move.258.5'],[]
giver,s-- can you come south and then come slightly west then south again or can you go s-- we-- can you go west just now then south and then east to the finish,"['q7ec2.g.move.258.9', 'q7ec2.g.move.259.5']",['query_w']
follower,i can't go i can't go west just now really,['q7ec2.f.move.259'],['reply_w']
giver,you can't go west,['q7ec2.g.move.260'],['acknowledge']
follower,,['q7ec2.f.move.261.5'],[]
giver,,"['q7ec2.g.move.260.5', 'q7ec2.g.move.263.5']",[]
follower,uh-huh i could go i could go west past the top of it if you wanted to right over to the edge of the page,"['q7ec2.f.move.262', 'q7ec2.f.move.263']","['acknowledge', 'explain']"
giver,well do that yeah do that and you want to go south when you get about half a centimetre to the edge of the page,"['q7ec2.g.move.264', 'q7ec2.g.move.265', 'q7ec2.g.move.266.5']",['instruct']
follower,right,"['q7ec2.f.move.266', 'q7ec2.f.move.267.5']",['acknowledge']
giver,until the bottom of the chestnut tree,"['q7ec2.g.move.267', 'q7ec2.g.move.268.5']",['instruct']
follower,in the very bottom,"['q7ec2.f.move.268', 'q7ec2.f.move.269.5']",['check']
giver,the very bottom of the chestnut tree,"['q7ec2.g.move.269', 'q7ec2.g.move.271.5']",['reply_y']
follower,right,"['q7ec2.f.move.270', 'q7ec2.f.move.273.5']",['acknowledge']
giver,yeah the bottom of the trunk of the chestnut tree,"['q7ec2.g.move.272', 'q7ec2.g.move.273']","['reply_y', 'clarify']"
follower,mmhmm,['q7ec2.f.move.274'],['acknowledge']
giver,and then you want to go east along the line of the bottom of the chestnut tree to about oh half an inch away from the bottom,['q7ec2.g.move.275'],['instruct']
follower,right,['q7ec2.f.move.276'],['acknowledge']
giver,and then you want to go up to the the mid portion of the chestnut tree to finish just below where the the f-- eh the leaf-line starts,"['q7ec2.g.move.277', 'q7ec2.g.move.278.5']",['instruct']
follower,over at the tree itself,"['q7ec2.f.move.278', 'q7ec2.f.move.279.5']",['query_yn']
giver,well you're about half an inch away from it,"['q7ec2.g.move.279', 'q7ec2.g.move.281.5']",['reply_w']
follower,so,"['q7ec2.f.move.280', 'q7ec2.f.move.283.5']",['ready']
giver,yeah,"['q7ec2.g.move.282', 'q7ec2.g.move.284.5']",['acknowledge']
follower,due north,"['q7ec2.f.move.284', 'q7ec2.f.move.285.5']",['check']
giver,due north about half just where the wee bump in the tree is,['q7ec2.g.move.285'],['clarify']
follower,right,['q7ec2.f.move.286'],['acknowledge']
giver,,['q7ec2.g.move.286.5'],[]
follower,,['q7ec2.f.move.287.5'],[]
giver,and that's your finish with a big cross,"['q7ec2.g.move.287', 'q7ec2.g.move.289.5']",['instruct']
follower,right,"['q7ec2.f.move.288', 'q7ec2.f.move.291.5']",['acknowledge']
giver,yeah there's your big cross,"['q7ec2.g.move.290', 'q7ec2.g.move.291']","['acknowledge', 'clarify']"
follower,right,['q7ec2.f.move.292'],['acknowledge']
