speaker,sentence,move_id,label
giver,'kay,['q8ec3.g.move.1'],['align']
follower,right,['q8ec3.f.move.2'],['reply_y']
giver,,['q8ec3.g.move.3.5'],[]
follower,,['q8ec3.f.move.4.5'],[]
giver,right starting at the top left of the right,['q8ec3.g.move.4'],['align']
follower,right right,['q8ec3.f.move.5'],['reply_y']
giver,,['q8ec3.g.move.6.5'],[]
follower,,['q8ec3.f.move.8.5'],[]
giver,if you come down sort south southeast,"['q8ec3.g.move.7', 'q8ec3.g.move.9.5']",['instruct']
follower,aye,"['q8ec3.f.move.9', 'q8ec3.f.move.10.5']",['reply_y']
giver,"now come down round the left of the burnt forest so that you're just about underneath the ""b""","['q8ec3.g.move.10', 'q8ec3.g.move.11.5']",['instruct']
follower,right hold on,"['q8ec3.f.move.11', 'q8ec3.f.move.12.5']",['acknowledge']
giver,oh right,"['q8ec3.g.move.12', 'q8ec3.g.move.14.5']",['acknowledge']
follower,"right i'm just below the ""b""","['q8ec3.f.move.13', 'q8ec3.f.move.14']","['ready', 'explain']"
giver,right,['q8ec3.g.move.15'],['acknowledge']
follower,,['q8ec3.f.move.17.5'],[]
giver,,"['q8ec3.g.move.15.5', 'q8ec3.g.move.18.5']",[]
follower,yes,"['q8ec3.f.move.18', 'q8ec3.f.move.21.5']",['reply_y']
giver,right,"['q8ec3.g.move.19', 'q8ec3.g.move.22.5']",['acknowledge']
follower,s-- so,"['q8ec3.f.move.22', 'q8ec3.f.move.23.5']",['check']
giver,have you if you think of the ravine right,"['q8ec3.g.move.23', 'q8ec3.g.move.26.5']",['instruct']
follower,right,"['q8ec3.f.move.24', 'q8ec3.f.move.28.5']",['ready']
giver,right uh-uh,"['q8ec3.g.move.27', 'q8ec3.g.move.29.5']",['acknowledge']
follower,have you got a carpenter's cottage,"['q8ec3.f.move.29', 'q8ec3.f.move.32.5']",['query_yn']
giver,no i haven't,"['q8ec3.g.move.30', 'q8ec3.g.move.34.5']",['reply_n']
follower,oh you just want me to just go to the left of the ravine,"['q8ec3.f.move.33', 'q8ec3.f.move.35.5']",['check']
giver,no i don't,"['q8ec3.g.move.35', 'q8ec3.g.move.36.5']",['reply_n']
follower,no,"['q8ec3.f.move.36', 'q8ec3.f.move.37.5']",['acknowledge']
giver,if see the bottom of the ravine right,"['q8ec3.g.move.37', 'q8ec3.g.move.38.5']",['align']
follower,right,"['q8ec3.f.move.38', 'q8ec3.f.move.40.5']",['reply_y']
giver,you're we you're going to end up in a line with the bottom of the ravine,"['q8ec3.g.move.39', 'q8ec3.g.move.41.5']",['instruct']
follower,right,"['q8ec3.f.move.41', 'q8ec3.f.move.43.5']",['acknowledge']
giver,underneath the start point,"['q8ec3.g.move.42', 'q8ec3.g.move.44.5']",['instruct']
follower,right,"['q8ec3.f.move.44', 'q8ec3.f.move.46.5']",['reply_y']
giver,under the start point but on the same line as the ravine bottom of the ravine,['q8ec3.g.move.45'],['instruct']
follower,right,"['q8ec3.f.move.47', 'q8ec3.f.move.48.5']",['reply_y']
giver,right,"['q8ec3.g.move.46', 'q8ec3.g.move.47.5']",['align']
follower,right,"['q8ec3.f.move.49', 'q8ec3.f.move.49.4']",['acknowledge']
giver,if you could sort curve round,"['q8ec3.g.move.48', 'q8ec3.g.move.49.5']",['instruct']
follower,mmhmm,"['q8ec3.f.move.49.9', 'q8ec3.f.move.50.5']",['acknowledge']
giver,so that you're vertically underneath the start point,"['q8ec3.g.move.50', 'q8ec3.g.move.51.5']",['instruct']
follower,oh jeez,"['q8ec3.f.move.51', 'q8ec3.f.move.52.5']",['acknowledge']
giver,missing,"['q8ec3.g.move.52', 'q8ec3.g.move.56.5']",['instruct']
follower,right,"['q8ec3.f.move.53', 'q8ec3.f.move.57.5']",['acknowledge']
giver,well if you go to the,"['q8ec3.g.move.57', 'q8ec3.g.move.58.5']",['instruct']
follower,to the left of that,"['q8ec3.f.move.58', 'q8ec3.f.move.59.5']",['check']
giver,to the left of that,"['q8ec3.g.move.59', 'q8ec3.g.move.61.5']",['reply_y']
follower,right,"['q8ec3.f.move.60', 'q8ec3.f.move.62.5']",['acknowledge']
giver,right,"['q8ec3.g.move.62', 'q8ec3.g.move.63.5']",['acknowledge']
follower,right,['q8ec3.f.move.63'],['acknowledge']
giver,now,"['q8ec3.g.move.64', 'q8ec3.g.move.65.5']",['ready']
follower,to the left of it,"['q8ec3.f.move.65', 'q8ec3.f.move.66.5']",['check']
giver,uh-huh,['q8ec3.g.move.66'],['reply_y']
follower,right,['q8ec3.f.move.67'],['acknowledge']
giver,and do you have the remote village,"['q8ec3.g.move.68', 'q8ec3.g.move.69.5']",['query_yn']
follower,no,['q8ec3.f.move.69'],['reply_n']
giver,doesn't matter,['q8ec3.g.move.70'],['acknowledge']
follower,,['q8ec3.f.move.70.5'],[]
giver,,['q8ec3.g.move.71.5'],[]
follower,i've got a tiled land just underneath that,['q8ec3.f.move.71'],['explain']
giver,yeah,['q8ec3.g.move.72'],['acknowledge']
follower,,['q8ec3.f.move.74.5'],[]
giver,,"['q8ec3.g.move.72.5', 'q8ec3.g.move.75.5']",[]
follower,right,"['q8ec3.f.move.75', 'q8ec3.f.move.77.5']",['acknowledge']
giver,right,"['q8ec3.g.move.76', 'q8ec3.g.move.78.5']",['acknowledge']
follower,right,['q8ec3.f.move.78'],['acknowledge']
giver,and go along 'til you're at the top right of the ravine,"['q8ec3.g.move.79', 'q8ec3.g.move.80.5']",['instruct']
follower,right,['q8ec3.f.move.80'],['acknowledge']
giver,yeah and along a few centimetres more do you have a pine grove,"['q8ec3.g.move.81', 'q8ec3.g.move.82', 'q8ec3.g.move.83.5']","['instruct', 'query_yn']"
follower,aye,['q8ec3.f.move.83'],['reply_y']
giver,right,['q8ec3.g.move.84'],['acknowledge']
follower,,['q8ec3.f.move.85.5'],[]
giver,if you if you just take a straight line from where you are down to the bottom left of the pine grove,"['q8ec3.g.move.84.5', 'q8ec3.g.move.85']",['instruct']
follower,right,['q8ec3.f.move.86'],['acknowledge']
giver,and do you have something underneath that,"['q8ec3.g.move.87', 'q8ec3.g.move.88.5']",['query_w']
follower,er there's an avalanche just slightly to the right,"['q8ec3.f.move.88', 'q8ec3.f.move.89.5']",['reply_w']
giver,to the right,['q8ec3.g.move.89'],['acknowledge']
follower,mmhmm,['q8ec3.f.move.90'],['acknowledge']
giver,,['q8ec3.g.move.90.5'],[]
follower,,['q8ec3.f.move.91.5'],[]
giver,underneath the pine grove,"['q8ec3.g.move.91', 'q8ec3.g.move.92.5']",['check']
follower,mmhmm,['q8ec3.f.move.92'],['reply_y']
giver,right,['q8ec3.g.move.93'],['acknowledge']
follower,,['q8ec3.f.move.93.5'],[]
giver,,['q8ec3.g.move.94.5'],[]
follower,it's a good wee bit down but,['q8ec3.f.move.94'],['explain']
giver,erm,['q8ec3.g.move.95'],['uncodable']
follower,,['q8ec3.f.move.96.5'],[]
giver,,"['q8ec3.g.move.95.4', 'q8ec3.g.move.97.5']",[]
follower,right,"['q8ec3.f.move.97', 'q8ec3.f.move.98.5']",['acknowledge']
giver,but at south a southeasterly angle sort thing,"['q8ec3.g.move.98', 'q8ec3.g.move.99.5']",['instruct']
follower,right,"['q8ec3.f.move.99', 'q8ec3.f.move.101.5']",['acknowledge']
giver,and,"['q8ec3.g.move.99.6', 'q8ec3.g.move.102.5']",['uncodable']
follower,aye,"['q8ec3.f.move.102', 'q8ec3.f.move.103.5']",['reply_y']
giver,you've got a concealed hideout right,"['q8ec3.g.move.103', 'q8ec3.g.move.104.5']",['acknowledge']
follower,i've got an avalanche directly above that,"['q8ec3.f.move.104', 'q8ec3.f.move.105.5']",['explain']
giver,right,"['q8ec3.g.move.105', 'q8ec3.g.move.106.5']",['acknowledge']
follower,have you no,"['q8ec3.f.move.106', 'q8ec3.f.move.109.5']",['query_yn']
giver,no i haven't,"['q8ec3.g.move.107', 'q8ec3.g.move.110.5']",['reply_n']
follower,just to the right of it,"['q8ec3.f.move.110', 'q8ec3.f.move.111.5']",['check']
giver,yeah so,"['q8ec3.g.move.111', 'q8ec3.g.move.112.5']",['reply_y']
follower,well i'll just go straight down there,"['q8ec3.f.move.112', 'q8ec3.f.move.114.5']",['check']
giver,well aye if you sort miss out the r-- go round the avalanche,"['q8ec3.g.move.113', 'q8ec3.g.move.114']","['reply_y', 'clarify']"
follower,right i will,"['q8ec3.f.move.115', 'q8ec3.f.move.116.5']",['acknowledge']
giver,which i presume and you should be at the right of the concealed hideout,"['q8ec3.g.move.116', 'q8ec3.g.move.118.5']",['instruct']
follower,right i'm at the right of it,"['q8ec3.f.move.117', 'q8ec3.f.move.118']","['acknowledge', 'explain']"
giver,right,['q8ec3.g.move.119'],['acknowledge']
follower,,['q8ec3.f.move.120.5'],[]
giver,,"['q8ec3.g.move.119.5', 'q8ec3.g.move.121.5']",[]
follower,the sea,"['q8ec3.f.move.121', 'q8ec3.f.move.122.5']",['check']
giver,of concealed sorry,"['q8ec3.g.move.122', 'q8ec3.g.move.123.5']",['clarify']
follower,oh sorry i thought you were talking about,['q8ec3.f.move.123'],['explain']
giver,okay,['q8ec3.g.move.124'],['align']
follower,,['q8ec3.f.move.125.5'],[]
giver,do you have a boat house,"['q8ec3.g.move.124.5', 'q8ec3.g.move.125']",['query_yn']
follower,eh it's away down to the right aye,"['q8ec3.f.move.126', 'q8ec3.f.move.127']","['explain', 'reply_y']"
giver,,['q8ec3.g.move.127.5'],[]
follower,,['q8ec3.f.move.128.5'],[]
giver,oh there's two boathouses ah,"['q8ec3.g.move.128', 'q8ec3.g.move.129.5']",['explain']
follower,right,['q8ec3.f.move.129'],['acknowledge']
giver,well i've got another boat house,['q8ec3.g.move.130'],['explain']
follower,,['q8ec3.f.move.131.5'],[]
giver,,"['q8ec3.g.move.130.5', 'q8ec3.g.move.132.5']",[]
follower,to the left,"['q8ec3.f.move.132', 'q8ec3.f.move.133.5']",['check']
giver,yeah,['q8ec3.g.move.133'],['reply_y']
follower,right,['q8ec3.f.move.134'],['acknowledge']
giver,right and do you have crane bay marked,"['q8ec3.g.move.135', 'q8ec3.g.move.136']","['ready', 'query_yn']"
follower,mmhmm,['q8ec3.f.move.137'],['reply_y']
giver,,['q8ec3.g.move.137.5'],[]
follower,,['q8ec3.f.move.138.5'],[]
giver,and eh is is it curved,['q8ec3.g.move.138'],['query_yn']
follower,aye,['q8ec3.f.move.139'],['reply_y']
giver,,['q8ec3.g.move.139.5'],[]
follower,,['q8ec3.f.move.140.5'],[]
giver,"where about u-- up above the ""b""","['q8ec3.g.move.140', 'q8ec3.g.move.141.5']",['query_yn']
follower,aye,"['q8ec3.f.move.141', 'q8ec3.f.move.142.5']",['reply_y']
giver,of bay,['q8ec3.g.move.142'],['query_yn']
follower,mmhmm,['q8ec3.f.move.143'],['reply_y']
giver,,['q8ec3.g.move.143.5'],[]
follower,,['q8ec3.f.move.144.5'],[]
giver,"well follow that curve round until you get above the ""r"" vertically down from the boat house and curve round 'til you get to the ""r""",['q8ec3.g.move.144'],['instruct']
follower,right,"['q8ec3.f.move.145', 'q8ec3.f.move.147.5']",['acknowledge']
giver,right,['q8ec3.g.move.147'],['align']
follower,got it,['q8ec3.f.move.148'],['acknowledge']
giver,do you have a coconut palm,['q8ec3.g.move.149'],['query_yn']
follower,no,['q8ec3.f.move.150'],['reply_n']
giver,,['q8ec3.g.move.150.5'],[]
follower,,['q8ec3.f.move.151.5'],[]
giver,a pebbled shore,"['q8ec3.g.move.151', 'q8ec3.g.move.152.5']",['query_yn']
follower,aye,['q8ec3.f.move.152'],['reply_y']
giver,right,['q8ec3.g.move.153'],['acknowledge']
follower,,['q8ec3.f.move.154.5'],[]
giver,,"['q8ec3.g.move.153.5', 'q8ec3.g.move.155.5']",[]
follower,mmhmm,['q8ec3.f.move.155'],['acknowledge']
giver,then you're going,"['q8ec3.g.move.156', 'q8ec3.g.move.158.5']",['instruct']
follower,follow it quite close,"['q8ec3.f.move.157', 'q8ec3.f.move.159.5']",['check']
giver,no not terribly close,"['q8ec3.g.move.159', 'q8ec3.g.move.160.5']",['reply_n']
follower,right,"['q8ec3.f.move.160', 'q8ec3.f.move.161.5']",['acknowledge']
giver,and then you're going to the left of the pebbled shore,"['q8ec3.g.move.161', 'q8ec3.g.move.162.5']",['instruct']
follower,above it,"['q8ec3.f.move.162', 'q8ec3.f.move.164.5']",['check']
giver,uh-huh,"['q8ec3.g.move.163', 'q8ec3.g.move.165.5']",['reply_y']
follower,right,"['q8ec3.f.move.165', 'q8ec3.f.move.166.5']",['acknowledge']
giver,okay,['q8ec3.g.move.166'],['align']
follower,mmhmm,['q8ec3.f.move.167'],['reply_y']
giver,do you have something underneath the pebbled shore,"['q8ec3.g.move.168', 'q8ec3.g.move.169.5']",['query_w']
follower,washed stones,['q8ec3.f.move.169'],['reply_w']
giver,right i don't have these,"['q8ec3.g.move.170', 'q8ec3.g.move.171']","['acknowledge', 'explain']"
follower,,['q8ec3.f.move.173.5'],[]
giver,,"['q8ec3.g.move.171.5', 'q8ec3.g.move.174.5']",[]
follower,right,"['q8ec3.f.move.174', 'q8ec3.f.move.175.5']",['reply_y']
giver,within a centimetre of the edge of the page,"['q8ec3.g.move.175', 'q8ec3.g.move.176.5']",['instruct']
follower,right,['q8ec3.f.move.176'],['acknowledge']
giver,do you have a flagship,"['q8ec3.g.move.177', 'q8ec3.g.move.178.5']",['query_yn']
follower,yes,"['q8ec3.f.move.178', 'q8ec3.f.move.180.5']",['reply_y']
giver,right,"['q8ec3.g.move.179', 'q8ec3.g.move.181.5']",['ready']
follower,right i'm down i'm at the bottom of the pa--,"['q8ec3.f.move.181', 'q8ec3.f.move.185.5']",['explain']
giver,wait a minute,"['q8ec3.g.move.182', 'q8ec3.g.move.186.5']",['instruct']
follower,right,"['q8ec3.f.move.186', 'q8ec3.f.move.188.5']",['acknowledge']
giver,on the same line as the bottom of the flagship,"['q8ec3.g.move.187', 'q8ec3.g.move.189.5']",['explain']
follower,right,"['q8ec3.f.move.189', 'q8ec3.f.move.190.5']",['reply_y']
giver,it's about a centimetre inland,"['q8ec3.g.move.190', 'q8ec3.g.move.191.5']",['explain']
follower,right,"['q8ec3.f.move.191', 'q8ec3.f.move.192.5']",['acknowledge']
giver,and but you have to curve round the washed stones or whatever you've got there,"['q8ec3.g.move.192', 'q8ec3.g.move.193.5']",['instruct']
follower,right i will,['q8ec3.f.move.193'],['acknowledge']
giver,"and presumably ""x"" marks the spot","['q8ec3.g.move.194', 'q8ec3.g.move.195']","['uncodable', 'instruct']"
