speaker,sentence,move_id,label
giver,erm are you at the cross at the start,"['q8ec4.g.move.1', 'q8ec4.g.move.1.9']","['ready', 'align']"
follower,okay yeah,['q8ec4.f.move.2'],['reply_y']
giver,,['q8ec4.g.move.2.5'],[]
follower,,['q8ec4.f.move.4.5'],[]
giver,right so,"['q8ec4.g.move.3', 'q8ec4.g.move.5.5']",['ready']
follower,two inches to the my,"['q8ec4.f.move.5', 'q8ec4.f.move.8.5']",['check']
giver,about,"['q8ec4.g.move.6', 'q8ec4.g.move.11.5']",['uncodable']
follower,erm,"['q8ec4.f.move.9', 'q8ec4.f.move.12.5']",['uncodable']
giver,well it's two inches,"['q8ec4.g.move.12', 'q8ec4.g.move.14.5']",['reply_w']
follower,ten er to forty-five degrees slope,"['q8ec4.f.move.13', 'q8ec4.f.move.18.5']",['check']
giver,to the horizontal,"['q8ec4.g.move.15', 'q8ec4.g.move.20.5']",['reply_w']
follower,yeah,"['q8ec4.f.move.19', 'q8ec4.f.move.22.5']",['acknowledge']
giver,well,"['q8ec4.g.move.21', 'q8ec4.g.move.24.5']",['ready']
follower,no it's the map's turned round so it must be to my right as well if it's to your right it's to my right,"['q8ec4.f.move.23', 'q8ec4.f.move.24']","['reply_n', 'explain']"
giver,oh right sorry,['q8ec4.g.move.25'],['acknowledge']
follower,,['q8ec4.f.move.27.5'],[]
giver,,"['q8ec4.g.move.25.5', 'q8ec4.g.move.28.5']",[]
follower,erm right along or to an angle did you say,"['q8ec4.f.move.28', 'q8ec4.f.move.31.5']",['check']
giver,well i,"['q8ec4.g.move.29', 'q8ec4.g.move.32.5']",['ready']
follower,yeah,"['q8ec4.f.move.32', 'q8ec4.f.move.33.5']",['reply_y']
giver,and then let's say f-- ph thirty degrees up the way,"['q8ec4.g.move.33', 'q8ec4.g.move.36.5']",['instruct']
follower,up the way,"['q8ec4.f.move.34', 'q8ec4.f.move.37.5']",['check']
giver,so it's like an angle like that,"['q8ec4.g.move.37', 'q8ec4.g.move.38.5']",['clarify']
follower,up the way,"['q8ec4.f.move.38', 'q8ec4.f.move.39.5']",['check']
giver,oh dear,"['q8ec4.g.move.39', 'q8ec4.g.move.40.5']",['acknowledge']
follower,t-- do you have a lake,"['q8ec4.f.move.40', 'q8ec4.f.move.41.5']",['query_yn']
giver,uh-huh,"['q8ec4.g.move.41', 'q8ec4.g.move.43.5']",['reply_y']
follower,just above the start point right,['q8ec4.f.move.42'],['query_yn']
giver,right,['q8ec4.g.move.44'],['reply_y']
follower,how does it go from there,"['q8ec4.f.move.43', 'q8ec4.f.move.48.5']",['query_w']
giver,down below that,"['q8ec4.g.move.45', 'q8ec4.g.move.49.5']",['instruct']
follower,halfway,"['q8ec4.f.move.49', 'q8ec4.f.move.50.5']",['check']
giver,the b-- see where the bottom of the the bottom line of the lake,"['q8ec4.g.move.50', 'q8ec4.g.move.51.5']",['align']
follower,yeah er,['q8ec4.f.move.51'],['reply_y']
giver,right,"['q8ec4.g.move.52', 'q8ec4.g.move.53.5']",['acknowledge']
follower,to the right-hand side underneath it,"['q8ec4.f.move.53', 'q8ec4.f.move.54.5']",['check']
giver,uh-huh about a,"['q8ec4.g.move.54', 'q8ec4.g.move.55.5']",['reply_y']
follower,yeah,"['q8ec4.f.move.55', 'q8ec4.f.move.56.5']",['acknowledge']
giver,right,"['q8ec4.g.move.56', 'q8ec4.g.move.57.5']",['align']
follower,yeah,"['q8ec4.f.move.57', 'q8ec4.f.move.58.5']",['reply_y']
giver,about halfway under that,"['q8ec4.g.move.58', 'q8ec4.g.move.59.5']",['instruct']
follower,halfway well never mind,"['q8ec4.f.move.59', 'q8ec4.f.move.61.5']",['check']
giver,right,"['q8ec4.g.move.60', 'q8ec4.g.move.62.5']",['ready']
follower,oh you mean halfway from just where i would be if i went across oh no,"['q8ec4.f.move.62', 'q8ec4.f.move.64.5']",['check']
giver,right,"['q8ec4.g.move.63', 'q8ec4.g.move.65.5']",['ready']
follower,right,"['q8ec4.f.move.65', 'q8ec4.f.move.66.5']",['reply_y']
giver,halfway along that,['q8ec4.g.move.66'],['clarify']
follower,halfway along okay,['q8ec4.f.move.67'],['acknowledge']
giver,,['q8ec4.g.move.67.5'],[]
follower,,['q8ec4.f.move.68.5'],[]
giver,right,['q8ec4.g.move.68'],['align']
follower,right,['q8ec4.f.move.69'],['acknowledge']
giver,and then,"['q8ec4.g.move.70', 'q8ec4.g.move.71.5']",['ready']
follower,straight down,['q8ec4.f.move.71'],['acknowledge']
giver,about,['q8ec4.g.move.72'],['ready']
follower,,['q8ec4.f.move.72.5'],[]
giver,,['q8ec4.g.move.72.4'],[]
follower,right i've got some allotments here,"['q8ec4.f.move.73', 'q8ec4.f.move.75.5']",['explain']
giver,er maybe five centimetres it sort curves round,"['q8ec4.g.move.72.9', 'q8ec4.g.move.75']","['instruct', 'reply_w']"
follower,curves round okay right,['q8ec4.f.move.76'],['acknowledge']
giver,and then then,"['q8ec4.g.move.77', 'q8ec4.g.move.78.5']",['instruct']
follower,along to your right,"['q8ec4.f.move.78', 'q8ec4.f.move.79.5']",['check']
giver,"it's like an ""s"" shape right but n-- not like a steep ""s"" shape like a sort er sort stretched out ""s"" shape",['q8ec4.g.move.79'],['instruct']
follower,right,['q8ec4.f.move.80'],['acknowledge']
giver,,['q8ec4.g.move.80.5'],[]
follower,,['q8ec4.f.move.81.5'],[]
giver,a wee bit ehm 'til you're about er halfway down the page when you get to the bottom curve that comes back out the way,"['q8ec4.g.move.81', 'q8ec4.g.move.82.5']",['instruct']
follower,erm do i go along right,"['q8ec4.f.move.82', 'q8ec4.f.move.83.5']",['query_yn']
giver,and then you go to your left,"['q8ec4.g.move.83', 'q8ec4.g.move.84.5']",['reply_w']
follower,go to my left,['q8ec4.f.move.84'],['check']
giver,for about er five centimetres,['q8ec4.g.move.85'],['reply_w']
follower,,['q8ec4.f.move.85.5'],[]
giver,,['q8ec4.g.move.86.5'],[]
follower,is there an obstacle down at the bottom left-hand corner of your page,['q8ec4.f.move.86'],['query_yn']
giver,er but you shouldn't be down there this is you're over on the right-hand side at the right-hand si-- half of your page,"['q8ec4.g.move.87', 'q8ec4.g.move.88']","['reply_w', 'instruct']"
follower,erm well,"['q8ec4.f.move.89', 'q8ec4.f.move.92.5']",['ready']
giver,no it's east lake at the start of mine,"['q8ec4.g.move.91', 'q8ec4.g.move.92']","['reply_n', 'explain']"
follower,oh,['q8ec4.f.move.93'],['acknowledge']
giver,,['q8ec4.g.move.94.5'],[]
follower,oh,"['q8ec4.f.move.93.4', 'q8ec4.f.move.98.2']",['uncodable']
giver,right well i don't have i don't know about,"['q8ec4.g.move.95', 'q8ec4.g.move.96']","['ready', 'reply_w']"
follower,,['q8ec4.f.move.98.4'],[]
giver,,"['q8ec4.g.move.96.5', 'q8ec4.g.move.102.5']",[]
follower,okay,"['q8ec4.f.move.98.5', 'q8ec4.f.move.103.5']",['ready']
giver,what do you want me to start again,['q8ec4.g.move.103'],['query_yn']
follower,yeah 'cause i've got a start underneath the west lake so i'm at,"['q8ec4.f.move.104', 'q8ec4.f.move.105']","['reply_y', 'explain']"
giver,oh do you know what i've been doing oh god,"['q8ec4.g.move.106', 'q8ec4.g.move.107.5']",['explain']
follower,what,['q8ec4.f.move.107'],['query_w']
giver,i've i've started from the finish that's why i wasnae even looking at that i just saw the cross er right,['q8ec4.g.move.108'],['reply_w']
follower,,['q8ec4.f.move.112.5'],[]
giver,,"['q8ec4.g.move.110.5', 'q8ec4.g.move.113.5']",[]
follower,right,['q8ec4.f.move.113'],['reply_y']
giver,i've went through the the other way round that's really stupid right eh,['q8ec4.g.move.114'],['explain']
follower,okay right,"['q8ec4.f.move.115', 'q8ec4.f.move.119.5']",['ready']
giver,so the start's about,"['q8ec4.g.move.117', 'q8ec4.g.move.121.5']",['explain']
follower,yeah no it's all right,['q8ec4.f.move.120'],['acknowledge']
giver,right,['q8ec4.g.move.122'],['acknowledge']
follower,i've got that marked on,['q8ec4.f.move.121'],['explain']
giver,,['q8ec4.g.move.123.5'],[]
follower,,"['q8ec4.f.move.122.5', 'q8ec4.f.move.124.5']",[]
giver,right well i've not got that,"['q8ec4.g.move.124', 'q8ec4.g.move.126']","['acknowledge', 'explain']"
follower,just above to the right,['q8ec4.f.move.125'],['explain']
giver,,['q8ec4.g.move.126.5'],[]
follower,,['q8ec4.f.move.129.5'],[]
giver,no wonder we're having problems there,"['q8ec4.g.move.127', 'q8ec4.g.move.130.5']",['explain']
follower,go to my left,"['q8ec4.f.move.130', 'q8ec4.f.move.131.5']",['acknowledge']
giver,about a centimetre,['q8ec4.g.move.131'],['instruct']
follower,oh w-- a centimetre right hold on right now a centimetre okay right,['q8ec4.f.move.132'],['acknowledge']
giver,,['q8ec4.g.move.132.5'],[]
follower,,['q8ec4.f.move.133.5'],[]
giver,and then go straight down,"['q8ec4.g.move.133', 'q8ec4.g.move.135.5']",['instruct']
follower,straight down,"['q8ec4.f.move.134', 'q8ec4.f.move.136.5']",['acknowledge']
giver,to about two centimetres from the bottom of the page,['q8ec4.g.move.136'],['reply_w']
follower,two centimetres from the bottom of the page okay,['q8ec4.f.move.137'],['acknowledge']
giver,then go to your right about eh five centimetres,['q8ec4.g.move.138'],['instruct']
follower,fffffff,['q8ec4.f.move.139'],['uncodable']
giver,and then go,['q8ec4.g.move.140'],['instruct']
follower,five centimetres right,"['q8ec4.f.move.139.9', 'q8ec4.f.move.140.5']",['acknowledge']
giver,,['q8ec4.g.move.141.5'],[]
follower,er ch do you have any an allotments,"['q8ec4.f.move.141', 'q8ec4.f.move.142.5']",['query_yn']
giver,uh-huh,['q8ec4.g.move.142'],['reply_y']
follower,allotments yeah,['q8ec4.f.move.143'],['acknowledge']
giver,,['q8ec4.g.move.145.5'],[]
follower,,"['q8ec4.f.move.143.5', 'q8ec4.f.move.147.5']",[]
giver,so you if you go straight up the way you'll be hitting the allotments so,"['q8ec4.g.move.146', 'q8ec4.g.move.147']","['instruct', 'reply_w']"
follower,yeah right yeah,['q8ec4.f.move.148'],['acknowledge']
giver,,['q8ec4.g.move.148.5'],[]
follower,,['q8ec4.f.move.150.5'],[]
giver,well s--,"['q8ec4.g.move.149', 'q8ec4.g.move.151.5']",['ready']
follower,just left,"['q8ec4.f.move.151', 'q8ec4.f.move.152.5']",['check']
giver,up about half a centimetre ef-- left,['q8ec4.g.move.152'],['clarify']
follower,okay right,['q8ec4.f.move.153'],['acknowledge']
giver,and then like curve round the top of the allotments,['q8ec4.g.move.154'],['instruct']
follower,okay,['q8ec4.f.move.155'],['acknowledge']
giver,,"['q8ec4.g.move.156', 'q8ec4.g.move.158.5']",['instruct']
follower,yeah,"['q8ec4.f.move.158', 'q8ec4.f.move.160.5']",['reply_y']
giver,go in an angle about thirty degrees up from that,"['q8ec4.g.move.159', 'q8ec4.g.move.161.5']",['instruct']
follower,from the left-hand side of the or the right-hand side of the allotments above the right-hand side,"['q8ec4.f.move.161', 'q8ec4.f.move.162.5']",['query_yn']
giver,above the right-hand side,"['q8ec4.g.move.162', 'q8ec4.g.move.163.5']",['reply_y']
follower,thirty degrees,"['q8ec4.f.move.163', 'q8ec4.f.move.164.5']",['check']
giver,roughly,['q8ec4.g.move.164'],['reply_y']
follower,thir--,['q8ec4.f.move.165'],['uncodable']
giver,,['q8ec4.g.move.165.5'],[]
follower,,['q8ec4.f.move.166.5'],[]
giver,and then say about ehm eh over to about two thirds of the way over the side of the page to the right,"['q8ec4.g.move.166', 'q8ec4.g.move.167.5']",['instruct']
follower,erm do you have a flight museum anywhere,"['q8ec4.f.move.167', 'q8ec4.f.move.168.5']",['query_yn']
giver,no,['q8ec4.g.move.168'],['reply_n']
follower,no two thirds right should be about there yeah okay,"['q8ec4.f.move.169', 'q8ec4.f.move.171']",['acknowledge']
giver,and then you go straight up say about er to about halfway up the page,['q8ec4.g.move.172'],['instruct']
follower,halfway up,['q8ec4.f.move.173'],['acknowledge']
giver,,['q8ec4.g.move.174.5'],[]
follower,,"['q8ec4.f.move.173.5', 'q8ec4.f.move.175.5']",[]
giver,mmhmm,['q8ec4.g.move.175'],['reply_y']
follower,there yeah,['q8ec4.f.move.176'],['acknowledge']
giver,,['q8ec4.g.move.176.5'],[]
follower,,['q8ec4.f.move.177.5'],[]
giver,so y-- right where you are at the moment's just like see where it says disused monastery right,['q8ec4.g.move.177'],['align']
follower,yeah,['q8ec4.f.move.178'],['reply_y']
giver,,['q8ec4.g.move.178.5'],[]
follower,,['q8ec4.f.move.179.5'],[]
giver,you should just be about next to that where it says that,['q8ec4.g.move.179'],['instruct']
follower,okay right and do i go underneath it or above it,"['q8ec4.f.move.180', 'q8ec4.f.move.181', 'q8ec4.f.move.184.5']","['acknowledge', 'query_w']"
giver,and then over the top of it,"['q8ec4.g.move.182', 'q8ec4.g.move.184']","['ready', 'reply_w']"
follower,over the top,['q8ec4.f.move.185'],['acknowledge']
giver,,['q8ec4.g.move.187.5'],[]
follower,,"['q8ec4.f.move.185.5', 'q8ec4.f.move.188.5']",[]
giver,round and then and then li-- when you're round the side of that a l-- a straight line to about er maybe ten centimetres out from the side the left-hand side of the page,['q8ec4.g.move.188'],['instruct']
follower,six centimetres right do you have an alpine garden just above you,"['q8ec4.f.move.189', 'q8ec4.f.move.190', 'q8ec4.f.move.191.5']","['acknowledge', 'query_yn']"
giver,uh-huh,['q8ec4.g.move.191'],['reply_y']
follower,yes,['q8ec4.f.move.192'],['acknowledge']
giver,,['q8ec4.g.move.193.5'],[]
follower,how does it go,"['q8ec4.f.move.193', 'q8ec4.f.move.197.5']",['query_w']
giver,so you it goes to the left of that,"['q8ec4.g.move.194', 'q8ec4.g.move.197']","['instruct', 'reply_w']"
follower,to the left okay,['q8ec4.f.move.198'],['acknowledge']
giver,,['q8ec4.g.move.198.5'],[]
follower,,['q8ec4.f.move.199.5'],[]
giver,so and then you're up to the top of the alpine garden,"['q8ec4.g.move.199', 'q8ec4.g.move.200.5']",['instruct']
follower,okay,['q8ec4.f.move.200'],['acknowledge']
giver,and then you go to your right about er five centimetres maybe,"['q8ec4.g.move.201', 'q8ec4.g.move.202.5']",['instruct']
follower,okay,['q8ec4.f.move.202'],['acknowledge']
giver,and then straight up,['q8ec4.g.move.203'],['instruct']
follower,,['q8ec4.f.move.204.5'],[]
giver,have you got a youth hostel,"['q8ec4.g.move.203.5', 'q8ec4.g.move.204']",['query_yn']
follower,no,['q8ec4.f.move.205'],['reply_n']
giver,,['q8ec4.g.move.206.5'],[]
follower,,"['q8ec4.f.move.205.5', 'q8ec4.f.move.208.5']",[]
giver,well it's sort directly above the alpine garden except a bit to the right so eh,"['q8ec4.g.move.207', 'q8ec4.g.move.208']","['ready', 'reply_w']"
follower,slightly to the right okay directly above it how much,"['q8ec4.f.move.209', 'q8ec4.f.move.210']","['acknowledge', 'query_w']"
giver,,['q8ec4.g.move.210.5'],[]
follower,,['q8ec4.f.move.212.5'],[]
giver,well where are you just now,"['q8ec4.g.move.211', 'q8ec4.g.move.212']","['ready', 'query_w']"
follower,erm about one centimetre from the side of the alpine garden that's above it and along one,['q8ec4.f.move.213'],['reply_w']
giver,,['q8ec4.g.move.213.5'],[]
follower,,['q8ec4.f.move.215.5'],[]
giver,"right go along a wee bit until see the ""d"" of the alpine garden on the in the ""d"" of the see where it says alpine garden","['q8ec4.g.move.214', 'q8ec4.g.move.215', 'q8ec4.g.move.215.9']","['ready', 'instruct', 'align']"
follower,yeah,['q8ec4.f.move.216'],['reply_y']
giver,,['q8ec4.g.move.216.5'],[]
follower,,['q8ec4.f.move.219.5'],[]
giver,right,"['q8ec4.g.move.217', 'q8ec4.g.move.220.5']",['ready']
follower,okay right,"['q8ec4.f.move.220', 'q8ec4.f.move.221.5']",['reply_y']
giver,about er maybe ffffphhhhh ten centimetres,"['q8ec4.g.move.221', 'q8ec4.g.move.222.5']",['instruct']
follower,right ten centimetres okay,['q8ec4.f.move.222'],['acknowledge']
giver,and then g-- go to your right about five centimetres,['q8ec4.g.move.223'],['instruct']
follower,and right five okay,"['q8ec4.f.move.222.9', 'q8ec4.f.move.224']","['ready', 'acknowledge']"
giver,and then erm,"['q8ec4.g.move.225', 'q8ec4.g.move.226.5']",['instruct']
follower,do you have a parked van just above this no,"['q8ec4.f.move.226', 'q8ec4.f.move.227.5']",['query_yn']
giver,aye just above that line,['q8ec4.g.move.227'],['reply_y']
follower,yeah,"['q8ec4.f.move.228', 'q8ec4.f.move.229.5']",['acknowledge']
giver,but you shouldn't be that near it you should be,"['q8ec4.g.move.229', 'q8ec4.g.move.230.5']",['instruct']
follower,no i'm,"['q8ec4.f.move.230', 'q8ec4.f.move.231.5']",['reply_n']
giver,right so the point you're at go er southeast,"['q8ec4.g.move.231', 'q8ec4.g.move.232.5']",['instruct']
follower,southeast okay,"['q8ec4.f.move.232', 'q8ec4.f.move.233.5']",['acknowledge']
giver,about er until you get to about halfway down the middle of the page and then go straight for five centimetres,"['q8ec4.g.move.233', 'q8ec4.g.move.235', 'q8ec4.g.move.236.5']",['instruct']
follower,okay southeast okay right,"['q8ec4.f.move.234', 'q8ec4.f.move.236']",['acknowledge']
giver,or then,['q8ec4.g.move.237'],['instruct']
follower,,['q8ec4.f.move.237.5'],[]
giver,,['q8ec4.g.move.238.5'],[]
follower,is there a telephone box there,['q8ec4.f.move.238'],['query_yn']
giver,uh-huh so skirt round the bottom,"['q8ec4.g.move.239', 'q8ec4.g.move.241']","['reply_y', 'instruct']"
follower,,['q8ec4.f.move.239.5'],[]
giver,,['q8ec4.g.move.241.5'],[]
follower,yeah just under the telephone box,"['q8ec4.f.move.240', 'q8ec4.f.move.242.5']",['check']
giver,uh-huh,['q8ec4.g.move.242'],['reply_y']
follower,yeah,['q8ec4.f.move.243'],['acknowledge']
giver,and then go straight up,"['q8ec4.g.move.244', 'q8ec4.g.move.245.5']",['instruct']
follower,straight up to the east lake,['q8ec4.f.move.245'],['query_yn']
giver,just about the top of the,['q8ec4.g.move.246'],['reply_w']
follower,,['q8ec4.f.move.246.5'],[]
giver,,['q8ec4.g.move.247.5'],[]
follower,over the top of the,['q8ec4.f.move.247'],['query_yn']
giver,no no,['q8ec4.g.move.248'],['reply_n']
follower,,['q8ec4.f.move.250.5'],[]
giver,,"['q8ec4.g.move.248.5', 'q8ec4.g.move.251.5']",[]
follower,the top of the telephone box,"['q8ec4.f.move.251', 'q8ec4.f.move.252.5']",['reply_y']
giver,to level with that,['q8ec4.g.move.252'],['instruct']
follower,yeah okay,['q8ec4.f.move.253'],['acknowledge']
giver,and then er,"['q8ec4.g.move.254', 'q8ec4.g.move.255.5']",['ready']
follower,northwest,['q8ec4.f.move.255'],['acknowledge']
giver,until you're about a third of the way,['q8ec4.g.move.256'],['instruct']
follower,,['q8ec4.f.move.256.5'],[]
giver,,['q8ec4.g.move.257.5'],[]
follower,is there a level crossing there,"['q8ec4.f.move.257', 'q8ec4.f.move.258.5']",['query_yn']
giver,no no say that,['q8ec4.g.move.258'],['reply_n']
follower,no,"['q8ec4.f.move.259', 'q8ec4.f.move.262.5']",['acknowledge']
giver,if you see what i mean,"['q8ec4.g.move.259.5', 'q8ec4.g.move.262']",['align']
follower,okay northwest i have a level crossing just at this point,"['q8ec4.f.move.263', 'q8ec4.f.move.265']","['reply_y', 'explain']"
giver,well,"['q8ec4.g.move.266', 'q8ec4.g.move.269.5']",['ready']
follower,straight up after that,['q8ec4.f.move.269'],['acknowledge']
giver,until you get to the bottom of the east lake and then you go to the have you got a finish,"['q8ec4.g.move.270', 'q8ec4.g.move.271']","['instruct', 'query_yn']"
follower,okay right,['q8ec4.f.move.272'],['acknowledge']
giver,,['q8ec4.g.move.272.5'],[]
follower,,['q8ec4.f.move.273.5'],[]
giver,and then go to your left that sh-- should be you finished,"['q8ec4.g.move.273', 'q8ec4.g.move.274.5']",['instruct']
follower,go to my left,"['q8ec4.f.move.274', 'q8ec4.f.move.276.5']",['check']
giver,mmhmm,"['q8ec4.g.move.275', 'q8ec4.g.move.277.5']",['reply_y']
follower,okay,"['q8ec4.f.move.277', 'q8ec4.f.move.278.5']",['acknowledge']
giver,three centimetres from that four centimetres maybe i don't know,"['q8ec4.g.move.278', 'q8ec4.g.move.280']",['instruct']
follower,okay right,"['q8ec4.f.move.279', 'q8ec4.f.move.281']","['acknowledge', 'instruct']"
giver,,['q8ec4.g.move.281.5'],[]
follower,,['q8ec4.f.move.282.5'],[]
giver,that should be it finished,['q8ec4.g.move.282'],['instruct']
follower,okay a-- after that,['q8ec4.f.move.283'],['acknowledge']
