speaker,sentence,move_id,label
giver,ehm do you have the start yeah,"['q8nc8.g.move.1', 'q8nc8.g.move.2.5']",['query_yn']
follower,uh-huh right,"['q8nc8.f.move.2', 'q8nc8.f.move.3.5']",['reply_y']
giver,,"['q8nc8.g.move.3', 'q8nc8.g.move.6.5']",['query_yn']
follower,in the up at,"['q8nc8.f.move.4', 'q8nc8.f.move.7.5']",['check']
giver,yeah,"['q8nc8.g.move.7', 'q8nc8.g.move.8.5']",['reply_y']
follower,mine right,['q8nc8.f.move.8'],['acknowledge']
giver,ah right,['q8nc8.g.move.9'],['acknowledge']
follower,,['q8nc8.f.move.10.5'],[]
giver,,"['q8nc8.g.move.9.5', 'q8nc8.g.move.12.5']",[]
follower,okay straight down,"['q8nc8.f.move.11', 'q8nc8.f.move.12']","['acknowledge', 'check']"
giver,yeah and then along,"['q8nc8.g.move.13', 'q8nc8.g.move.14', 'q8nc8.g.move.16.5']","['reply_y', 'instruct']"
follower,no,['q8nc8.f.move.16'],['reply_n']
giver,no,['q8nc8.g.move.17'],['acknowledge']
follower,,['q8nc8.f.move.18.5'],[]
giver,,"['q8nc8.g.move.17.5', 'q8nc8.g.move.21.5']",[]
follower,uh-huh uh-huh,"['q8nc8.f.move.19', 'q8nc8.f.move.21']",['reply_y']
giver,yeah,['q8nc8.g.move.22'],['acknowledge']
follower,,['q8nc8.f.move.27.5'],[]
giver,,"['q8nc8.g.move.22.5', 'q8nc8.g.move.31.5']",[]
follower,right wait a minute,"['q8nc8.f.move.28', 'q8nc8.f.move.33.5']",['ready']
giver,uh-huh yeah,"['q8nc8.g.move.32', 'q8nc8.g.move.34.5']",['reply_y']
follower,right,"['q8nc8.f.move.34', 'q8nc8.f.move.35.5']",['acknowledge']
giver,yeah,['q8nc8.g.move.35'],['acknowledge']
follower,so i'm right,"['q8nc8.f.move.36', 'q8nc8.f.move.37']","['check', 'acknowledge']"
giver,,['q8nc8.g.move.37.5'],[]
follower,,['q8nc8.f.move.38.5'],[]
giver,"ehm from the ""e"" in mine","['q8nc8.g.move.38', 'q8nc8.g.move.39.5']",['instruct']
follower,uh-huh,"['q8nc8.f.move.39', 'q8nc8.f.move.40.5']",['acknowledge']
giver,i go another maybe six centimetres in the same direction,['q8nc8.g.move.40'],['instruct']
follower,mmhmm,['q8nc8.f.move.41'],['acknowledge']
giver,,['q8nc8.g.move.41.5'],[]
follower,,['q8nc8.f.move.42.5'],[]
giver,and then move if you move around and up to the left almost vertically but not quite,"['q8nc8.g.move.42', 'q8nc8.g.move.43.5']",['instruct']
follower,around,"['q8nc8.f.move.43', 'q8nc8.f.move.44.5']",['check']
giver,uh-huh,"['q8nc8.g.move.44', 'q8nc8.g.move.47.5']",['reply_y']
follower,so right i'm i'm at the moment i'm about halfway between the diamond and the highest viewpoint,"['q8nc8.f.move.45', 'q8nc8.f.move.49.5']",['align']
giver,yeah right,"['q8nc8.g.move.48', 'q8nc8.g.move.50.5']",['reply_y']
follower,right,"['q8nc8.f.move.50', 'q8nc8.f.move.51.5']",['acknowledge']
giver,and then up and around to the left almost vertically but not quite,"['q8nc8.g.move.51', 'q8nc8.g.move.52.5']",['instruct']
follower,right oh,"['q8nc8.f.move.52', 'q8nc8.f.move.53.5']",['acknowledge']
giver,'til you get to about level with the bottom of the mountain or hill,"['q8nc8.g.move.53', 'q8nc8.g.move.54.5']",['instruct']
follower,oh right okay mmhmm,['q8nc8.f.move.54'],['acknowledge']
giver,okay,['q8nc8.g.move.55'],['align']
follower,,['q8nc8.f.move.56.5'],[]
giver,,"['q8nc8.g.move.55.5', 'q8nc8.g.move.57.5']",[]
follower,so wait a minute i'm going right round the top of the mountain then,"['q8nc8.f.move.57', 'q8nc8.f.move.58.5']",['check']
giver,uh-huh uh-huh,"['q8nc8.g.move.58', 'q8nc8.g.move.59.5']",['reply_y']
follower,a cu-- just curving right round,"['q8nc8.f.move.59', 'q8nc8.f.move.62.5']",['check']
giver,yeah you got that yeah,"['q8nc8.g.move.60', 'q8nc8.g.move.62']","['reply_y', 'align']"
follower,uh-huh,['q8nc8.f.move.63'],['reply_y']
giver,right,"['q8nc8.g.move.64', 'q8nc8.g.move.66.5']",['ready']
follower,just just ver-- straight down,"['q8nc8.f.move.66', 'q8nc8.f.move.68.5']",['check']
giver,just vertically down yeah,"['q8nc8.g.move.67', 'q8nc8.g.move.69.5']",['reply_y']
follower,have you got the overgrown gully,"['q8nc8.f.move.69', 'q8nc8.f.move.70.5']",['query_yn']
giver,no,"['q8nc8.g.move.70', 'q8nc8.g.move.72.5']",['reply_n']
follower,all right,"['q8nc8.f.move.71', 'q8nc8.f.move.74.5']",['acknowledge']
giver,yeah,"['q8nc8.g.move.73', 'q8nc8.g.move.75.5']",['reply_y']
follower,to the right of it,"['q8nc8.f.move.75', 'q8nc8.f.move.78.5']",['query_yn']
giver,yeah yeah,"['q8nc8.g.move.76', 'q8nc8.g.move.78']",['reply_y']
follower,right,['q8nc8.f.move.79'],['acknowledge']
giver,and move down about forty-five degrees to the left,"['q8nc8.g.move.80', 'q8nc8.g.move.80.5']",['instruct']
follower,right,"['q8nc8.f.move.82', 'q8nc8.f.move.82.4']",['acknowledge']
giver,do you have the field station,"['q8nc8.g.move.81', 'q8nc8.g.move.82.5']",['query_yn']
follower,no oh,"['q8nc8.f.move.82.9', 'q8nc8.f.move.84.5']",['reply_n']
giver,no,"['q8nc8.g.move.83', 'q8nc8.g.move.86.5']",['acknowledge']
follower,right,"['q8nc8.f.move.85', 'q8nc8.f.move.87.5']",['acknowledge']
giver,yeah yeah,"['q8nc8.g.move.87', 'q8nc8.g.move.88.5']",['reply_y']
follower,so going down but to the left at the same time,"['q8nc8.f.move.88', 'q8nc8.f.move.90.5']",['check']
giver,mmhmm when you stop you should be about two centimetres from safari truck and a wee bit below it,"['q8nc8.g.move.89', 'q8nc8.g.move.90']","['reply_y', 'clarify']"
follower,right,['q8nc8.f.move.91'],['acknowledge']
giver,okay,"['q8nc8.g.move.92', 'q8nc8.g.move.94.5']",['ready']
follower,in what way horizontal straight across,"['q8nc8.f.move.94', 'q8nc8.f.move.96.5']",['query_yn']
giver,yeah,"['q8nc8.g.move.95', 'q8nc8.g.move.97.5']",['reply_y']
follower,uh-huh,"['q8nc8.f.move.97', 'q8nc8.f.move.99.5']",['reply_y']
giver,right,"['q8nc8.g.move.98', 'q8nc8.g.move.101.5']",['ready']
follower,right okay,"['q8nc8.f.move.100', 'q8nc8.f.move.102.5']",['acknowledge']
giver,mmhmm,"['q8nc8.g.move.102', 'q8nc8.g.move.103.5']",['reply_y']
follower,and then round,['q8nc8.f.move.103'],['check']
giver,the top of the banana tree and down on the left-hand side of it,"['q8nc8.g.move.104', 'q8nc8.g.move.105', 'q8nc8.g.move.106.5']","['reply_y', 'instruct']"
follower,mmhmm,"['q8nc8.f.move.106', 'q8nc8.f.move.107.5']",['acknowledge']
giver,for about twenty centimetres,"['q8nc8.g.move.107', 'q8nc8.g.move.109.5']",['instruct']
follower,all right,"['q8nc8.f.move.108', 'q8nc8.f.move.110.5']",['acknowledge']
giver,yeah,"['q8nc8.g.move.110', 'q8nc8.g.move.111.5']",['reply_y']
follower,have you got the,"['q8nc8.f.move.111', 'q8nc8.f.move.112.5']",['query_yn']
giver,,"['q8nc8.g.move.112', 'q8nc8.g.move.113.5']",['query_yn']
follower,no,"['q8nc8.f.move.113', 'q8nc8.f.move.115.5']",['reply_n']
giver,no,"['q8nc8.g.move.114', 'q8nc8.g.move.117.5']",['acknowledge']
follower,i've got the rock fall,"['q8nc8.f.move.116', 'q8nc8.f.move.118.5']",['explain']
giver,no,"['q8nc8.g.move.118', 'q8nc8.g.move.123.5']",['reply_n']
follower,oh,"['q8nc8.f.move.119', 'q8nc8.f.move.125.5']",['acknowledge']
giver,no i don't have,"['q8nc8.g.move.124', 'q8nc8.g.move.124.5']",['reply_n']
follower,oh right,"['q8nc8.f.move.126', 'q8nc8.f.move.127.5']",['acknowledge']
giver,yes sorry i do,"['q8nc8.g.move.125', 'q8nc8.g.move.128.5']",['reply_y']
follower,so i'm am i still a good bit above the great lake,"['q8nc8.f.move.128', 'q8nc8.f.move.129.5']",['query_yn']
giver,you're about i'd say about ten fifteen centimetres above the great lake,['q8nc8.g.move.129'],['reply_w']
follower,right okay okay,"['q8nc8.f.move.130', 'q8nc8.f.move.130.9']",['acknowledge']
giver,right ehm,"['q8nc8.g.move.131', 'q8nc8.g.move.135.5']",['ready']
follower,ehm uh-huh,"['q8nc8.f.move.134', 'q8nc8.f.move.137.5']",['reply_y']
giver,uh-huh that's right if you move along horizontally about three or four centimetres,"['q8nc8.g.move.136', 'q8nc8.g.move.137']","['acknowledge', 'instruct']"
follower,mmhmm,['q8nc8.f.move.138'],['acknowledge']
giver,,['q8nc8.g.move.138.5'],[]
follower,,['q8nc8.f.move.139.5'],[]
giver,and then once you've done that move up to the rope bridge just from where you are to the rope bridge and then cross it,['q8nc8.g.move.139'],['instruct']
follower,sort diagonally right,"['q8nc8.f.move.140', 'q8nc8.f.move.142.9']","['check', 'acknowledge']"
giver,do you have the giraffes,['q8nc8.g.move.143'],['query_yn']
follower,uh-huh,['q8nc8.f.move.144'],['reply_y']
giver,,['q8nc8.g.move.145.5'],[]
follower,i've also got some crocodiles,"['q8nc8.f.move.145', 'q8nc8.f.move.146.5']",['explain']
giver,ehm once you've crossed the rope bridge if you move out in the same direction,"['q8nc8.g.move.146', 'q8nc8.g.move.147.5']",['instruct']
follower,mmhmm,"['q8nc8.f.move.147', 'q8nc8.f.move.148.5']",['acknowledge']
giver,curving round a little to maybe two centimetres or so,['q8nc8.g.move.148'],['instruct']
follower,right mmhmm,"['q8nc8.f.move.149', 'q8nc8.f.move.151']",['acknowledge']
giver,,['q8nc8.g.move.151.5'],[]
follower,,['q8nc8.f.move.152.5'],[]
giver,and then move vertically down to the giraffes,['q8nc8.g.move.152'],['instruct']
follower,right,['q8nc8.f.move.153'],['acknowledge']
giver,,['q8nc8.g.move.155.5'],[]
follower,so i'm at the the right of the giraffes,"['q8nc8.f.move.153.5', 'q8nc8.f.move.155']",['align']
giver,mmhmm,['q8nc8.g.move.156'],['reply_y']
follower,okay so,"['q8nc8.f.move.157', 'q8nc8.f.move.159.5']",['ready']
giver,"ehm you sh-- you should be around about at the ""s"" in giraffe about a centimetre below it",['q8nc8.g.move.159'],['instruct']
follower,okay,['q8nc8.f.move.160'],['acknowledge']
giver,,['q8nc8.g.move.160.5'],[]
follower,,['q8nc8.f.move.161.5'],[]
giver,and then curve round slightly for about four five centimetres,"['q8nc8.g.move.161', 'q8nc8.g.move.162.5']",['instruct']
follower,what going going left,"['q8nc8.f.move.162', 'q8nc8.f.move.163.5']",['query_yn']
giver,going left sorry yeah,"['q8nc8.g.move.163', 'q8nc8.g.move.164.5']",['reply_y']
follower,so curving up the way,"['q8nc8.f.move.164', 'q8nc8.f.move.165.5']",['query_yn']
giver,no curving down,['q8nc8.g.move.165'],['reply_n']
follower,right,['q8nc8.f.move.166'],['acknowledge']
giver,,['q8nc8.g.move.167.5'],[]
follower,have you got the disused warehouse,['q8nc8.f.move.167'],['query_yn']
giver,no i don't,['q8nc8.g.move.168'],['reply_n']
follower,,['q8nc8.f.move.168.5'],[]
giver,,['q8nc8.g.move.170.5'],[]
follower,right am i going quite near the bottom of the page here then,"['q8nc8.f.move.169', 'q8nc8.f.move.170']","['ready', 'query_yn']"
giver,no once you once you've moved you should be about maybe five centimetres from bottom of page and start to curve up the way instead but still going left,"['q8nc8.g.move.171', 'q8nc8.g.move.172', 'q8nc8.g.move.173', 'q8nc8.g.move.175.5']","['reply_n', 'reply_w', 'instruct']"
follower,right,"['q8nc8.f.move.174', 'q8nc8.f.move.176.5']",['acknowledge']
giver,mmhmm,['q8nc8.g.move.176'],['acknowledge']
follower,right,['q8nc8.f.move.177'],['acknowledge']
giver,and move that down almost vertically down but not quite for about two centimetres,"['q8nc8.g.move.178', 'q8nc8.g.move.179.5']",['instruct']
follower,wait a minute where am i in relation to the great lake now then well i mean,"['q8nc8.f.move.179', 'q8nc8.f.move.180.5']",['query_w']
giver,you should be about,"['q8nc8.g.move.180', 'q8nc8.g.move.181.5']",['reply_w']
follower,at the moment i'm about level with the great lake but about th-- two three centimetres to the right of it,"['q8nc8.f.move.181', 'q8nc8.f.move.182.5']",['explain']
giver,mm that's about okay,['q8nc8.g.move.182'],['acknowledge']
follower,right,['q8nc8.f.move.183'],['acknowledge']
giver,if you come down so you're about a centimetre below the great lake and just move underneath the great lake,"['q8nc8.g.move.184', 'q8nc8.g.move.188.5']",['instruct']
follower,so i'm going back down again,"['q8nc8.f.move.185', 'q8nc8.f.move.190.5']",['check']
giver,"straight across until you get to the ""g""","['q8nc8.g.move.189', 'q8nc8.g.move.190']","['reply_y', 'instruct']"
follower,uh-huh,"['q8nc8.f.move.191', 'q8nc8.f.move.192']","['explain', 'acknowledge']"
giver,and if you curve up to the left ehm about five centimetres,"['q8nc8.g.move.193', 'q8nc8.g.move.195.5']",['instruct']
follower,uh-huh,"['q8nc8.f.move.195', 'q8nc8.f.move.197.5']",['reply_y']
giver,right,"['q8nc8.g.move.196', 'q8nc8.g.move.199.5']",['ready']
follower,right,"['q8nc8.f.move.198', 'q8nc8.f.move.200.5']",['acknowledge']
giver,yeah,['q8nc8.g.move.200'],['acknowledge']
follower,right,['q8nc8.f.move.201'],['acknowledge']
