speaker,sentence,move_id,label
giver,right ehm have you got the camera shop there,"['q8nc6.g.move.1', 'q8nc6.g.move.2']","['ready', 'query_yn']"
follower,yeah,['q8nc6.f.move.3'],['reply_y']
giver,,['q8nc6.g.move.3.5'],[]
follower,,['q8nc6.f.move.5.5'],[]
giver,right,"['q8nc6.g.move.4', 'q8nc6.g.move.6.5']",['ready']
follower,no,"['q8nc6.f.move.6', 'q8nc6.f.move.7.5']",['reply_n']
giver,no,"['q8nc6.g.move.7', 'q8nc6.g.move.8.5']",['check']
follower,yeah sorry i have i have yeah,['q8nc6.f.move.8'],['reply_y']
giver,below it,"['q8nc6.g.move.9', 'q8nc6.g.move.11.5']",['check']
follower,,['q8nc6.f.move.13.5'],[]
giver,right ehm,"['q8nc6.g.move.12', 'q8nc6.g.move.14.5']",['ready']
follower,oh no i don't have the parked i've got a different parked van,"['q8nc6.f.move.14', 'q8nc6.f.move.15.5']",['explain']
giver,does it say parked van,"['q8nc6.g.move.15', 'q8nc6.g.move.16.5']",['query_yn']
follower,not down here no,"['q8nc6.f.move.16', 'q8nc6.f.move.19.5']",['reply_n']
giver,oh christ right,"['q8nc6.g.move.17', 'q8nc6.g.move.20.5']",['ready']
follower,mmhmm,"['q8nc6.f.move.20', 'q8nc6.f.move.21.5']",['reply_y']
giver,down about ten centimetres,"['q8nc6.g.move.21', 'q8nc6.g.move.22.5']",['instruct']
follower,right,"['q8nc6.f.move.22', 'q8nc6.f.move.23.5']",['acknowledge']
giver,okay,['q8nc6.g.move.23'],['align']
follower,mmhmm,['q8nc6.f.move.24'],['reply_y']
giver,then,"['q8nc6.g.move.25', 'q8nc6.g.move.28.5']",['ready']
follower,yeah,"['q8nc6.f.move.28', 'q8nc6.f.move.30.5']",['reply_y']
giver,right,"['q8nc6.g.move.29', 'q8nc6.g.move.31.5']",['ready']
follower,mmhmm,"['q8nc6.f.move.31', 'q8nc6.f.move.32.5']",['acknowledge']
giver,okay,['q8nc6.g.move.32'],['align']
follower,mmhmm,['q8nc6.f.move.33'],['reply_y']
giver,right then go straight up 'til you're at the top left-hand side of the allotments,"['q8nc6.g.move.34', 'q8nc6.g.move.35']","['ready', 'instruct']"
follower,right,['q8nc6.f.move.36'],['acknowledge']
giver,okay ehm now,"['q8nc6.g.move.37', 'q8nc6.g.move.39.5']",['ready']
follower,mmhmm,"['q8nc6.f.move.39', 'q8nc6.f.move.40.5']",['acknowledge']
giver,but not forty-five about twenty degrees right,"['q8nc6.g.move.40', 'q8nc6.g.move.41.5']",['instruct']
follower,mmhmm,"['q8nc6.f.move.41', 'q8nc6.f.move.42.5']",['acknowledge']
giver,ehm have you got a disused monastery,"['q8nc6.g.move.42', 'q8nc6.g.move.44.5']",['query_yn']
follower,no,"['q8nc6.f.move.43', 'q8nc6.f.move.47.5']",['reply_n']
giver,yeah,"['q8nc6.g.move.45', 'q8nc6.g.move.48.5']",['check']
follower,right got you,['q8nc6.f.move.48'],['reply_y']
giver,right,['q8nc6.g.move.49'],['acknowledge']
follower,,['q8nc6.f.move.50.5'],[]
giver,,"['q8nc6.g.move.49.4', 'q8nc6.g.move.51.5']",[]
follower,mmhmm,"['q8nc6.f.move.51', 'q8nc6.f.move.52.5']",['acknowledge']
giver,okay,['q8nc6.g.move.52'],['align']
follower,right,['q8nc6.f.move.53'],['reply_y']
giver,have you got the alpine garden,['q8nc6.g.move.55'],['query_yn']
follower,mmhmm,['q8nc6.f.move.56'],['reply_y']
giver,,['q8nc6.g.move.56.5'],[]
follower,,['q8nc6.f.move.58.5'],[]
giver,right ehm go left 'til you're directly below the left-hand side of the alpine garden,"['q8nc6.g.move.57', 'q8nc6.g.move.58']","['ready', 'instruct']"
follower,got you,['q8nc6.f.move.59'],['acknowledge']
giver,yeah then up 'til you're at the top of the left-hand side of the alpine garden,"['q8nc6.g.move.60', 'q8nc6.g.move.61']","['ready', 'instruct']"
follower,right,['q8nc6.f.move.62'],['acknowledge']
giver,right,"['q8nc6.g.move.63', 'q8nc6.g.move.65.5']",['ready']
follower,no,['q8nc6.f.move.65'],['reply_n']
giver,no,['q8nc6.g.move.66'],['acknowledge']
follower,,['q8nc6.f.move.68.5'],[]
giver,,"['q8nc6.g.move.66.5', 'q8nc6.g.move.69.5']",[]
follower,right,"['q8nc6.f.move.69', 'q8nc6.f.move.70.5']",['acknowledge']
giver,okay,['q8nc6.g.move.70'],['align']
follower,mmhmm,['q8nc6.f.move.71'],['reply_y']
giver,up about five centimetres,"['q8nc6.g.move.72', 'q8nc6.g.move.73.5']",['instruct']
follower,directly up,"['q8nc6.f.move.73', 'q8nc6.f.move.74.5']",['check']
giver,straight up,"['q8nc6.g.move.74', 'q8nc6.g.move.75.5']",['reply_y']
follower,right,['q8nc6.f.move.75'],['acknowledge']
giver,okay,['q8nc6.g.move.76'],['align']
follower,,['q8nc6.f.move.77.5'],[]
giver,,"['q8nc6.g.move.76.5', 'q8nc6.g.move.78.5']",[]
follower,mmhmm,['q8nc6.f.move.78'],['acknowledge']
giver,okay,['q8nc6.g.move.79'],['align']
follower,,['q8nc6.f.move.80.5'],[]
giver,got the telephone box,"['q8nc6.g.move.79.5', 'q8nc6.g.move.80']",['query_yn']
follower,yeah,['q8nc6.f.move.81'],['reply_y']
giver,,['q8nc6.g.move.81.5'],[]
follower,,['q8nc6.f.move.83.5'],[]
giver,okay,"['q8nc6.g.move.82', 'q8nc6.g.move.84.5']",['ready']
follower,right,"['q8nc6.f.move.84', 'q8nc6.f.move.85.5']",['acknowledge']
giver,okay,['q8nc6.g.move.85'],['align']
follower,got you,['q8nc6.f.move.86'],['reply_y']
giver,then along the bottom of the word,['q8nc6.g.move.87'],['instruct']
follower,mmhmm,['q8nc6.f.move.88'],['acknowledge']
giver,okay have you got the thatched mud hut,"['q8nc6.g.move.89', 'q8nc6.g.move.90']","['ready', 'query_yn']"
follower,no,['q8nc6.f.move.91'],['reply_n']
giver,,['q8nc6.g.move.91.5'],[]
follower,,['q8nc6.f.move.92.5'],[]
giver,got the east lake though yeah,['q8nc6.g.move.92'],['query_yn']
follower,yeah,['q8nc6.f.move.93'],['reply_y']
giver,,['q8nc6.g.move.93.5'],[]
follower,,['q8nc6.f.move.95.5'],[]
giver,right ehm,"['q8nc6.g.move.94', 'q8nc6.g.move.96.5']",['ready']
follower,mmhmm,['q8nc6.f.move.96'],['acknowledge']
giver,okay,['q8nc6.g.move.97'],['align']
follower,,['q8nc6.f.move.98.5'],[]
giver,,"['q8nc6.g.move.97.5', 'q8nc6.g.move.99.5']",[]
follower,right,['q8nc6.f.move.99'],['acknowledge']
giver,okay then,"['q8nc6.g.move.100', 'q8nc6.g.move.101', 'q8nc6.g.move.103.5']","['align', 'ready']"
follower,right,"['q8nc6.f.move.103', 'q8nc6.f.move.104.5']",['acknowledge']
giver,okay,['q8nc6.g.move.104'],['align']
follower,uh-huh,['q8nc6.f.move.105'],['reply_y']
giver,then okay,"['q8nc6.g.move.106', 'q8nc6.g.move.108']","['ready', 'align']"
follower,mmhmm yeah,['q8nc6.f.move.109'],['reply_y']
giver,,['q8nc6.g.move.109.5'],[]
follower,,['q8nc6.f.move.110.5'],[]
giver,that's the finish i think,"['q8nc6.g.move.110', 'q8nc6.g.move.111.5']",['instruct']
follower,right,['q8nc6.f.move.111'],['acknowledge']
giver,yup,['q8nc6.g.move.112'],['acknowledge']
